B01001_001E,B01001_001EA,B01001_001M,B01001_001MA,B01001_002E,B01001_002EA,B01001_002M,B01001_002MA,B01001_003E,B01001_003EA,B01001_003M,B01001_003MA,B01001_004E,B01001_004EA,B01001_004M,B01001_004MA,B01001_005E,B01001_005EA,B01001_005M,B01001_005MA,B01001_006E,B01001_006EA,B01001_006M,B01001_006MA,B01001_007E,B01001_007EA,B01001_007M,B01001_007MA,B01001_008E,B01001_008EA,B01001_008M,B01001_008MA,B01001_009E,B01001_009EA,B01001_009M,B01001_009MA,B01001_010E,B01001_010EA,B01001_010M,B01001_010MA,B01001_011E,B01001_011EA,B01001_011M,B01001_011MA,B01001_012E,B01001_012EA,B01001_012M,B01001_012MA,B01001_013E,B01001_013EA,B01001_013M,B01001_013MA,B01001_014E,B01001_014EA,B01001_014M,B01001_014MA,B01001_015E,B01001_015EA,B01001_015M,B01001_015MA,B01001_016E,B01001_016EA,B01001_016M,B01001_016MA,B01001_017E,B01001_017EA,B01001_017M,B01001_017MA,B01001_018E,B01001_018EA,B01001_018M,B01001_018MA,B01001_019E,B01001_019EA,B01001_019M,B01001_019MA,B01001_020E,B01001_020EA,B01001_020M,B01001_020MA,B01001_021E,B01001_021EA,B01001_021M,B01001_021MA,B01001_022E,B01001_022EA,B01001_022M,B01001_022MA,B01001_023E,B01001_023EA,B01001_023M,B01001_023MA,B01001_024E,B01001_024EA,B01001_024M,B01001_024MA,B01001_025E,B01001_025EA,B01001_025M,B01001_025MA,B01001_026E,B01001_026EA,B01001_026M,B01001_026MA,B01001_027E,B01001_027EA,B01001_027M,B01001_027MA,B01001_028E,B01001_028EA,B01001_028M,B01001_028MA,B01001_029E,B01001_029EA,B01001_029M,B01001_029MA,B01001_030E,B01001_030EA,B01001_030M,B01001_030MA,B01001_031E,B01001_031EA,B01001_031M,B01001_031MA,B01001_032E,B01001_032EA,B01001_032M,B01001_032MA,B01001_033E,B01001_033EA,B01001_033M,B01001_033MA,B01001_034E,B01001_034EA,B01001_034M,B01001_034MA,B01001_035E,B01001_035EA,B01001_035M,B01001_035MA,B01001_036E,B01001_036EA,B01001_036M,B01001_036MA,B01001_037E,B01001_037EA,B01001_037M,B01001_037MA,B01001_038E,B01001_038EA,B01001_038M,B01001_038MA,B01001_039E,B01001_039EA,B01001_039M,B01001_039MA,B01001_040E,B01001_040EA,B01001_040M,B01001_040MA,B01001_041E,B01001_041EA,B01001_041M,B01001_041MA,B01001_042E,B01001_042EA,B01001_042M,B01001_042MA,B01001_043E,B01001_043EA,B01001_043M,B01001_043MA,B01001_044E,B01001_044EA,B01001_044M,B01001_044MA,B01001_045E,B01001_045EA,B01001_045M,B01001_045MA,B01001_046E,B01001_046EA,B01001_046M,B01001_046MA,B01001_047E,B01001_047EA,B01001_047M,B01001_047MA,B01001_048E,B01001_048EA,B01001_048M,B01001_048MA,B01001_049E,B01001_049EA,B01001_049M,B01001_049MA,NAME,region
55348937.0,,-555555555.0,*****,26897196.0,,1479.0,,1645819.0,,1013.0,,1696995.0,,6436.0,,1792150.0,,6502.0,,1157099.0,,849.0,,830213.0,,1295.0,,430590.0,,4634.0,,406079.0,,4498.0,,1095352.0,,5536.0,,1813641.0,,1095.0,,1701018.0,,1244.0,,1722314.0,,5507.0,,1922078.0,,5608.0,,2068232.0,,863.0,,2045099.0,,1051.0,,1781006.0,,6478.0,,649006.0,,5281.0,,845320.0,,5300.0,,477796.0,,3611.0,,596562.0,,3787.0,,776655.0,,3932.0,,604921.0,,3214.0,,464076.0,,3139.0,,375175.0,,3727.0,,28451741.0,,1479.0,,1571177.0,,841.0,,1636581.0,,6442.0,,1697728.0,,6671.0,,1097764.0,,766.0,,803435.0,,1368.0,,420941.0,,4663.0,,390525.0,,4266.0,,1061655.0,,4978.0,,1820480.0,,1027.0,,1735555.0,,829.0,,1781179.0,,6291.0,,1993122.0,,6392.0,,2162898.0,,915.0,,2150701.0,,871.0,,1899652.0,,5874.0,,712541.0,,5494.0,,942062.0,,5034.0,,545852.0,,4220.0,,696460.0,,4340.0,,958296.0,,3963.0,,823863.0,,4255.0,,728427.0,,3929.0,,820847.0,,4553.0,,Northeast Region,1
66941187.0,,-555555555.0,*****,32939606.0,,2772.0,,2195777.0,,1353.0,,2255617.0,,8002.0,,2314785.0,,8268.0,,1449669.0,,1273.0,,1010433.0,,1807.0,,508547.0,,4904.0,,491806.0,,4553.0,,1347481.0,,5959.0,,2218758.0,,2002.0,,2113355.0,,1912.0,,2082999.0,,7007.0,,2217983.0,,7027.0,,2421396.0,,1598.0,,2457169.0,,1656.0,,2167333.0,,6793.0,,786513.0,,4826.0,,1007597.0,,5791.0,,566886.0,,3628.0,,715968.0,,3799.0,,946192.0,,3948.0,,712379.0,,3666.0,,532652.0,,4086.0,,418311.0,,3180.0,,34001581.0,,2772.0,,2102825.0,,1630.0,,2166261.0,,6331.0,,2202280.0,,6544.0,,1374288.0,,1393.0,,957874.0,,1994.0,,495403.0,,5089.0,,475345.0,,5279.0,,1298606.0,,6797.0,,2185313.0,,1447.0,,2091381.0,,1603.0,,2075516.0,,7675.0,,2232209.0,,7899.0,,2462838.0,,1492.0,,2523389.0,,1105.0,,2257509.0,,6537.0,,829582.0,,5332.0,,1073498.0,,5424.0,,617623.0,,3255.0,,808777.0,,3869.0,,1123419.0,,4271.0,,943886.0,,4260.0,,808019.0,,3200.0,,895740.0,,4516.0,,Midwest Region,2
114773361.0,,-555555555.0,*****,56249649.0,,4530.0,,3907614.0,,2319.0,,3904927.0,,10163.0,,3944814.0,,10545.0,,2420474.0,,2088.0,,1710595.0,,3379.0,,901192.0,,7976.0,,869527.0,,6905.0,,2357199.0,,10072.0,,3917144.0,,2957.0,,3724756.0,,3285.0,,3745767.0,,10389.0,,3897554.0,,10508.0,,4066715.0,,2464.0,,3928782.0,,2292.0,,3424473.0,,9306.0,,1289387.0,,7047.0,,1714853.0,,7021.0,,994424.0,,5620.0,,1268960.0,,5988.0,,1647519.0,,6838.0,,1199721.0,,4827.0,,813246.0,,4614.0,,600006.0,,4002.0,,58523712.0,,4530.0,,3748613.0,,2340.0,,3756655.0,,10059.0,,3759438.0,,10357.0,,2293120.0,,2061.0,,1625895.0,,3979.0,,854322.0,,7381.0,,828378.0,,8033.0,,2286637.0,,10050.0,,3907285.0,,2870.0,,3759135.0,,2603.0,,3836974.0,,11901.0,,3963719.0,,11805.0,,4203382.0,,2512.0,,4136952.0,,1844.0,,3725154.0,,9049.0,,1412351.0,,7475.0,,1892287.0,,8908.0,,1104819.0,,5358.0,,1443439.0,,6255.0,,1960794.0,,7507.0,,1553857.0,,5783.0,,1224931.0,,5452.0,,1245575.0,,6324.0,,South Region,3
72075226.0,,-555555555.0,*****,35932348.0,,2427.0,,2541914.0,,1300.0,,2500792.0,,7738.0,,2527720.0,,7576.0,,1588981.0,,1134.0,,1090323.0,,1429.0,,567864.0,,5466.0,,561644.0,,5344.0,,1599904.0,,6118.0,,2693516.0,,1804.0,,2523079.0,,1615.0,,2449732.0,,9543.0,,2479782.0,,9421.0,,2523041.0,,1247.0,,2458479.0,,1106.0,,2152739.0,,6743.0,,795248.0,,5712.0,,1033393.0,,6440.0,,580769.0,,4074.0,,721513.0,,3864.0,,945502.0,,4516.0,,693918.0,,3929.0,,494762.0,,3815.0,,407733.0,,3627.0,,36142878.0,,2426.0,,2424145.0,,1266.0,,2393482.0,,6677.0,,2408365.0,,6661.0,,1501990.0,,1207.0,,1018628.0,,1776.0,,532396.0,,5088.0,,519170.0,,5684.0,,1474876.0,,7101.0,,2551711.0,,1283.0,,2428163.0,,1247.0,,2396443.0,,8258.0,,2430134.0,,8253.0,,2523818.0,,1193.0,,2514088.0,,1007.0,,2272950.0,,6324.0,,840637.0,,5107.0,,1100711.0,,5597.0,,634746.0,,4582.0,,806531.0,,4168.0,,1072559.0,,4552.0,,846047.0,,4473.0,,702543.0,,3948.0,,748745.0,,4016.0,,West Region,4
