B05002_001E,B05002_001EA,B05002_001M,B05002_001MA,B05002_002E,B05002_002EA,B05002_002M,B05002_002MA,B05002_013E,B05002_013EA,B05002_013M,B05002_013MA,NAME,american indian area/alaska native area/hawaiian home land
47650.0,,-555555555.0,*****,47047.0,,173.0,,603.0,,173.0,,"Osage Reservation, OK",2595
2.0,,6.0,,1.0,,3.0,,1.0,,3.0,,"Hassanamisco (state) Reservation, MA",9150
978.0,,248.0,,894.0,,236.0,,84.0,,50.0,,"Ramapough (state) SDTSA, NJ",9850
4602.0,,460.0,,1894.0,,243.0,,2708.0,,332.0,,"Torres-Martinez Reservation, CA",4255
70.0,,29.0,,70.0,,29.0,,0.0,,10.0,,"Twin Hills ANVSA, AK",7650
12668.0,,640.0,,11570.0,,593.0,,1098.0,,341.0,,"Cherokee Tribe of Northeast Alabama (state) SDTSA, AL",9560
4731.0,,406.0,,4450.0,,403.0,,281.0,,71.0,,"Lummi Reservation, WA",2070
61.0,,29.0,,61.0,,29.0,,0.0,,10.0,,"Stevens Village ANVSA, AK",7520
8047.0,,383.0,,7957.0,,389.0,,90.0,,38.0,,"Meherrin (state) SDTSA, NC",9825
57714.0,,1008.0,,56636.0,,1018.0,,1078.0,,246.0,,"Sac and Fox OTSA, OK",5820
925.0,,369.0,,925.0,,369.0,,0.0,,12.0,,"Santa Ana Pueblo, NM",3480
3253.0,,202.0,,3020.0,,202.0,,233.0,,73.0,,"Swinomish Reservation and Off-Reservation Trust Land, WA",4075
9858.0,,214.0,,9752.0,,214.0,,106.0,,37.0,,"White Earth Reservation and Off-Reservation Trust Land, MN",4595
0.0,,12.0,,0.0,,12.0,,0.0,,12.0,,"Hanapepe Hawaiian Home Land, HI",5011
27080.0,,266.0,,26314.0,,272.0,,766.0,,116.0,,"Kaw/Ponca joint-use OTSA, OK",5950
180.0,,51.0,,170.0,,51.0,,10.0,,15.0,,"Cantwell ANVSA, AK",6255
6498.0,,234.0,,6456.0,,230.0,,42.0,,47.0,,"Fort Berthold Reservation, ND",1160
172695.0,,2468.0,,171660.0,,2477.0,,1035.0,,204.0,,"Navajo Nation Reservation and Off-Reservation Trust Land, AZ--NM--UT",2430
1053.0,,208.0,,831.0,,178.0,,222.0,,71.0,,"Rincon Reservation, CA",3165
201.0,,85.0,,196.0,,85.0,,5.0,,7.0,,"Pauma and Yuima Reservation, CA",2715
1951.0,,185.0,,1926.0,,185.0,,25.0,,19.0,,"Nambe Pueblo and Off-Reservation Trust Land, NM",2400
31.0,,26.0,,31.0,,26.0,,0.0,,10.0,,"Nelson Lagoon ANVSA, AK",7025
311.0,,76.0,,303.0,,76.0,,8.0,,9.0,,"Tazlina ANVSA, AK",7560
172.0,,127.0,,172.0,,127.0,,0.0,,13.0,,"Santa Rosa Reservation, CA",3525
6646.0,,449.0,,5987.0,,418.0,,659.0,,173.0,,"Ohkay Owingeh, NM",2510
20.0,,21.0,,20.0,,21.0,,0.0,,13.0,,"Winnemucca Indian Colony, NV",4635
125.0,,40.0,,125.0,,40.0,,0.0,,10.0,,"Allakaket ANVSA, AK",6070
39.0,,36.0,,34.0,,30.0,,5.0,,9.0,,"Benton Paiute Reservation and Off-Reservation Trust Land, CA",0185
168.0,,90.0,,162.0,,90.0,,6.0,,6.0,,"Mooretown Rancheria and Off-Reservation Trust Land, CA",2340
4066.0,,124.0,,3958.0,,132.0,,108.0,,48.0,,"Tonkawa OTSA, OK",5860
26.0,,20.0,,26.0,,20.0,,0.0,,10.0,,"Pedro Bay ANVSA, AK",7205
7851.0,,552.0,,7699.0,,546.0,,152.0,,82.0,,"Haliwa-Saponi (state) SDTSA, NC",9745
2414.0,,372.0,,2360.0,,339.0,,54.0,,68.0,,"Waccamaw Siouan (state) SDTSA, NC",9970
1405.0,,295.0,,1382.0,,295.0,,23.0,,12.0,,"Waiehu Hawaiian Home Land, HI",5241
176.0,,108.0,,169.0,,106.0,,7.0,,10.0,,"Big Sandy Rancheria, CA",0265
369.0,,75.0,,359.0,,72.0,,10.0,,9.0,,"McGrath ANVSA, AK",6895
0.0,,10.0,,0.0,,10.0,,0.0,,10.0,,"Solomon ANVSA, AK",7500
364.0,,68.0,,362.0,,69.0,,2.0,,3.0,,"Akiak ANVSA, AK",6025
240.0,,89.0,,232.0,,88.0,,8.0,,8.0,,"Ambler ANVSA, AK",6075
286.0,,154.0,,277.0,,153.0,,9.0,,18.0,,"Paiute (UT) Reservation, UT",2625
1190.0,,244.0,,529.0,,218.0,,661.0,,241.0,,"Sand Point ANVSA, AK",7410
18.0,,24.0,,18.0,,24.0,,0.0,,11.0,,"Skull Valley Reservation, UT",3840
294.0,,106.0,,289.0,,105.0,,5.0,,9.0,,"Kalispel Reservation and Off-Reservation Trust Land, WA",1735
3719.0,,246.0,,3702.0,,249.0,,17.0,,13.0,,"Chickahominy (state) SDTSA, VA",9580
0.0,,12.0,,0.0,,12.0,,0.0,,12.0,,"Waiohinu Hawaiian Home Land, HI",5283
240.0,,77.0,,240.0,,77.0,,0.0,,13.0,,"Chemehuevi Reservation, CA",0585
1657.0,,264.0,,1546.0,,259.0,,111.0,,58.0,,"Fort Mojave Reservation and Off-Reservation Trust Land, AZ--CA--NV",1235
415.0,,111.0,,415.0,,111.0,,0.0,,9.0,,"Lower Sioux Indian Community, MN",2055
108.0,,31.0,,108.0,,31.0,,0.0,,10.0,,"Wales ANVSA, AK",7740
0.0,,13.0,,0.0,,13.0,,0.0,,13.0,,"Ramona Village, CA",3070
1035.0,,165.0,,1023.0,,163.0,,12.0,,18.0,,"Fort McDowell Yavapai Nation Reservation, AZ",1220
11.0,,32.0,,11.0,,32.0,,0.0,,13.0,,"Narragansett Reservation, RI",2415
343.0,,98.0,,325.0,,93.0,,18.0,,24.0,,"Ouzinkie ANVSA, AK",7180
0.0,,13.0,,0.0,,13.0,,0.0,,13.0,,"Jamul Indian Village, CA",1670
994.0,,194.0,,983.0,,192.0,,11.0,,11.0,,"Salamatof ANVSA, AK",7400
489.0,,104.0,,489.0,,104.0,,0.0,,10.0,,"Chefornak ANVSA, AK",6275
76.0,,31.0,,76.0,,31.0,,0.0,,10.0,,"Chignik Lagoon ANVSA, AK",6300
337.0,,135.0,,337.0,,135.0,,0.0,,12.0,,"Shinnecock (state) Reservation, NY",9370
11135.0,,242.0,,11059.0,,257.0,,76.0,,64.0,,"Rosebud Indian Reservation and Off-Reservation Trust Land, SD",3235
958.0,,147.0,,945.0,,149.0,,13.0,,9.0,,"Bay Mills Reservation and Off-Reservation Trust Land, MI",0170
19.0,,17.0,,11.0,,10.0,,8.0,,13.0,,"Timbi-Sha Shoshone Reservation and Off-Reservation Trust Land, CA--NV",4180
49.0,,55.0,,46.0,,49.0,,3.0,,7.0,,"Nienie Hawaiian Home Land, HI",5166
55.0,,24.0,,55.0,,24.0,,0.0,,13.0,,"Manzanita Reservation and Off-Reservation Trust Land, CA",2115
7354.0,,481.0,,7205.0,,444.0,,149.0,,102.0,,"Mississippi Choctaw Reservation, MS",2300
1884.0,,262.0,,1848.0,,258.0,,36.0,,24.0,,"Picuris Pueblo, NM",2785
826.0,,301.0,,813.0,,298.0,,13.0,,13.0,,"Maluohai Hawaiian Home Land, HI",5148
252.0,,62.0,,252.0,,62.0,,0.0,,10.0,,"Tanana ANVSA, AK",7540
297.0,,140.0,,297.0,,140.0,,0.0,,10.0,,"Tyonek ANVSA, AK",7655
557.0,,108.0,,537.0,,107.0,,20.0,,18.0,,"Tonawanda Reservation, NY",4225
0.0,,12.0,,0.0,,12.0,,0.0,,12.0,,"San Felipe Pueblo/Santa Ana Pueblo joint-use area, NM",4930
1519.0,,211.0,,1489.0,,208.0,,30.0,,34.0,,"Ho-Chunk Nation Reservation and Off-Reservation Trust Land, WI--MN",1450
265.0,,121.0,,265.0,,121.0,,0.0,,13.0,,"Lone Pine Reservation, CA",1970
230.0,,56.0,,215.0,,50.0,,15.0,,20.0,,"Newhalen ANVSA, AK",7035
727.0,,163.0,,724.0,,164.0,,3.0,,5.0,,"Panaewa (Agricultural) Hawaiian Home Land, HI",5176
0.0,,10.0,,0.0,,10.0,,0.0,,10.0,,"Mary's Igloo ANVSA, AK",6915
143.0,,52.0,,143.0,,52.0,,0.0,,10.0,,"Nunam Iqua ANVSA, AK",7133
34.0,,49.0,,34.0,,49.0,,0.0,,13.0,,"San Manuel Reservation, CA",3445
0.0,,12.0,,0.0,,12.0,,0.0,,12.0,,"Honolulu Makai Hawaiian Home Land, HI",5030
104.0,,34.0,,104.0,,34.0,,0.0,,10.0,,"Arctic Village ANVSA, AK",6140
3591.0,,339.0,,3591.0,,339.0,,0.0,,12.0,,"Acoma Pueblo and Off-Reservation Trust Land, NM",0010
57.0,,24.0,,57.0,,24.0,,0.0,,10.0,,"South Naknek ANVSA, AK",7505
151.0,,57.0,,151.0,,57.0,,0.0,,10.0,,"Tanacross ANVSA, AK",7535
1104.0,,160.0,,1050.0,,162.0,,54.0,,29.0,,"Tuscarora Nation Reservation, NY",4360
411.0,,238.0,,398.0,,236.0,,13.0,,18.0,,"Yavapai-Prescott Reservation, AZ",4710
15097.0,,476.0,,14610.0,,486.0,,487.0,,135.0,,"Caddo-Wichita-Delaware OTSA, OK",5540
0.0,,13.0,,0.0,,13.0,,0.0,,13.0,,"Dry Creek Rancheria, CA",0955
214.0,,90.0,,214.0,,90.0,,0.0,,12.0,,"Eastern Chickahominy (state) SDTSA, VA",9675
0.0,,13.0,,0.0,,13.0,,0.0,,13.0,,"Augustine Reservation, CA",0125
92.0,,45.0,,92.0,,45.0,,0.0,,10.0,,"Manley Hot Springs ANVSA, AK",6900
576.0,,104.0,,576.0,,104.0,,0.0,,10.0,,"Stebbins ANVSA, AK",7510
95.0,,56.0,,95.0,,56.0,,0.0,,10.0,,"Oscarville ANVSA, AK",7175
408.0,,165.0,,377.0,,159.0,,31.0,,35.0,,"Poospatuck (state) Reservation, NY",9300
333.0,,367.0,,333.0,,367.0,,0.0,,13.0,,"North Fork Rancheria and Off-Reservation Trust Land, CA",2495
40.0,,30.0,,40.0,,30.0,,0.0,,13.0,,"Blue Lake Rancheria and Off-Reservation Trust Land, CA",0325
0.0,,13.0,,0.0,,13.0,,0.0,,13.0,,"Pit River Trust Land, CA",2835
30.0,,15.0,,30.0,,15.0,,0.0,,10.0,,"Nikolski ANVSA, AK",7075
465.0,,83.0,,465.0,,83.0,,0.0,,10.0,,"Noatak ANVSA, AK",7085
106.0,,38.0,,106.0,,38.0,,0.0,,10.0,,"Chuathbaluk ANVSA, AK",6335
559.0,,90.0,,535.0,,94.0,,24.0,,30.0,,"Galena ANVSA, AK",6525
822.0,,148.0,,814.0,,147.0,,8.0,,14.0,,"Hualapai Indian Reservation and Off-Reservation Trust Land, AZ",1545
62.0,,68.0,,52.0,,59.0,,10.0,,22.0,,"Mohegan Reservation and Off-Reservation Trust Land, CT",2320
11210.0,,520.0,,10034.0,,489.0,,1176.0,,196.0,,"Santa Clara Pueblo, NM",3495
345.0,,138.0,,330.0,,137.0,,15.0,,12.0,,"Santa Ynez Reservation, CA",3540
0.0,,12.0,,0.0,,12.0,,0.0,,12.0,,"Honokaia Hawaiian Home Land, HI",5026
303096.0,,860.0,,295095.0,,986.0,,8001.0,,488.0,,"Chickasaw OTSA, OK",5580
52.0,,57.0,,52.0,,57.0,,0.0,,13.0,,"Guidiville Rancheria and Off-Reservation Trust Land, CA",1400
0.0,,14.0,,0.0,,14.0,,0.0,,14.0,,"Tampa Reservation, FL",4130
222.0,,106.0,,222.0,,106.0,,0.0,,13.0,,"Fallon Paiute-Shoshone Colony and Off-Reservation Trust Land, NV",1070
141.0,,86.0,,134.0,,83.0,,7.0,,8.0,,"Gakona ANVSA, AK",6520
0.0,,12.0,,0.0,,12.0,,0.0,,12.0,,"Kanehili Hawaiian Home Land, HI",5067
262.0,,79.0,,261.0,,79.0,,1.0,,2.0,,"Miami OTSA, OK",5730
475.0,,101.0,,453.0,,82.0,,22.0,,47.0,,"Manokotak ANVSA, AK",6905
2214.0,,358.0,,2173.0,,352.0,,41.0,,27.0,,"Sault Ste. Marie Reservation and Off-Reservation Trust Land, MI",3635
226.0,,109.0,,224.0,,108.0,,2.0,,4.0,,"Kaibab Indian Reservation, AZ",1720
208.0,,65.0,,208.0,,65.0,,0.0,,10.0,,"Aleknagik ANVSA, AK",6045
340.0,,58.0,,340.0,,58.0,,0.0,,10.0,,"Koyuk ANVSA, AK",6825
102.0,,54.0,,100.0,,54.0,,2.0,,5.0,,"Upper Lake Rancheria, CA",4430
129.0,,50.0,,126.0,,50.0,,3.0,,4.0,,"Chilkat ANVSA, AK",6310
156.0,,68.0,,154.0,,68.0,,2.0,,4.0,,"Battle Mountain Reservation, NV",0165
13841.0,,926.0,,13789.0,,931.0,,52.0,,37.0,,"Fort Apache Reservation, AZ",1140
0.0,,12.0,,0.0,,12.0,,0.0,,12.0,,"Kolaoa Hawaiian Home Land, HI",5123
0.0,,12.0,,0.0,,12.0,,0.0,,12.0,,"Oneida Nation Reservation, NY",2555
539.0,,190.0,,532.0,,190.0,,7.0,,8.0,,"Quileute Reservation, WA",3030
0.0,,14.0,,0.0,,14.0,,0.0,,14.0,,"Coconut Creek Trust Land, FL",0690
146.0,,54.0,,146.0,,54.0,,0.0,,10.0,,"Gulkana ANVSA, AK",6560
9.0,,14.0,,9.0,,14.0,,0.0,,12.0,,"Keokea (Agricultural) Hawaiian Home Land, HI",5114
1410.0,,205.0,,1406.0,,203.0,,4.0,,7.0,,"Duck Valley Reservation, NV--ID",0965
3357.0,,105.0,,3319.0,,107.0,,38.0,,22.0,,"Lac du Flambeau Reservation, WI",1825
4438.0,,313.0,,4048.0,,277.0,,390.0,,109.0,,"Sitka ANVSA, AK",7475
12.0,,20.0,,12.0,,20.0,,0.0,,12.0,,"Waiahole Hawaiian Home Land, HI",5223
638.0,,103.0,,625.0,,102.0,,13.0,,14.0,,"Akiachak ANVSA, AK",6020
5831.0,,616.0,,5420.0,,599.0,,411.0,,126.0,,"United Cherokee Ani-Yun-Wiya Nation (state) SDTSA, AL",9950
160.0,,36.0,,160.0,,36.0,,0.0,,10.0,,"Pitkas Point ANVSA, AK",7235
3960.0,,309.0,,3848.0,,314.0,,112.0,,68.0,,"Warm Springs Reservation and Off-Reservation Trust Land, OR",4545
32.0,,26.0,,32.0,,26.0,,0.0,,13.0,,"Wells Colony, NV",4580
99.0,,60.0,,84.0,,46.0,,15.0,,23.0,,"Cow Creek Reservation and Off-Reservation Trust Land, OR",0815
39.0,,21.0,,39.0,,21.0,,0.0,,10.0,,"Huron Potawatomi Reservation and Off-Reservation Trust Land, MI",1550
710.0,,190.0,,707.0,,188.0,,3.0,,5.0,,"Morongo Reservation and Off-Reservation Trust Land, CA",2360
112.0,,29.0,,112.0,,29.0,,0.0,,10.0,,"Koyukuk ANVSA, AK",6830
1645.0,,302.0,,1604.0,,294.0,,41.0,,38.0,,"Anahola (Residential) Hawaiian Home Land, HI",5004
10534.0,,402.0,,10374.0,,398.0,,160.0,,44.0,,"Leech Lake Reservation and Off-Reservation Trust Land, MN",1940
30657.0,,814.0,,29371.0,,791.0,,1286.0,,139.0,,"Four Winds Cherokee (state) SDTSA, LA",9720
1540.0,,239.0,,1532.0,,237.0,,8.0,,9.0,,"Keaukaha Hawaiian Home Land, HI",5106
1723.0,,133.0,,1661.0,,137.0,,62.0,,33.0,,"Craig ANVSA, AK",6385
37.0,,14.0,,37.0,,14.0,,0.0,,10.0,,"Little Traverse Bay Reservation and Off-Reservation Trust Land, MI",1963
4230.0,,492.0,,3773.0,,440.0,,457.0,,126.0,,"Muckleshoot Reservation and Off-Reservation Trust Land, WA",2375
224.0,,55.0,,222.0,,55.0,,2.0,,3.0,,"Ruby ANVSA, AK",7310
4262.0,,158.0,,2396.0,,177.0,,1866.0,,150.0,,"Unalaska ANVSA, AK",7695
91.0,,45.0,,91.0,,45.0,,0.0,,12.0,,"Shoalwater Bay Indian Reservation and Off-Reservation Trust Land, WA",3780
75.0,,70.0,,74.0,,69.0,,1.0,,4.0,,"Lalamilo Hawaiian Home Land, HI",5133
0.0,,12.0,,0.0,,12.0,,0.0,,12.0,,"San Felipe Pueblo/Santo Domingo Pueblo joint-use area, NM",4940
0.0,,12.0,,0.0,,12.0,,0.0,,12.0,,"Kapaa Hawaiian Home Land, HI",5071
476.0,,157.0,,453.0,,148.0,,23.0,,34.0,,"Siletz Reservation and Off-Reservation Trust Land, OR",3795
195.0,,75.0,,185.0,,72.0,,10.0,,9.0,,"Sac and Fox Nation Reservation and Off-Reservation Trust Land, NE--KS",3285
8854.0,,702.0,,8476.0,,638.0,,378.0,,199.0,,"Eastern Cherokee Reservation, NC",0990
46.0,,34.0,,46.0,,34.0,,0.0,,10.0,,"Takotna ANVSA, AK",7530
426.0,,126.0,,418.0,,126.0,,8.0,,12.0,,"Clifton Choctaw (state) SDTSA, LA",9630
119.0,,45.0,,119.0,,45.0,,0.0,,10.0,,"Ekwok ANVSA, AK",6460
121.0,,42.0,,117.0,,39.0,,4.0,,5.0,,"Golovin ANVSA, AK",6540
59.0,,27.0,,57.0,,27.0,,2.0,,3.0,,"Chalkyitsik ANVSA, AK",6265
83.0,,69.0,,77.0,,68.0,,6.0,,11.0,,"Lac Vieux Desert Reservation, MI",1830
504.0,,153.0,,504.0,,153.0,,0.0,,12.0,,"Poarch Creek Reservation and Off-Reservation Trust Land, AL--FL",2865
312.0,,62.0,,312.0,,62.0,,0.0,,10.0,,"Tununak ANVSA, AK",7645
22640.0,,687.0,,22131.0,,670.0,,509.0,,105.0,,"Chickaloon ANVSA, AK",6290
193.0,,45.0,,193.0,,45.0,,0.0,,10.0,,"Kaltag ANVSA, AK",6690
197.0,,134.0,,196.0,,134.0,,1.0,,3.0,,"Anahola (Agricultural) Hawaiian Home Land, HI",5003
116798.0,,1442.0,,114648.0,,1436.0,,2150.0,,363.0,,"Citizen Potawatomi Nation-Absentee Shawnee OTSA, OK",5600
96.0,,40.0,,96.0,,40.0,,0.0,,9.0,,"Minnesota Chippewa Trust Land, MN",2285
4067.0,,382.0,,3965.0,,369.0,,102.0,,46.0,,"Pascua Pueblo Yaqui Reservation and Off-Reservation Trust Land, AZ",2680
186.0,,69.0,,186.0,,69.0,,0.0,,10.0,,"Grayling ANVSA, AK",6550
504789.0,,2235.0,,488295.0,,1863.0,,16494.0,,1001.0,,"Cherokee OTSA, OK",5550
585.0,,91.0,,579.0,,92.0,,6.0,,11.0,,"Pleasant Point Reservation, ME",2850
10.0,,17.0,,10.0,,17.0,,0.0,,13.0,,"Table Mountain Rancheria, CA",4110
16425.0,,58.0,,16254.0,,92.0,,171.0,,75.0,,"Pawnee OTSA, OK",5780
0.0,,10.0,,0.0,,10.0,,0.0,,10.0,,"Council ANVSA, AK",6380
155.0,,71.0,,149.0,,68.0,,6.0,,11.0,,"Grindstone Indian Rancheria, CA",1395
997.0,,206.0,,958.0,,207.0,,39.0,,19.0,,"Santa Rosa Rancheria, CA",3520
23.0,,32.0,,23.0,,32.0,,0.0,,12.0,,"Kamoku-Kapulena Hawaiian Home Land, HI",5066
1269.0,,245.0,,1255.0,,242.0,,14.0,,11.0,,"Panaewa (Residential) Hawaiian Home Land, HI",5177
87.0,,27.0,,87.0,,27.0,,0.0,,10.0,,"Deering ANVSA, AK",6400
59.0,,53.0,,53.0,,49.0,,6.0,,9.0,,"Colusa Rancheria, CA",0750
7.0,,10.0,,7.0,,10.0,,0.0,,12.0,,"Kamaoa-Puueo Hawaiian Home Land, HI",5056
143.0,,75.0,,143.0,,75.0,,0.0,,12.0,,"Kewalo Hawaiian Home Land, HI",5120
26865.0,,609.0,,26454.0,,614.0,,411.0,,72.0,,"Isabella Reservation, MI",1610
11.0,,17.0,,11.0,,17.0,,0.0,,12.0,,"Ponca (NE) Trust Land, NE--IA",2900
48.0,,71.0,,48.0,,71.0,,0.0,,13.0,,"Sulphur Bank Rancheria, CA",4030
792.0,,125.0,,774.0,,120.0,,18.0,,25.0,,"Otoe-Missouria OTSA, OK",5760
0.0,,13.0,,0.0,,13.0,,0.0,,13.0,,"Capitan Grande Reservation, CA",0495
0.0,,10.0,,0.0,,10.0,,0.0,,10.0,,"Belkofski ANVSA, AK",6195
565.0,,90.0,,565.0,,90.0,,0.0,,10.0,,"Kotlik ANVSA, AK",6815
53.0,,28.0,,53.0,,28.0,,0.0,,10.0,,"Platinum ANVSA, AK",7245
0.0,,12.0,,0.0,,12.0,,0.0,,12.0,,"Honokowai Hawaiian Home Land, HI",5029
1046.0,,271.0,,999.0,,264.0,,47.0,,43.0,,"Princess Kahanu Estates Hawaiian Home Land, HI",5198
0.0,,12.0,,0.0,,12.0,,0.0,,12.0,,"Upolu Hawaiian Home Land, HI",5222
5.0,,8.0,,5.0,,8.0,,0.0,,12.0,,"Keanae-Wailua Hawaiian Home Land, HI",5104
953.0,,119.0,,953.0,,119.0,,0.0,,10.0,,"Chevak ANVSA, AK",6285
651.0,,153.0,,612.0,,143.0,,39.0,,35.0,,"Barona Reservation, CA",0155
0.0,,13.0,,0.0,,13.0,,0.0,,13.0,,"Likely Rancheria, CA",1955
340.0,,79.0,,340.0,,79.0,,0.0,,10.0,,"Napakiak ANVSA, AK",7010
121.0,,52.0,,117.0,,52.0,,4.0,,5.0,,"Stewart Community, NV",3980
70.0,,44.0,,64.0,,42.0,,6.0,,10.0,,"Eklutna ANVSA, AK",6450
41.0,,37.0,,41.0,,37.0,,0.0,,12.0,,"Kamiloloa-Makakupaia Hawaiian Home Land, HI",5061
26882.0,,501.0,,26637.0,,523.0,,245.0,,147.0,,"Wind River Reservation and Off-Reservation Trust Land, WY",4610
484.0,,77.0,,483.0,,77.0,,1.0,,3.0,,"Hannahville Indian Community and Off-Reservation Trust Land, MI",1410
10985.0,,282.0,,10841.0,,294.0,,144.0,,85.0,,"Lake Traverse Reservation and Off-Reservation Trust Land, SD--ND",1860
831.0,,200.0,,812.0,,201.0,,19.0,,17.0,,"Lower Elwha Reservation and Off-Reservation Trust Land, WA",2040
370.0,,81.0,,370.0,,81.0,,0.0,,10.0,,"Kongiganak ANVSA, AK",6810
0.0,,10.0,,0.0,,10.0,,0.0,,10.0,,"Paimiut ANVSA, AK",7185
68.0,,31.0,,56.0,,29.0,,12.0,,18.0,,"Pamunkey (state) Reservation, VA",9260
0.0,,10.0,,0.0,,10.0,,0.0,,10.0,,"Ekuk ANVSA, AK",6455
51.0,,75.0,,51.0,,75.0,,0.0,,12.0,,"Lanai City Hawaiian Home Land, HI",5134
505.0,,84.0,,479.0,,79.0,,26.0,,20.0,,"Grand Portage Reservation and Off-Reservation Trust Land, MN",1355
171.0,,125.0,,108.0,,71.0,,63.0,,94.0,,"Sycuan Reservation and Off-Reservation Trust Land, CA",4090
262.0,,121.0,,254.0,,120.0,,8.0,,13.0,,"Yerington Colony, NV",4725
0.0,,12.0,,0.0,,12.0,,0.0,,12.0,,"Golden Hill Paugussett (state) Reservation, CT",9100
974.0,,217.0,,879.0,,197.0,,95.0,,64.0,,"Nooksack Reservation and Off-Reservation Trust Land, WA",2475
521.0,,83.0,,521.0,,83.0,,0.0,,10.0,,"New Stuyahok ANVSA, AK",7050
0.0,,12.0,,0.0,,12.0,,0.0,,12.0,,"Pauahi Hawaiian Home Land, HI",5181
0.0,,10.0,,0.0,,10.0,,0.0,,10.0,,"Ivanof Bay ANVSA, AK",6650
0.0,,13.0,,0.0,,13.0,,0.0,,13.0,,"Rumsey Indian Rancheria, CA",3265
0.0,,10.0,,0.0,,10.0,,0.0,,10.0,,"Bill Moore's ANVSA, AK",6225
2256.0,,274.0,,1918.0,,230.0,,338.0,,135.0,,"Fort Yuma Indian Reservation, CA--AZ",1280
1050.0,,230.0,,909.0,,114.0,,141.0,,152.0,,"Skagway ANVSA, AK",7485
6870.0,,526.0,,6728.0,,528.0,,142.0,,79.0,,"Apache Choctaw (state) SDTSA, LA",9515
22115.0,,623.0,,21586.0,,626.0,,529.0,,164.0,,"MaChis Lower Creek (state) SDTSA, AL",9820
12.0,,11.0,,12.0,,11.0,,0.0,,13.0,,"Rohnerville Rancheria, CA",3220
697.0,,103.0,,675.0,,103.0,,22.0,,18.0,,"St. Croix Reservation and Off-Reservation Trust Land, WI",3305
9.0,,8.0,,9.0,,8.0,,0.0,,13.0,,"Greenville Rancheria, CA",1380
0.0,,10.0,,0.0,,10.0,,0.0,,10.0,,"Kodiak ANVSA, AK",6795
21.0,,26.0,,21.0,,26.0,,0.0,,13.0,,"Tama (state) Reservation, GA",9400
8135.0,,23.0,,8103.0,,32.0,,32.0,,21.0,,"Cheyenne River Reservation and Off-Reservation Trust Land, SD",0605
626.0,,113.0,,626.0,,113.0,,0.0,,10.0,,"Kipnuk ANVSA, AK",6750
1364.0,,424.0,,1352.0,,421.0,,12.0,,19.0,,"Beaver Creek (state) SDTSA, SC",9525
0.0,,12.0,,0.0,,12.0,,0.0,,12.0,,"Kapolei Hawaiian Home Land, HI",5083
441.0,,212.0,,430.0,,211.0,,11.0,,15.0,,"Leialii Hawaiian Home Land, HI",5135
4846.0,,270.0,,4728.0,,262.0,,118.0,,52.0,,"Peoria OTSA, OK",5795
18898.0,,139.0,,18854.0,,139.0,,44.0,,28.0,,"Pine Ridge Reservation, SD--NE",2810
208.0,,76.0,,208.0,,76.0,,0.0,,10.0,,"Nondalton ANVSA, AK",7100
16.0,,17.0,,16.0,,17.0,,0.0,,13.0,,"La Posta Indian Reservation, CA",1895
1195.0,,146.0,,1195.0,,146.0,,0.0,,10.0,,"Hooper Bay ANVSA, AK",6595
394.0,,132.0,,381.0,,130.0,,13.0,,18.0,,"Saxman ANVSA, AK",7420
233.0,,59.0,,233.0,,59.0,,0.0,,10.0,,"Shaktoolik ANVSA, AK",7450
2438.0,,313.0,,2422.0,,307.0,,16.0,,16.0,,"Sappony (state) SDTSA, NC",9865
3841.0,,433.0,,3771.0,,437.0,,70.0,,81.0,,"San Felipe Pueblo, NM",3400
32159.0,,898.0,,25043.0,,983.0,,7116.0,,553.0,,"Yakama Nation Reservation and Off-Reservation Trust Land, WA",4690
3.0,,6.0,,3.0,,6.0,,0.0,,12.0,,"Waiakea Hawaiian Home Land, HI",5236
0.0,,10.0,,0.0,,10.0,,0.0,,10.0,,"Canyon Village ANVSA, AK",6257
167.0,,70.0,,163.0,,68.0,,4.0,,6.0,,"Pechanga Reservation, CA",2745
13245.0,,1258.0,,12957.0,,1247.0,,288.0,,114.0,,"Gila River Indian Reservation, AZ",1310
719.0,,79.0,,714.0,,78.0,,5.0,,6.0,,"Gambell ANVSA, AK",6530
352.0,,54.0,,352.0,,54.0,,0.0,,10.0,,"Huslia ANVSA, AK",6610
91.0,,39.0,,91.0,,39.0,,0.0,,10.0,,"Kokhanok ANVSA, AK",6800
5708.0,,264.0,,5506.0,,275.0,,202.0,,54.0,,"Quapaw OTSA, OK",5810
337.0,,52.0,,334.0,,53.0,,3.0,,5.0,,"Brevig Mission ANVSA, AK",6240
136.0,,90.0,,136.0,,90.0,,0.0,,13.0,,"Coyote Valley Reservation, CA",0825
0.0,,10.0,,0.0,,10.0,,0.0,,10.0,,"Match-e-be-nash-she-wish Band of Pottawatomi Reservation, MI",2150
1643.0,,291.0,,1629.0,,290.0,,14.0,,17.0,,"Ute Mountain Reservation and Off-Reservation Trust Land, CO--NM--UT",4470
797.0,,343.0,,783.0,,340.0,,14.0,,12.0,,"Waiohuli (Residential) Hawaiian Home Land, HI",5286
231.0,,63.0,,223.0,,59.0,,8.0,,9.0,,"Teller ANVSA, AK",7570
216.0,,74.0,,213.0,,74.0,,3.0,,4.0,,"Santa Ysabel Reservation, CA",3550
0.0,,12.0,,0.0,,12.0,,0.0,,12.0,,"Haiku Hawaiian Home Land, HI",5009
290.0,,81.0,,290.0,,81.0,,0.0,,10.0,,"Atqasuk ANVSA, AK",6165
1502.0,,179.0,,1490.0,,181.0,,12.0,,12.0,,"Bad River Reservation, WI",0140
0.0,,12.0,,0.0,,12.0,,0.0,,12.0,,"East Kapolei Hawaiian Home Land, HI",5008
18.0,,14.0,,18.0,,14.0,,0.0,,10.0,,"Birch Creek ANVSA, AK",6235
84.0,,33.0,,84.0,,33.0,,0.0,,10.0,,"Chitina ANVSA, AK",6330
20.0,,17.0,,20.0,,17.0,,0.0,,10.0,,"Rampart ANVSA, AK",7300
47.0,,32.0,,47.0,,32.0,,0.0,,10.0,,"Tatitlek ANVSA, AK",7555
312.0,,109.0,,309.0,,109.0,,3.0,,5.0,,"Kalawahine Hawaiian Home Land, HI",5053
1306.0,,312.0,,1301.0,,312.0,,5.0,,7.0,,"Paukukalo Hawaiian Home Land, HI",5186
1444.0,,216.0,,1400.0,,218.0,,44.0,,34.0,,"Makah Indian Reservation, WA",2085
5828.0,,31.0,,5666.0,,175.0,,162.0,,171.0,,"Red Lake Reservation, MN",3100
0.0,,12.0,,0.0,,12.0,,0.0,,12.0,,"Snoqualmie Reservation, WA",3860
2149.0,,284.0,,2060.0,,277.0,,89.0,,37.0,,"Ponca OTSA, OK",5800
15.0,,16.0,,15.0,,16.0,,0.0,,14.0,,"Fort Pierce Reservation, FL",1260
272.0,,72.0,,266.0,,70.0,,6.0,,9.0,,"Iowa (KS-NE) Reservation and Off-Reservation Trust Land, KS--NE",1590
98.0,,35.0,,98.0,,35.0,,0.0,,10.0,,"Perryville ANVSA, AK",7215
164.0,,57.0,,164.0,,57.0,,0.0,,10.0,,"White Mountain ANVSA, AK",7745
0.0,,13.0,,0.0,,13.0,,0.0,,13.0,,"Auburn Rancheria and Off-Reservation Trust Land, CA",0120
3.0,,5.0,,3.0,,5.0,,0.0,,10.0,,"Telida ANVSA, AK",7565
152.0,,47.0,,152.0,,47.0,,0.0,,10.0,,"Crooked Creek ANVSA, AK",6390
1332.0,,142.0,,1317.0,,142.0,,15.0,,14.0,,"Prairie Band of Potawatomi Nation Reservation, KS",2980
113.0,,64.0,,113.0,,64.0,,0.0,,13.0,,"Trinidad Rancheria and Off-Reservation Trust Land, CA",4275
756384.0,,2194.0,,712206.0,,2354.0,,44178.0,,1569.0,,"Creek OTSA, OK",5620
3273.0,,296.0,,3160.0,,300.0,,113.0,,121.0,,"Menominee Reservation and Off-Reservation Trust Land, WI",2175
0.0,,12.0,,0.0,,12.0,,0.0,,12.0,,"Kahikinui Hawaiian Home Land, HI",5041
1021.0,,171.0,,937.0,,172.0,,84.0,,37.0,,"Cocopah Reservation, AZ",0695
565.0,,103.0,,565.0,,103.0,,0.0,,10.0,,"Klawock ANVSA, AK",6765
371.0,,120.0,,365.0,,119.0,,6.0,,7.0,,"Waianae Kai Hawaiian Home Land, HI",5239
8258.0,,23.0,,8226.0,,34.0,,32.0,,24.0,,"Standing Rock Reservation, SD--ND",3970
461.0,,80.0,,454.0,,78.0,,7.0,,7.0,,"Algaaciq ANVSA, AK",6065
83.0,,41.0,,83.0,,41.0,,0.0,,10.0,,"Andreafsky ANVSA, AK",6095
281.0,,52.0,,281.0,,52.0,,0.0,,10.0,,"Eek ANVSA, AK",6440
17.0,,12.0,,10.0,,9.0,,7.0,,11.0,,"Klamath Reservation, OR",1785
65.0,,46.0,,65.0,,46.0,,0.0,,10.0,,"Pokagon Reservation and Off-Reservation Trust Land, MI",2890
6825.0,,491.0,,6767.0,,492.0,,58.0,,39.0,,"Iowa OTSA, OK",5670
433.0,,108.0,,433.0,,108.0,,0.0,,10.0,,"Tuluksak ANVSA, AK",7630
645.0,,137.0,,645.0,,137.0,,0.0,,10.0,,"Wainwright ANVSA, AK",7735
431.0,,148.0,,405.0,,148.0,,26.0,,30.0,,"Round Valley Reservation and Off-Reservation Trust Land, CA",3250
239.0,,56.0,,239.0,,56.0,,0.0,,10.0,,"Minto ANVSA, AK",6965
66.0,,18.0,,51.0,,19.0,,15.0,,13.0,,"Kalaupapa Hawaiian Home Land, HI",5051
731.0,,198.0,,724.0,,198.0,,7.0,,8.0,,"Chehalis Reservation and Off-Reservation Trust Land, WA",0575
183.0,,47.0,,183.0,,47.0,,0.0,,10.0,,"Holy Cross ANVSA, AK",6585
9358.0,,387.0,,7843.0,,350.0,,1515.0,,255.0,,"Colorado River Indian Reservation, AZ--CA",0735
251.0,,110.0,,247.0,,108.0,,4.0,,8.0,,"Dresslerville Colony, NV",0940
3212.0,,13.0,,2561.0,,288.0,,651.0,,289.0,,"St. Regis Mohawk Reservation, NY",3320
55.0,,29.0,,55.0,,29.0,,0.0,,12.0,,"Kaumana Hawaiian Home Land, HI",5086
87.0,,46.0,,87.0,,46.0,,0.0,,10.0,,"Atka ANVSA, AK",6150
173.0,,39.0,,173.0,,39.0,,0.0,,10.0,,"Mekoryuk ANVSA, AK",6935
8214.0,,726.0,,7948.0,,691.0,,266.0,,151.0,,"Occaneechi-Saponi (state) SDTSA, NC",9838
0.0,,12.0,,0.0,,12.0,,0.0,,12.0,,"South Maui Hawaiian Home Land, HI",5213
20.0,,26.0,,20.0,,26.0,,0.0,,13.0,,"Big Lagoon Rancheria, CA",0240
0.0,,10.0,,0.0,,10.0,,0.0,,10.0,,"Lesnoi ANVSA, AK",6860
389.0,,84.0,,389.0,,84.0,,0.0,,10.0,,"Newtok ANVSA, AK",7055
35.0,,51.0,,35.0,,51.0,,0.0,,12.0,,"Paucatuck Eastern Pequot (state) Reservation, CT",9280
66449.0,,702.0,,63793.0,,766.0,,2656.0,,528.0,,"Knik ANVSA, AK",6785
143.0,,107.0,,143.0,,107.0,,0.0,,12.0,,"Wampanoag-Aquinnah Trust Land, MA",4530
212.0,,97.0,,212.0,,97.0,,0.0,,13.0,,"Laytonville Rancheria, CA",1925
40.0,,27.0,,40.0,,27.0,,0.0,,10.0,,"Stony River ANVSA, AK",7525
789.0,,167.0,,690.0,,157.0,,99.0,,44.0,,"Tesuque Pueblo and Off-Reservation Trust Land, NM",4170
129.0,,56.0,,128.0,,56.0,,1.0,,2.0,,"Tuolumne Rancheria, CA",4330
154.0,,47.0,,154.0,,47.0,,0.0,,12.0,,"Kapaakea Hawaiian Home Land, HI",5076
232146.0,,705.0,,227747.0,,743.0,,4399.0,,425.0,,"Choctaw OTSA, OK",5590
253.0,,558.0,,184.0,,406.0,,69.0,,152.0,,"Passamaquoddy Trust Land, ME",2695
277.0,,345.0,,277.0,,345.0,,0.0,,13.0,,"Picayune Rancheria and Off-Reservation Trust Land, CA",2775
80.0,,30.0,,80.0,,30.0,,0.0,,10.0,,"Hughes ANVSA, AK",6605
0.0,,10.0,,0.0,,10.0,,0.0,,10.0,,"Napaimute ANVSA, AK",7005
688.0,,132.0,,688.0,,132.0,,0.0,,13.0,,"Walker River Reservation, NV",4515
4075.0,,213.0,,3922.0,,200.0,,153.0,,67.0,,"Miami/Peoria joint-use OTSA, OK",5970
451.0,,165.0,,392.0,,139.0,,59.0,,64.0,,"Alabama-Coushatta Reservation and Off-Reservation Trust Land, TX",0050
894.0,,159.0,,864.0,,155.0,,30.0,,42.0,,"Point Hope ANVSA, AK",7250
10426.0,,564.0,,10359.0,,565.0,,67.0,,64.0,,"San Carlos Reservation, AZ",3355
172.0,,70.0,,172.0,,70.0,,0.0,,12.0,,"Burns Paiute Indian Colony and Off-Reservation Trust Land, OR",0400
215.0,,61.0,,206.0,,59.0,,9.0,,13.0,,"Quartz Valley Reservation and Off-Reservation Trust Land, CA",3020
438.0,,150.0,,399.0,,139.0,,39.0,,33.0,,"Viejas Reservation, CA",4500
184.0,,81.0,,184.0,,81.0,,0.0,,12.0,,"Goshute Reservation, NV--UT",1340
1019.0,,258.0,,1002.0,,255.0,,17.0,,15.0,,"Puukapu Hawaiian Home Land, HI",5201
51.0,,58.0,,15.0,,16.0,,36.0,,52.0,,"Bridgeport Reservation, CA",0350
361.0,,162.0,,361.0,,162.0,,0.0,,13.0,,"Campo Indian Reservation, CA",0450
3633.0,,370.0,,3511.0,,350.0,,122.0,,51.0,,"L'Anse Reservation and Off-Reservation Trust Land, MI",1880
28724.0,,399.0,,28309.0,,412.0,,415.0,,143.0,,"Flathead Reservation, MT",1110
2997.0,,222.0,,2969.0,,222.0,,28.0,,22.0,,"Lac Courte Oreilles Reservation and Off-Reservation Trust Land, WI",1815
87.0,,127.0,,87.0,,127.0,,0.0,,12.0,,"Homuula-Upper Piihonua Hawaiian Home Land, HI",5018
705.0,,95.0,,701.0,,94.0,,4.0,,6.0,,"Kwethluk ANVSA, AK",6835
487862.0,,1332.0,,460469.0,,1747.0,,27393.0,,1136.0,,"Lumbee (state) SDTSA, NC",9815
484.0,,180.0,,477.0,,175.0,,7.0,,12.0,,"Soboba Reservation and Off-Reservation Trust Land, CA",3870
2736.0,,489.0,,2639.0,,436.0,,97.0,,152.0,,"Waianae Hawaiian Home Land, HI",5238
96.0,,55.0,,96.0,,55.0,,0.0,,13.0,,"Fort Independence Reservation, CA",1195
1286.0,,415.0,,1265.0,,415.0,,21.0,,17.0,,"Maricopa (Ak Chin) Indian Reservation, AZ",2130
12871.0,,181.0,,11919.0,,282.0,,952.0,,189.0,,"Ketchikan ANVSA, AK",6725
330.0,,84.0,,327.0,,85.0,,3.0,,4.0,,"Big Pine Reservation, CA",0250
0.0,,12.0,,0.0,,12.0,,0.0,,12.0,,"Fort Sill Apache Indian Reservation, NM",1270
0.0,,10.0,,0.0,,10.0,,0.0,,10.0,,"Hamilton ANVSA, AK",6570
1946.0,,193.0,,1860.0,,193.0,,86.0,,29.0,,"San Ildefonso Pueblo and Off-Reservation Trust Land, NM",3415
94.0,,46.0,,94.0,,46.0,,0.0,,13.0,,"Shingle Springs Rancheria and Off-Reservation Trust Land, CA",3750
131.0,,85.0,,126.0,,83.0,,5.0,,9.0,,"Cahuilla Reservation, CA",0435
3240.0,,23.0,,3189.0,,47.0,,51.0,,39.0,,"Kotzebue ANVSA, AK",6820
1552.0,,267.0,,1470.0,,259.0,,82.0,,49.0,,"Yurok Reservation, CA",4760
2181.0,,168.0,,2133.0,,170.0,,48.0,,29.0,,"Dillingham ANVSA, AK",6405
639.0,,111.0,,626.0,,110.0,,13.0,,10.0,,"Grand Traverse Reservation and Off-Reservation Trust Land, MI",1370
506.0,,145.0,,493.0,,143.0,,13.0,,16.0,,"Kekaha Hawaiian Home Land, HI",5111
4426.0,,281.0,,4397.0,,281.0,,29.0,,18.0,,"Kickapoo (KS) Reservation, KS",1770
116.0,,37.0,,113.0,,38.0,,3.0,,3.0,,"Chignik ANVSA, AK",6295
2273.0,,202.0,,2017.0,,217.0,,256.0,,136.0,,"Cattaraugus Reservation, NY",0540
322.0,,131.0,,322.0,,131.0,,0.0,,13.0,,"Ely Reservation, NV",1040
289.0,,52.0,,289.0,,52.0,,0.0,,10.0,,"Nulato ANVSA, AK",7130
12.0,,20.0,,12.0,,20.0,,0.0,,12.0,,"Honomu Hawaiian Home Land, HI",5031
23281.0,,522.0,,22971.0,,526.0,,310.0,,90.0,,"Oneida (WI) Reservation and Off-Reservation Trust Land, WI",2560
4515.0,,284.0,,4483.0,,280.0,,32.0,,21.0,,"Seneca-Cayuga OTSA, OK",5835
157.0,,98.0,,152.0,,97.0,,5.0,,7.0,,"Elk Valley Rancheria and Off-Reservation Trust Land, CA",1010
222.0,,114.0,,222.0,,114.0,,0.0,,13.0,,"Havasupai Reservation, AZ",1440
1357.0,,301.0,,1332.0,,294.0,,25.0,,32.0,,"Tule River Reservation and Off-Reservation Trust Land, CA",4300
6656.0,,185.0,,6619.0,,187.0,,37.0,,25.0,,"Yankton Reservation, SD",4700
0.0,,10.0,,0.0,,10.0,,0.0,,10.0,,"Kickapoo (KS) Reservation/Sac and Fox Nation Trust Land joint-use area, KS",4910
400.0,,127.0,,388.0,,122.0,,12.0,,20.0,,"Redwood Valley Rancheria, CA",3115
1.0,,2.0,,1.0,,2.0,,0.0,,13.0,,"Enterprise Rancheria, CA",1055
2736.0,,304.0,,2682.0,,301.0,,54.0,,31.0,,"Cayuga Nation TDSA, NY",8100
0.0,,12.0,,0.0,,12.0,,0.0,,12.0,,"Waiku-Hana Hawaiian Home Land, HI",5248
25297.0,,865.0,,21096.0,,779.0,,4201.0,,304.0,,"Agua Caliente Indian Reservation and Off-Reservation Trust Land, CA",0020
4.0,,8.0,,4.0,,8.0,,0.0,,13.0,,"Lookout Rancheria, CA",1980
847.0,,112.0,,846.0,,112.0,,1.0,,2.0,,"Emmonak ANVSA, AK",6480
517.0,,92.0,,514.0,,92.0,,3.0,,4.0,,"Fort Yukon ANVSA, AK",6515
80.0,,31.0,,80.0,,31.0,,0.0,,10.0,,"Iliamna ANVSA, AK",6625
47.0,,23.0,,47.0,,23.0,,0.0,,10.0,,"Kasaan ANVSA, AK",6705
358.0,,86.0,,353.0,,85.0,,5.0,,7.0,,"Napaskiak ANVSA, AK",7020
329.0,,75.0,,329.0,,75.0,,0.0,,10.0,,"Atmautluak ANVSA, AK",6160
6140.0,,19.0,,6012.0,,61.0,,128.0,,60.0,,"Bethel ANVSA, AK",6205
134.0,,45.0,,124.0,,43.0,,10.0,,13.0,,"Mesa Grande Reservation, CA",2190
61.0,,26.0,,61.0,,26.0,,0.0,,10.0,,"Pilot Point ANVSA, AK",7225
7090.0,,393.0,,7022.0,,389.0,,68.0,,55.0,,"Crow Reservation and Off-Reservation Trust Land, MT",0845
708.0,,99.0,,708.0,,99.0,,0.0,,10.0,,"Noorvik ANVSA, AK",7110
143.0,,87.0,,143.0,,87.0,,0.0,,12.0,,"MOWA Choctaw (state) Reservation, AL",9240
228.0,,57.0,,228.0,,57.0,,0.0,,10.0,,"Kalskag ANVSA, AK",6685
3073.0,,409.0,,2487.0,,334.0,,586.0,,167.0,,"Mechoopda TDSA, CA",8450
578.0,,121.0,,572.0,,120.0,,6.0,,6.0,,"Naknek ANVSA, AK",6990
5553.0,,292.0,,5335.0,,277.0,,218.0,,71.0,,"Douglas ANVSA, AK",6420
5713.0,,658.0,,5647.0,,663.0,,66.0,,49.0,,"Nanakuli Hawaiian Home Land, HI",5161
2893.0,,359.0,,2703.0,,362.0,,190.0,,74.0,,"Hoopa Valley Reservation, CA",1490
156.0,,70.0,,148.0,,68.0,,8.0,,10.0,,"Houlton Maliseet Reservation and Off-Reservation Trust Land, ME",1530
2787.0,,260.0,,2601.0,,246.0,,186.0,,58.0,,"Washoe Ranches Trust Land, NV--CA",4560
19.0,,22.0,,19.0,,22.0,,0.0,,12.0,,"Jamestown S'Klallam Reservation and Off-Reservation Trust Land, WA",1655
29.0,,24.0,,29.0,,24.0,,0.0,,13.0,,"Los Coyotes Reservation, CA",1995
3.0,,10.0,,3.0,,10.0,,0.0,,12.0,,"Ponohawaii Hawaiian Home Land, HI",5196
79.0,,74.0,,77.0,,71.0,,2.0,,6.0,,"Sauk-Suiattle Reservation, WA",3625
20044.0,,778.0,,19724.0,,760.0,,320.0,,108.0,,"Kickapoo OTSA, OK",5700
354.0,,67.0,,351.0,,68.0,,3.0,,4.0,,"Elim ANVSA, AK",6470
18.0,,12.0,,18.0,,12.0,,0.0,,10.0,,"False Pass ANVSA, AK",6500
112.0,,52.0,,112.0,,52.0,,0.0,,10.0,,"Levelock ANVSA, AK",6865
19.0,,20.0,,19.0,,20.0,,0.0,,10.0,,"Lime Village ANVSA, AK",6875
31.0,,19.0,,31.0,,19.0,,0.0,,12.0,,"Piihonua Hawaiian Home Land, HI",5193
72.0,,25.0,,72.0,,25.0,,0.0,,10.0,,"Clarks Point ANVSA, AK",6360
121.0,,47.0,,121.0,,47.0,,0.0,,10.0,,"Kobuk ANVSA, AK",6790
3603.0,,139.0,,3446.0,,151.0,,157.0,,48.0,,"Nome ANVSA, AK",7095
154.0,,54.0,,154.0,,54.0,,0.0,,10.0,,"Venetie ANVSA, AK",7725
1000.0,,79.0,,976.0,,78.0,,24.0,,22.0,,"Santee Reservation, NE",3565
0.0,,12.0,,0.0,,12.0,,0.0,,12.0,,"Waimea Hawaiian Home Land, HI",5281
0.0,,13.0,,0.0,,13.0,,0.0,,13.0,,"Chicken Ranch Rancheria and Off-Reservation Trust Land, CA",0620
0.0,,12.0,,0.0,,12.0,,0.0,,12.0,,"Makaha Valley Hawaiian Home Land, HI",5139
852.0,,180.0,,816.0,,179.0,,36.0,,27.0,,"Bois Forte Reservation, MN",0335
7.0,,11.0,,7.0,,11.0,,0.0,,13.0,,"Cedarville Rancheria and Off-Reservation Trust Land, CA",0555
823.0,,133.0,,817.0,,134.0,,6.0,,8.0,,"Stockbridge Munsee Community and Off-Reservation Trust Land, WI",4015
7306.0,,313.0,,6879.0,,291.0,,427.0,,80.0,,"Port Madison Reservation, WA",2925
281.0,,74.0,,276.0,,74.0,,5.0,,7.0,,"New Koliganek ANVSA, AK",7040
3110.0,,383.0,,3106.0,,383.0,,4.0,,5.0,,"Santo Domingo Pueblo, NM",3585
420.0,,137.0,,369.0,,126.0,,51.0,,59.0,,"Karuk Reservation and Off-Reservation Trust Land, CA",1750
96.0,,67.0,,91.0,,61.0,,5.0,,10.0,,"Las Vegas Indian Colony, NV",1915
1035.0,,307.0,,1024.0,,306.0,,11.0,,12.0,,"Yavapai-Apache Nation Reservation, AZ",4708
0.0,,10.0,,0.0,,10.0,,0.0,,10.0,,"Georgetown ANVSA, AK",6535
115.0,,65.0,,107.0,,58.0,,8.0,,17.0,,"Tunica-Biloxi Reservation and Off-Reservation Trust Land, LA",4315
77.0,,91.0,,77.0,,91.0,,0.0,,12.0,,"Lualualei Hawaiian Home Land, HI",5136
34.0,,30.0,,34.0,,30.0,,0.0,,10.0,,"Eagle ANVSA, AK",6430
18658.0,,330.0,,18325.0,,342.0,,333.0,,78.0,,"Nez Perce Reservation, ID",2445
259.0,,102.0,,256.0,,102.0,,3.0,,4.0,,"Port Lions ANVSA, AK",7275
18.0,,15.0,,17.0,,15.0,,1.0,,2.0,,"Mattaponi (state) Reservation, VA",9230
88.0,,38.0,,88.0,,38.0,,0.0,,10.0,,"St. George ANVSA, AK",7340
318.0,,125.0,,313.0,,126.0,,5.0,,5.0,,"Aroostook Band of Micmac Trust Land, ME",0115
0.0,,12.0,,0.0,,12.0,,0.0,,12.0,,"Kaohe-Olaa Hawaiian Home Land, HI",5069
753.0,,149.0,,673.0,,138.0,,80.0,,38.0,,"San Pasqual Reservation, CA",3460
562.0,,154.0,,548.0,,151.0,,14.0,,17.0,,"Nisqually Reservation, WA",2460
328.0,,64.0,,328.0,,64.0,,0.0,,10.0,,"Nightmute ANVSA, AK",7065
54300.0,,1319.0,,53141.0,,1314.0,,1159.0,,238.0,,"Echota Cherokee (state) SDTSA, AL",9680
353.0,,81.0,,353.0,,81.0,,0.0,,10.0,,"Goodnews Bay ANVSA, AK",6545
768.0,,96.0,,765.0,,97.0,,3.0,,4.0,,"Mountain Village ANVSA, AK",6975
281.0,,93.0,,272.0,,92.0,,9.0,,8.0,,"Kalamaula Hawaiian Home Land, HI",5046
130.0,,88.0,,130.0,,88.0,,0.0,,13.0,,"Big Valley Rancheria, CA",0275
70.0,,26.0,,70.0,,26.0,,0.0,,10.0,,"Port Heiden ANVSA, AK",7270
176.0,,103.0,,174.0,,103.0,,2.0,,3.0,,"Robinson Rancheria and Off-Reservation Trust Land, CA",3195
0.0,,12.0,,0.0,,12.0,,0.0,,12.0,,"Moloaa Hawaiian Home Land, HI",5156
77.0,,63.0,,77.0,,63.0,,0.0,,10.0,,"Little River Reservation and Off-Reservation Trust Land, MI",1960
48.0,,35.0,,48.0,,35.0,,0.0,,10.0,,"Igiugig ANVSA, AK",6620
160.0,,55.0,,150.0,,55.0,,10.0,,11.0,,"Upper Sioux Community and Off-Reservation Trust Land, MN",4445
27.0,,21.0,,27.0,,21.0,,0.0,,10.0,,"Red Devil ANVSA, AK",7305
14.0,,23.0,,14.0,,23.0,,0.0,,13.0,,"Resighini Rancheria, CA",3145
679.0,,159.0,,668.0,,159.0,,11.0,,9.0,,"Skokomish Reservation, WA",3825
892.0,,265.0,,443.0,,166.0,,449.0,,187.0,,"King Cove ANVSA, AK",6735
11.0,,12.0,,11.0,,12.0,,0.0,,10.0,,"Lake Minchumina ANVSA, AK",6850
0.0,,12.0,,0.0,,12.0,,0.0,,12.0,,"Keahuolu Hawaiian Home Land, HI",5098
322.0,,197.0,,313.0,,187.0,,9.0,,15.0,,"Kickapoo (TX) Reservation, TX",1775
487.0,,108.0,,487.0,,108.0,,0.0,,10.0,,"Nuiqsut ANVSA, AK",7125
151.0,,92.0,,149.0,,92.0,,2.0,,4.0,,"Akhiok ANVSA, AK",6015
466.0,,87.0,,464.0,,88.0,,2.0,,3.0,,"Big Cypress Reservation, FL",0225
1667.0,,230.0,,1597.0,,219.0,,70.0,,39.0,,"Bishop Reservation, CA",0290
275.0,,81.0,,267.0,,80.0,,8.0,,12.0,,"Prairie Island Indian Community and Off-Reservation Trust Land, MN",2985
375.0,,128.0,,344.0,,120.0,,31.0,,28.0,,"Susanville Indian Rancheria and Off-Reservation Trust Land, CA",4060
7788.0,,749.0,,7734.0,,756.0,,54.0,,47.0,,"Hopi Reservation and Off-Reservation Trust Land, AZ",1505
136.0,,91.0,,127.0,,89.0,,9.0,,10.0,,"Immokalee Reservation, FL",1555
10494.0,,444.0,,10062.0,,478.0,,432.0,,106.0,,"Tulalip Reservation and Off-Reservation Trust Land, WA",4290
0.0,,13.0,,0.0,,13.0,,0.0,,13.0,,"Inaja and Cosmit Reservation, CA",1560
1072.0,,116.0,,1050.0,,116.0,,22.0,,15.0,,"Red Cliff Reservation and Off-Reservation Trust Land, WI",3085
821.0,,359.0,,641.0,,202.0,,180.0,,194.0,,"Ysleta del Sur Pueblo and Off-Reservation Trust Land, TX",4755
4160.0,,290.0,,4106.0,,279.0,,54.0,,31.0,,"Fond du Lac Reservation and Off-Reservation Trust Land, MN--WI",1125
473.0,,161.0,,470.0,,161.0,,3.0,,6.0,,"Grand Ronde Community and Off-Reservation Trust Land, OR",1365
295.0,,81.0,,293.0,,80.0,,2.0,,4.0,,"Northway ANVSA, AK",7115
5574.0,,462.0,,5515.0,,460.0,,59.0,,56.0,,"Star Muskogee Creek (state) SDTSA, AL",9880
0.0,,14.0,,0.0,,14.0,,0.0,,14.0,,"Seminole (FL) Trust Land, FL",3665
6855.0,,570.0,,6370.0,,536.0,,485.0,,137.0,,"Nanticoke Indian Tribe (state) SDTSA, DE",9830
5290.0,,545.0,,4967.0,,482.0,,323.0,,188.0,,"Taos Pueblo and Off-Reservation Trust Land, NM",4140
0.0,,11.0,,0.0,,11.0,,0.0,,11.0,,"Northwestern Shoshone Reservation, UT",2505
1244.0,,318.0,,1223.0,,316.0,,21.0,,15.0,,"Papakolea Hawaiian Home Land, HI",5179
0.0,,12.0,,0.0,,12.0,,0.0,,12.0,,"Wailau Hawaiian Home Land, HI",5251
527.0,,89.0,,527.0,,89.0,,0.0,,10.0,,"Buckland ANVSA, AK",6250
67.0,,45.0,,62.0,,44.0,,5.0,,5.0,,"Dot Lake ANVSA, AK",6415
9.0,,14.0,,9.0,,14.0,,0.0,,12.0,,"Schaghticoke (state) Reservation, CT",9350
1449.0,,204.0,,1397.0,,200.0,,52.0,,27.0,,"Pueblo de Cochiti, NM",0680
393.0,,75.0,,393.0,,75.0,,0.0,,10.0,,"St. Michael ANVSA, AK",7375
108.0,,51.0,,108.0,,51.0,,0.0,,10.0,,"Tetlin ANVSA, AK",7580
66.0,,29.0,,66.0,,29.0,,0.0,,10.0,,"Chignik Lake ANVSA, AK",6305
0.0,,13.0,,0.0,,13.0,,0.0,,13.0,,"Alturas Indian Rancheria, CA",0095
456.0,,86.0,,445.0,,85.0,,11.0,,8.0,,"Seldovia ANVSA, AK",7435
88.0,,38.0,,88.0,,38.0,,0.0,,10.0,,"Beaver ANVSA, AK",6190
29.0,,22.0,,29.0,,22.0,,0.0,,10.0,,"Karluk ANVSA, AK",6700
93.0,,55.0,,93.0,,55.0,,0.0,,13.0,,"South Fork Reservation and Off-Reservation Trust Land, NV",3930
947.0,,202.0,,483.0,,110.0,,464.0,,132.0,,"Cabazon Reservation, CA",0415
1584.0,,67.0,,1569.0,,66.0,,15.0,,15.0,,"Lower Brule Reservation and Off-Reservation Trust Land, SD",2030
453.0,,102.0,,453.0,,102.0,,0.0,,10.0,,"Kivalina ANVSA, AK",6755
0.0,,12.0,,0.0,,12.0,,0.0,,12.0,,"Keoniki Hawaiian Home Land, HI",5116
911.0,,285.0,,207.0,,90.0,,704.0,,230.0,,"Akutan ANVSA, AK",6030
109.0,,80.0,,104.0,,79.0,,5.0,,7.0,,"Hopland Rancheria and Off-Reservation Trust Land, CA",1515
4679.0,,332.0,,4663.0,,332.0,,16.0,,17.0,,"Northern Cheyenne Indian Reservation and Off-Reservation Trust Land, MT--SD",2490
0.0,,10.0,,0.0,,10.0,,0.0,,10.0,,"Ohogamiut ANVSA, AK",7145
58179.0,,1367.0,,54738.0,,1245.0,,3441.0,,371.0,,"Coharie (state) SDTSA, NC",9635
47085.0,,1052.0,,39686.0,,1064.0,,7399.0,,659.0,,"Puyallup Reservation and Off-Reservation Trust Land, WA",3000
2064.0,,133.0,,2053.0,,137.0,,11.0,,13.0,,"Crow Creek Reservation, SD",0855
351.0,,88.0,,350.0,,88.0,,1.0,,2.0,,"Kawaihae Hawaiian Home Land, HI",5091
4284.0,,496.0,,4238.0,,492.0,,46.0,,48.0,,"Laguna Pueblo and Off-Reservation Trust Land, NM",1840
4738.0,,226.0,,4677.0,,227.0,,61.0,,25.0,,"Omaha Reservation, NE--IA",2550
0.0,,10.0,,0.0,,10.0,,0.0,,10.0,,"Ontonagon Reservation, MI",2580
0.0,,10.0,,0.0,,10.0,,0.0,,10.0,,"Healy Lake ANVSA, AK",6575
327.0,,100.0,,327.0,,100.0,,0.0,,9.0,,"Sokaogon Chippewa Community and Off-Reservation Trust Land, WI",3885
92.0,,55.0,,92.0,,55.0,,0.0,,10.0,,"Chenega ANVSA, AK",6280
258.0,,84.0,,254.0,,83.0,,4.0,,5.0,,"Kaktovik ANVSA, AK",6680
848.0,,180.0,,848.0,,180.0,,0.0,,12.0,,"Zia Pueblo and Off-Reservation Trust Land, NM",4770
132.0,,160.0,,132.0,,160.0,,0.0,,12.0,,"Pearl City Hawaiian Home Land, HI",5188
821.0,,177.0,,796.0,,173.0,,25.0,,18.0,,"Elko Colony, NV",1005
3834.0,,389.0,,3830.0,,388.0,,4.0,,6.0,,"Mescalero Reservation, NM",2205
55.0,,65.0,,55.0,,65.0,,0.0,,13.0,,"Ione Band of Miwok TDSA, CA",8300
291.0,,141.0,,272.0,,138.0,,19.0,,24.0,,"Upper Skagit Reservation, WA",4455
474.0,,111.0,,474.0,,111.0,,0.0,,10.0,,"Copper Center ANVSA, AK",6365
5965.0,,338.0,,5843.0,,340.0,,122.0,,60.0,,"Ottawa OTSA, OK",5770
11218.0,,335.0,,10843.0,,358.0,,375.0,,118.0,,"Kiowa-Comanche-Apache-Ft Sill Apache/Caddo-Wichita-Delaware joint-use OTSA, OK",5955
1778.0,,377.0,,1725.0,,377.0,,53.0,,66.0,,"Wassamasaw (state) SDTSA, SC",9975
3501.0,,256.0,,3467.0,,257.0,,34.0,,32.0,,"Rocky Boy's Reservation and Off-Reservation Trust Land, MT",3205
2997.0,,231.0,,2964.0,,229.0,,33.0,,19.0,,"Waimanalo Hawaiian Home Land, HI",5271
141.0,,47.0,,141.0,,47.0,,0.0,,10.0,,"King Salmon ANVSA, AK",6740
0.0,,12.0,,0.0,,12.0,,0.0,,12.0,,"Jena Band of Choctaw Reservation, LA",1690
0.0,,12.0,,0.0,,12.0,,0.0,,12.0,,"Pulehunui Hawaiian Home Land, HI",5199
479.0,,179.0,,468.0,,172.0,,11.0,,18.0,,"Coquille Reservation, OR",0775
24.0,,27.0,,24.0,,27.0,,0.0,,13.0,,"Waccamaw (state) SDTSA, SC",9967
368.0,,98.0,,368.0,,98.0,,0.0,,10.0,,"Shungnak ANVSA, AK",7470
4.0,,10.0,,4.0,,10.0,,0.0,,12.0,,"Stillaguamish Reservation and Off-Reservation Trust Land, WA",4000
0.0,,10.0,,0.0,,10.0,,0.0,,10.0,,"Chulloonawick ANVSA, AK",6340
2835.0,,159.0,,2835.0,,159.0,,0.0,,10.0,,"Fort Belknap Reservation and Off-Reservation Trust Land, MT",1150
56.0,,26.0,,56.0,,26.0,,0.0,,10.0,,"Evansville ANVSA, AK",6490
570.0,,76.0,,570.0,,76.0,,0.0,,10.0,,"Alakanuk ANVSA, AK",6035
0.0,,13.0,,0.0,,13.0,,0.0,,13.0,,"Lytton Rancheria, CA",2075
2459.0,,257.0,,2307.0,,215.0,,152.0,,115.0,,"Petersburg ANVSA, AK",7220
343.0,,99.0,,317.0,,93.0,,26.0,,18.0,,"Chilkoot ANVSA, AK",6315
1916.0,,258.0,,1907.0,,258.0,,9.0,,10.0,,"Jemez Pueblo, NM",1685
1883.0,,384.0,,1867.0,,381.0,,16.0,,20.0,,"Upper South Carolina Pee Dee (state) SDTSA, SC",9963
2013.0,,184.0,,1987.0,,182.0,,26.0,,27.0,,"Spokane Reservation and Off-Reservation Trust Land, WA",3940
462.0,,146.0,,462.0,,146.0,,0.0,,12.0,,"Squaxin Island Reservation and Off-Reservation Trust Land, WA",3955
44.0,,37.0,,44.0,,37.0,,0.0,,12.0,,"Coushatta Reservation and Off-Reservation Trust Land, LA",0795
851.0,,235.0,,842.0,,234.0,,9.0,,10.0,,"Port Gamble Reservation, WA",2910
412.0,,137.0,,403.0,,134.0,,9.0,,12.0,,"Shakopee Mdewakanton Sioux Community and Off-Reservation Trust Land, MN",3680
924.0,,202.0,,916.0,,201.0,,8.0,,12.0,,"Catawba Reservation, SC",0525
486.0,,119.0,,484.0,,118.0,,2.0,,6.0,,"Flandreau Reservation, SD",1100
841.0,,110.0,,827.0,,112.0,,14.0,,11.0,,"Indian Township Reservation, ME",1575
888.0,,235.0,,858.0,,230.0,,30.0,,20.0,,"Kealakehe Hawaiian Home Land, HI",5101
274.0,,57.0,,274.0,,57.0,,0.0,,10.0,,"Lower Kalskag ANVSA, AK",6890
2600.0,,280.0,,2294.0,,267.0,,306.0,,69.0,,"Pee Dee (state) SDTSA, SC",9844
174587.0,,1053.0,,166345.0,,1136.0,,8242.0,,738.0,,"Cheyenne-Arapaho OTSA, OK",5560
74.0,,38.0,,74.0,,38.0,,0.0,,10.0,,"Circle ANVSA, AK",6350
2685.0,,288.0,,2628.0,,286.0,,57.0,,41.0,,"Adais Caddo (state) SDTSA, LA",9510
201337.0,,1484.0,,194290.0,,1545.0,,7047.0,,582.0,,"United Houma Nation (state) SDTSA, LA",9960
1120.0,,238.0,,1099.0,,239.0,,21.0,,24.0,,"Reno-Sparks Indian Colony, NV",3130
474.0,,168.0,,465.0,,167.0,,9.0,,11.0,,"Santee (state) SDTSA, SC",9875
1003.0,,187.0,,969.0,,185.0,,34.0,,23.0,,"Hoolehua-Palaau Hawaiian Home Land, HI",5033
24.0,,13.0,,24.0,,13.0,,0.0,,12.0,,"Coos, Lower Umpqua, and Siuslaw Reservation and Off-Reservation Trust Land, OR",0770
529.0,,129.0,,524.0,,129.0,,5.0,,9.0,,"Fallon Paiute-Shoshone Reservation and Off-Reservation Trust Land, NV",1075
1893.0,,250.0,,1500.0,,226.0,,393.0,,99.0,,"Hollywood Reservation, FL",1475
7.0,,11.0,,0.0,,12.0,,7.0,,11.0,,"Oil Springs Reservation, NY",2535
398.0,,72.0,,398.0,,72.0,,0.0,,10.0,,"Tuntutuliak ANVSA, AK",7640
36619.0,,249.0,,34279.0,,289.0,,2340.0,,178.0,,"Samish TDSA, WA",8750
1.0,,2.0,,1.0,,2.0,,0.0,,10.0,,"Alatna ANVSA, AK",6040
322.0,,116.0,,322.0,,116.0,,0.0,,13.0,,"Carson Colony, NV",0510
3551.0,,468.0,,3471.0,,476.0,,80.0,,45.0,,"Isleta Pueblo, NM",1625
276.0,,98.0,,249.0,,93.0,,27.0,,28.0,,"Manchester-Point Arena Rancheria, CA",2100
0.0,,12.0,,0.0,,12.0,,0.0,,12.0,,"Kakaina-Kumuhau Hawaiian Home Land, HI",5043
0.0,,12.0,,0.0,,12.0,,0.0,,12.0,,"Wailua Hawaiian Home Land, HI",5256
0.0,,13.0,,0.0,,13.0,,0.0,,13.0,,"Paskenta Rancheria, CA",2685
694.0,,97.0,,686.0,,96.0,,8.0,,10.0,,"Hoonah ANVSA, AK",6590
11401.0,,1359.0,,11400.0,,1359.0,,1.0,,2.0,,"Zuni Reservation and Off-Reservation Trust Land, NM--AZ",4785
0.0,,12.0,,0.0,,12.0,,0.0,,12.0,,"Ualapue Hawaiian Home Land, HI",5216
51.0,,51.0,,51.0,,51.0,,0.0,,12.0,,"Kootenai Reservation and Off-Reservation Trust Land, ID",1800
74.0,,42.0,,72.0,,41.0,,2.0,,5.0,,"Lovelock Indian Colony, NV",2015
158.0,,50.0,,148.0,,47.0,,10.0,,13.0,,"Port Alsworth ANVSA, AK",7263
635.0,,97.0,,635.0,,97.0,,0.0,,10.0,,"Kwinhagak ANVSA, AK",6845
47.0,,22.0,,47.0,,22.0,,0.0,,10.0,,"Nikolai ANVSA, AK",7070
1175.0,,126.0,,1148.0,,129.0,,27.0,,25.0,,"Sac and Fox/Meskwaki Settlement, IA",3280
2722.0,,213.0,,2711.0,,214.0,,11.0,,12.0,,"Winnebago Reservation and Off-Reservation Trust Land, NE--IA",4625
404.0,,80.0,,404.0,,80.0,,0.0,,10.0,,"Angoon ANVSA, AK",6100
5.0,,8.0,,2.0,,4.0,,3.0,,5.0,,"Middletown Rancheria, CA",2255
301.0,,115.0,,301.0,,115.0,,0.0,,10.0,,"Point Lay ANVSA, AK",7255
344.0,,79.0,,344.0,,79.0,,0.0,,10.0,,"Anaktuvuk Pass ANVSA, AK",6080
170.0,,69.0,,170.0,,69.0,,0.0,,13.0,,"Duckwater Reservation, NV",0975
348.0,,77.0,,348.0,,77.0,,0.0,,10.0,,"Kiana ANVSA, AK",6730
510.0,,101.0,,510.0,,101.0,,0.0,,10.0,,"Pilot Station ANVSA, AK",7230
5939.0,,281.0,,5885.0,,278.0,,54.0,,29.0,,"Kaw OTSA, OK",5690
7184.0,,577.0,,6852.0,,566.0,,332.0,,146.0,,"Colville Reservation and Off-Reservation Trust Land, WA",0760
951.0,,104.0,,947.0,,104.0,,4.0,,6.0,,"Togiak ANVSA, AK",7605
743.0,,126.0,,743.0,,126.0,,0.0,,10.0,,"Unalakleet ANVSA, AK",7690
97.0,,66.0,,94.0,,64.0,,3.0,,5.0,,"Tonto Apache Reservation, AZ",4235
199.0,,64.0,,198.0,,64.0,,1.0,,4.0,,"Woodfords Community, CA",4665
47.0,,30.0,,47.0,,30.0,,0.0,,10.0,,"Egegik ANVSA, AK",6445
521.0,,172.0,,511.0,,168.0,,10.0,,11.0,,"Campbell Ranch, NV",0440
158.0,,140.0,,81.0,,65.0,,77.0,,78.0,,"Onondaga Nation Reservation, NY",2570
1365.0,,181.0,,1316.0,,175.0,,49.0,,29.0,,"Wrangell ANVSA, AK",7755
314.0,,108.0,,303.0,,108.0,,11.0,,12.0,,"Moapa River Indian Reservation, NV",2315
186.0,,98.0,,161.0,,90.0,,25.0,,31.0,,"Pinoleville Rancheria, CA",2820
472.0,,76.0,,471.0,,76.0,,1.0,,3.0,,"Nenana ANVSA, AK",7030
419.0,,150.0,,417.0,,150.0,,2.0,,4.0,,"Lenape Indian Tribe of Delaware (state) SDTSA, DE",9800
1624.0,,113.0,,1613.0,,114.0,,11.0,,12.0,,"Annette Island Reserve, AK",0110
77.0,,26.0,,77.0,,26.0,,0.0,,10.0,,"Sleetmute ANVSA, AK",7495
0.0,,13.0,,0.0,,13.0,,0.0,,13.0,,"Jackson Rancheria, CA",1640
411.0,,98.0,,408.0,,99.0,,3.0,,6.0,,"Hydaburg ANVSA, AK",6615
7.0,,9.0,,7.0,,9.0,,0.0,,12.0,,"Kalaeloa Hawaiian Home Land, HI",5044
144.0,,101.0,,144.0,,101.0,,0.0,,12.0,,"Makuu Hawaiian Home Land, HI",5146
94.0,,32.0,,94.0,,32.0,,0.0,,10.0,,"Anvik ANVSA, AK",6125
195704.0,,625.0,,185553.0,,997.0,,10151.0,,802.0,,"Kiowa-Comanche-Apache-Fort Sill Apache OTSA, OK",5720
6519.0,,629.0,,6114.0,,567.0,,405.0,,266.0,,"Salt River Reservation, AZ",3340
249.0,,152.0,,221.0,,141.0,,28.0,,51.0,,"Yomba Reservation, NV",4740
306.0,,440.0,,174.0,,181.0,,132.0,,300.0,,"Maili Hawaiian Home Land, HI",5138
95.0,,45.0,,95.0,,45.0,,0.0,,10.0,,"Larsen Bay ANVSA, AK",6855
209.0,,85.0,,209.0,,85.0,,0.0,,10.0,,"Nanwalek ANVSA, AK",6995
507.0,,292.0,,507.0,,292.0,,0.0,,10.0,,"Modoc OTSA, OK",5740
4222.0,,17.0,,3825.0,,101.0,,397.0,,100.0,,"Barrow ANVSA, AK",6175
0.0,,13.0,,0.0,,13.0,,0.0,,13.0,,"Big Bend Rancheria, CA",0215
227.0,,103.0,,227.0,,103.0,,0.0,,13.0,,"Cold Springs Rancheria, CA",0720
18.0,,16.0,,18.0,,16.0,,0.0,,13.0,,"Cortina Indian Rancheria, CA",0780
33258.0,,769.0,,32390.0,,750.0,,868.0,,174.0,,"Kenaitze ANVSA, AK",6720
10540.0,,260.0,,10279.0,,265.0,,261.0,,112.0,,"Blackfeet Indian Reservation and Off-Reservation Trust Land, MT",0305
365.0,,71.0,,365.0,,71.0,,0.0,,10.0,,"Marshall ANVSA, AK",6910
201.0,,100.0,,187.0,,99.0,,14.0,,15.0,,"Mashantucket Pequot Reservation and Off-Reservation Trust Land, CT",2145
557.0,,79.0,,557.0,,79.0,,0.0,,10.0,,"Kasigluk ANVSA, AK",6710
2907.0,,218.0,,2854.0,,218.0,,53.0,,28.0,,"Umatilla Reservation and Off-Reservation Trust Land, OR",4405
3657.0,,196.0,,3465.0,,193.0,,192.0,,49.0,,"Pueblo of Pojoaque and Off-Reservation Trust Land, NM",2990
773.0,,97.0,,770.0,,97.0,,3.0,,4.0,,"Eastern Shawnee OTSA, OK",5640
206.0,,134.0,,203.0,,135.0,,3.0,,5.0,,"Berry Creek Rancheria and Off-Reservation Trust Land, CA",0200
183.0,,90.0,,178.0,,89.0,,5.0,,10.0,,"Hoh Indian Reservation, WA",1460
403.0,,72.0,,403.0,,72.0,,0.0,,10.0,,"Nunapitchuk ANVSA, AK",7135
527.0,,88.0,,527.0,,88.0,,0.0,,10.0,,"Scammon Bay ANVSA, AK",7425
622.0,,103.0,,622.0,,103.0,,0.0,,10.0,,"Toksook Bay ANVSA, AK",7625
599.0,,130.0,,589.0,,129.0,,10.0,,11.0,,"Chitimacha Reservation, LA",0635
243.0,,85.0,,243.0,,85.0,,0.0,,10.0,,"Old Harbor ANVSA, AK",7150
5218.0,,377.0,,4640.0,,343.0,,578.0,,99.0,,"Sandia Pueblo, NM",3370
5417.0,,449.0,,5277.0,,437.0,,140.0,,71.0,,"Fort Hall Reservation and Off-Reservation Trust Land, ID",1185
402.0,,59.0,,402.0,,59.0,,0.0,,10.0,,"Russian Mission ANVSA, AK",7315
643.0,,141.0,,596.0,,112.0,,47.0,,81.0,,"St. Paul ANVSA, AK",7390
633.0,,83.0,,633.0,,83.0,,0.0,,10.0,,"Shishmaref ANVSA, AK",7465
13420.0,,696.0,,13116.0,,685.0,,304.0,,102.0,,"Southern Ute Reservation, CO",3925
7.0,,16.0,,7.0,,16.0,,0.0,,14.0,,"Miccosukee Reservation and Off-Reservation Trust Land, FL",2240
23157.0,,270.0,,22851.0,,275.0,,306.0,,78.0,,"Seminole OTSA, OK",5830
690.0,,291.0,,568.0,,204.0,,122.0,,163.0,,"Brighton Reservation, FL",0360
278.0,,76.0,,274.0,,76.0,,4.0,,5.0,,"La Jolla Reservation, CA",1850
133.0,,57.0,,133.0,,57.0,,0.0,,10.0,,"Inalik ANVSA, AK",6630
58.0,,34.0,,58.0,,34.0,,0.0,,12.0,,"Celilo Village, OR",0560
714.0,,143.0,,711.0,,142.0,,3.0,,6.0,,"Forest County Potawatomi Community and Off-Reservation Trust Land, WI",1135
72.0,,35.0,,72.0,,35.0,,0.0,,10.0,,"Chistochina ANVSA, AK",6325
55.0,,42.0,,51.0,,37.0,,4.0,,7.0,,"XL Ranch Rancheria, CA",4680
708.0,,138.0,,689.0,,138.0,,19.0,,14.0,,"Penobscot Reservation and Off-Reservation Trust Land, ME",2760
726.0,,108.0,,726.0,,108.0,,0.0,,10.0,,"Savoonga ANVSA, AK",7415
6983.0,,392.0,,6898.0,,390.0,,85.0,,30.0,,"Coeur d'Alene Reservation, ID",0705
8746.0,,275.0,,8746.0,,275.0,,0.0,,17.0,,"Turtle Mountain Reservation and Off-Reservation Trust Land, MT--ND--SD",4345
6541.0,,198.0,,6326.0,,196.0,,215.0,,81.0,,"Allegany Reservation, NY",0080
5208.0,,292.0,,5133.0,,291.0,,75.0,,35.0,,"Mille Lacs Reservation and Off-Reservation Trust Land, MN",2270
570.0,,109.0,,553.0,,109.0,,17.0,,13.0,,"Yakutat ANVSA, AK",7765
23496.0,,528.0,,22814.0,,529.0,,682.0,,134.0,,"Uintah and Ouray Reservation and Off-Reservation Trust Land, UT",4390
64.0,,35.0,,64.0,,35.0,,0.0,,10.0,,"Shageluk ANVSA, AK",7440
34.0,,45.0,,27.0,,41.0,,7.0,,12.0,,"Redding Rancheria, CA",3095
171.0,,111.0,,152.0,,103.0,,19.0,,19.0,,"Sherwood Valley Rancheria and Off-Reservation Trust Land, CA",3735
126.0,,63.0,,124.0,,63.0,,2.0,,4.0,,"Smith River Rancheria and Off-Reservation Trust Land, CA",3855
3283.0,,241.0,,3221.0,,238.0,,62.0,,51.0,,"Jicarilla Apache Nation Reservation and Off-Reservation Trust Land, NM",1700
5589.0,,336.0,,5173.0,,335.0,,416.0,,123.0,,"Nanticoke Lenni Lenape (state) SDTSA, NJ",9835
0.0,,12.0,,0.0,,12.0,,0.0,,12.0,,"Waimanu Hawaiian Home Land, HI",5276
410.0,,142.0,,403.0,,141.0,,7.0,,10.0,,"Fort McDermitt Indian Reservation, NV--OR",1210
9747.0,,253.0,,9681.0,,270.0,,66.0,,51.0,,"Fort Peck Indian Reservation and Off-Reservation Trust Land, MT",1250
105.0,,59.0,,101.0,,59.0,,4.0,,7.0,,"Eyak ANVSA, AK",6495
688.0,,105.0,,688.0,,105.0,,0.0,,10.0,,"Selawik ANVSA, AK",7430
83822.0,,821.0,,81887.0,,801.0,,1935.0,,223.0,,"Cher-O-Creek (state) SDTSA, AL",9550
150.0,,67.0,,150.0,,67.0,,0.0,,10.0,,"Mentasta Lake ANVSA, AK",6945
10.0,,9.0,,10.0,,9.0,,0.0,,10.0,,"Ugashik ANVSA, AK",7665
1586.0,,249.0,,1529.0,,247.0,,57.0,,44.0,,"Pyramid Lake Paiute Reservation, NV",3010
140.0,,59.0,,135.0,,59.0,,5.0,,7.0,,"Port Graham ANVSA, AK",7265
579.0,,204.0,,568.0,,203.0,,11.0,,9.0,,"Kaupea Hawaiian Home Land, HI",5088
1837.0,,156.0,,1814.0,,158.0,,23.0,,23.0,,"Wyandotte OTSA, OK",5890
27.0,,42.0,,27.0,,42.0,,0.0,,13.0,,"Montgomery Creek Rancheria, CA",2330
1150.0,,191.0,,1131.0,,191.0,,19.0,,17.0,,"Quinault Reservation, WA",3040
0.0,,10.0,,0.0,,10.0,,0.0,,10.0,,"Portage Creek ANVSA, AK",7260
4093.0,,110.0,,4072.0,,111.0,,21.0,,23.0,,"Spirit Lake Reservation, ND",3935
76.0,,38.0,,70.0,,36.0,,6.0,,11.0,,"Stewarts Point Rancheria, CA",3985
109.0,,91.0,,106.0,,90.0,,3.0,,5.0,,"Table Bluff Reservation, CA",4095
9812.0,,1327.0,,9492.0,,1292.0,,320.0,,128.0,,"Tohono O'odham Nation Reservation and Off-Reservation Trust Land, AZ",4200
536.0,,83.0,,533.0,,83.0,,3.0,,3.0,,"Aniak ANVSA, AK",6105
0.0,,13.0,,0.0,,13.0,,0.0,,13.0,,"Ewiiaapaayp Reservation, CA",1065
2.0,,7.0,,2.0,,7.0,,0.0,,13.0,,"Twenty-Nine Palms Reservation, CA",4375
2237.0,,270.0,,2228.0,,269.0,,9.0,,8.0,,"Creek/Seminole joint-use OTSA, OK",5915
413.0,,103.0,,409.0,,103.0,,4.0,,5.0,,"Kake ANVSA, AK",6670
14138.0,,522.0,,13650.0,,513.0,,488.0,,93.0,,"Ninilchik ANVSA, AK",7080
84.0,,61.0,,84.0,,61.0,,0.0,,13.0,,"Fort Bidwell Reservation and Off-Reservation Trust Land, CA",1170
252.0,,57.0,,252.0,,57.0,,0.0,,10.0,,"Kwigillingok ANVSA, AK",6840
9.0,,13.0,,9.0,,13.0,,0.0,,13.0,,"Roaring Creek Rancheria, CA",3185
0.0,,13.0,,0.0,,13.0,,0.0,,13.0,,"Summit Lake Reservation and Off-Reservation Trust Land, NV",4045
1072.0,,250.0,,838.0,,197.0,,234.0,,87.0,,"Pala Reservation, CA",2635
