B23025_001E,B23025_001EA,B23025_001M,B23025_001MA,B23025_002E,B23025_002EA,B23025_002M,B23025_002MA,B23025_003E,B23025_003EA,B23025_003M,B23025_003MA,B23025_004E,B23025_004EA,B23025_004M,B23025_004MA,B23025_005E,B23025_005EA,B23025_005M,B23025_005MA,B23025_006E,B23025_006EA,B23025_006M,B23025_006MA,B23025_007E,B23025_007EA,B23025_007M,B23025_007MA,NAME,alaska native regional corporation,state
2635.0,,246.0,,1672.0,,232.0,,1672.0,,232.0,,1500.0,,235.0,,172.0,,55.0,,0.0,,10.0,,963.0,,141.0,,"Ahtna Alaska Native Regional Corporation, Alaska",00590,02
7637.0,,121.0,,6815.0,,229.0,,6744.0,,227.0,,6516.0,,257.0,,228.0,,99.0,,71.0,,75.0,,822.0,,138.0,,"Aleut Alaska Native Regional Corporation, Alaska",01570,02
7306.0,,41.0,,5597.0,,171.0,,5589.0,,174.0,,4901.0,,195.0,,688.0,,128.0,,8.0,,8.0,,1709.0,,178.0,,"Arctic Slope Alaska Native Regional Corporation, Alaska",03950,02
6666.0,,60.0,,4363.0,,131.0,,4316.0,,132.0,,3548.0,,132.0,,768.0,,73.0,,47.0,,32.0,,2303.0,,131.0,,"Bering Straits Alaska Native Regional Corporation, Alaska",06370,02
5152.0,,194.0,,3288.0,,182.0,,3284.0,,182.0,,2874.0,,178.0,,410.0,,80.0,,4.0,,8.0,,1864.0,,123.0,,"Bristol Bay Alaska Native Regional Corporation, Alaska",09040,02
16375.0,,71.0,,10167.0,,196.0,,10099.0,,210.0,,8035.0,,223.0,,2064.0,,163.0,,68.0,,44.0,,6208.0,,215.0,,"Calista Alaska Native Regional Corporation, Alaska",09800,02
9461.0,,480.0,,6392.0,,507.0,,6345.0,,507.0,,5871.0,,463.0,,474.0,,141.0,,47.0,,37.0,,3069.0,,372.0,,"Chugach Alaska Native Regional Corporation, Alaska",14410,02
331385.0,,531.0,,236903.0,,1634.0,,227300.0,,1637.0,,209037.0,,1753.0,,18263.0,,1003.0,,9603.0,,702.0,,94482.0,,1593.0,,"Cook Inlet Alaska Native Regional Corporation, Alaska",17140,02
86053.0,,282.0,,62249.0,,973.0,,56441.0,,1086.0,,52153.0,,1120.0,,4288.0,,484.0,,5808.0,,608.0,,23804.0,,913.0,,"Doyon Alaska Native Regional Corporation, Alaska",20010,02
10222.0,,69.0,,7869.0,,220.0,,6940.0,,273.0,,6529.0,,272.0,,411.0,,128.0,,929.0,,193.0,,2353.0,,220.0,,"Koniag Alaska Native Regional Corporation, Alaska",41640,02
5203.0,,31.0,,3457.0,,105.0,,3457.0,,105.0,,2551.0,,132.0,,906.0,,110.0,,0.0,,14.0,,1746.0,,103.0,,"NANA Alaska Native Regional Corporation, Alaska",52120,02
56228.0,,260.0,,40373.0,,688.0,,39552.0,,739.0,,36937.0,,744.0,,2615.0,,260.0,,821.0,,214.0,,15855.0,,633.0,,"Sealaska Alaska Native Regional Corporation, Alaska",67940,02
