nationwide
regions
divisions
states
congressional_districts
state_legislative_upper_districts
state_legislative_lower_districts
counties
places
urban_areas
msas
csas
pumas
nectas
cnectas
aiannh_homelands
tracts
zctas
unified_school_districts
elementary_school_districts
secondary_school_districts
alaska_native
county_subdivision
