B05002_001E,B05002_001EA,B05002_001M,B05002_001MA,B05002_002E,B05002_002EA,B05002_002M,B05002_002MA,B05002_013E,B05002_013EA,B05002_013M,B05002_013MA,NAME,alaska native regional corporation,state
9122.0,,12.0,,5750.0,,272.0,,3372.0,,272.0,,"Aleut Alaska Native Regional Corporation, Alaska",01570,02
7035.0,,275.0,,6870.0,,277.0,,165.0,,66.0,,"Bristol Bay Alaska Native Regional Corporation, Alaska",09040,02
2075.0,,272.0,,2044.0,,263.0,,31.0,,28.0,,"Ahtna Alaska Native Regional Corporation, Alaska",00590,02
26086.0,,3.0,,25579.0,,139.0,,507.0,,139.0,,"Calista Alaska Native Regional Corporation, Alaska",09800,02
114405.0,,389.0,,108284.0,,801.0,,6121.0,,697.0,,"Doyon Alaska Native Regional Corporation, Alaska",20010,02
9869.0,,-555555555.0,*****,9657.0,,75.0,,212.0,,75.0,,"Bering Straits Alaska Native Regional Corporation, Alaska",06370,02
7715.0,,-555555555.0,*****,7617.0,,41.0,,98.0,,41.0,,"NANA Alaska Native Regional Corporation, Alaska",52120,02
71902.0,,133.0,,66410.0,,337.0,,5492.0,,336.0,,"Sealaska Alaska Native Regional Corporation, Alaska",67940,02
452516.0,,435.0,,416319.0,,1603.0,,36197.0,,1539.0,,"Cook Inlet Alaska Native Regional Corporation, Alaska",17140,02
13773.0,,14.0,,11230.0,,209.0,,2543.0,,209.0,,"Koniag Alaska Native Regional Corporation, Alaska",41640,02
12626.0,,527.0,,11861.0,,533.0,,765.0,,235.0,,"Chugach Alaska Native Regional Corporation, Alaska",14410,02
9757.0,,12.0,,9260.0,,66.0,,497.0,,66.0,,"Arctic Slope Alaska Native Regional Corporation, Alaska",03950,02
