B15002_001E,B15002_001EA,B15002_001M,B15002_001MA,B15002_002E,B15002_002EA,B15002_002M,B15002_002MA,B15002_003E,B15002_003EA,B15002_003M,B15002_003MA,B15002_004E,B15002_004EA,B15002_004M,B15002_004MA,B15002_005E,B15002_005EA,B15002_005M,B15002_005MA,B15002_006E,B15002_006EA,B15002_006M,B15002_006MA,B15002_007E,B15002_007EA,B15002_007M,B15002_007MA,B15002_008E,B15002_008EA,B15002_008M,B15002_008MA,B15002_009E,B15002_009EA,B15002_009M,B15002_009MA,B15002_010E,B15002_010EA,B15002_010M,B15002_010MA,B15002_011E,B15002_011EA,B15002_011M,B15002_011MA,B15002_012E,B15002_012EA,B15002_012M,B15002_012MA,B15002_013E,B15002_013EA,B15002_013M,B15002_013MA,B15002_014E,B15002_014EA,B15002_014M,B15002_014MA,B15002_015E,B15002_015EA,B15002_015M,B15002_015MA,B15002_016E,B15002_016EA,B15002_016M,B15002_016MA,B15002_017E,B15002_017EA,B15002_017M,B15002_017MA,B15002_018E,B15002_018EA,B15002_018M,B15002_018MA,B15002_019E,B15002_019EA,B15002_019M,B15002_019MA,B15002_020E,B15002_020EA,B15002_020M,B15002_020MA,B15002_021E,B15002_021EA,B15002_021M,B15002_021MA,B15002_022E,B15002_022EA,B15002_022M,B15002_022MA,B15002_023E,B15002_023EA,B15002_023M,B15002_023MA,B15002_024E,B15002_024EA,B15002_024M,B15002_024MA,B15002_025E,B15002_025EA,B15002_025M,B15002_025MA,B15002_026E,B15002_026EA,B15002_026M,B15002_026MA,B15002_027E,B15002_027EA,B15002_027M,B15002_027MA,B15002_028E,B15002_028EA,B15002_028M,B15002_028MA,B15002_029E,B15002_029EA,B15002_029M,B15002_029MA,B15002_030E,B15002_030EA,B15002_030M,B15002_030MA,B15002_031E,B15002_031EA,B15002_031M,B15002_031MA,B15002_032E,B15002_032EA,B15002_032M,B15002_032MA,B15002_033E,B15002_033EA,B15002_033M,B15002_033MA,B15002_034E,B15002_034EA,B15002_034M,B15002_034MA,B15002_035E,B15002_035EA,B15002_035M,B15002_035MA,NAME,region
38965012.0,,2373.0,,18587369.0,,1780.0,,260480.0,,4148.0,,118566.0,,3455.0,,223439.0,,4325.0,,312701.0,,4877.0,,255085.0,,3511.0,,326885.0,,4615.0,,344274.0,,4890.0,,351766.0,,4829.0,,5500452.0,,24577.0,,926785.0,,9352.0,,2134418.0,,11384.0,,1325804.0,,7238.0,,3840536.0,,17537.0,,1740437.0,,12631.0,,555767.0,,6198.0,,369974.0,,4377.0,,20377643.0,,1510.0,,293507.0,,4723.0,,144070.0,,3491.0,,234630.0,,3884.0,,329100.0,,4794.0,,242758.0,,4136.0,,314606.0,,4142.0,,346349.0,,4929.0,,332717.0,,4578.0,,5717964.0,,23074.0,,1032153.0,,9492.0,,2266164.0,,13730.0,,1823288.0,,8963.0,,4208976.0,,15752.0,,2397103.0,,15962.0,,423671.0,,5008.0,,270587.0,,4023.0,,Northeast Region,1
45584874.0,,5335.0,,22078688.0,,3366.0,,223783.0,,3123.0,,76627.0,,2503.0,,168866.0,,3532.0,,353394.0,,4854.0,,270550.0,,4208.0,,400978.0,,4891.0,,466001.0,,5861.0,,383307.0,,4605.0,,6804569.0,,26620.0,,1496061.0,,10660.0,,3243199.0,,14102.0,,1787608.0,,9449.0,,4048784.0,,20261.0,,1552958.0,,14032.0,,483951.0,,5174.0,,318052.0,,3908.0,,23506186.0,,3213.0,,226366.0,,2850.0,,77583.0,,2320.0,,153362.0,,3421.0,,349679.0,,4551.0,,242428.0,,4071.0,,382411.0,,4756.0,,446929.0,,5815.0,,321269.0,,3924.0,,6773462.0,,25091.0,,1681843.0,,12466.0,,3433648.0,,18123.0,,2347844.0,,12395.0,,4476596.0,,21623.0,,2042223.0,,14826.0,,327386.0,,4056.0,,223157.0,,3552.0,,Midwest Region,2
81181926.0,,8089.0,,38956473.0,,5523.0,,572754.0,,8227.0,,321546.0,,6517.0,,655413.0,,10348.0,,829830.0,,9568.0,,827273.0,,10309.0,,924866.0,,9105.0,,984821.0,,10896.0,,729182.0,,9646.0,,11368148.0,,48099.0,,2288415.0,,23468.0,,5699834.0,,23159.0,,2677779.0,,15709.0,,6866111.0,,34191.0,,2736969.0,,22040.0,,873882.0,,8236.0,,599650.0,,6778.0,,42225453.0,,4912.0,,573862.0,,8361.0,,298737.0,,5476.0,,601731.0,,8682.0,,787387.0,,9429.0,,744411.0,,9409.0,,870850.0,,9435.0,,942430.0,,10992.0,,667229.0,,8242.0,,11608377.0,,43856.0,,2727743.0,,24238.0,,6385449.0,,32162.0,,3724690.0,,13972.0,,7710627.0,,35619.0,,3520684.0,,28012.0,,636041.0,,7047.0,,425205.0,,5511.0,,South Region,3
50539832.0,,3163.0,,24817249.0,,2427.0,,454936.0,,6277.0,,273186.0,,4554.0,,617274.0,,8284.0,,378781.0,,5552.0,,414917.0,,5788.0,,369606.0,,5170.0,,493716.0,,6017.0,,587842.0,,6225.0,,5711180.0,,24313.0,,1538698.0,,14699.0,,4087609.0,,17467.0,,1904886.0,,8864.0,,4948027.0,,19736.0,,1961010.0,,12959.0,,616530.0,,5571.0,,459051.0,,5015.0,,25722583.0,,2066.0,,515550.0,,5505.0,,300090.0,,4591.0,,649452.0,,9623.0,,382872.0,,5598.0,,396699.0,,6347.0,,345869.0,,4994.0,,442653.0,,5694.0,,506883.0,,5792.0,,5609460.0,,21952.0,,1751062.0,,16533.0,,4242753.0,,19096.0,,2325582.0,,9879.0,,5277411.0,,20400.0,,2203424.0,,13742.0,,476100.0,,5404.0,,296723.0,,3458.0,,West Region,4
