B23025_001E,B23025_001EA,B23025_001M,B23025_001MA,B23025_002E,B23025_002EA,B23025_002M,B23025_002MA,B23025_003E,B23025_003EA,B23025_003M,B23025_003MA,B23025_004E,B23025_004EA,B23025_004M,B23025_004MA,B23025_005E,B23025_005EA,B23025_005M,B23025_005MA,B23025_006E,B23025_006EA,B23025_006M,B23025_006MA,B23025_007E,B23025_007EA,B23025_007M,B23025_007MA,NAME,new england city and town area
35521.0,,377.0,,24082.0,,585.0,,24056.0,,583.0,,22988.0,,584.0,,1068.0,,189.0,,26.0,,28.0,,11439.0,,524.0,,"Barre, VT Micropolitan NECTA",71050
18702.0,,239.0,,11212.0,,407.0,,11212.0,,407.0,,10700.0,,425.0,,512.0,,131.0,,0.0,,17.0,,7490.0,,403.0,,"Bennington, VT Micropolitan NECTA",71350
13682.0,,222.0,,7392.0,,317.0,,7353.0,,326.0,,6840.0,,325.0,,513.0,,109.0,,39.0,,54.0,,6290.0,,355.0,,"Berlin, NH Micropolitan NECTA",71500
4012411.0,,1864.0,,2776080.0,,5798.0,,2772640.0,,5779.0,,2616722.0,,6145.0,,155918.0,,2488.0,,3440.0,,381.0,,1236331.0,,5924.0,,"Boston-Cambridge-Nashua, MA-NH Metropolitan NECTA",71650
738198.0,,1500.0,,497350.0,,2622.0,,497146.0,,2633.0,,458935.0,,2491.0,,38211.0,,1530.0,,204.0,,83.0,,240848.0,,2575.0,,"Bridgeport-Stamford-Norwalk, CT Metropolitan NECTA",71950
17168.0,,286.0,,10347.0,,503.0,,10237.0,,498.0,,9265.0,,504.0,,972.0,,221.0,,110.0,,139.0,,6821.0,,498.0,,"Athol, MA Micropolitan NECTA",70450
64025.0,,504.0,,40573.0,,726.0,,40471.0,,727.0,,38251.0,,767.0,,2220.0,,336.0,,102.0,,50.0,,23452.0,,623.0,,"Augusta, ME Micropolitan NECTA",70600
111375.0,,488.0,,70607.0,,1085.0,,70318.0,,1074.0,,65945.0,,1122.0,,4373.0,,418.0,,289.0,,115.0,,40768.0,,1043.0,,"Bangor, ME Metropolitan NECTA",70750
203241.0,,715.0,,122783.0,,1367.0,,122267.0,,1354.0,,115543.0,,1607.0,,6724.0,,624.0,,516.0,,134.0,,80458.0,,1301.0,,"Barnstable Town, MA Metropolitan NECTA",70900
53460.0,,452.0,,33842.0,,697.0,,33599.0,,690.0,,32174.0,,734.0,,1425.0,,239.0,,243.0,,82.0,,19618.0,,634.0,,"Brunswick, ME Micropolitan NECTA",72250
176192.0,,460.0,,123460.0,,1202.0,,123194.0,,1213.0,,118145.0,,1291.0,,5049.0,,480.0,,266.0,,70.0,,52732.0,,1138.0,,"Burlington-South Burlington, VT Metropolitan NECTA",72400
11792.0,,280.0,,7381.0,,405.0,,7381.0,,405.0,,7010.0,,423.0,,371.0,,120.0,,0.0,,18.0,,4411.0,,406.0,,"Claremont, NH Micropolitan NECTA",72500
70247.0,,458.0,,45748.0,,708.0,,45682.0,,704.0,,43779.0,,700.0,,1903.0,,303.0,,66.0,,42.0,,24499.0,,652.0,,"Concord, NH Micropolitan NECTA",72700
158576.0,,1066.0,,111789.0,,1263.0,,111775.0,,1258.0,,104337.0,,1154.0,,7438.0,,691.0,,14.0,,22.0,,46787.0,,1316.0,,"Danbury, CT Metropolitan NECTA",72850
935428.0,,1038.0,,625372.0,,2944.0,,624677.0,,2975.0,,581011.0,,3269.0,,43666.0,,1423.0,,695.0,,190.0,,310056.0,,2980.0,,"Hartford-West Hartford-East Hartford, CT Metropolitan NECTA",73450
121588.0,,402.0,,84934.0,,1395.0,,84473.0,,1399.0,,80911.0,,1428.0,,3562.0,,395.0,,461.0,,179.0,,36654.0,,1408.0,,"Dover-Durham, NH-ME Metropolitan NECTA",73050
31668.0,,343.0,,20769.0,,474.0,,20769.0,,474.0,,19533.0,,549.0,,1236.0,,230.0,,0.0,,26.0,,10899.0,,417.0,,"Greenfield Town, MA Micropolitan NECTA",73300
42431.0,,424.0,,27754.0,,640.0,,27736.0,,642.0,,26548.0,,668.0,,1188.0,,285.0,,18.0,,16.0,,14677.0,,586.0,,"Keene, NH Micropolitan NECTA",73750
19771.0,,317.0,,12510.0,,467.0,,12502.0,,468.0,,11921.0,,491.0,,581.0,,198.0,,8.0,,13.0,,7261.0,,407.0,,"Laconia, NH Micropolitan NECTA",73900
165993.0,,822.0,,115524.0,,1289.0,,115314.0,,1294.0,,110007.0,,1364.0,,5307.0,,601.0,,210.0,,139.0,,50469.0,,1266.0,,"Manchester, NH Metropolitan NECTA",74950
133821.0,,834.0,,82344.0,,1134.0,,82284.0,,1129.0,,75685.0,,1052.0,,6599.0,,515.0,,60.0,,46.0,,51477.0,,999.0,,"New Bedford, MA Metropolitan NECTA",75550
499309.0,,1252.0,,327859.0,,2706.0,,327406.0,,2710.0,,304772.0,,2675.0,,22634.0,,1111.0,,453.0,,175.0,,171450.0,,2609.0,,"New Haven, CT Metropolitan NECTA",75700
70255.0,,714.0,,45516.0,,918.0,,45492.0,,917.0,,43976.0,,910.0,,1516.0,,240.0,,24.0,,29.0,,24739.0,,849.0,,"Lebanon, NH-VT Micropolitan NECTA",74350
119771.0,,902.0,,79938.0,,1386.0,,79875.0,,1394.0,,74512.0,,1372.0,,5363.0,,553.0,,63.0,,49.0,,39833.0,,1293.0,,"Leominster-Gardner, MA Metropolitan NECTA",74500
87007.0,,474.0,,56929.0,,875.0,,56893.0,,875.0,,53974.0,,945.0,,2919.0,,329.0,,36.0,,35.0,,30078.0,,794.0,,"Lewiston-Auburn, ME Metropolitan NECTA",74650
607764.0,,904.0,,381933.0,,2514.0,,381276.0,,2550.0,,353554.0,,2738.0,,27722.0,,1113.0,,657.0,,185.0,,225831.0,,2472.0,,"Springfield, MA-CT Metropolitan NECTA",78100
39876.0,,424.0,,26466.0,,666.0,,26461.0,,668.0,,24369.0,,723.0,,2092.0,,320.0,,5.0,,7.0,,13410.0,,664.0,,"Torrington, CT Micropolitan NECTA",78400
14335.0,,102.0,,9443.0,,440.0,,9437.0,,440.0,,9155.0,,470.0,,282.0,,162.0,,6.0,,8.0,,4892.0,,434.0,,"Vineyard Haven, MA Micropolitan NECTA",78500
171588.0,,923.0,,111554.0,,1692.0,,111463.0,,1692.0,,101238.0,,1756.0,,10225.0,,797.0,,91.0,,91.0,,60034.0,,1393.0,,"Waterbury, CT Metropolitan NECTA",78700
38281.0,,443.0,,22401.0,,698.0,,22357.0,,695.0,,20883.0,,724.0,,1474.0,,304.0,,44.0,,58.0,,15880.0,,752.0,,"Waterville, ME Micropolitan NECTA",78850
1071859.0,,1196.0,,702275.0,,3191.0,,698888.0,,3205.0,,650923.0,,3437.0,,47965.0,,1374.0,,3387.0,,262.0,,369584.0,,3328.0,,"Providence-Warwick, RI-MA Metropolitan NECTA",77200
34940.0,,350.0,,22029.0,,527.0,,21994.0,,526.0,,20981.0,,532.0,,1013.0,,202.0,,35.0,,39.0,,12911.0,,539.0,,"Rutland, VT Micropolitan NECTA",77650
18951.0,,386.0,,12213.0,,533.0,,12202.0,,534.0,,11428.0,,493.0,,774.0,,237.0,,11.0,,17.0,,6738.0,,475.0,,"Sanford, ME Micropolitan NECTA",77950
534691.0,,1007.0,,353845.0,,2487.0,,353478.0,,2501.0,,331925.0,,2166.0,,21553.0,,1243.0,,367.0,,134.0,,180846.0,,2362.0,,"Worcester, MA-CT Metropolitan NECTA",79600
299819.0,,928.0,,207439.0,,1940.0,,207087.0,,1938.0,,198356.0,,2000.0,,8731.0,,585.0,,352.0,,135.0,,92380.0,,1856.0,,"Portland-South Portland, ME Metropolitan NECTA",76750
20881.0,,298.0,,12358.0,,435.0,,12347.0,,436.0,,11339.0,,464.0,,1008.0,,216.0,,11.0,,18.0,,8523.0,,488.0,,"North Adams, MA-VT Micropolitan NECTA",76150
234100.0,,625.0,,157291.0,,1297.0,,150323.0,,1404.0,,139970.0,,1337.0,,10353.0,,834.0,,6968.0,,433.0,,76809.0,,1229.0,,"Norwich-New London-Westerly, CT-RI Metropolitan NECTA",76450
70649.0,,433.0,,45700.0,,749.0,,45698.0,,749.0,,42481.0,,756.0,,3217.0,,349.0,,2.0,,3.0,,24949.0,,817.0,,"Pittsfield, MA Metropolitan NECTA",76600
105330.0,,655.0,,72530.0,,1119.0,,71518.0,,1137.0,,69105.0,,1132.0,,2413.0,,394.0,,1012.0,,206.0,,32800.0,,882.0,,"Portsmouth, NH-ME Metropolitan NECTA",76900
