B15002_001E,B15002_001EA,B15002_001M,B15002_001MA,B15002_002E,B15002_002EA,B15002_002M,B15002_002MA,B15002_003E,B15002_003EA,B15002_003M,B15002_003MA,B15002_004E,B15002_004EA,B15002_004M,B15002_004MA,B15002_005E,B15002_005EA,B15002_005M,B15002_005MA,B15002_006E,B15002_006EA,B15002_006M,B15002_006MA,B15002_007E,B15002_007EA,B15002_007M,B15002_007MA,B15002_008E,B15002_008EA,B15002_008M,B15002_008MA,B15002_009E,B15002_009EA,B15002_009M,B15002_009MA,B15002_010E,B15002_010EA,B15002_010M,B15002_010MA,B15002_011E,B15002_011EA,B15002_011M,B15002_011MA,B15002_012E,B15002_012EA,B15002_012M,B15002_012MA,B15002_013E,B15002_013EA,B15002_013M,B15002_013MA,B15002_014E,B15002_014EA,B15002_014M,B15002_014MA,B15002_015E,B15002_015EA,B15002_015M,B15002_015MA,B15002_016E,B15002_016EA,B15002_016M,B15002_016MA,B15002_017E,B15002_017EA,B15002_017M,B15002_017MA,B15002_018E,B15002_018EA,B15002_018M,B15002_018MA,B15002_019E,B15002_019EA,B15002_019M,B15002_019MA,B15002_020E,B15002_020EA,B15002_020M,B15002_020MA,B15002_021E,B15002_021EA,B15002_021M,B15002_021MA,B15002_022E,B15002_022EA,B15002_022M,B15002_022MA,B15002_023E,B15002_023EA,B15002_023M,B15002_023MA,B15002_024E,B15002_024EA,B15002_024M,B15002_024MA,B15002_025E,B15002_025EA,B15002_025M,B15002_025MA,B15002_026E,B15002_026EA,B15002_026M,B15002_026MA,B15002_027E,B15002_027EA,B15002_027M,B15002_027MA,B15002_028E,B15002_028EA,B15002_028M,B15002_028MA,B15002_029E,B15002_029EA,B15002_029M,B15002_029MA,B15002_030E,B15002_030EA,B15002_030M,B15002_030MA,B15002_031E,B15002_031EA,B15002_031M,B15002_031MA,B15002_032E,B15002_032EA,B15002_032M,B15002_032MA,B15002_033E,B15002_033EA,B15002_033M,B15002_033MA,B15002_034E,B15002_034EA,B15002_034M,B15002_034MA,B15002_035E,B15002_035EA,B15002_035M,B15002_035MA,NAME,new england city and town area
31550.0,,420.0,,14906.0,,287.0,,63.0,,51.0,,34.0,,31.0,,56.0,,47.0,,166.0,,66.0,,150.0,,86.0,,223.0,,84.0,,349.0,,103.0,,267.0,,87.0,,5512.0,,368.0,,732.0,,148.0,,1666.0,,222.0,,978.0,,146.0,,2611.0,,242.0,,1392.0,,163.0,,524.0,,99.0,,183.0,,46.0,,16644.0,,266.0,,74.0,,49.0,,15.0,,16.0,,29.0,,29.0,,226.0,,98.0,,106.0,,48.0,,81.0,,60.0,,248.0,,93.0,,164.0,,96.0,,4628.0,,344.0,,1099.0,,127.0,,1995.0,,224.0,,1597.0,,247.0,,3566.0,,321.0,,2163.0,,214.0,,396.0,,79.0,,257.0,,77.0,,"Barre, VT Micropolitan NECTA",71050
15549.0,,296.0,,7475.0,,228.0,,41.0,,36.0,,7.0,,13.0,,20.0,,22.0,,60.0,,49.0,,143.0,,82.0,,315.0,,150.0,,176.0,,85.0,,56.0,,35.0,,2757.0,,305.0,,391.0,,120.0,,917.0,,170.0,,452.0,,119.0,,1326.0,,221.0,,509.0,,125.0,,157.0,,53.0,,148.0,,82.0,,8074.0,,200.0,,50.0,,28.0,,0.0,,17.0,,16.0,,22.0,,139.0,,73.0,,15.0,,19.0,,159.0,,96.0,,245.0,,77.0,,77.0,,56.0,,2413.0,,257.0,,500.0,,159.0,,1005.0,,174.0,,745.0,,127.0,,1730.0,,243.0,,704.0,,129.0,,143.0,,57.0,,133.0,,56.0,,"Bennington, VT Micropolitan NECTA",71350
12189.0,,235.0,,6717.0,,202.0,,36.0,,46.0,,3.0,,6.0,,19.0,,25.0,,148.0,,78.0,,107.0,,70.0,,204.0,,82.0,,144.0,,83.0,,126.0,,71.0,,3197.0,,240.0,,528.0,,149.0,,725.0,,132.0,,575.0,,128.0,,645.0,,107.0,,169.0,,46.0,,43.0,,21.0,,48.0,,27.0,,5472.0,,158.0,,32.0,,27.0,,12.0,,15.0,,68.0,,54.0,,144.0,,74.0,,52.0,,29.0,,132.0,,70.0,,72.0,,39.0,,84.0,,41.0,,2010.0,,193.0,,271.0,,75.0,,617.0,,141.0,,785.0,,144.0,,891.0,,145.0,,269.0,,71.0,,17.0,,18.0,,16.0,,17.0,,"Berlin, NH Micropolitan NECTA",71500
3398858.0,,1704.0,,1620464.0,,1307.0,,21547.0,,1051.0,,11454.0,,709.0,,15243.0,,968.0,,21355.0,,1372.0,,15554.0,,937.0,,18572.0,,933.0,,18958.0,,1090.0,,23554.0,,1152.0,,386105.0,,4657.0,,71636.0,,2079.0,,171743.0,,2490.0,,96660.0,,2184.0,,415349.0,,4376.0,,215073.0,,2948.0,,58282.0,,1686.0,,59379.0,,1626.0,,1778394.0,,1394.0,,24418.0,,1130.0,,13424.0,,851.0,,17081.0,,825.0,,22318.0,,1239.0,,14986.0,,973.0,,17966.0,,950.0,,18312.0,,1058.0,,22695.0,,1150.0,,393412.0,,4780.0,,81354.0,,2024.0,,183705.0,,3052.0,,149341.0,,2714.0,,449096.0,,4236.0,,274838.0,,3304.0,,53146.0,,1407.0,,42302.0,,1298.0,,"Boston-Cambridge-Nashua, MA-NH Metropolitan NECTA",71650
631478.0,,1321.0,,298483.0,,1192.0,,3159.0,,382.0,,2581.0,,489.0,,5195.0,,766.0,,4417.0,,568.0,,3378.0,,425.0,,3470.0,,389.0,,3930.0,,403.0,,4498.0,,496.0,,66950.0,,1652.0,,11259.0,,717.0,,32411.0,,1103.0,,15858.0,,697.0,,76850.0,,1658.0,,43906.0,,1384.0,,14494.0,,788.0,,6127.0,,498.0,,332995.0,,964.0,,3389.0,,430.0,,2175.0,,372.0,,4611.0,,481.0,,4840.0,,566.0,,3679.0,,485.0,,4128.0,,446.0,,4703.0,,463.0,,3791.0,,391.0,,74216.0,,1503.0,,15168.0,,839.0,,37233.0,,1259.0,,23899.0,,847.0,,84778.0,,1795.0,,51703.0,,1439.0,,10107.0,,607.0,,4575.0,,430.0,,"Bridgeport-Stamford-Norwalk, CT Metropolitan NECTA",71950
14943.0,,325.0,,6924.0,,307.0,,106.0,,53.0,,0.0,,23.0,,11.0,,17.0,,101.0,,61.0,,222.0,,118.0,,248.0,,116.0,,175.0,,89.0,,54.0,,37.0,,2936.0,,275.0,,518.0,,117.0,,955.0,,186.0,,442.0,,121.0,,757.0,,177.0,,250.0,,72.0,,65.0,,34.0,,84.0,,50.0,,8019.0,,291.0,,126.0,,82.0,,0.0,,23.0,,41.0,,35.0,,54.0,,37.0,,154.0,,95.0,,234.0,,102.0,,91.0,,57.0,,172.0,,88.0,,2737.0,,270.0,,458.0,,114.0,,1157.0,,210.0,,1148.0,,175.0,,1052.0,,188.0,,466.0,,133.0,,48.0,,40.0,,81.0,,37.0,,"Athol, MA Micropolitan NECTA",70450
56664.0,,553.0,,27194.0,,402.0,,238.0,,98.0,,17.0,,17.0,,99.0,,74.0,,789.0,,212.0,,398.0,,116.0,,431.0,,122.0,,480.0,,154.0,,282.0,,68.0,,9212.0,,453.0,,1775.0,,231.0,,3441.0,,328.0,,2597.0,,295.0,,4794.0,,336.0,,1771.0,,175.0,,431.0,,107.0,,439.0,,135.0,,29470.0,,392.0,,236.0,,103.0,,41.0,,32.0,,128.0,,67.0,,679.0,,175.0,,323.0,,132.0,,368.0,,154.0,,267.0,,77.0,,248.0,,87.0,,8967.0,,613.0,,2175.0,,251.0,,4358.0,,508.0,,3135.0,,286.0,,5306.0,,423.0,,2685.0,,307.0,,316.0,,93.0,,238.0,,73.0,,"Augusta, ME Micropolitan NECTA",70600
92159.0,,563.0,,44466.0,,380.0,,192.0,,79.0,,65.0,,58.0,,145.0,,80.0,,933.0,,180.0,,512.0,,115.0,,757.0,,207.0,,815.0,,194.0,,560.0,,105.0,,14766.0,,588.0,,2631.0,,282.0,,6562.0,,484.0,,4039.0,,402.0,,7744.0,,534.0,,2715.0,,328.0,,971.0,,165.0,,1059.0,,183.0,,47693.0,,362.0,,313.0,,118.0,,33.0,,39.0,,97.0,,80.0,,485.0,,123.0,,357.0,,106.0,,673.0,,161.0,,649.0,,117.0,,427.0,,156.0,,14395.0,,571.0,,2856.0,,336.0,,6760.0,,515.0,,6017.0,,474.0,,9389.0,,524.0,,3966.0,,379.0,,611.0,,149.0,,665.0,,135.0,,"Bangor, ME Metropolitan NECTA",70750
181343.0,,615.0,,83635.0,,500.0,,592.0,,156.0,,74.0,,55.0,,77.0,,53.0,,748.0,,207.0,,438.0,,140.0,,933.0,,236.0,,739.0,,197.0,,991.0,,206.0,,23778.0,,923.0,,5375.0,,503.0,,10724.0,,625.0,,6021.0,,489.0,,18670.0,,754.0,,9501.0,,611.0,,2756.0,,325.0,,2218.0,,273.0,,97708.0,,501.0,,390.0,,116.0,,138.0,,71.0,,262.0,,112.0,,661.0,,209.0,,414.0,,151.0,,589.0,,204.0,,742.0,,183.0,,870.0,,198.0,,23738.0,,876.0,,6327.0,,455.0,,13239.0,,717.0,,10640.0,,655.0,,23237.0,,909.0,,13213.0,,632.0,,1961.0,,227.0,,1287.0,,187.0,,"Barnstable Town, MA Metropolitan NECTA",70900
46141.0,,590.0,,21877.0,,429.0,,93.0,,59.0,,4.0,,6.0,,12.0,,15.0,,311.0,,123.0,,251.0,,103.0,,167.0,,63.0,,416.0,,137.0,,302.0,,106.0,,5994.0,,494.0,,1590.0,,284.0,,2884.0,,285.0,,1727.0,,275.0,,4956.0,,320.0,,1825.0,,265.0,,763.0,,177.0,,582.0,,121.0,,24264.0,,408.0,,78.0,,54.0,,19.0,,28.0,,12.0,,20.0,,154.0,,78.0,,133.0,,67.0,,172.0,,77.0,,249.0,,126.0,,116.0,,64.0,,6963.0,,524.0,,1561.0,,260.0,,3178.0,,318.0,,1944.0,,255.0,,5759.0,,438.0,,2982.0,,319.0,,499.0,,142.0,,445.0,,133.0,,"Brunswick, ME Micropolitan NECTA",72250
140653.0,,442.0,,67878.0,,315.0,,545.0,,168.0,,99.0,,62.0,,142.0,,67.0,,888.0,,184.0,,347.0,,143.0,,1018.0,,257.0,,811.0,,216.0,,974.0,,159.0,,16648.0,,615.0,,3321.0,,356.0,,7514.0,,515.0,,5473.0,,455.0,,18048.0,,648.0,,7345.0,,474.0,,2766.0,,312.0,,1939.0,,264.0,,72775.0,,263.0,,501.0,,119.0,,53.0,,41.0,,94.0,,55.0,,977.0,,222.0,,436.0,,135.0,,606.0,,170.0,,771.0,,213.0,,422.0,,118.0,,15238.0,,574.0,,3893.0,,475.0,,8665.0,,578.0,,7237.0,,549.0,,20216.0,,854.0,,10260.0,,599.0,,1948.0,,264.0,,1458.0,,181.0,,"Burlington-South Burlington, VT Metropolitan NECTA",72400
10452.0,,319.0,,4879.0,,212.0,,0.0,,18.0,,4.0,,10.0,,28.0,,39.0,,81.0,,48.0,,59.0,,32.0,,138.0,,83.0,,142.0,,79.0,,99.0,,57.0,,2335.0,,250.0,,342.0,,137.0,,605.0,,124.0,,295.0,,91.0,,617.0,,177.0,,103.0,,53.0,,23.0,,20.0,,8.0,,13.0,,5573.0,,253.0,,9.0,,16.0,,0.0,,18.0,,29.0,,38.0,,169.0,,84.0,,118.0,,72.0,,170.0,,123.0,,173.0,,85.0,,75.0,,47.0,,2206.0,,264.0,,499.0,,145.0,,542.0,,141.0,,506.0,,137.0,,789.0,,151.0,,243.0,,87.0,,36.0,,31.0,,9.0,,13.0,,"Claremont, NH Micropolitan NECTA",72500
61132.0,,566.0,,29478.0,,403.0,,101.0,,45.0,,25.0,,25.0,,47.0,,42.0,,554.0,,151.0,,220.0,,92.0,,527.0,,178.0,,682.0,,135.0,,408.0,,108.0,,8728.0,,501.0,,1415.0,,196.0,,3615.0,,311.0,,2885.0,,291.0,,5832.0,,366.0,,2900.0,,301.0,,1116.0,,172.0,,423.0,,110.0,,31654.0,,408.0,,297.0,,138.0,,0.0,,27.0,,71.0,,45.0,,298.0,,109.0,,208.0,,99.0,,140.0,,69.0,,333.0,,126.0,,299.0,,130.0,,8023.0,,505.0,,1799.0,,198.0,,4572.0,,385.0,,3973.0,,363.0,,7025.0,,393.0,,3728.0,,308.0,,633.0,,136.0,,255.0,,77.0,,"Concord, NH Micropolitan NECTA",72700
134921.0,,1025.0,,66147.0,,953.0,,909.0,,317.0,,572.0,,185.0,,1975.0,,543.0,,1268.0,,325.0,,581.0,,205.0,,905.0,,209.0,,832.0,,189.0,,1246.0,,268.0,,16847.0,,884.0,,3606.0,,373.0,,7603.0,,547.0,,3962.0,,460.0,,15774.0,,758.0,,7284.0,,566.0,,1550.0,,222.0,,1233.0,,217.0,,68774.0,,818.0,,718.0,,183.0,,681.0,,244.0,,1204.0,,331.0,,946.0,,272.0,,528.0,,183.0,,777.0,,206.0,,450.0,,155.0,,1070.0,,254.0,,16839.0,,842.0,,3993.0,,402.0,,7517.0,,613.0,,5358.0,,493.0,,16147.0,,709.0,,10307.0,,722.0,,1467.0,,221.0,,772.0,,171.0,,"Danbury, CT Metropolitan NECTA",72850
782268.0,,1002.0,,370313.0,,800.0,,4169.0,,491.0,,2179.0,,329.0,,3749.0,,470.0,,5616.0,,579.0,,4151.0,,432.0,,6387.0,,573.0,,4985.0,,472.0,,5782.0,,549.0,,104904.0,,1907.0,,18794.0,,919.0,,43734.0,,1164.0,,24956.0,,1037.0,,80776.0,,1570.0,,40779.0,,1172.0,,12343.0,,665.0,,7009.0,,517.0,,411955.0,,836.0,,4388.0,,484.0,,2933.0,,379.0,,3552.0,,380.0,,6133.0,,533.0,,5083.0,,517.0,,6172.0,,523.0,,5732.0,,535.0,,4948.0,,468.0,,106101.0,,2115.0,,23564.0,,928.0,,48153.0,,1568.0,,39119.0,,1347.0,,87637.0,,1899.0,,54009.0,,1219.0,,9287.0,,510.0,,5144.0,,485.0,,"Hartford-West Hartford-East Hartford, CT Metropolitan NECTA",73450
96633.0,,423.0,,46904.0,,315.0,,293.0,,109.0,,68.0,,69.0,,36.0,,33.0,,734.0,,169.0,,665.0,,208.0,,824.0,,246.0,,825.0,,224.0,,819.0,,188.0,,13318.0,,708.0,,3350.0,,433.0,,6191.0,,610.0,,4106.0,,418.0,,10025.0,,645.0,,4052.0,,359.0,,739.0,,164.0,,859.0,,182.0,,49729.0,,301.0,,358.0,,136.0,,0.0,,27.0,,123.0,,93.0,,501.0,,163.0,,637.0,,193.0,,895.0,,185.0,,513.0,,194.0,,487.0,,157.0,,13496.0,,789.0,,3003.0,,402.0,,6510.0,,508.0,,5173.0,,486.0,,11292.0,,586.0,,5579.0,,458.0,,465.0,,124.0,,697.0,,167.0,,"Dover-Durham, NH-ME Metropolitan NECTA",73050
28177.0,,319.0,,13558.0,,267.0,,105.0,,65.0,,25.0,,26.0,,35.0,,36.0,,101.0,,52.0,,219.0,,78.0,,352.0,,127.0,,125.0,,82.0,,148.0,,63.0,,4611.0,,320.0,,841.0,,159.0,,1576.0,,212.0,,1587.0,,216.0,,2140.0,,255.0,,1271.0,,151.0,,204.0,,75.0,,218.0,,82.0,,14619.0,,269.0,,83.0,,52.0,,21.0,,24.0,,21.0,,32.0,,171.0,,83.0,,97.0,,64.0,,176.0,,70.0,,262.0,,95.0,,141.0,,60.0,,4030.0,,296.0,,1010.0,,159.0,,1688.0,,202.0,,2014.0,,235.0,,2606.0,,236.0,,1994.0,,234.0,,144.0,,50.0,,161.0,,63.0,,"Greenfield Town, MA Micropolitan NECTA",73300
34422.0,,408.0,,16673.0,,293.0,,154.0,,95.0,,31.0,,50.0,,70.0,,52.0,,310.0,,132.0,,186.0,,75.0,,224.0,,85.0,,227.0,,79.0,,181.0,,93.0,,5246.0,,447.0,,1095.0,,157.0,,2060.0,,334.0,,1640.0,,282.0,,3056.0,,291.0,,1374.0,,190.0,,434.0,,112.0,,385.0,,133.0,,17749.0,,311.0,,78.0,,46.0,,32.0,,48.0,,0.0,,27.0,,172.0,,93.0,,76.0,,56.0,,226.0,,96.0,,294.0,,106.0,,150.0,,63.0,,5125.0,,405.0,,1012.0,,166.0,,2175.0,,277.0,,1698.0,,238.0,,3942.0,,303.0,,2094.0,,242.0,,392.0,,123.0,,283.0,,123.0,,"Keene, NH Micropolitan NECTA",73750
17457.0,,329.0,,8194.0,,265.0,,14.0,,15.0,,14.0,,23.0,,33.0,,34.0,,98.0,,68.0,,72.0,,70.0,,155.0,,92.0,,170.0,,111.0,,268.0,,100.0,,2548.0,,291.0,,519.0,,154.0,,1016.0,,215.0,,827.0,,206.0,,1256.0,,229.0,,716.0,,156.0,,435.0,,139.0,,53.0,,39.0,,9263.0,,305.0,,0.0,,21.0,,0.0,,21.0,,0.0,,21.0,,129.0,,108.0,,26.0,,26.0,,203.0,,122.0,,183.0,,97.0,,110.0,,63.0,,2665.0,,275.0,,808.0,,190.0,,1301.0,,245.0,,941.0,,198.0,,1955.0,,262.0,,763.0,,175.0,,142.0,,73.0,,37.0,,37.0,,"Laconia, NH Micropolitan NECTA",73900
139991.0,,878.0,,69596.0,,760.0,,660.0,,166.0,,208.0,,111.0,,543.0,,162.0,,1327.0,,234.0,,943.0,,197.0,,1174.0,,218.0,,1164.0,,259.0,,1115.0,,211.0,,20098.0,,867.0,,4400.0,,401.0,,8364.0,,654.0,,6180.0,,511.0,,16215.0,,907.0,,4940.0,,409.0,,1489.0,,215.0,,776.0,,163.0,,70395.0,,732.0,,503.0,,154.0,,182.0,,80.0,,309.0,,126.0,,1335.0,,249.0,,793.0,,228.0,,992.0,,200.0,,858.0,,168.0,,923.0,,197.0,,19455.0,,888.0,,4257.0,,376.0,,9166.0,,628.0,,8125.0,,584.0,,14535.0,,727.0,,7575.0,,544.0,,855.0,,182.0,,532.0,,134.0,,"Manchester, NH Metropolitan NECTA",74950
111579.0,,880.0,,52132.0,,690.0,,1336.0,,208.0,,1842.0,,277.0,,1245.0,,204.0,,1867.0,,272.0,,1283.0,,251.0,,1564.0,,235.0,,1337.0,,247.0,,1075.0,,178.0,,17875.0,,895.0,,2666.0,,312.0,,5874.0,,563.0,,3313.0,,366.0,,6892.0,,523.0,,2625.0,,302.0,,769.0,,172.0,,569.0,,154.0,,59447.0,,707.0,,1927.0,,320.0,,1859.0,,252.0,,1127.0,,228.0,,2466.0,,314.0,,1126.0,,181.0,,1324.0,,206.0,,1061.0,,220.0,,777.0,,191.0,,17213.0,,717.0,,3316.0,,354.0,,7258.0,,537.0,,5680.0,,503.0,,8752.0,,575.0,,4504.0,,395.0,,521.0,,146.0,,536.0,,137.0,,"New Bedford, MA Metropolitan NECTA",75550
419426.0,,1295.0,,197247.0,,1218.0,,1576.0,,280.0,,802.0,,216.0,,1785.0,,338.0,,2278.0,,305.0,,2095.0,,323.0,,3065.0,,408.0,,3105.0,,403.0,,2714.0,,358.0,,62676.0,,1533.0,,9892.0,,614.0,,22096.0,,942.0,,11085.0,,697.0,,40579.0,,1259.0,,19656.0,,955.0,,7454.0,,551.0,,6389.0,,532.0,,222179.0,,1195.0,,1952.0,,270.0,,1127.0,,240.0,,1896.0,,364.0,,2461.0,,325.0,,2121.0,,299.0,,3468.0,,488.0,,3435.0,,359.0,,2887.0,,363.0,,62653.0,,1571.0,,10376.0,,769.0,,25911.0,,1107.0,,18577.0,,956.0,,44488.0,,1332.0,,29088.0,,1078.0,,6946.0,,570.0,,4793.0,,480.0,,"New Haven, CT Metropolitan NECTA",75700
59156.0,,716.0,,28041.0,,509.0,,82.0,,52.0,,32.0,,39.0,,46.0,,41.0,,395.0,,165.0,,329.0,,113.0,,499.0,,153.0,,457.0,,119.0,,393.0,,117.0,,7728.0,,485.0,,916.0,,161.0,,2830.0,,329.0,,1709.0,,250.0,,5931.0,,394.0,,3494.0,,365.0,,1339.0,,201.0,,1861.0,,241.0,,31115.0,,543.0,,142.0,,73.0,,51.0,,59.0,,22.0,,21.0,,222.0,,81.0,,156.0,,61.0,,269.0,,84.0,,436.0,,133.0,,253.0,,97.0,,6746.0,,473.0,,1464.0,,195.0,,3439.0,,359.0,,2729.0,,339.0,,7565.0,,424.0,,5241.0,,413.0,,1101.0,,208.0,,1279.0,,232.0,,"Lebanon, NH-VT Micropolitan NECTA",74350
102346.0,,1138.0,,49143.0,,743.0,,887.0,,226.0,,166.0,,99.0,,492.0,,178.0,,761.0,,172.0,,624.0,,202.0,,1343.0,,358.0,,1447.0,,301.0,,989.0,,206.0,,17448.0,,782.0,,3289.0,,402.0,,5645.0,,511.0,,4082.0,,380.0,,8041.0,,587.0,,2928.0,,370.0,,462.0,,110.0,,539.0,,134.0,,53203.0,,819.0,,617.0,,144.0,,195.0,,114.0,,546.0,,198.0,,886.0,,208.0,,879.0,,262.0,,1061.0,,244.0,,988.0,,234.0,,1024.0,,224.0,,15641.0,,674.0,,3671.0,,415.0,,7140.0,,584.0,,6509.0,,535.0,,8915.0,,571.0,,4421.0,,433.0,,384.0,,133.0,,326.0,,142.0,,"Leominster-Gardner, MA Metropolitan NECTA",74500
74829.0,,378.0,,36136.0,,268.0,,195.0,,75.0,,57.0,,42.0,,130.0,,71.0,,1065.0,,202.0,,629.0,,170.0,,792.0,,162.0,,714.0,,167.0,,458.0,,113.0,,14194.0,,670.0,,2799.0,,366.0,,4595.0,,474.0,,3534.0,,396.0,,4409.0,,491.0,,1559.0,,243.0,,621.0,,194.0,,385.0,,111.0,,38693.0,,263.0,,219.0,,65.0,,110.0,,62.0,,98.0,,57.0,,1123.0,,217.0,,673.0,,174.0,,606.0,,180.0,,387.0,,99.0,,399.0,,93.0,,13907.0,,624.0,,2578.0,,292.0,,5096.0,,503.0,,4347.0,,396.0,,6305.0,,435.0,,2214.0,,307.0,,377.0,,142.0,,254.0,,98.0,,"Lewiston-Auburn, ME Metropolitan NECTA",74650
491196.0,,1039.0,,234117.0,,811.0,,3125.0,,418.0,,1849.0,,326.0,,1862.0,,318.0,,4272.0,,468.0,,3729.0,,426.0,,5052.0,,523.0,,5329.0,,555.0,,4546.0,,469.0,,73207.0,,1706.0,,13927.0,,791.0,,28607.0,,1145.0,,19382.0,,813.0,,39597.0,,1106.0,,19789.0,,769.0,,4889.0,,400.0,,4955.0,,444.0,,257079.0,,691.0,,3346.0,,442.0,,2385.0,,353.0,,2192.0,,338.0,,3965.0,,421.0,,3775.0,,398.0,,4081.0,,403.0,,4514.0,,476.0,,3724.0,,467.0,,69991.0,,1506.0,,15771.0,,893.0,,30751.0,,1246.0,,27133.0,,1029.0,,46675.0,,1284.0,,30573.0,,1090.0,,4221.0,,368.0,,3982.0,,388.0,,"Springfield, MA-CT Metropolitan NECTA",78100
35256.0,,494.0,,17203.0,,443.0,,226.0,,81.0,,24.0,,24.0,,202.0,,111.0,,359.0,,114.0,,175.0,,104.0,,475.0,,166.0,,328.0,,109.0,,449.0,,158.0,,6559.0,,462.0,,1022.0,,188.0,,2304.0,,311.0,,1409.0,,220.0,,2328.0,,323.0,,1041.0,,204.0,,172.0,,71.0,,130.0,,88.0,,18053.0,,409.0,,96.0,,57.0,,63.0,,69.0,,166.0,,93.0,,474.0,,181.0,,263.0,,126.0,,221.0,,93.0,,363.0,,149.0,,380.0,,130.0,,5844.0,,391.0,,1236.0,,223.0,,2414.0,,309.0,,2041.0,,297.0,,2810.0,,339.0,,1318.0,,170.0,,263.0,,110.0,,101.0,,84.0,,"Torrington, CT Micropolitan NECTA",78400
12693.0,,215.0,,6052.0,,165.0,,28.0,,41.0,,0.0,,19.0,,47.0,,63.0,,24.0,,37.0,,79.0,,55.0,,67.0,,60.0,,20.0,,23.0,,39.0,,40.0,,1450.0,,334.0,,325.0,,158.0,,1086.0,,308.0,,377.0,,189.0,,1391.0,,308.0,,565.0,,181.0,,421.0,,190.0,,133.0,,99.0,,6641.0,,101.0,,23.0,,24.0,,0.0,,19.0,,0.0,,19.0,,0.0,,19.0,,69.0,,65.0,,11.0,,14.0,,23.0,,33.0,,6.0,,9.0,,1342.0,,339.0,,217.0,,148.0,,1059.0,,265.0,,530.0,,221.0,,2191.0,,359.0,,888.0,,195.0,,158.0,,76.0,,124.0,,100.0,,"Vineyard Haven, MA Micropolitan NECTA",78500
146229.0,,1285.0,,68855.0,,1016.0,,812.0,,183.0,,786.0,,272.0,,644.0,,213.0,,1866.0,,335.0,,1160.0,,293.0,,1603.0,,246.0,,1463.0,,239.0,,1557.0,,279.0,,24468.0,,1175.0,,3661.0,,416.0,,8412.0,,663.0,,4969.0,,540.0,,10481.0,,669.0,,4991.0,,566.0,,1319.0,,261.0,,663.0,,158.0,,77374.0,,969.0,,1057.0,,245.0,,876.0,,194.0,,1151.0,,240.0,,1700.0,,274.0,,1518.0,,397.0,,1580.0,,305.0,,1375.0,,225.0,,1294.0,,205.0,,23480.0,,974.0,,4905.0,,464.0,,10992.0,,759.0,,7727.0,,563.0,,10679.0,,702.0,,7502.0,,616.0,,1062.0,,210.0,,476.0,,150.0,,"Waterbury, CT Metropolitan NECTA",78700
32111.0,,551.0,,15405.0,,453.0,,108.0,,53.0,,6.0,,11.0,,91.0,,56.0,,296.0,,133.0,,139.0,,65.0,,280.0,,130.0,,382.0,,152.0,,271.0,,99.0,,5481.0,,482.0,,1241.0,,260.0,,2182.0,,300.0,,1539.0,,261.0,,1929.0,,270.0,,845.0,,194.0,,212.0,,75.0,,403.0,,123.0,,16706.0,,420.0,,93.0,,47.0,,7.0,,12.0,,26.0,,25.0,,218.0,,94.0,,282.0,,119.0,,311.0,,144.0,,166.0,,104.0,,127.0,,65.0,,6141.0,,473.0,,1290.0,,223.0,,2012.0,,309.0,,2348.0,,300.0,,2205.0,,325.0,,1118.0,,236.0,,173.0,,82.0,,189.0,,76.0,,"Waterville, ME Micropolitan NECTA",78850
902707.0,,1333.0,,429357.0,,963.0,,6826.0,,689.0,,5864.0,,628.0,,4240.0,,459.0,,8748.0,,627.0,,7609.0,,627.0,,8966.0,,684.0,,8477.0,,721.0,,7389.0,,563.0,,127378.0,,2291.0,,22773.0,,1020.0,,52185.0,,1613.0,,32884.0,,1106.0,,83479.0,,1935.0,,33789.0,,1154.0,,10208.0,,559.0,,8542.0,,532.0,,473350.0,,1065.0,,7596.0,,708.0,,7210.0,,604.0,,4749.0,,541.0,,9113.0,,618.0,,8205.0,,717.0,,9303.0,,631.0,,8737.0,,655.0,,6628.0,,567.0,,128197.0,,1987.0,,28304.0,,1047.0,,60669.0,,1620.0,,44492.0,,1337.0,,90218.0,,1894.0,,46106.0,,1301.0,,7518.0,,613.0,,6305.0,,496.0,,"Providence-Warwick, RI-MA Metropolitan NECTA",77200
29901.0,,346.0,,14389.0,,241.0,,104.0,,82.0,,0.0,,20.0,,34.0,,40.0,,308.0,,100.0,,173.0,,83.0,,125.0,,50.0,,350.0,,121.0,,122.0,,45.0,,5894.0,,330.0,,621.0,,118.0,,1743.0,,237.0,,983.0,,152.0,,2426.0,,260.0,,910.0,,150.0,,395.0,,86.0,,201.0,,58.0,,15512.0,,206.0,,93.0,,60.0,,14.0,,16.0,,27.0,,27.0,,239.0,,88.0,,99.0,,57.0,,212.0,,97.0,,200.0,,83.0,,115.0,,58.0,,4430.0,,349.0,,869.0,,146.0,,2402.0,,292.0,,1581.0,,218.0,,3353.0,,290.0,,1610.0,,218.0,,171.0,,62.0,,97.0,,46.0,,"Rutland, VT Micropolitan NECTA",77650
16393.0,,418.0,,7637.0,,319.0,,42.0,,33.0,,23.0,,27.0,,93.0,,61.0,,203.0,,88.0,,123.0,,66.0,,183.0,,78.0,,143.0,,67.0,,115.0,,65.0,,3004.0,,296.0,,559.0,,116.0,,1137.0,,226.0,,649.0,,149.0,,1005.0,,175.0,,298.0,,83.0,,38.0,,30.0,,22.0,,20.0,,8756.0,,292.0,,78.0,,51.0,,1.0,,2.0,,16.0,,24.0,,216.0,,96.0,,152.0,,82.0,,72.0,,40.0,,119.0,,51.0,,54.0,,33.0,,3298.0,,354.0,,598.0,,136.0,,1449.0,,232.0,,1123.0,,212.0,,1118.0,,155.0,,426.0,,100.0,,15.0,,16.0,,21.0,,19.0,,"Sanford, ME Micropolitan NECTA",77950
450670.0,,1222.0,,218893.0,,938.0,,2308.0,,293.0,,973.0,,244.0,,1549.0,,280.0,,2993.0,,415.0,,2781.0,,413.0,,4604.0,,567.0,,3954.0,,469.0,,4246.0,,374.0,,66241.0,,1646.0,,12087.0,,752.0,,25055.0,,868.0,,16291.0,,967.0,,46328.0,,1452.0,,20359.0,,812.0,,4482.0,,460.0,,4642.0,,426.0,,231777.0,,962.0,,2520.0,,359.0,,845.0,,234.0,,1297.0,,252.0,,3125.0,,414.0,,2178.0,,302.0,,3787.0,,392.0,,3281.0,,446.0,,3183.0,,367.0,,62567.0,,1544.0,,12972.0,,729.0,,28227.0,,1049.0,,23647.0,,1195.0,,50093.0,,1328.0,,26530.0,,1042.0,,4341.0,,502.0,,3184.0,,329.0,,"Worcester, MA-CT Metropolitan NECTA",79600
259455.0,,918.0,,123889.0,,782.0,,509.0,,119.0,,242.0,,123.0,,354.0,,123.0,,1488.0,,295.0,,1043.0,,221.0,,1497.0,,264.0,,1409.0,,270.0,,1498.0,,279.0,,33137.0,,1095.0,,6600.0,,533.0,,16827.0,,820.0,,11373.0,,630.0,,30661.0,,1035.0,,10445.0,,621.0,,4463.0,,393.0,,2343.0,,295.0,,135566.0,,716.0,,699.0,,193.0,,314.0,,102.0,,635.0,,179.0,,1380.0,,263.0,,877.0,,208.0,,1187.0,,212.0,,1088.0,,235.0,,841.0,,173.0,,32368.0,,1157.0,,7082.0,,544.0,,16437.0,,832.0,,13796.0,,823.0,,37818.0,,1019.0,,16478.0,,727.0,,2893.0,,275.0,,1673.0,,212.0,,"Portland-South Portland, ME Metropolitan NECTA",76750
15382.0,,396.0,,7143.0,,302.0,,45.0,,26.0,,43.0,,52.0,,78.0,,76.0,,142.0,,69.0,,199.0,,111.0,,151.0,,83.0,,159.0,,96.0,,184.0,,86.0,,2359.0,,216.0,,386.0,,98.0,,675.0,,151.0,,405.0,,122.0,,1185.0,,176.0,,639.0,,122.0,,210.0,,92.0,,283.0,,65.0,,8239.0,,299.0,,49.0,,31.0,,22.0,,33.0,,33.0,,25.0,,167.0,,76.0,,144.0,,94.0,,187.0,,85.0,,244.0,,121.0,,87.0,,46.0,,2390.0,,262.0,,539.0,,118.0,,820.0,,153.0,,589.0,,138.0,,1509.0,,167.0,,1107.0,,179.0,,141.0,,54.0,,211.0,,65.0,,"North Adams, MA-VT Micropolitan NECTA",76150
198331.0,,561.0,,95652.0,,483.0,,699.0,,164.0,,369.0,,159.0,,586.0,,170.0,,865.0,,185.0,,1198.0,,385.0,,1387.0,,287.0,,2066.0,,380.0,,1521.0,,306.0,,29620.0,,1011.0,,6283.0,,494.0,,13491.0,,621.0,,7468.0,,565.0,,16427.0,,809.0,,9274.0,,520.0,,2318.0,,287.0,,2080.0,,309.0,,102679.0,,391.0,,1138.0,,238.0,,320.0,,102.0,,233.0,,106.0,,1139.0,,235.0,,864.0,,206.0,,1603.0,,263.0,,1368.0,,234.0,,1365.0,,272.0,,30546.0,,1203.0,,6875.0,,566.0,,13743.0,,910.0,,9860.0,,592.0,,18773.0,,849.0,,12167.0,,699.0,,1621.0,,239.0,,1064.0,,173.0,,"Norwich-New London-Westerly, CT-RI Metropolitan NECTA",76450
62757.0,,539.0,,29728.0,,437.0,,316.0,,98.0,,38.0,,41.0,,115.0,,93.0,,402.0,,130.0,,286.0,,111.0,,640.0,,170.0,,486.0,,137.0,,525.0,,159.0,,9522.0,,523.0,,1824.0,,236.0,,3367.0,,314.0,,3026.0,,449.0,,5631.0,,400.0,,2172.0,,291.0,,889.0,,167.0,,489.0,,131.0,,33029.0,,377.0,,313.0,,120.0,,108.0,,78.0,,133.0,,80.0,,312.0,,113.0,,320.0,,116.0,,462.0,,129.0,,480.0,,134.0,,486.0,,160.0,,9394.0,,510.0,,2776.0,,346.0,,4397.0,,425.0,,3607.0,,375.0,,5877.0,,449.0,,3553.0,,367.0,,469.0,,140.0,,342.0,,115.0,,"Pittsfield, MA Metropolitan NECTA",76600
93993.0,,783.0,,45321.0,,726.0,,171.0,,68.0,,0.0,,27.0,,66.0,,50.0,,406.0,,184.0,,393.0,,134.0,,261.0,,96.0,,357.0,,129.0,,511.0,,150.0,,9678.0,,617.0,,2177.0,,293.0,,5279.0,,519.0,,3477.0,,347.0,,13589.0,,720.0,,6420.0,,589.0,,1348.0,,214.0,,1188.0,,256.0,,48672.0,,693.0,,145.0,,95.0,,37.0,,42.0,,61.0,,57.0,,351.0,,138.0,,174.0,,76.0,,294.0,,126.0,,342.0,,124.0,,192.0,,72.0,,9337.0,,622.0,,2720.0,,342.0,,5929.0,,543.0,,4904.0,,421.0,,14274.0,,831.0,,8029.0,,549.0,,1153.0,,214.0,,730.0,,185.0,,"Portsmouth, NH-ME Metropolitan NECTA",76900
