B15002_001E,B15002_001EA,B15002_001M,B15002_001MA,B15002_002E,B15002_002EA,B15002_002M,B15002_002MA,B15002_003E,B15002_003EA,B15002_003M,B15002_003MA,B15002_004E,B15002_004EA,B15002_004M,B15002_004MA,B15002_005E,B15002_005EA,B15002_005M,B15002_005MA,B15002_006E,B15002_006EA,B15002_006M,B15002_006MA,B15002_007E,B15002_007EA,B15002_007M,B15002_007MA,B15002_008E,B15002_008EA,B15002_008M,B15002_008MA,B15002_009E,B15002_009EA,B15002_009M,B15002_009MA,B15002_010E,B15002_010EA,B15002_010M,B15002_010MA,B15002_011E,B15002_011EA,B15002_011M,B15002_011MA,B15002_012E,B15002_012EA,B15002_012M,B15002_012MA,B15002_013E,B15002_013EA,B15002_013M,B15002_013MA,B15002_014E,B15002_014EA,B15002_014M,B15002_014MA,B15002_015E,B15002_015EA,B15002_015M,B15002_015MA,B15002_016E,B15002_016EA,B15002_016M,B15002_016MA,B15002_017E,B15002_017EA,B15002_017M,B15002_017MA,B15002_018E,B15002_018EA,B15002_018M,B15002_018MA,B15002_019E,B15002_019EA,B15002_019M,B15002_019MA,B15002_020E,B15002_020EA,B15002_020M,B15002_020MA,B15002_021E,B15002_021EA,B15002_021M,B15002_021MA,B15002_022E,B15002_022EA,B15002_022M,B15002_022MA,B15002_023E,B15002_023EA,B15002_023M,B15002_023MA,B15002_024E,B15002_024EA,B15002_024M,B15002_024MA,B15002_025E,B15002_025EA,B15002_025M,B15002_025MA,B15002_026E,B15002_026EA,B15002_026M,B15002_026MA,B15002_027E,B15002_027EA,B15002_027M,B15002_027MA,B15002_028E,B15002_028EA,B15002_028M,B15002_028MA,B15002_029E,B15002_029EA,B15002_029M,B15002_029MA,B15002_030E,B15002_030EA,B15002_030M,B15002_030MA,B15002_031E,B15002_031EA,B15002_031M,B15002_031MA,B15002_032E,B15002_032EA,B15002_032M,B15002_032MA,B15002_033E,B15002_033EA,B15002_033M,B15002_033MA,B15002_034E,B15002_034EA,B15002_034M,B15002_034MA,B15002_035E,B15002_035EA,B15002_035M,B15002_035MA,NAME,alaska native regional corporation,state
1968.0,,192.0,,986.0,,139.0,,15.0,,17.0,,8.0,,6.0,,0.0,,9.0,,55.0,,31.0,,13.0,,17.0,,28.0,,21.0,,34.0,,25.0,,3.0,,4.0,,281.0,,70.0,,82.0,,43.0,,148.0,,39.0,,55.0,,25.0,,158.0,,51.0,,84.0,,45.0,,13.0,,11.0,,9.0,,12.0,,982.0,,104.0,,7.0,,7.0,,0.0,,9.0,,3.0,,5.0,,7.0,,7.0,,2.0,,3.0,,36.0,,22.0,,10.0,,11.0,,0.0,,9.0,,332.0,,78.0,,91.0,,33.0,,170.0,,51.0,,47.0,,25.0,,174.0,,59.0,,55.0,,30.0,,40.0,,38.0,,8.0,,9.0,,"Ahtna Alaska Native Regional Corporation, Alaska",00590,02
6628.0,,203.0,,4420.0,,205.0,,38.0,,32.0,,83.0,,52.0,,121.0,,56.0,,115.0,,31.0,,72.0,,32.0,,161.0,,101.0,,119.0,,39.0,,51.0,,34.0,,1745.0,,187.0,,129.0,,51.0,,1031.0,,174.0,,168.0,,62.0,,444.0,,83.0,,130.0,,49.0,,5.0,,5.0,,8.0,,9.0,,2208.0,,150.0,,14.0,,14.0,,31.0,,23.0,,89.0,,57.0,,56.0,,22.0,,59.0,,59.0,,31.0,,16.0,,56.0,,26.0,,18.0,,18.0,,781.0,,110.0,,134.0,,30.0,,414.0,,62.0,,162.0,,50.0,,269.0,,61.0,,88.0,,24.0,,5.0,,4.0,,1.0,,3.0,,"Aleut Alaska Native Regional Corporation, Alaska",01570,02
6247.0,,93.0,,4235.0,,122.0,,7.0,,10.0,,5.0,,4.0,,23.0,,30.0,,51.0,,24.0,,66.0,,31.0,,130.0,,62.0,,100.0,,43.0,,44.0,,38.0,,1599.0,,192.0,,292.0,,77.0,,1026.0,,170.0,,393.0,,94.0,,394.0,,120.0,,96.0,,58.0,,1.0,,4.0,,8.0,,39.0,,2012.0,,101.0,,6.0,,5.0,,26.0,,14.0,,43.0,,27.0,,63.0,,32.0,,42.0,,25.0,,95.0,,51.0,,96.0,,42.0,,11.0,,10.0,,615.0,,100.0,,158.0,,69.0,,423.0,,109.0,,96.0,,41.0,,226.0,,84.0,,85.0,,49.0,,17.0,,18.0,,10.0,,19.0,,"Arctic Slope Alaska Native Regional Corporation, Alaska",03950,02
5349.0,,32.0,,2915.0,,32.0,,0.0,,13.0,,17.0,,16.0,,35.0,,15.0,,106.0,,26.0,,33.0,,11.0,,82.0,,29.0,,136.0,,31.0,,26.0,,11.0,,1303.0,,89.0,,280.0,,68.0,,408.0,,57.0,,94.0,,29.0,,273.0,,50.0,,93.0,,37.0,,11.0,,10.0,,18.0,,13.0,,2434.0,,29.0,,3.0,,5.0,,39.0,,16.0,,30.0,,11.0,,96.0,,24.0,,27.0,,12.0,,79.0,,25.0,,97.0,,34.0,,13.0,,8.0,,972.0,,65.0,,193.0,,46.0,,371.0,,56.0,,122.0,,32.0,,298.0,,56.0,,87.0,,32.0,,5.0,,7.0,,2.0,,3.0,,"Bering Straits Alaska Native Regional Corporation, Alaska",06370,02
4173.0,,101.0,,2165.0,,64.0,,14.0,,7.0,,52.0,,15.0,,29.0,,12.0,,70.0,,21.0,,16.0,,10.0,,39.0,,13.0,,87.0,,20.0,,17.0,,10.0,,922.0,,59.0,,177.0,,32.0,,386.0,,59.0,,78.0,,29.0,,179.0,,45.0,,73.0,,24.0,,20.0,,18.0,,6.0,,6.0,,2008.0,,52.0,,27.0,,16.0,,36.0,,13.0,,34.0,,12.0,,68.0,,16.0,,29.0,,13.0,,48.0,,13.0,,40.0,,13.0,,5.0,,5.0,,581.0,,63.0,,195.0,,36.0,,400.0,,62.0,,138.0,,44.0,,262.0,,35.0,,119.0,,27.0,,26.0,,21.0,,0.0,,13.0,,"Bristol Bay Alaska Native Regional Corporation, Alaska",09040,02
12782.0,,74.0,,6745.0,,101.0,,44.0,,14.0,,214.0,,35.0,,100.0,,21.0,,230.0,,41.0,,154.0,,44.0,,212.0,,41.0,,334.0,,58.0,,83.0,,25.0,,3168.0,,122.0,,503.0,,75.0,,997.0,,110.0,,208.0,,64.0,,350.0,,86.0,,112.0,,58.0,,16.0,,12.0,,20.0,,30.0,,6037.0,,70.0,,62.0,,17.0,,207.0,,37.0,,121.0,,25.0,,237.0,,54.0,,153.0,,59.0,,161.0,,27.0,,310.0,,65.0,,28.0,,11.0,,2391.0,,141.0,,526.0,,90.0,,895.0,,116.0,,231.0,,62.0,,434.0,,107.0,,220.0,,67.0,,24.0,,26.0,,37.0,,38.0,,"Calista Alaska Native Regional Corporation, Alaska",09800,02
8712.0,,400.0,,4873.0,,303.0,,0.0,,15.0,,58.0,,77.0,,16.0,,16.0,,89.0,,56.0,,65.0,,65.0,,75.0,,56.0,,147.0,,78.0,,2.0,,4.0,,1880.0,,284.0,,391.0,,117.0,,1023.0,,181.0,,329.0,,129.0,,545.0,,149.0,,236.0,,103.0,,9.0,,13.0,,8.0,,13.0,,3839.0,,261.0,,1.0,,2.0,,68.0,,54.0,,3.0,,4.0,,26.0,,43.0,,0.0,,15.0,,77.0,,69.0,,54.0,,52.0,,0.0,,15.0,,919.0,,208.0,,306.0,,125.0,,938.0,,192.0,,325.0,,108.0,,814.0,,246.0,,261.0,,123.0,,37.0,,48.0,,10.0,,16.0,,"Chugach Alaska Native Regional Corporation, Alaska",14410,02
281949.0,,383.0,,142909.0,,311.0,,945.0,,198.0,,304.0,,120.0,,686.0,,206.0,,1306.0,,230.0,,1252.0,,241.0,,1933.0,,297.0,,2392.0,,368.0,,1924.0,,309.0,,40958.0,,1323.0,,10524.0,,701.0,,30354.0,,1117.0,,11282.0,,744.0,,24586.0,,829.0,,9707.0,,592.0,,2936.0,,287.0,,1820.0,,275.0,,139040.0,,251.0,,1188.0,,274.0,,967.0,,273.0,,748.0,,163.0,,1106.0,,247.0,,1052.0,,259.0,,1519.0,,265.0,,1920.0,,268.0,,1496.0,,302.0,,32843.0,,1118.0,,10271.0,,649.0,,29293.0,,938.0,,13199.0,,731.0,,28703.0,,1035.0,,11212.0,,767.0,,2238.0,,313.0,,1285.0,,237.0,,"Cook Inlet Alaska Native Regional Corporation, Alaska",17140,02
69616.0,,246.0,,36847.0,,206.0,,157.0,,74.0,,116.0,,66.0,,241.0,,155.0,,318.0,,104.0,,399.0,,168.0,,522.0,,146.0,,523.0,,174.0,,440.0,,158.0,,10373.0,,635.0,,2493.0,,350.0,,8903.0,,740.0,,3077.0,,386.0,,5735.0,,549.0,,2461.0,,436.0,,419.0,,161.0,,670.0,,184.0,,32769.0,,179.0,,157.0,,90.0,,105.0,,34.0,,232.0,,161.0,,358.0,,128.0,,229.0,,87.0,,457.0,,162.0,,554.0,,135.0,,338.0,,129.0,,7302.0,,476.0,,1977.0,,315.0,,7042.0,,622.0,,3209.0,,368.0,,6604.0,,518.0,,3061.0,,418.0,,423.0,,138.0,,721.0,,263.0,,"Doyon Alaska Native Regional Corporation, Alaska",20010,02
8480.0,,119.0,,4477.0,,98.0,,46.0,,49.0,,44.0,,42.0,,23.0,,25.0,,100.0,,57.0,,39.0,,29.0,,27.0,,16.0,,66.0,,36.0,,32.0,,34.0,,1425.0,,239.0,,506.0,,134.0,,1069.0,,167.0,,344.0,,119.0,,555.0,,155.0,,106.0,,66.0,,63.0,,55.0,,32.0,,28.0,,4003.0,,54.0,,27.0,,31.0,,40.0,,33.0,,38.0,,29.0,,150.0,,64.0,,9.0,,11.0,,47.0,,35.0,,48.0,,38.0,,26.0,,23.0,,758.0,,100.0,,438.0,,115.0,,742.0,,150.0,,604.0,,162.0,,767.0,,165.0,,278.0,,101.0,,24.0,,26.0,,7.0,,13.0,,"Koniag Alaska Native Regional Corporation, Alaska",41640,02
3981.0,,36.0,,2175.0,,31.0,,7.0,,8.0,,29.0,,15.0,,19.0,,11.0,,86.0,,16.0,,43.0,,15.0,,109.0,,40.0,,133.0,,32.0,,24.0,,22.0,,996.0,,81.0,,146.0,,77.0,,249.0,,54.0,,56.0,,28.0,,185.0,,33.0,,59.0,,26.0,,22.0,,16.0,,12.0,,13.0,,1806.0,,25.0,,14.0,,8.0,,17.0,,11.0,,31.0,,14.0,,93.0,,24.0,,34.0,,14.0,,73.0,,23.0,,97.0,,24.0,,14.0,,11.0,,670.0,,50.0,,168.0,,35.0,,316.0,,45.0,,78.0,,27.0,,96.0,,23.0,,75.0,,25.0,,20.0,,16.0,,10.0,,9.0,,"NANA Alaska Native Regional Corporation, Alaska",52120,02
49428.0,,226.0,,25537.0,,193.0,,47.0,,38.0,,38.0,,24.0,,105.0,,43.0,,257.0,,76.0,,202.0,,67.0,,346.0,,102.0,,380.0,,87.0,,355.0,,109.0,,7936.0,,445.0,,1926.0,,256.0,,5062.0,,347.0,,1414.0,,197.0,,4707.0,,361.0,,1910.0,,213.0,,559.0,,124.0,,293.0,,84.0,,23891.0,,173.0,,98.0,,59.0,,21.0,,17.0,,136.0,,58.0,,214.0,,81.0,,179.0,,64.0,,317.0,,82.0,,379.0,,82.0,,152.0,,57.0,,5410.0,,333.0,,2055.0,,207.0,,4943.0,,360.0,,1934.0,,196.0,,5456.0,,321.0,,2039.0,,232.0,,432.0,,111.0,,126.0,,49.0,,"Sealaska Alaska Native Regional Corporation, Alaska",67940,02
