B01003_001E,B01003_001EA,B01003_001M,B01003_001MA,NAME,division
14578558.0,,-555555555.0,*****,New England Division,1
41227433.0,,-555555555.0,*****,Middle Atlantic Division,2
46585254.0,,-555555555.0,*****,East North Central Division,3
20768049.0,,-555555555.0,*****,West North Central Division,4
61224810.0,,-555555555.0,*****,South Atlantic Division,5
18636660.0,,-555555555.0,*****,East South Central Division,6
37458969.0,,-555555555.0,*****,West South Central Division,7
22639961.0,,-555555555.0,*****,Mountain Division,8
50987390.0,,-555555555.0,*****,Pacific Division,9
