B23025_001E,B23025_001EA,B23025_001M,B23025_001MA,B23025_002E,B23025_002EA,B23025_002M,B23025_002MA,B23025_003E,B23025_003EA,B23025_003M,B23025_003MA,B23025_004E,B23025_004EA,B23025_004M,B23025_004MA,B23025_005E,B23025_005EA,B23025_005M,B23025_005MA,B23025_006E,B23025_006EA,B23025_006M,B23025_006MA,B23025_007E,B23025_007EA,B23025_007M,B23025_007MA,NAME,region
45143828.0,,4786.0,,29246535.0,,29470.0,,29190202.0,,29284.0,,26616544.0,,31787.0,,2573658.0,,13198.0,,56333.0,,1710.0,,15897293.0,,28960.0,,Northeast Region,1
53312780.0,,5220.0,,34839491.0,,31209.0,,34750203.0,,30646.0,,31754920.0,,38956.0,,2995283.0,,14394.0,,89288.0,,2276.0,,18473289.0,,29331.0,,Midwest Region,2
92525538.0,,9440.0,,57849310.0,,54808.0,,57291159.0,,51836.0,,52024832.0,,55090.0,,5266327.0,,20552.0,,558151.0,,6258.0,,34676228.0,,50353.0,,South Region,3
57793482.0,,5835.0,,37030175.0,,28536.0,,36708450.0,,27467.0,,33038937.0,,32449.0,,3669513.0,,15542.0,,321725.0,,3855.0,,20763307.0,,28131.0,,West Region,4
