B15002_001E,B15002_001EA,B15002_001M,B15002_001MA,B15002_002E,B15002_002EA,B15002_002M,B15002_002MA,B15002_003E,B15002_003EA,B15002_003M,B15002_003MA,B15002_004E,B15002_004EA,B15002_004M,B15002_004MA,B15002_005E,B15002_005EA,B15002_005M,B15002_005MA,B15002_006E,B15002_006EA,B15002_006M,B15002_006MA,B15002_007E,B15002_007EA,B15002_007M,B15002_007MA,B15002_008E,B15002_008EA,B15002_008M,B15002_008MA,B15002_009E,B15002_009EA,B15002_009M,B15002_009MA,B15002_010E,B15002_010EA,B15002_010M,B15002_010MA,B15002_011E,B15002_011EA,B15002_011M,B15002_011MA,B15002_012E,B15002_012EA,B15002_012M,B15002_012MA,B15002_013E,B15002_013EA,B15002_013M,B15002_013MA,B15002_014E,B15002_014EA,B15002_014M,B15002_014MA,B15002_015E,B15002_015EA,B15002_015M,B15002_015MA,B15002_016E,B15002_016EA,B15002_016M,B15002_016MA,B15002_017E,B15002_017EA,B15002_017M,B15002_017MA,B15002_018E,B15002_018EA,B15002_018M,B15002_018MA,B15002_019E,B15002_019EA,B15002_019M,B15002_019MA,B15002_020E,B15002_020EA,B15002_020M,B15002_020MA,B15002_021E,B15002_021EA,B15002_021M,B15002_021MA,B15002_022E,B15002_022EA,B15002_022M,B15002_022MA,B15002_023E,B15002_023EA,B15002_023M,B15002_023MA,B15002_024E,B15002_024EA,B15002_024M,B15002_024MA,B15002_025E,B15002_025EA,B15002_025M,B15002_025MA,B15002_026E,B15002_026EA,B15002_026M,B15002_026MA,B15002_027E,B15002_027EA,B15002_027M,B15002_027MA,B15002_028E,B15002_028EA,B15002_028M,B15002_028MA,B15002_029E,B15002_029EA,B15002_029M,B15002_029MA,B15002_030E,B15002_030EA,B15002_030M,B15002_030MA,B15002_031E,B15002_031EA,B15002_031M,B15002_031MA,B15002_032E,B15002_032EA,B15002_032M,B15002_032MA,B15002_033E,B15002_033EA,B15002_033M,B15002_033MA,B15002_034E,B15002_034EA,B15002_034M,B15002_034MA,B15002_035E,B15002_035EA,B15002_035M,B15002_035MA,NAME,division
10035071.0,,1146.0,,4780458.0,,936.0,,53263.0,,1636.0,,31559.0,,1539.0,,43700.0,,1859.0,,86557.0,,2187.0,,62836.0,,1542.0,,83448.0,,2144.0,,82905.0,,2217.0,,74722.0,,2024.0,,1368696.0,,8071.0,,244950.0,,3256.0,,566913.0,,5069.0,,323805.0,,4076.0,,1017563.0,,6550.0,,477191.0,,5423.0,,145794.0,,2535.0,,116556.0,,2364.0,,5254613.0,,859.0,,59963.0,,1688.0,,35641.0,,1063.0,,45023.0,,1557.0,,86326.0,,2161.0,,62064.0,,1740.0,,79274.0,,1964.0,,78209.0,,2119.0,,66229.0,,1868.0,,1389436.0,,6725.0,,289423.0,,3820.0,,644268.0,,5220.0,,481309.0,,4089.0,,1117927.0,,5920.0,,632507.0,,5066.0,,110109.0,,1942.0,,76905.0,,1646.0,,New England Division,1
28147095.0,,1476.0,,13377542.0,,1347.0,,187955.0,,2868.0,,89729.0,,2426.0,,193794.0,,4117.0,,259975.0,,4187.0,,201042.0,,3396.0,,275330.0,,4243.0,,289860.0,,4596.0,,267630.0,,4101.0,,4101751.0,,18308.0,,661213.0,,6331.0,,1575887.0,,9596.0,,920865.0,,6454.0,,2599358.0,,12813.0,,1126281.0,,9159.0,,393800.0,,4669.0,,233072.0,,3308.0,,14769553.0,,1057.0,,214072.0,,3305.0,,109886.0,,2681.0,,200333.0,,4014.0,,286107.0,,4100.0,,195855.0,,3485.0,,276469.0,,3547.0,,310674.0,,4443.0,,259762.0,,3688.0,,4454216.0,,17707.0,,735703.0,,7121.0,,1660256.0,,10127.0,,1266379.0,,7069.0,,2809821.0,,10375.0,,1553623.0,,12391.0,,277418.0,,3521.0,,158979.0,,2579.0,,Middle Atlantic Division,2
31100314.0,,3115.0,,14974384.0,,2230.0,,154432.0,,2650.0,,57382.0,,1946.0,,137622.0,,2948.0,,270019.0,,4115.0,,209434.0,,3350.0,,315258.0,,4391.0,,368588.0,,4953.0,,278788.0,,3872.0,,4782200.0,,17675.0,,1007730.0,,8219.0,,2195015.0,,9958.0,,1091822.0,,6572.0,,2555973.0,,13892.0,,1019999.0,,8788.0,,325051.0,,4081.0,,205071.0,,2791.0,,16125930.0,,1891.0,,153389.0,,2627.0,,59301.0,,2031.0,,128416.0,,2651.0,,274666.0,,3266.0,,195607.0,,3288.0,,318267.0,,3968.0,,365069.0,,4681.0,,243040.0,,3274.0,,4955456.0,,15426.0,,1151662.0,,8165.0,,2360572.0,,12553.0,,1485463.0,,7610.0,,2798627.0,,13014.0,,1300688.0,,9876.0,,204763.0,,2970.0,,130944.0,,2466.0,,East North Central Division,3
13737354.0,,2746.0,,6686692.0,,1999.0,,55325.0,,1591.0,,21871.0,,1123.0,,46061.0,,1636.0,,131327.0,,2246.0,,81696.0,,2005.0,,116295.0,,2282.0,,133871.0,,2691.0,,99145.0,,1922.0,,2033655.0,,9282.0,,461381.0,,5082.0,,1021194.0,,6335.0,,567924.0,,4440.0,,1251573.0,,7250.0,,422269.0,,4112.0,,146647.0,,2138.0,,96458.0,,2003.0,,7050662.0,,1868.0,,59780.0,,1562.0,,21301.0,,1097.0,,38947.0,,1554.0,,131882.0,,2521.0,,73069.0,,1563.0,,111054.0,,2228.0,,127211.0,,2258.0,,81521.0,,2038.0,,1984702.0,,8416.0,,539394.0,,4362.0,,1100237.0,,6948.0,,701780.0,,4313.0,,1386920.0,,7793.0,,539060.0,,5216.0,,92766.0,,2058.0,,61038.0,,1476.0,,West North Central Division,4
41466693.0,,4429.0,,19788391.0,,3175.0,,258707.0,,4104.0,,150351.0,,3942.0,,296740.0,,5473.0,,416674.0,,5387.0,,408002.0,,5021.0,,509970.0,,7256.0,,510547.0,,6462.0,,372542.0,,5617.0,,5709154.0,,25045.0,,1142817.0,,12622.0,,2800955.0,,12482.0,,1375212.0,,9123.0,,3538583.0,,17848.0,,1464224.0,,11674.0,,499524.0,,6111.0,,334389.0,,4173.0,,21678302.0,,3061.0,,260872.0,,3723.0,,129902.0,,3040.0,,264798.0,,4598.0,,398772.0,,6481.0,,347595.0,,4958.0,,471900.0,,5388.0,,489263.0,,5819.0,,359939.0,,4805.0,,6047820.0,,24605.0,,1410576.0,,13245.0,,3217254.0,,16400.0,,1953160.0,,10689.0,,3940325.0,,19793.0,,1814432.0,,14724.0,,347198.0,,4579.0,,224496.0,,3155.0,,South Atlantic Division,5
12423445.0,,2879.0,,5919529.0,,2191.0,,79263.0,,1805.0,,41620.0,,1494.0,,74668.0,,1857.0,,196622.0,,3263.0,,139133.0,,2788.0,,191791.0,,3421.0,,198291.0,,3215.0,,112533.0,,2232.0,,1976424.0,,8831.0,,344666.0,,4838.0,,881800.0,,6325.0,,353958.0,,4153.0,,839429.0,,7598.0,,301352.0,,4059.0,,111496.0,,2237.0,,76483.0,,1596.0,,6503916.0,,2027.0,,72370.0,,1813.0,,30759.0,,1320.0,,59868.0,,1716.0,,198113.0,,3049.0,,133050.0,,2645.0,,186608.0,,3063.0,,197733.0,,3736.0,,99401.0,,2324.0,,2032784.0,,10866.0,,426917.0,,5389.0,,1013805.0,,8512.0,,548142.0,,4973.0,,929134.0,,6821.0,,449582.0,,5581.0,,76688.0,,1692.0,,48962.0,,1451.0,,East South Central Division,6
23876544.0,,3180.0,,11587961.0,,2525.0,,197027.0,,3642.0,,158038.0,,3159.0,,331052.0,,4857.0,,286607.0,,4716.0,,314477.0,,4913.0,,286865.0,,3608.0,,335924.0,,4998.0,,208306.0,,3523.0,,3269037.0,,12946.0,,688274.0,,8140.0,,1862005.0,,11029.0,,680149.0,,6965.0,,1930126.0,,11078.0,,671959.0,,6961.0,,216555.0,,3414.0,,151560.0,,2646.0,,12288583.0,,1863.0,,204921.0,,3842.0,,154403.0,,3353.0,,314255.0,,4958.0,,281827.0,,4106.0,,300469.0,,4556.0,,283588.0,,4468.0,,327789.0,,4800.0,,193670.0,,3514.0,,3370145.0,,11648.0,,819866.0,,10501.0,,2037150.0,,12782.0,,859593.0,,6414.0,,2119915.0,,12589.0,,796359.0,,7759.0,,137050.0,,2959.0,,87583.0,,2049.0,,West South Central Division,7
14669385.0,,2122.0,,7236337.0,,1659.0,,77179.0,,2098.0,,53066.0,,2098.0,,126109.0,,3042.0,,117053.0,,2896.0,,110139.0,,2764.0,,127457.0,,2770.0,,164007.0,,3584.0,,137426.0,,2925.0,,1827855.0,,9362.0,,486987.0,,5582.0,,1296713.0,,9594.0,,557674.0,,4489.0,,1350006.0,,7950.0,,525854.0,,5526.0,,157515.0,,3142.0,,121297.0,,2099.0,,7433048.0,,1443.0,,79853.0,,1859.0,,49190.0,,1677.0,,117823.0,,2931.0,,113894.0,,2514.0,,105410.0,,2564.0,,119441.0,,2728.0,,150903.0,,3168.0,,124523.0,,2622.0,,1848722.0,,7866.0,,573267.0,,5728.0,,1346159.0,,8715.0,,676419.0,,5988.0,,1392760.0,,7993.0,,569658.0,,6435.0,,96019.0,,1941.0,,69007.0,,1574.0,,Mountain Division,8
33600228.0,,1536.0,,16436716.0,,1134.0,,329938.0,,4311.0,,237970.0,,3657.0,,524539.0,,6076.0,,283454.0,,4306.0,,311594.0,,4734.0,,263413.0,,4251.0,,362581.0,,5072.0,,420116.0,,5456.0,,3635290.0,,18766.0,,983812.0,,9802.0,,2708407.0,,12146.0,,1229472.0,,8262.0,,3187115.0,,13719.0,,1229310.0,,10090.0,,424053.0,,4926.0,,305652.0,,3085.0,,17163512.0,,1232.0,,388357.0,,5151.0,,264367.0,,3868.0,,553090.0,,6139.0,,293964.0,,4508.0,,303580.0,,4949.0,,247958.0,,4090.0,,319618.0,,4254.0,,362295.0,,4439.0,,3653257.0,,17109.0,,1133855.0,,10317.0,,2850475.0,,15560.0,,1506950.0,,7605.0,,3419513.0,,12569.0,,1352599.0,,11303.0,,326243.0,,3898.0,,187391.0,,2724.0,,Pacific Division,9
