B23025_001E,B23025_001EA,B23025_001M,B23025_001MA,B23025_002E,B23025_002EA,B23025_002M,B23025_002MA,B23025_003E,B23025_003EA,B23025_003M,B23025_003MA,B23025_004E,B23025_004EA,B23025_004M,B23025_004MA,B23025_005E,B23025_005EA,B23025_005M,B23025_005MA,B23025_006E,B23025_006EA,B23025_006M,B23025_006MA,B23025_007E,B23025_007EA,B23025_007M,B23025_007MA,NAME,new england city and town area
16724.0,,346.0,,10206.0,,467.0,,10146.0,,469.0,,8664.0,,493.0,,1482.0,,248.0,,60.0,,87.0,,6518.0,,468.0,,"Athol, MA Micropolitan NECTA",70450
64482.0,,503.0,,41300.0,,729.0,,41245.0,,726.0,,38226.0,,703.0,,3019.0,,362.0,,55.0,,39.0,,23182.0,,742.0,,"Augusta, ME Micropolitan NECTA",70600
111218.0,,530.0,,71576.0,,909.0,,71272.0,,878.0,,65976.0,,904.0,,5296.0,,491.0,,304.0,,112.0,,39642.0,,869.0,,"Bangor, ME Metropolitan NECTA",70750
202911.0,,453.0,,122148.0,,1416.0,,121537.0,,1414.0,,111518.0,,1410.0,,10019.0,,779.0,,611.0,,147.0,,80763.0,,1366.0,,"Barnstable Town, MA Metropolitan NECTA",70900
35815.0,,346.0,,24555.0,,503.0,,24528.0,,503.0,,23117.0,,526.0,,1411.0,,213.0,,27.0,,23.0,,11260.0,,428.0,,"Barre, VT Micropolitan NECTA",71050
18831.0,,224.0,,11758.0,,474.0,,11749.0,,475.0,,10735.0,,474.0,,1014.0,,223.0,,9.0,,16.0,,7073.0,,468.0,,"Bennington, VT Micropolitan NECTA",71350
13144.0,,206.0,,7487.0,,413.0,,7487.0,,413.0,,6894.0,,378.0,,593.0,,137.0,,0.0,,17.0,,5657.0,,489.0,,"Berlin, NH Micropolitan NECTA",71500
3881504.0,,2124.0,,2687555.0,,6000.0,,2684643.0,,5968.0,,2471383.0,,7172.0,,213260.0,,3972.0,,2912.0,,384.0,,1193949.0,,5899.0,,"Boston-Cambridge-Nashua, MA-NH Metropolitan NECTA",71650
720465.0,,1374.0,,487799.0,,2968.0,,487522.0,,2995.0,,439364.0,,3139.0,,48158.0,,1351.0,,277.0,,108.0,,232666.0,,2871.0,,"Bridgeport-Stamford-Norwalk, CT Metropolitan NECTA",71950
52688.0,,552.0,,33736.0,,700.0,,33542.0,,698.0,,31445.0,,763.0,,2097.0,,351.0,,194.0,,87.0,,18952.0,,710.0,,"Brunswick, ME Micropolitan NECTA",72250
171909.0,,533.0,,122251.0,,927.0,,121941.0,,921.0,,115013.0,,1094.0,,6928.0,,549.0,,310.0,,98.0,,49658.0,,943.0,,"Burlington-South Burlington, VT Metropolitan NECTA",72400
69221.0,,397.0,,46560.0,,716.0,,46517.0,,723.0,,43788.0,,777.0,,2729.0,,408.0,,43.0,,34.0,,22661.0,,801.0,,"Concord, NH Micropolitan NECTA",72700
156088.0,,892.0,,112228.0,,1510.0,,112161.0,,1519.0,,102989.0,,1427.0,,9172.0,,698.0,,67.0,,73.0,,43860.0,,1264.0,,"Danbury, CT Metropolitan NECTA",72850
118155.0,,379.0,,82554.0,,1188.0,,82270.0,,1198.0,,76751.0,,1201.0,,5519.0,,574.0,,284.0,,96.0,,35601.0,,1219.0,,"Dover-Durham, NH-ME Metropolitan NECTA",73050
31151.0,,327.0,,20932.0,,498.0,,20932.0,,498.0,,19304.0,,559.0,,1628.0,,285.0,,0.0,,26.0,,10219.0,,489.0,,"Greenfield Town, MA Micropolitan NECTA",73300
929004.0,,1195.0,,634572.0,,2898.0,,633819.0,,2866.0,,573223.0,,2950.0,,60596.0,,1548.0,,753.0,,209.0,,294432.0,,2890.0,,"Hartford-West Hartford-East Hartford, CT Metropolitan NECTA",73450
42564.0,,416.0,,28864.0,,666.0,,28792.0,,668.0,,26329.0,,784.0,,2463.0,,421.0,,72.0,,71.0,,13700.0,,661.0,,"Keene, NH Micropolitan NECTA",73750
19105.0,,340.0,,12031.0,,608.0,,12014.0,,611.0,,11106.0,,655.0,,908.0,,227.0,,17.0,,26.0,,7074.0,,488.0,,"Laconia, NH Micropolitan NECTA",73900
69986.0,,583.0,,45508.0,,796.0,,45494.0,,797.0,,43490.0,,874.0,,2004.0,,234.0,,14.0,,17.0,,24478.0,,790.0,,"Lebanon, NH-VT Micropolitan NECTA",74350
119530.0,,858.0,,79712.0,,1301.0,,79530.0,,1323.0,,71673.0,,1370.0,,7857.0,,681.0,,182.0,,118.0,,39818.0,,1152.0,,"Leominster-Gardner, MA Metropolitan NECTA",74500
86883.0,,420.0,,57121.0,,818.0,,56993.0,,828.0,,51884.0,,941.0,,5109.0,,497.0,,128.0,,70.0,,29762.0,,850.0,,"Lewiston-Auburn, ME Metropolitan NECTA",74650
163457.0,,752.0,,115931.0,,1252.0,,115840.0,,1244.0,,108045.0,,1290.0,,7795.0,,598.0,,91.0,,72.0,,47526.0,,1267.0,,"Manchester, NH Metropolitan NECTA",74950
132436.0,,861.0,,82916.0,,1342.0,,82842.0,,1345.0,,74220.0,,1380.0,,8622.0,,631.0,,74.0,,54.0,,49520.0,,1249.0,,"New Bedford, MA Metropolitan NECTA",75550
492535.0,,1330.0,,328688.0,,2274.0,,328235.0,,2254.0,,296686.0,,2458.0,,31549.0,,1311.0,,453.0,,168.0,,163847.0,,2088.0,,"New Haven, CT Metropolitan NECTA",75700
20983.0,,340.0,,11838.0,,425.0,,11817.0,,421.0,,10736.0,,408.0,,1081.0,,205.0,,21.0,,26.0,,9145.0,,437.0,,"North Adams, MA-VT Micropolitan NECTA",76150
234490.0,,506.0,,158733.0,,1267.0,,151787.0,,1338.0,,138824.0,,1504.0,,12963.0,,837.0,,6946.0,,332.0,,75757.0,,1279.0,,"Norwich-New London-Westerly, CT-RI Metropolitan NECTA",76450
71081.0,,438.0,,46078.0,,779.0,,46038.0,,782.0,,41335.0,,768.0,,4703.0,,493.0,,40.0,,31.0,,25003.0,,797.0,,"Pittsfield, MA Metropolitan NECTA",76600
292643.0,,843.0,,203260.0,,1400.0,,202964.0,,1411.0,,190854.0,,1530.0,,12110.0,,821.0,,296.0,,117.0,,89383.0,,1490.0,,"Portland-South Portland, ME Metropolitan NECTA",76750
102824.0,,597.0,,71221.0,,1016.0,,70441.0,,1029.0,,66763.0,,998.0,,3678.0,,452.0,,780.0,,181.0,,31603.0,,987.0,,"Portsmouth, NH-ME Metropolitan NECTA",76900
1059734.0,,1114.0,,701507.0,,3569.0,,698296.0,,3627.0,,630483.0,,3581.0,,67813.0,,1909.0,,3211.0,,341.0,,358227.0,,3432.0,,"Providence-Warwick, RI-MA Metropolitan NECTA",77200
34873.0,,349.0,,22411.0,,543.0,,22377.0,,546.0,,20615.0,,514.0,,1762.0,,254.0,,34.0,,40.0,,12462.0,,530.0,,"Rutland, VT Micropolitan NECTA",77650
18800.0,,331.0,,12108.0,,419.0,,12087.0,,419.0,,10986.0,,397.0,,1101.0,,205.0,,21.0,,17.0,,6692.0,,393.0,,"Sanford, ME Micropolitan NECTA",77950
599741.0,,899.0,,381816.0,,2570.0,,381189.0,,2547.0,,344602.0,,2729.0,,36587.0,,1235.0,,627.0,,190.0,,217925.0,,2508.0,,"Springfield, MA-CT Metropolitan NECTA",78100
40203.0,,493.0,,26725.0,,648.0,,26720.0,,649.0,,24282.0,,654.0,,2438.0,,366.0,,5.0,,7.0,,13478.0,,661.0,,"Torrington, CT Micropolitan NECTA",78400
14001.0,,84.0,,9177.0,,554.0,,9171.0,,556.0,,8702.0,,540.0,,469.0,,243.0,,6.0,,10.0,,4824.0,,566.0,,"Vineyard Haven, MA Micropolitan NECTA",78500
173031.0,,1101.0,,114746.0,,1500.0,,114670.0,,1479.0,,101782.0,,1422.0,,12888.0,,755.0,,76.0,,82.0,,58285.0,,1465.0,,"Waterbury, CT Metropolitan NECTA",78700
37424.0,,525.0,,22732.0,,689.0,,22635.0,,699.0,,20135.0,,661.0,,2500.0,,342.0,,97.0,,85.0,,14692.0,,660.0,,"Waterville, ME Micropolitan NECTA",78850
520241.0,,1186.0,,351659.0,,2753.0,,351392.0,,2741.0,,321346.0,,2726.0,,30046.0,,1237.0,,267.0,,99.0,,168582.0,,2634.0,,"Worcester, MA-CT Metropolitan NECTA",79600
