B01001_001E,B01001_001EA,B01001_001M,B01001_001MA,B01001_002E,B01001_002EA,B01001_002M,B01001_002MA,B01001_003E,B01001_003EA,B01001_003M,B01001_003MA,B01001_004E,B01001_004EA,B01001_004M,B01001_004MA,B01001_005E,B01001_005EA,B01001_005M,B01001_005MA,B01001_006E,B01001_006EA,B01001_006M,B01001_006MA,B01001_007E,B01001_007EA,B01001_007M,B01001_007MA,B01001_008E,B01001_008EA,B01001_008M,B01001_008MA,B01001_009E,B01001_009EA,B01001_009M,B01001_009MA,B01001_010E,B01001_010EA,B01001_010M,B01001_010MA,B01001_011E,B01001_011EA,B01001_011M,B01001_011MA,B01001_012E,B01001_012EA,B01001_012M,B01001_012MA,B01001_013E,B01001_013EA,B01001_013M,B01001_013MA,B01001_014E,B01001_014EA,B01001_014M,B01001_014MA,B01001_015E,B01001_015EA,B01001_015M,B01001_015MA,B01001_016E,B01001_016EA,B01001_016M,B01001_016MA,B01001_017E,B01001_017EA,B01001_017M,B01001_017MA,B01001_018E,B01001_018EA,B01001_018M,B01001_018MA,B01001_019E,B01001_019EA,B01001_019M,B01001_019MA,B01001_020E,B01001_020EA,B01001_020M,B01001_020MA,B01001_021E,B01001_021EA,B01001_021M,B01001_021MA,B01001_022E,B01001_022EA,B01001_022M,B01001_022MA,B01001_023E,B01001_023EA,B01001_023M,B01001_023MA,B01001_024E,B01001_024EA,B01001_024M,B01001_024MA,B01001_025E,B01001_025EA,B01001_025M,B01001_025MA,B01001_026E,B01001_026EA,B01001_026M,B01001_026MA,B01001_027E,B01001_027EA,B01001_027M,B01001_027MA,B01001_028E,B01001_028EA,B01001_028M,B01001_028MA,B01001_029E,B01001_029EA,B01001_029M,B01001_029MA,B01001_030E,B01001_030EA,B01001_030M,B01001_030MA,B01001_031E,B01001_031EA,B01001_031M,B01001_031MA,B01001_032E,B01001_032EA,B01001_032M,B01001_032MA,B01001_033E,B01001_033EA,B01001_033M,B01001_033MA,B01001_034E,B01001_034EA,B01001_034M,B01001_034MA,B01001_035E,B01001_035EA,B01001_035M,B01001_035MA,B01001_036E,B01001_036EA,B01001_036M,B01001_036MA,B01001_037E,B01001_037EA,B01001_037M,B01001_037MA,B01001_038E,B01001_038EA,B01001_038M,B01001_038MA,B01001_039E,B01001_039EA,B01001_039M,B01001_039MA,B01001_040E,B01001_040EA,B01001_040M,B01001_040MA,B01001_041E,B01001_041EA,B01001_041M,B01001_041MA,B01001_042E,B01001_042EA,B01001_042M,B01001_042MA,B01001_043E,B01001_043EA,B01001_043M,B01001_043MA,B01001_044E,B01001_044EA,B01001_044M,B01001_044MA,B01001_045E,B01001_045EA,B01001_045M,B01001_045MA,B01001_046E,B01001_046EA,B01001_046M,B01001_046MA,B01001_047E,B01001_047EA,B01001_047M,B01001_047MA,B01001_048E,B01001_048EA,B01001_048M,B01001_048MA,B01001_049E,B01001_049EA,B01001_049M,B01001_049MA,NAME,division
14578558.0,,-555555555.0,*****,7094793.0,,1025.0,,397987.0,,436.0,,429484.0,,3451.0,,457120.0,,3373.0,,291286.0,,423.0,,225131.0,,668.0,,112685.0,,2156.0,,108756.0,,2328.0,,291886.0,,2549.0,,471140.0,,707.0,,438031.0,,699.0,,419634.0,,3083.0,,487014.0,,3130.0,,537764.0,,559.0,,559373.0,,492.0,,507096.0,,2765.0,,179753.0,,2520.0,,250114.0,,2431.0,,145118.0,,1867.0,,176111.0,,1985.0,,222288.0,,2208.0,,159914.0,,1970.0,,120611.0,,1635.0,,106497.0,,1777.0,,7483765.0,,1025.0,,380659.0,,522.0,,411776.0,,2908.0,,435628.0,,2943.0,,277298.0,,532.0,,225955.0,,987.0,,114587.0,,2151.0,,109011.0,,2255.0,,274238.0,,2532.0,,468405.0,,486.0,,449078.0,,509.0,,437442.0,,2627.0,,507518.0,,2608.0,,563934.0,,486.0,,587717.0,,523.0,,535513.0,,3044.0,,196750.0,,2292.0,,271610.0,,3006.0,,157021.0,,1969.0,,199376.0,,2244.0,,263048.0,,2378.0,,207704.0,,2320.0,,181976.0,,2420.0,,227521.0,,2302.0,,New England Division,1
41227433.0,,-555555555.0,*****,20053301.0,,1474.0,,1239795.0,,665.0,,1255010.0,,4237.0,,1305380.0,,4383.0,,827140.0,,634.0,,591699.0,,1121.0,,316153.0,,3702.0,,299530.0,,3456.0,,841052.0,,4242.0,,1405359.0,,867.0,,1326641.0,,1049.0,,1255468.0,,5902.0,,1360740.0,,5789.0,,1461479.0,,1002.0,,1507193.0,,888.0,,1362740.0,,5809.0,,487562.0,,3562.0,,661543.0,,5328.0,,383620.0,,3593.0,,473838.0,,3283.0,,608728.0,,3278.0,,449092.0,,2958.0,,339731.0,,2788.0,,293808.0,,2659.0,,21174132.0,,1475.0,,1186275.0,,661.0,,1208863.0,,5136.0,,1240119.0,,5011.0,,785954.0,,552.0,,569996.0,,1272.0,,302018.0,,3812.0,,290846.0,,3383.0,,820508.0,,4493.0,,1398955.0,,717.0,,1343666.0,,657.0,,1281262.0,,5479.0,,1411149.0,,5494.0,,1527062.0,,680.0,,1586306.0,,623.0,,1451104.0,,5043.0,,533273.0,,3367.0,,739599.0,,4681.0,,439662.0,,3804.0,,549757.0,,3967.0,,755412.0,,4674.0,,600329.0,,3571.0,,527519.0,,3339.0,,624498.0,,4070.0,,Middle Atlantic Division,2
46585254.0,,-555555555.0,*****,22882277.0,,1966.0,,1463574.0,,1238.0,,1544395.0,,6306.0,,1587276.0,,6150.0,,984848.0,,955.0,,680760.0,,1564.0,,356800.0,,4123.0,,343143.0,,4197.0,,947097.0,,4964.0,,1506107.0,,1377.0,,1484814.0,,1461.0,,1415614.0,,6182.0,,1523698.0,,6026.0,,1607634.0,,1163.0,,1705741.0,,1237.0,,1568372.0,,5189.0,,568107.0,,4693.0,,766419.0,,4509.0,,434222.0,,3143.0,,537926.0,,3520.0,,695910.0,,3612.0,,498031.0,,3375.0,,362438.0,,3235.0,,299351.0,,2343.0,,23702977.0,,1968.0,,1397502.0,,996.0,,1478014.0,,5482.0,,1519603.0,,5679.0,,936375.0,,706.0,,644519.0,,1243.0,,343674.0,,4315.0,,336167.0,,3669.0,,921193.0,,4928.0,,1489450.0,,1217.0,,1483819.0,,1159.0,,1418090.0,,5478.0,,1538422.0,,5366.0,,1637792.0,,1085.0,,1761089.0,,1082.0,,1650926.0,,4851.0,,598760.0,,3903.0,,819711.0,,4483.0,,474252.0,,3210.0,,604564.0,,3471.0,,827244.0,,4041.0,,647364.0,,3818.0,,543923.0,,3925.0,,630524.0,,4038.0,,East North Central Division,3
20768049.0,,-555555555.0,*****,10287385.0,,2181.0,,698443.0,,1013.0,,710512.0,,3928.0,,705843.0,,3753.0,,426492.0,,910.0,,302210.0,,1211.0,,159723.0,,2493.0,,156244.0,,2754.0,,441226.0,,3196.0,,707368.0,,1067.0,,692373.0,,1265.0,,622475.0,,3478.0,,643599.0,,3410.0,,691762.0,,1066.0,,753329.0,,965.0,,691859.0,,2909.0,,252110.0,,2969.0,,338490.0,,2644.0,,192427.0,,2017.0,,237586.0,,2137.0,,314385.0,,2345.0,,231658.0,,1962.0,,170694.0,,1491.0,,146577.0,,1724.0,,10480664.0,,2182.0,,666784.0,,1034.0,,681538.0,,4240.0,,670072.0,,4262.0,,404159.0,,1069.0,,290477.0,,1437.0,,153176.0,,2665.0,,149275.0,,2943.0,,414521.0,,3485.0,,685019.0,,997.0,,674479.0,,1055.0,,607233.0,,3811.0,,637713.0,,3875.0,,693410.0,,963.0,,764113.0,,904.0,,709100.0,,3455.0,,260264.0,,2350.0,,353778.0,,2948.0,,207092.0,,2285.0,,258280.0,,2129.0,,362236.0,,2252.0,,295292.0,,2126.0,,246829.0,,2347.0,,295824.0,,2502.0,,West North Central Division,4
61224810.0,,-555555555.0,*****,29883727.0,,3130.0,,1906424.0,,1591.0,,1950333.0,,7029.0,,1976153.0,,7327.0,,1202678.0,,1650.0,,869141.0,,2462.0,,481899.0,,5407.0,,459534.0,,5377.0,,1249174.0,,6916.0,,2046197.0,,2268.0,,1965765.0,,1809.0,,1897813.0,,8076.0,,2055034.0,,7656.0,,2122371.0,,1659.0,,2133032.0,,1711.0,,1907449.0,,6964.0,,704792.0,,5053.0,,992310.0,,6414.0,,602497.0,,4548.0,,776985.0,,5512.0,,1001153.0,,5450.0,,710116.0,,4116.0,,489161.0,,3689.0,,383716.0,,3251.0,,31341083.0,,3130.0,,1830981.0,,1766.0,,1875590.0,,8296.0,,1896552.0,,8416.0,,1142678.0,,1545.0,,820021.0,,2405.0,,447214.0,,4989.0,,437540.0,,5042.0,,1212205.0,,6104.0,,2035251.0,,1912.0,,2005040.0,,1726.0,,1959966.0,,7841.0,,2116342.0,,7425.0,,2209500.0,,1507.0,,2261182.0,,1301.0,,2101641.0,,7025.0,,786308.0,,5763.0,,1118826.0,,5177.0,,684328.0,,4994.0,,874393.0,,4790.0,,1183990.0,,5443.0,,893839.0,,4891.0,,694616.0,,4686.0,,753080.0,,4776.0,,South Atlantic Division,5
18636660.0,,-555555555.0,*****,9084306.0,,2071.0,,603374.0,,1355.0,,612155.0,,3824.0,,639039.0,,3773.0,,379054.0,,1076.0,,262755.0,,1543.0,,145224.0,,2629.0,,142442.0,,2935.0,,380734.0,,3262.0,,598588.0,,1609.0,,594804.0,,1366.0,,571152.0,,4155.0,,613814.0,,4166.0,,626490.0,,1144.0,,647041.0,,1210.0,,600962.0,,3218.0,,220569.0,,2362.0,,308711.0,,3235.0,,182427.0,,2180.0,,229789.0,,2607.0,,296142.0,,2561.0,,203172.0,,2098.0,,131850.0,,1865.0,,94018.0,,1609.0,,9552354.0,,2071.0,,577547.0,,1401.0,,593546.0,,3834.0,,604906.0,,3693.0,,362420.0,,964.0,,251160.0,,1225.0,,140301.0,,2704.0,,140217.0,,2559.0,,378341.0,,3634.0,,609114.0,,1283.0,,609275.0,,1190.0,,591260.0,,3754.0,,623431.0,,3938.0,,652684.0,,934.0,,687896.0,,1049.0,,647319.0,,3607.0,,243040.0,,2334.0,,342152.0,,2909.0,,204170.0,,2518.0,,260615.0,,2313.0,,348911.0,,2256.0,,270654.0,,2266.0,,203817.0,,2368.0,,209578.0,,2104.0,,East South Central Division,6
37458969.0,,-555555555.0,*****,18538697.0,,2304.0,,1383372.0,,1403.0,,1405009.0,,7451.0,,1380745.0,,7452.0,,815802.0,,1346.0,,553023.0,,1704.0,,301454.0,,4391.0,,295479.0,,4491.0,,815852.0,,5242.0,,1363095.0,,1818.0,,1320595.0,,1630.0,,1242715.0,,6289.0,,1228984.0,,6232.0,,1223889.0,,1627.0,,1242634.0,,1375.0,,1101488.0,,4610.0,,392969.0,,3961.0,,531465.0,,3983.0,,314412.0,,3313.0,,384220.0,,3026.0,,489745.0,,3766.0,,346590.0,,2763.0,,232027.0,,2721.0,,173133.0,,2285.0,,18920272.0,,2304.0,,1327269.0,,1245.0,,1348005.0,,6564.0,,1320941.0,,6309.0,,775438.0,,1124.0,,517326.0,,1562.0,,283623.0,,4102.0,,274069.0,,3660.0,,785018.0,,4920.0,,1328693.0,,1266.0,,1305726.0,,1265.0,,1237697.0,,6964.0,,1248148.0,,6491.0,,1243351.0,,1229.0,,1277293.0,,1005.0,,1163198.0,,5187.0,,419918.0,,3395.0,,584879.0,,4800.0,,339702.0,,3163.0,,433814.0,,3596.0,,580807.0,,3404.0,,438609.0,,3700.0,,342410.0,,3113.0,,344338.0,,2905.0,,West South Central Division,7
22639961.0,,-555555555.0,*****,11325068.0,,2009.0,,804878.0,,930.0,,821431.0,,5069.0,,816996.0,,5008.0,,476968.0,,893.0,,322977.0,,1127.0,,169371.0,,3141.0,,175469.0,,2541.0,,500641.0,,3736.0,,821734.0,,1153.0,,804589.0,,1332.0,,741880.0,,4097.0,,735951.0,,4027.0,,721724.0,,1034.0,,746620.0,,849.0,,685980.0,,3596.0,,260060.0,,2813.0,,357369.0,,3592.0,,213857.0,,2291.0,,264603.0,,2675.0,,347954.0,,2821.0,,243949.0,,2430.0,,164857.0,,2426.0,,125210.0,,1966.0,,11314893.0,,2009.0,,767333.0,,1033.0,,792373.0,,4325.0,,772395.0,,4267.0,,452818.0,,944.0,,304045.0,,1493.0,,167891.0,,3332.0,,162457.0,,3045.0,,462533.0,,3560.0,,773499.0,,1153.0,,768849.0,,989.0,,716986.0,,3656.0,,711203.0,,3673.0,,716313.0,,981.0,,764481.0,,755.0,,727189.0,,4308.0,,271477.0,,3115.0,,378720.0,,3751.0,,227573.0,,2639.0,,290340.0,,2828.0,,379127.0,,3236.0,,277925.0,,2213.0,,209111.0,,2386.0,,220255.0,,2295.0,,Mountain Division,8
50987390.0,,-555555555.0,*****,25365605.0,,1404.0,,1708034.0,,747.0,,1708927.0,,6724.0,,1722106.0,,6792.0,,1077975.0,,962.0,,741087.0,,1144.0,,411491.0,,4477.0,,404514.0,,4668.0,,1154755.0,,5348.0,,1925805.0,,947.0,,1829934.0,,1131.0,,1703095.0,,6816.0,,1750785.0,,7132.0,,1747125.0,,1031.0,,1751884.0,,825.0,,1563382.0,,5388.0,,573645.0,,4539.0,,768008.0,,4487.0,,446682.0,,3281.0,,535421.0,,3409.0,,689989.0,,4047.0,,485492.0,,3538.0,,350956.0,,3065.0,,314513.0,,3259.0,,25621785.0,,1404.0,,1633480.0,,726.0,,1633394.0,,7402.0,,1648009.0,,7391.0,,1025326.0,,837.0,,693543.0,,1243.0,,382864.0,,4559.0,,371748.0,,4390.0,,1069909.0,,5763.0,,1811358.0,,926.0,,1767567.0,,790.0,,1682652.0,,7207.0,,1727061.0,,7087.0,,1741599.0,,697.0,,1785379.0,,795.0,,1647683.0,,6692.0,,610518.0,,4501.0,,830180.0,,5171.0,,489378.0,,3622.0,,606848.0,,4214.0,,794009.0,,4668.0,,599831.0,,4098.0,,492726.0,,3905.0,,576723.0,,3745.0,,Pacific Division,9
