B01003_001E,B01003_001EA,B01003_001M,B01003_001MA,NAME,region
55805991.0,,-555555555.0,*****,Northeast Region,1
67353303.0,,-555555555.0,*****,Midwest Region,2
117320439.0,,-555555555.0,*****,South Region,3
73627351.0,,-555555555.0,*****,West Region,4
