B23025_001E,B23025_001EA,B23025_001M,B23025_001MA,B23025_002E,B23025_002EA,B23025_002M,B23025_002MA,B23025_003E,B23025_003EA,B23025_003M,B23025_003MA,B23025_004E,B23025_004EA,B23025_004M,B23025_004MA,B23025_005E,B23025_005EA,B23025_005M,B23025_005MA,B23025_006E,B23025_006EA,B23025_006M,B23025_006MA,B23025_007E,B23025_007EA,B23025_007M,B23025_007MA,NAME,alaska native regional corporation,state
2407.0,,233.0,,1419.0,,158.0,,1419.0,,158.0,,1212.0,,152.0,,207.0,,49.0,,0.0,,9.0,,988.0,,159.0,,"Ahtna Alaska Native Regional Corporation, Alaska",00590,02
7864.0,,88.0,,6735.0,,184.0,,6694.0,,180.0,,6525.0,,193.0,,169.0,,48.0,,41.0,,32.0,,1129.0,,129.0,,"Aleut Alaska Native Regional Corporation, Alaska",01570,02
7472.0,,36.0,,6053.0,,154.0,,6024.0,,151.0,,5401.0,,160.0,,623.0,,103.0,,29.0,,34.0,,1419.0,,160.0,,"Arctic Slope Alaska Native Regional Corporation, Alaska",03950,02
6809.0,,47.0,,4472.0,,135.0,,4424.0,,139.0,,3646.0,,126.0,,778.0,,71.0,,48.0,,43.0,,2337.0,,140.0,,"Bering Straits Alaska Native Regional Corporation, Alaska",06370,02
5229.0,,105.0,,3322.0,,124.0,,3316.0,,127.0,,2851.0,,132.0,,465.0,,71.0,,6.0,,14.0,,1907.0,,92.0,,"Bristol Bay Alaska Native Regional Corporation, Alaska",09040,02
16801.0,,94.0,,10357.0,,237.0,,10307.0,,234.0,,8204.0,,232.0,,2103.0,,142.0,,50.0,,30.0,,6444.0,,220.0,,"Calista Alaska Native Regional Corporation, Alaska",09800,02
9969.0,,468.0,,6684.0,,467.0,,6594.0,,456.0,,6058.0,,461.0,,536.0,,156.0,,90.0,,69.0,,3285.0,,362.0,,"Chugach Alaska Native Regional Corporation, Alaska",14410,02
341736.0,,659.0,,241737.0,,1899.0,,232580.0,,1990.0,,214362.0,,2089.0,,18218.0,,889.0,,9157.0,,570.0,,99999.0,,1743.0,,"Cook Inlet Alaska Native Regional Corporation, Alaska",17140,02
88074.0,,229.0,,63548.0,,915.0,,57512.0,,1010.0,,52519.0,,1088.0,,4993.0,,509.0,,6036.0,,543.0,,24526.0,,944.0,,"Doyon Alaska Native Regional Corporation, Alaska",20010,02
10499.0,,79.0,,8114.0,,243.0,,7290.0,,327.0,,6905.0,,319.0,,385.0,,100.0,,824.0,,183.0,,2385.0,,232.0,,"Koniag Alaska Native Regional Corporation, Alaska",41640,02
5223.0,,33.0,,3368.0,,125.0,,3368.0,,125.0,,2565.0,,135.0,,803.0,,71.0,,0.0,,13.0,,1855.0,,120.0,,"NANA Alaska Native Regional Corporation, Alaska",52120,02
57410.0,,172.0,,40290.0,,579.0,,39795.0,,571.0,,37071.0,,605.0,,2724.0,,251.0,,495.0,,106.0,,17120.0,,583.0,,"Sealaska Alaska Native Regional Corporation, Alaska",67940,02
