geoid,name,universe,universe_annotation,universe_moe,universe_moe_annotation,in_labor_force,in_labor_force_annotation,in_labor_force_moe,in_labor_force_moe_annotation,civilian,civilian_annotation,civilian_moe,civilian_moe_annotation,civilian_employed,civilian_employed_annotation,civilian_employed_moe,civilian_employed_moe_annotation,civilian_unemployed,civilian_unemployed_annotation,civilian_unemployed_moe,civilian_unemployed_moe_annotation,armed_forces,armed_forces_annotation,armed_forces_moe,armed_forces_moe_annotation,not_in_labor_force,not_in_labor_force_annotation,not_in_labor_force_moe,not_in_labor_force_moe_annotation,combined new england city and town area
710,"Augusta-Waterville, ME Combined NECTA",101723.0,,431.0,,62348.0,,1052.0,,62245.0,,1052.0,,57846.0,,1070.0,,4399.0,,432.0,,103.0,,59.0,,39375.0,,994.0,,710
715,"Boston-Worcester-Providence, MA-RI-NH-CT-ME Combined NECTA",6374677.0,,1842.0,,4328303.0,,7348.0,,4319615.0,,7314.0,,4034163.0,,8378.0,,285452.0,,3935.0,,8688.0,,635.0,,2046374.0,,7181.0,,715
720,"Bridgeport-New Haven-Stamford, CT Combined NECTA",1555586.0,,1143.0,,1046183.0,,3539.0,,1045336.0,,3550.0,,959679.0,,3756.0,,85657.0,,2335.0,,847.0,,221.0,,509403.0,,3561.0,,720
725,"Claremont-Lebanon, NH-VT Combined NECTA",82402.0,,723.0,,53472.0,,898.0,,53452.0,,898.0,,51324.0,,905.0,,2128.0,,238.0,,20.0,,26.0,,28930.0,,993.0,,725
770,"Pittsfield-North Adams, MA-VT Combined NECTA",91620.0,,448.0,,58077.0,,795.0,,58056.0,,794.0,,53084.0,,764.0,,4972.0,,510.0,,21.0,,22.0,,33543.0,,755.0,,770
775,"Portland-Lewiston-South Portland, ME Combined NECTA",456940.0,,999.0,,309304.0,,2210.0,,308714.0,,2205.0,,293192.0,,2241.0,,15522.0,,977.0,,590.0,,188.0,,147636.0,,2059.0,,775
790,"Springfield-Hartford-West Hartford, MA-CT Combined NECTA",1607741.0,,1129.0,,1059099.0,,3894.0,,1057785.0,,3878.0,,974518.0,,4337.0,,83267.0,,2190.0,,1314.0,,245.0,,548642.0,,3737.0,,790
