geoid,name,universe,universe_annotation,universe_moe,universe_moe_annotation,native,native_annotation,native_moe,native_moe_annotation,foreign_born,foreign_born_annotation,foreign_born_moe,foreign_born_moe_annotation,metropolitan statistical area/micropolitan statistical area
29020,"Kokomo, IN Metro Area",82795.0,,-555555555.0,*****,81139.0,,222.0,,1656.0,,222.0,,29020
29060,"Laconia, NH Micro Area",60216.0,,-555555555.0,*****,58298.0,,336.0,,1918.0,,336.0,,29060
29100,"La Crosse-Onalaska, WI-MN Metro Area",134335.0,,-555555555.0,*****,130283.0,,344.0,,4052.0,,344.0,,29100
29180,"Lafayette, LA Metro Area",471070.0,,-555555555.0,*****,455407.0,,1019.0,,15663.0,,1019.0,,29180
29200,"Lafayette-West Lafayette, IN Metro Area",204560.0,,-555555555.0,*****,185581.0,,777.0,,18979.0,,777.0,,29200
29260,"La Grande, OR Micro Area",25741.0,,-555555555.0,*****,24738.0,,160.0,,1003.0,,160.0,,29260
29300,"LaGrange, GA Micro Area",67776.0,,-555555555.0,*****,64923.0,,377.0,,2853.0,,377.0,,29300
29340,"Lake Charles, LA Metro Area",200317.0,,-555555555.0,*****,195795.0,,477.0,,4522.0,,477.0,,29340
29380,"Lake City, FL Micro Area",67568.0,,-555555555.0,*****,65262.0,,404.0,,2306.0,,404.0,,29380
29420,"Lake Havasu City-Kingman, AZ Metro Area",201680.0,,-555555555.0,*****,187857.0,,1067.0,,13823.0,,1067.0,,29420
29460,"Lakeland-Winter Haven, FL Metro Area",610295.0,,-555555555.0,*****,547938.0,,2454.0,,62357.0,,2454.0,,29460
29500,"Lamesa, TX Micro Area",13771.0,,-555555555.0,*****,12623.0,,226.0,,1148.0,,226.0,,29500
29540,"Lancaster, PA Metro Area",523306.0,,-555555555.0,*****,499814.0,,1227.0,,23492.0,,1227.0,,29540
29620,"Lansing-East Lansing, MI Metro Area",465253.0,,-555555555.0,*****,435454.0,,1110.0,,29799.0,,1110.0,,29620
29660,"Laramie, WY Micro Area",36745.0,,-555555555.0,*****,34748.0,,281.0,,1997.0,,281.0,,29660
29700,"Laredo, TX Metro Area",254829.0,,-555555555.0,*****,184526.0,,1948.0,,70303.0,,1948.0,,29700
29740,"Las Cruces, NM Metro Area",211175.0,,-555555555.0,*****,174964.0,,1687.0,,36211.0,,1687.0,,29740
29780,"Las Vegas, NM Micro Area",29093.0,,-555555555.0,*****,27919.0,,309.0,,1174.0,,309.0,,29780
29820,"Las Vegas-Henderson-Paradise, NV Metro Area",1976925.0,,-555555555.0,*****,1545338.0,,4090.0,,431587.0,,4090.0,,29820
29860,"Laurel, MS Micro Area",85001.0,,-555555555.0,*****,82694.0,,293.0,,2307.0,,293.0,,29860
29900,"Laurinburg, NC Micro Area",36201.0,,-555555555.0,*****,35476.0,,151.0,,725.0,,151.0,,29900
29940,"Lawrence, KS Metro Area",112210.0,,-555555555.0,*****,104905.0,,645.0,,7305.0,,645.0,,29940
29980,"Lawrenceburg, TN Micro Area",41927.0,,-555555555.0,*****,41280.0,,137.0,,647.0,,137.0,,29980
30020,"Lawton, OK Metro Area",130757.0,,-555555555.0,*****,123389.0,,675.0,,7368.0,,675.0,,30020
30060,"Lebanon, MO Micro Area",35535.0,,-555555555.0,*****,35111.0,,114.0,,424.0,,114.0,,30060
30140,"Lebanon, PA Metro Area",134411.0,,-555555555.0,*****,129515.0,,634.0,,4896.0,,634.0,,30140
30220,"Levelland, TX Micro Area",23115.0,,-555555555.0,*****,21404.0,,336.0,,1711.0,,336.0,,30220
30260,"Lewisburg, PA Micro Area",44932.0,,-555555555.0,*****,43160.0,,289.0,,1772.0,,289.0,,30260
30280,"Lewisburg, TN Micro Area",30818.0,,-555555555.0,*****,29828.0,,116.0,,990.0,,116.0,,30280
30300,"Lewiston, ID-WA Metro Area",61260.0,,-555555555.0,*****,60186.0,,234.0,,1074.0,,234.0,,30300
30340,"Lewiston-Auburn, ME Metro Area",107634.0,,-555555555.0,*****,104278.0,,376.0,,3356.0,,376.0,,30340
30380,"Lewistown, PA Micro Area",46698.0,,-555555555.0,*****,46383.0,,60.0,,315.0,,60.0,,30380
30420,"Lexington, NE Micro Area",26261.0,,-555555555.0,*****,21867.0,,294.0,,4394.0,,294.0,,30420
30460,"Lexington-Fayette, KY Metro Area",478699.0,,-555555555.0,*****,446171.0,,1057.0,,32528.0,,1057.0,,30460
30580,"Liberal, KS Micro Area",23146.0,,-555555555.0,*****,15703.0,,455.0,,7443.0,,455.0,,30580
30620,"Lima, OH Metro Area",105895.0,,-555555555.0,*****,104234.0,,265.0,,1661.0,,265.0,,30620
30660,"Lincoln, IL Micro Area",30177.0,,-555555555.0,*****,29624.0,,159.0,,553.0,,159.0,,30660
30700,"Lincoln, NE Metro Area",306697.0,,-555555555.0,*****,286100.0,,1193.0,,20597.0,,1193.0,,30700
30780,"Little Rock-North Little Rock-Conway, AR Metro Area",709447.0,,-555555555.0,*****,681540.0,,1401.0,,27907.0,,1401.0,,30780
30820,"Lock Haven, PA Micro Area",39501.0,,-555555555.0,*****,38915.0,,190.0,,586.0,,190.0,,30820
30860,"Logan, UT-ID Metro Area",126982.0,,-555555555.0,*****,118739.0,,486.0,,8243.0,,486.0,,30860
30880,"Logan, WV Micro Area",36442.0,,-555555555.0,*****,36320.0,,37.0,,122.0,,37.0,,30880
30900,"Logansport, IN Micro Area",38802.0,,-555555555.0,*****,35577.0,,348.0,,3225.0,,348.0,,30900
30940,"London, KY Micro Area",126761.0,,-555555555.0,*****,125477.0,,294.0,,1284.0,,294.0,,30940
30980,"Longview, TX Metro Area",215406.0,,-555555555.0,*****,199471.0,,838.0,,15935.0,,838.0,,30980
31020,"Longview, WA Metro Area",102110.0,,-555555555.0,*****,97612.0,,536.0,,4498.0,,536.0,,31020
31060,"Los Alamos, NM Micro Area",17979.0,,-555555555.0,*****,16227.0,,267.0,,1752.0,,267.0,,31060
31080,"Los Angeles-Long Beach-Anaheim, CA Metro Area",12945252.0,,-555555555.0,*****,8544334.0,,15769.0,,4400918.0,,15769.0,,31080
31140,"Louisville/Jefferson County, KY-IN Metro Area",1244880.0,,-555555555.0,*****,1183104.0,,1796.0,,61776.0,,1796.0,,31140
31180,"Lubbock, TX Metro Area",294530.0,,-555555555.0,*****,278003.0,,1105.0,,16527.0,,1105.0,,31180
31220,"Ludington, MI Micro Area",28648.0,,-555555555.0,*****,28133.0,,110.0,,515.0,,110.0,,31220
31260,"Lufkin, TX Micro Area",87042.0,,-555555555.0,*****,80133.0,,509.0,,6909.0,,509.0,,31260
31300,"Lumberton, NC Micro Area",134535.0,,-555555555.0,*****,126952.0,,527.0,,7583.0,,527.0,,31300
31340,"Lynchburg, VA Metro Area",253959.0,,-555555555.0,*****,247154.0,,578.0,,6805.0,,578.0,,31340
31380,"Macomb, IL Micro Area",32549.0,,-555555555.0,*****,31454.0,,220.0,,1095.0,,220.0,,31380
31420,"Macon, GA Metro Area",232202.0,,-555555555.0,*****,225115.0,,548.0,,7087.0,,548.0,,31420
31460,"Madera, CA Metro Area",151435.0,,-555555555.0,*****,118853.0,,1383.0,,32582.0,,1383.0,,31460
31500,"Madison, IN Micro Area",32449.0,,-555555555.0,*****,31792.0,,119.0,,657.0,,119.0,,31500
31540,"Madison, WI Metro Area",614019.0,,-555555555.0,*****,572094.0,,1380.0,,41925.0,,1380.0,,31540
31580,"Madisonville, KY Micro Area",46810.0,,-555555555.0,*****,46245.0,,173.0,,565.0,,173.0,,31580
31620,"Magnolia, AR Micro Area",24512.0,,-555555555.0,*****,23802.0,,136.0,,710.0,,136.0,,31620
31660,"Malone, NY Micro Area",51676.0,,-555555555.0,*****,49441.0,,334.0,,2235.0,,334.0,,31660
31680,"Malvern, AR Micro Area",33182.0,,-555555555.0,*****,32868.0,,108.0,,314.0,,108.0,,31680
31700,"Manchester-Nashua, NH Metro Area",402017.0,,-555555555.0,*****,367892.0,,1325.0,,34125.0,,1325.0,,31700
31740,"Manhattan, KS Metro Area",95252.0,,-555555555.0,*****,90106.0,,524.0,,5146.0,,524.0,,31740
31820,"Manitowoc, WI Micro Area",81098.0,,-555555555.0,*****,79042.0,,249.0,,2056.0,,249.0,,31820
31860,"Mankato-North Mankato, MN Metro Area",97353.0,,-555555555.0,*****,93741.0,,464.0,,3612.0,,464.0,,31860
31900,"Mansfield, OH Metro Area",123387.0,,-555555555.0,*****,121489.0,,271.0,,1898.0,,271.0,,31900
31930,"Marietta, OH Micro Area",61600.0,,-555555555.0,*****,60890.0,,178.0,,710.0,,178.0,,31930
31940,"Marinette, WI-MI Micro Area",65549.0,,-555555555.0,*****,64645.0,,162.0,,904.0,,162.0,,31940
31980,"Marion, IN Micro Area",69671.0,,-555555555.0,*****,68592.0,,217.0,,1079.0,,217.0,,31980
32000,"Marion, NC Micro Area",44963.0,,-555555555.0,*****,43415.0,,251.0,,1548.0,,251.0,,32000
32020,"Marion, OH Micro Area",66323.0,,-555555555.0,*****,65496.0,,169.0,,827.0,,169.0,,32020
32100,"Marquette, MI Micro Area",67358.0,,-555555555.0,*****,66460.0,,161.0,,898.0,,161.0,,32100
32140,"Marshall, MN Micro Area",25703.0,,-555555555.0,*****,24269.0,,210.0,,1434.0,,210.0,,32140
32180,"Marshall, MO Micro Area",23324.0,,-555555555.0,*****,22001.0,,230.0,,1323.0,,230.0,,32180
32220,"Marshall, TX Micro Area",66467.0,,-555555555.0,*****,62977.0,,393.0,,3490.0,,393.0,,32220
32260,"Marshalltown, IA Micro Area",40800.0,,-555555555.0,*****,35867.0,,298.0,,4933.0,,298.0,,32260
32280,"Martin, TN Micro Area",34779.0,,-555555555.0,*****,34226.0,,205.0,,553.0,,205.0,,32280
32300,"Martinsville, VA Micro Area",67259.0,,-555555555.0,*****,65143.0,,221.0,,2116.0,,221.0,,32300
32340,"Maryville, MO Micro Area",23347.0,,-555555555.0,*****,23022.0,,106.0,,325.0,,106.0,,32340
32380,"Mason City, IA Micro Area",51494.0,,-555555555.0,*****,50497.0,,202.0,,997.0,,202.0,,32380
32420,"Mayag?ez, PR Metro Area",104312.0,,-555555555.0,*****,102510.0,,302.0,,1802.0,,302.0,,32420
32460,"Mayfield, KY Micro Area",37329.0,,-555555555.0,*****,35808.0,,272.0,,1521.0,,272.0,,32460
32500,"Maysville, KY Micro Area",17452.0,,-555555555.0,*****,17345.0,,63.0,,107.0,,63.0,,32500
32540,"McAlester, OK Micro Area",45417.0,,-555555555.0,*****,44548.0,,188.0,,869.0,,188.0,,32540
32580,"McAllen-Edinburg-Mission, TX Metro Area",790646.0,,-555555555.0,*****,558831.0,,4189.0,,231815.0,,4189.0,,32580
32620,"McComb, MS Micro Area",53330.0,,-555555555.0,*****,52815.0,,123.0,,515.0,,123.0,,32620
32660,"McMinnville, TN Micro Area",39861.0,,-555555555.0,*****,37772.0,,235.0,,2089.0,,235.0,,32660
32700,"McPherson, KS Micro Area",29297.0,,-555555555.0,*****,28772.0,,111.0,,525.0,,111.0,,32700
32740,"Meadville, PA Micro Area",88173.0,,-555555555.0,*****,87190.0,,175.0,,983.0,,175.0,,32740
32780,"Medford, OR Metro Area",205117.0,,-555555555.0,*****,193377.0,,837.0,,11740.0,,837.0,,32780
32820,"Memphis, TN-MS-AR Metro Area",1331931.0,,-555555555.0,*****,1264267.0,,1931.0,,67664.0,,1931.0,,32820
32860,"Menomonie, WI Micro Area",43871.0,,-555555555.0,*****,43071.0,,139.0,,800.0,,139.0,,32860
32900,"Merced, CA Metro Area",258707.0,,-555555555.0,*****,192425.0,,2121.0,,66282.0,,2121.0,,32900
32940,"Meridian, MS Micro Area",107334.0,,-555555555.0,*****,105716.0,,317.0,,1618.0,,317.0,,32940
32980,"Merrill, WI Micro Area",28650.0,,-555555555.0,*****,28304.0,,66.0,,346.0,,66.0,,32980
33020,"Mexico, MO Micro Area",25584.0,,-555555555.0,*****,25198.0,,105.0,,386.0,,105.0,,33020
33060,"Miami, OK Micro Area",32029.0,,-555555555.0,*****,31330.0,,85.0,,699.0,,85.0,,33060
33100,"Miami-Fort Lauderdale-West Palm Beach, FL Metro Area",5673185.0,,-555555555.0,*****,3498877.0,,11451.0,,2174308.0,,11451.0,,33100
33140,"Michigan City-La Porte, IN Metro Area",111310.0,,-555555555.0,*****,107933.0,,359.0,,3377.0,,359.0,,33140
33180,"Middlesborough, KY Micro Area",28409.0,,-555555555.0,*****,28317.0,,41.0,,92.0,,41.0,,33180
33220,"Midland, MI Metro Area",83842.0,,-555555555.0,*****,80658.0,,347.0,,3184.0,,347.0,,33220
33260,"Midland, TX Metro Area",147245.0,,-555555555.0,*****,134242.0,,995.0,,13003.0,,995.0,,33260
33300,"Milledgeville, GA Micro Area",55251.0,,-555555555.0,*****,53863.0,,220.0,,1388.0,,220.0,,33300
33340,"Milwaukee-Waukesha-West Allis, WI Metro Area",1560621.0,,-555555555.0,*****,1452222.0,,2131.0,,108399.0,,2131.0,,33340
33420,"Mineral Wells, TX Micro Area",28017.0,,-555555555.0,*****,26280.0,,266.0,,1737.0,,266.0,,33420
33460,"Minneapolis-St. Paul-Bloomington, MN-WI Metro Area",3391191.0,,-555555555.0,*****,3067768.0,,3571.0,,323423.0,,3571.0,,33460
33500,"Minot, ND Micro Area",72113.0,,-555555555.0,*****,70295.0,,306.0,,1818.0,,306.0,,33500
33540,"Missoula, MT Metro Area",110243.0,,-555555555.0,*****,107192.0,,354.0,,3051.0,,354.0,,33540
33580,"Mitchell, SD Micro Area",22999.0,,-555555555.0,*****,22637.0,,99.0,,362.0,,99.0,,33580
33620,"Moberly, MO Micro Area",25253.0,,-555555555.0,*****,25146.0,,39.0,,107.0,,39.0,,33620
33660,"Mobile, AL Metro Area",413188.0,,-555555555.0,*****,399911.0,,864.0,,13277.0,,864.0,,33660
33700,"Modesto, CA Metro Area",518321.0,,-555555555.0,*****,412092.0,,2689.0,,106229.0,,2689.0,,33700
33740,"Monroe, LA Metro Area",177217.0,,-555555555.0,*****,174327.0,,415.0,,2890.0,,415.0,,33740
33780,"Monroe, MI Metro Area",151408.0,,-555555555.0,*****,148354.0,,443.0,,3054.0,,443.0,,33780
33860,"Montgomery, AL Metro Area",374868.0,,-555555555.0,*****,362379.0,,695.0,,12489.0,,695.0,,33860
33940,"Montrose, CO Micro Area",41020.0,,-555555555.0,*****,38045.0,,434.0,,2975.0,,434.0,,33940
33980,"Morehead City, NC Micro Area",67198.0,,-555555555.0,*****,64917.0,,269.0,,2281.0,,269.0,,33980
34020,"Morgan City, LA Micro Area",54078.0,,-555555555.0,*****,51941.0,,219.0,,2137.0,,219.0,,34020
34060,"Morgantown, WV Metro Area",132149.0,,-555555555.0,*****,127348.0,,462.0,,4801.0,,462.0,,34060
34100,"Morristown, TN Metro Area",114480.0,,-555555555.0,*****,109182.0,,380.0,,5298.0,,380.0,,34100
34140,"Moscow, ID Micro Area",37636.0,,-555555555.0,*****,36210.0,,224.0,,1426.0,,224.0,,34140
34180,"Moses Lake, WA Micro Area",90202.0,,-555555555.0,*****,73747.0,,852.0,,16455.0,,852.0,,34180
34220,"Moultrie, GA Micro Area",45781.0,,-555555555.0,*****,40778.0,,459.0,,5003.0,,459.0,,34220
34260,"Mountain Home, AR Micro Area",41281.0,,-555555555.0,*****,40488.0,,176.0,,793.0,,176.0,,34260
34300,"Mountain Home, ID Micro Area",26528.0,,-555555555.0,*****,23914.0,,366.0,,2614.0,,366.0,,34300
34340,"Mount Airy, NC Micro Area",73486.0,,-555555555.0,*****,69292.0,,372.0,,4194.0,,372.0,,34340
34380,"Mount Pleasant, MI Micro Area",70400.0,,-555555555.0,*****,68257.0,,234.0,,2143.0,,234.0,,34380
10100,"Aberdeen, SD Micro Area",41033.0,,-555555555.0,*****,40039.0,,211.0,,994.0,,211.0,,10100
10140,"Aberdeen, WA Micro Area",72092.0,,-555555555.0,*****,67790.0,,409.0,,4302.0,,409.0,,10140
10180,"Abilene, TX Metro Area",166202.0,,-555555555.0,*****,157567.0,,681.0,,8635.0,,681.0,,10180
10220,"Ada, OK Micro Area",37700.0,,-555555555.0,*****,37033.0,,158.0,,667.0,,158.0,,10220
10260,"Adjuntas, PR Micro Area",19334.0,,-555555555.0,*****,19314.0,,17.0,,20.0,,17.0,,10260
10300,"Adrian, MI Micro Area",99505.0,,-555555555.0,*****,97466.0,,310.0,,2039.0,,310.0,,10300
10380,"Aguadilla-Isabela, PR Metro Area",335269.0,,-555555555.0,*****,332756.0,,419.0,,2513.0,,419.0,,10380
10420,"Akron, OH Metro Area",704979.0,,-555555555.0,*****,675751.0,,1172.0,,29228.0,,1172.0,,10420
10460,"Alamogordo, NM Micro Area",64767.0,,-555555555.0,*****,57177.0,,787.0,,7590.0,,787.0,,10460
10500,"Albany, GA Metro Area",157177.0,,-555555555.0,*****,153383.0,,439.0,,3794.0,,438.0,,10500
10540,"Albany, OR Metro Area",117648.0,,-555555555.0,*****,112464.0,,624.0,,5184.0,,624.0,,10540
10580,"Albany-Schenectady-Troy, NY Metro Area",873238.0,,-555555555.0,*****,812766.0,,1809.0,,60472.0,,1809.0,,10580
10620,"Albemarle, NC Micro Area",60529.0,,-555555555.0,*****,58750.0,,230.0,,1779.0,,230.0,,10620
10660,"Albert Lea, MN Micro Area",31129.0,,-555555555.0,*****,30279.0,,199.0,,850.0,,199.0,,10660
10700,"Albertville, AL Micro Area",93699.0,,-555555555.0,*****,86165.0,,415.0,,7534.0,,415.0,,10700
10740,"Albuquerque, NM Metro Area",893241.0,,-555555555.0,*****,805919.0,,3703.0,,87322.0,,3703.0,,10740
10780,"Alexandria, LA Metro Area",154147.0,,-555555555.0,*****,150332.0,,413.0,,3815.0,,413.0,,10780
10820,"Alexandria, MN Micro Area",36264.0,,-555555555.0,*****,35953.0,,78.0,,311.0,,78.0,,10820
10860,"Alice, TX Micro Area",41217.0,,-555555555.0,*****,39346.0,,382.0,,1871.0,,382.0,,10860
10900,"Allentown-Bethlehem-Easton, PA-NJ Metro Area",823731.0,,-555555555.0,*****,757309.0,,2156.0,,66422.0,,2156.0,,10900
10940,"Alma, MI Micro Area",42148.0,,-555555555.0,*****,41554.0,,107.0,,594.0,,107.0,,10940
10980,"Alpena, MI Micro Area",29399.0,,-555555555.0,*****,28999.0,,89.0,,400.0,,89.0,,10980
11020,"Altoona, PA Metro Area",126940.0,,-555555555.0,*****,125356.0,,244.0,,1584.0,,244.0,,11020
11060,"Altus, OK Micro Area",26280.0,,-555555555.0,*****,24740.0,,191.0,,1540.0,,191.0,,11060
11140,"Americus, GA Micro Area",37116.0,,-555555555.0,*****,35912.0,,178.0,,1204.0,,178.0,,11140
11180,"Ames, IA Metro Area",90750.0,,-555555555.0,*****,83175.0,,509.0,,7575.0,,509.0,,11180
11220,"Amsterdam, NY Micro Area",50019.0,,-555555555.0,*****,48281.0,,291.0,,1738.0,,291.0,,11220
11260,"Anchorage, AK Metro Area",386756.0,,-555555555.0,*****,355872.0,,1152.0,,30884.0,,1152.0,,11260
11380,"Andrews, TX Micro Area",15554.0,,-555555555.0,*****,13316.0,,356.0,,2238.0,,356.0,,11380
11420,"Angola, IN Micro Area",34190.0,,-555555555.0,*****,33514.0,,190.0,,676.0,,190.0,,11420
11460,"Ann Arbor, MI Metro Area",348560.0,,-555555555.0,*****,308987.0,,1190.0,,39573.0,,1190.0,,11460
11500,"Anniston-Oxford-Jacksonville, AL Metro Area",117714.0,,-555555555.0,*****,114892.0,,392.0,,2822.0,,392.0,,11500
11540,"Appleton, WI Metro Area",227301.0,,-555555555.0,*****,218911.0,,555.0,,8390.0,,555.0,,11540
11580,"Arcadia, FL Micro Area",34651.0,,-555555555.0,*****,28552.0,,527.0,,6099.0,,527.0,,11580
11620,"Ardmore, OK Micro Area",47904.0,,-555555555.0,*****,46697.0,,245.0,,1207.0,,245.0,,11620
11640,"Arecibo, PR Metro Area",197661.0,,-555555555.0,*****,195619.0,,446.0,,2042.0,,446.0,,11640
11660,"Arkadelphia, AR Micro Area",22912.0,,-555555555.0,*****,22305.0,,119.0,,607.0,,119.0,,11660
11680,"Arkansas City-Winfield, KS Micro Area",36232.0,,-555555555.0,*****,34860.0,,237.0,,1372.0,,237.0,,11680
11700,"Asheville, NC Metro Area",429177.0,,-555555555.0,*****,404983.0,,1680.0,,24194.0,,1680.0,,11700
11740,"Ashland, OH Micro Area",53234.0,,-555555555.0,*****,52062.0,,300.0,,1172.0,,300.0,,11740
11780,"Ashtabula, OH Micro Area",100835.0,,-555555555.0,*****,99428.0,,296.0,,1407.0,,296.0,,11780
11820,"Astoria, OR Micro Area",37157.0,,-555555555.0,*****,35007.0,,252.0,,2150.0,,252.0,,11820
11860,"Atchison, KS Micro Area",16839.0,,-555555555.0,*****,16724.0,,69.0,,115.0,,69.0,,11860
11900,"Athens, OH Micro Area",64811.0,,-555555555.0,*****,62254.0,,228.0,,2557.0,,228.0,,11900
11940,"Athens, TN Micro Area",52338.0,,-555555555.0,*****,51087.0,,283.0,,1251.0,,283.0,,11940
11980,"Athens, TX Micro Area",78636.0,,-555555555.0,*****,74036.0,,406.0,,4600.0,,406.0,,11980
12020,"Athens-Clarke County, GA Metro Area",194878.0,,-555555555.0,*****,179712.0,,632.0,,15166.0,,632.0,,12020
12060,"Atlanta-Sandy Springs-Roswell, GA Metro Area",5379176.0,,-555555555.0,*****,4658193.0,,6938.0,,720983.0,,6938.0,,12060
12100,"Atlantic City-Hammonton, NJ Metro Area",274960.0,,-555555555.0,*****,230049.0,,1373.0,,44911.0,,1373.0,,12100
12140,"Auburn, IN Micro Area",42253.0,,-555555555.0,*****,41778.0,,130.0,,475.0,,130.0,,12140
12180,"Auburn, NY Micro Area",79767.0,,-555555555.0,*****,77878.0,,257.0,,1889.0,,257.0,,12180
12220,"Auburn-Opelika, AL Metro Area",144405.0,,-555555555.0,*****,137050.0,,652.0,,7355.0,,652.0,,12220
12260,"Augusta-Richmond County, GA-SC Metro Area",570516.0,,-555555555.0,*****,547642.0,,1278.0,,22874.0,,1278.0,,12260
12300,"Augusta-Waterville, ME Micro Area",121757.0,,-555555555.0,*****,118963.0,,343.0,,2794.0,,343.0,,12300
12380,"Austin, MN Micro Area",39252.0,,-555555555.0,*****,36437.0,,355.0,,2815.0,,355.0,,12380
12420,"Austin-Round Rock, TX Metro Area",1782032.0,,-555555555.0,*****,1522004.0,,3737.0,,260028.0,,3737.0,,12420
12460,"Bainbridge, GA Micro Area",27676.0,,-555555555.0,*****,26832.0,,161.0,,844.0,,161.0,,12460
12540,"Bakersfield, CA Metro Area",848204.0,,-555555555.0,*****,673531.0,,3097.0,,174673.0,,3097.0,,12540
12580,"Baltimore-Columbia-Towson, MD Metro Area",2734044.0,,-555555555.0,*****,2481292.0,,3918.0,,252752.0,,3918.0,,12580
12620,"Bangor, ME Metro Area",153649.0,,-555555555.0,*****,149559.0,,449.0,,4090.0,,449.0,,12620
12660,"Baraboo, WI Micro Area",62353.0,,-555555555.0,*****,59925.0,,322.0,,2428.0,,322.0,,12660
12680,"Bardstown, KY Micro Area",43905.0,,-555555555.0,*****,43334.0,,193.0,,571.0,,193.0,,12680
12700,"Barnstable Town, MA Metro Area",215449.0,,-555555555.0,*****,200808.0,,1224.0,,14641.0,,1224.0,,12700
12740,"Barre, VT Micro Area",59427.0,,-555555555.0,*****,57385.0,,253.0,,2042.0,,253.0,,12740
12780,"Bartlesville, OK Micro Area",51329.0,,-555555555.0,*****,49723.0,,202.0,,1606.0,,202.0,,12780
12820,"Bastrop, LA Micro Area",27603.0,,-555555555.0,*****,27464.0,,84.0,,139.0,,84.0,,12820
12860,"Batavia, NY Micro Area",59872.0,,-555555555.0,*****,58120.0,,340.0,,1752.0,,340.0,,12860
12900,"Batesville, AR Micro Area",36786.0,,-555555555.0,*****,35471.0,,298.0,,1315.0,,298.0,,12900
12940,"Baton Rouge, LA Metro Area",808816.0,,-555555555.0,*****,779983.0,,1495.0,,28833.0,,1495.0,,12940
12980,"Battle Creek, MI Metro Area",135534.0,,-555555555.0,*****,130614.0,,413.0,,4920.0,,413.0,,12980
13020,"Bay City, MI Metro Area",107312.0,,-555555555.0,*****,105834.0,,281.0,,1478.0,,281.0,,13020
13060,"Bay City, TX Micro Area",36639.0,,-555555555.0,*****,32708.0,,490.0,,3931.0,,490.0,,13060
13100,"Beatrice, NE Micro Area",22055.0,,-555555555.0,*****,21890.0,,67.0,,165.0,,67.0,,13100
13140,"Beaumont-Port Arthur, TX Metro Area",403814.0,,-555555555.0,*****,373898.0,,1310.0,,29916.0,,1310.0,,13140
13180,"Beaver Dam, WI Micro Area",88598.0,,-555555555.0,*****,86666.0,,251.0,,1932.0,,251.0,,13180
13220,"Beckley, WV Metro Area",124882.0,,-555555555.0,*****,123268.0,,242.0,,1614.0,,242.0,,13220
13260,"Bedford, IN Micro Area",46053.0,,-555555555.0,*****,45428.0,,160.0,,625.0,,160.0,,13260
13300,"Beeville, TX Micro Area",32281.0,,-555555555.0,*****,30717.0,,231.0,,1564.0,,231.0,,13300
13340,"Bellefontaine, OH Micro Area",45678.0,,-555555555.0,*****,45147.0,,119.0,,531.0,,119.0,,13340
13380,"Bellingham, WA Metro Area",203211.0,,-555555555.0,*****,179997.0,,1200.0,,23214.0,,1200.0,,13380
13420,"Bemidji, MN Micro Area",45021.0,,-555555555.0,*****,44038.0,,264.0,,983.0,,264.0,,13420
13460,"Bend-Redmond, OR Metro Area",160565.0,,-555555555.0,*****,153469.0,,814.0,,7096.0,,814.0,,13460
13500,"Bennettsville, SC Micro Area",28542.0,,-555555555.0,*****,27995.0,,81.0,,547.0,,81.0,,13500
13540,"Bennington, VT Micro Area",36871.0,,-555555555.0,*****,35924.0,,159.0,,947.0,,159.0,,13540
13620,"Berlin, NH-VT Micro Area",38796.0,,-555555555.0,*****,37480.0,,203.0,,1316.0,,203.0,,13620
13660,"Big Rapids, MI Micro Area",43007.0,,-555555555.0,*****,42086.0,,267.0,,921.0,,267.0,,13660
13720,"Big Stone Gap, VA Micro Area",60901.0,,-555555555.0,*****,60012.0,,228.0,,889.0,,228.0,,13720
13780,"Binghamton, NY Metro Area",250087.0,,-555555555.0,*****,237068.0,,723.0,,13019.0,,723.0,,13780
13820,"Birmingham-Hoover, AL Metro Area",1132182.0,,-555555555.0,*****,1085881.0,,1376.0,,46301.0,,1376.0,,13820
13940,"Blackfoot, ID Micro Area",45485.0,,-555555555.0,*****,42264.0,,348.0,,3221.0,,348.0,,13940
13980,"Blacksburg-Christiansburg-Radford, VA Metro Area",178865.0,,-555555555.0,*****,168467.0,,896.0,,10398.0,,896.0,,13980
14010,"Bloomington, IL Metro Area",187751.0,,-555555555.0,*****,177323.0,,570.0,,10428.0,,570.0,,14010
14020,"Bloomington, IN Metro Area",161101.0,,-555555555.0,*****,149804.0,,704.0,,11297.0,,704.0,,14020
14100,"Bloomsburg-Berwick, PA Metro Area",85400.0,,-555555555.0,*****,83129.0,,312.0,,2271.0,,312.0,,14100
14140,"Bluefield, WV-VA Micro Area",106925.0,,-555555555.0,*****,105765.0,,244.0,,1160.0,,244.0,,14140
14180,"Blytheville, AR Micro Area",45912.0,,-555555555.0,*****,45079.0,,257.0,,833.0,,257.0,,14180
14220,"Bogalusa, LA Micro Area",46935.0,,-555555555.0,*****,46304.0,,170.0,,631.0,,170.0,,14220
14260,"Boise City, ID Metro Area",628966.0,,-555555555.0,*****,587171.0,,1808.0,,41795.0,,1808.0,,14260
14340,"Boone, IA Micro Area",26310.0,,-555555555.0,*****,26069.0,,95.0,,241.0,,95.0,,14340
14380,"Boone, NC Micro Area",51557.0,,-555555555.0,*****,49759.0,,228.0,,1798.0,,228.0,,14380
14420,"Borger, TX Micro Area",21986.0,,-555555555.0,*****,20622.0,,267.0,,1364.0,,267.0,,14420
14460,"Boston-Cambridge-Newton, MA-NH Metro Area",4604278.0,,-555555555.0,*****,3833197.0,,5793.0,,771081.0,,5793.0,,14460
14500,"Boulder, CO Metro Area",301072.0,,-555555555.0,*****,268378.0,,1336.0,,32694.0,,1336.0,,14500
14540,"Bowling Green, KY Metro Area",160455.0,,-555555555.0,*****,150926.0,,761.0,,9529.0,,761.0,,14540
14580,"Bozeman, MT Micro Area",91499.0,,-555555555.0,*****,89035.0,,372.0,,2464.0,,372.0,,14580
14620,"Bradford, PA Micro Area",43294.0,,-555555555.0,*****,42768.0,,124.0,,526.0,,124.0,,14620
14660,"Brainerd, MN Micro Area",91227.0,,-555555555.0,*****,90078.0,,159.0,,1149.0,,159.0,,14660
14700,"Branson, MO Micro Area",84229.0,,-555555555.0,*****,81619.0,,584.0,,2610.0,,584.0,,14700
14720,"Breckenridge, CO Micro Area",28091.0,,-555555555.0,*****,24761.0,,498.0,,3330.0,,498.0,,14720
14740,"Bremerton-Silverdale, WA Metro Area",252687.0,,-555555555.0,*****,236184.0,,833.0,,16503.0,,833.0,,14740
14780,"Brenham, TX Micro Area",33863.0,,-555555555.0,*****,31523.0,,452.0,,2340.0,,452.0,,14780
14820,"Brevard, NC Micro Area",32894.0,,-555555555.0,*****,31874.0,,276.0,,1020.0,,276.0,,14820
14860,"Bridgeport-Stamford-Norwalk, CT Metro Area",926233.0,,-555555555.0,*****,738312.0,,3209.0,,187921.0,,3209.0,,14860
15020,"Brookhaven, MS Micro Area",34870.0,,-555555555.0,*****,34586.0,,183.0,,284.0,,183.0,,15020
15060,"Brookings, OR Micro Area",22361.0,,-555555555.0,*****,21601.0,,222.0,,760.0,,222.0,,15060
15100,"Brookings, SD Micro Area",32295.0,,-555555555.0,*****,30938.0,,234.0,,1357.0,,234.0,,15100
15180,"Brownsville-Harlingen, TX Metro Area",410710.0,,-555555555.0,*****,309540.0,,2402.0,,101170.0,,2402.0,,15180
15220,"Brownwood, TX Micro Area",37942.0,,-555555555.0,*****,36373.0,,265.0,,1569.0,,265.0,,15220
15260,"Brunswick, GA Metro Area",112831.0,,-555555555.0,*****,107868.0,,545.0,,4963.0,,545.0,,15260
15340,"Bucyrus, OH Micro Area",43348.0,,-555555555.0,*****,43089.0,,94.0,,259.0,,94.0,,15340
15380,"Buffalo-Cheektowaga-Niagara Falls, NY Metro Area",1134695.0,,-555555555.0,*****,1067788.0,,1969.0,,66907.0,,1969.0,,15380
15420,"Burley, ID Micro Area",43158.0,,-555555555.0,*****,38427.0,,401.0,,4731.0,,401.0,,15420
15460,"Burlington, IA-IL Micro Area",47487.0,,-555555555.0,*****,46748.0,,190.0,,739.0,,190.0,,15460
15500,"Burlington, NC Metro Area",152472.0,,-555555555.0,*****,140873.0,,628.0,,11599.0,,628.0,,15500
15540,"Burlington-South Burlington, VT Metro Area",212640.0,,-555555555.0,*****,199720.0,,921.0,,12920.0,,921.0,,15540
15580,"Butte-Silver Bow, MT Micro Area",34322.0,,-555555555.0,*****,33668.0,,238.0,,654.0,,238.0,,15580
15620,"Cadillac, MI Micro Area",47630.0,,-555555555.0,*****,47053.0,,105.0,,577.0,,105.0,,15620
15660,"Calhoun, GA Micro Area",55409.0,,-555555555.0,*****,50269.0,,501.0,,5140.0,,501.0,,15660
15680,"California-Lexington Park, MD Metro Area",107079.0,,-555555555.0,*****,102868.0,,439.0,,4211.0,,439.0,,15680
15700,"Cambridge, MD Micro Area",32617.0,,-555555555.0,*****,31340.0,,151.0,,1277.0,,151.0,,15700
15740,"Cambridge, OH Micro Area",39935.0,,-555555555.0,*****,39676.0,,74.0,,259.0,,74.0,,15740
15780,"Camden, AR Micro Area",30970.0,,-555555555.0,*****,30709.0,,109.0,,261.0,,109.0,,15780
15820,"Campbellsville, KY Micro Area",24585.0,,-555555555.0,*****,24229.0,,127.0,,356.0,,127.0,,15820
15860,"Ca?on City, CO Micro Area",46850.0,,-555555555.0,*****,44962.0,,304.0,,1888.0,,304.0,,15860
15900,"Canton, IL Micro Area",36829.0,,-555555555.0,*****,36209.0,,129.0,,620.0,,129.0,,15900
15940,"Canton-Massillon, OH Metro Area",404037.0,,-555555555.0,*****,396530.0,,616.0,,7507.0,,616.0,,15940
15980,"Cape Coral-Fort Myers, FL Metro Area",633968.0,,-555555555.0,*****,538485.0,,2746.0,,95483.0,,2746.0,,15980
16020,"Cape Girardeau, MO-IL Metro Area",96710.0,,-555555555.0,*****,94762.0,,269.0,,1948.0,,269.0,,16020
16060,"Carbondale-Marion, IL Metro Area",126661.0,,-555555555.0,*****,122066.0,,390.0,,4595.0,,390.0,,16060
16100,"Carlsbad-Artesia, NM Micro Area",54284.0,,-555555555.0,*****,51561.0,,333.0,,2723.0,,333.0,,16100
16180,"Carson City, NV Metro Area",54821.0,,-555555555.0,*****,48769.0,,501.0,,6052.0,,501.0,,16180
16220,"Casper, WY Metro Area",77343.0,,-555555555.0,*****,75569.0,,410.0,,1774.0,,410.0,,16220
16260,"Cedar City, UT Micro Area",46435.0,,-555555555.0,*****,44899.0,,546.0,,1536.0,,546.0,,16260
16300,"Cedar Rapids, IA Metro Area",260033.0,,-555555555.0,*****,253302.0,,595.0,,6731.0,,595.0,,16300
16340,"Cedartown, GA Micro Area",41308.0,,-555555555.0,*****,37963.0,,301.0,,3345.0,,301.0,,16340
16380,"Celina, OH Micro Area",40811.0,,-555555555.0,*****,40429.0,,139.0,,382.0,,139.0,,16380
16460,"Centralia, IL Micro Area",39070.0,,-555555555.0,*****,38729.0,,86.0,,341.0,,86.0,,16460
16500,"Centralia, WA Micro Area",75419.0,,-555555555.0,*****,71628.0,,410.0,,3791.0,,410.0,,16500
16540,"Chambersburg-Waynesboro, PA Metro Area",150594.0,,-555555555.0,*****,145342.0,,549.0,,5252.0,,549.0,,16540
16580,"Champaign-Urbana, IL Metro Area",233039.0,,-555555555.0,*****,209070.0,,980.0,,23969.0,,980.0,,16580
16620,"Charleston, WV Metro Area",226180.0,,-555555555.0,*****,223218.0,,333.0,,2962.0,,333.0,,16620
16660,"Charleston-Mattoon, IL Micro Area",64747.0,,-555555555.0,*****,63587.0,,250.0,,1160.0,,250.0,,16660
16700,"Charleston-North Charleston, SC Metro Area",682904.0,,-555555555.0,*****,646956.0,,1714.0,,35948.0,,1714.0,,16700
16740,"Charlotte-Concord-Gastonia, NC-SC Metro Area",2261321.0,,-555555555.0,*****,2053702.0,,3336.0,,207619.0,,3336.0,,16740
16820,"Charlottesville, VA Metro Area",220802.0,,-555555555.0,*****,203404.0,,1020.0,,17398.0,,1020.0,,16820
16860,"Chattanooga, TN-GA Metro Area",533187.0,,-555555555.0,*****,513361.0,,1113.0,,19826.0,,1113.0,,16860
16940,"Cheyenne, WY Metro Area",93073.0,,-555555555.0,*****,90439.0,,435.0,,2634.0,,435.0,,16940
16980,"Chicago-Naperville-Elgin, IL-IN-WI Metro Area",9488493.0,,-555555555.0,*****,7818663.0,,9861.0,,1669830.0,,9861.0,,16980
17020,"Chico, CA Metro Area",220542.0,,-555555555.0,*****,204031.0,,1134.0,,16511.0,,1134.0,,17020
17060,"Chillicothe, OH Micro Area",77802.0,,-555555555.0,*****,77237.0,,117.0,,565.0,,117.0,,17060
17140,"Cincinnati, OH-KY-IN Metro Area",2122940.0,,-555555555.0,*****,2034636.0,,2369.0,,88304.0,,2369.0,,17140
17200,"Claremont-Lebanon, NH-VT Micro Area",217946.0,,-555555555.0,*****,209281.0,,668.0,,8665.0,,668.0,,17200
17220,"Clarksburg, WV Micro Area",94197.0,,-555555555.0,*****,93457.0,,165.0,,740.0,,165.0,,17220
17260,"Clarksdale, MS Micro Area",25815.0,,-555555555.0,*****,25682.0,,113.0,,133.0,,113.0,,17260
17300,"Clarksville, TN-KY Metro Area",266098.0,,-555555555.0,*****,254044.0,,1217.0,,12054.0,,1217.0,,17300
17340,"Clearlake, CA Micro Area",64260.0,,-555555555.0,*****,58763.0,,715.0,,5497.0,,715.0,,17340
17380,"Cleveland, MS Micro Area",34107.0,,-555555555.0,*****,33587.0,,185.0,,520.0,,185.0,,17380
17420,"Cleveland, TN Metro Area",116793.0,,-555555555.0,*****,112481.0,,363.0,,4312.0,,363.0,,17420
17460,"Cleveland-Elyria, OH Metro Area",2070965.0,,-555555555.0,*****,1952760.0,,2384.0,,118205.0,,2384.0,,17460
17500,"Clewiston, FL Micro Area",38346.0,,-555555555.0,*****,28816.0,,738.0,,9530.0,,738.0,,17500
17540,"Clinton, IA Micro Area",48896.0,,-555555555.0,*****,48150.0,,128.0,,746.0,,128.0,,17540
17580,"Clovis, NM Micro Area",49302.0,,-555555555.0,*****,45244.0,,576.0,,4058.0,,576.0,,17580
17620,"Coamo, PR Micro Area",40579.0,,-555555555.0,*****,40339.0,,117.0,,240.0,,117.0,,17620
17640,"Coco, PR Micro Area",30807.0,,-555555555.0,*****,30708.0,,71.0,,99.0,,71.0,,17640
17660,"Coeur d'Alene, ID Metro Area",140785.0,,-555555555.0,*****,137570.0,,507.0,,3215.0,,507.0,,17660
17700,"Coffeyville, KS Micro Area",34869.0,,-555555555.0,*****,33736.0,,310.0,,1133.0,,310.0,,17700
17740,"Coldwater, MI Micro Area",44398.0,,-555555555.0,*****,43234.0,,211.0,,1164.0,,211.0,,17740
17780,"College Station-Bryan, TX Metro Area",231417.0,,-555555555.0,*****,203724.0,,1134.0,,27693.0,,1134.0,,17780
17820,"Colorado Springs, CO Metro Area",657699.0,,-555555555.0,*****,611514.0,,2010.0,,46185.0,,2010.0,,17820
17860,"Columbia, MO Metro Area",165776.0,,-555555555.0,*****,155341.0,,925.0,,10435.0,,925.0,,17860
17900,"Columbia, SC Metro Area",776794.0,,-555555555.0,*****,739231.0,,1210.0,,37563.0,,1210.0,,17900
17980,"Columbus, GA-AL Metro Area",303626.0,,-555555555.0,*****,289870.0,,832.0,,13756.0,,832.0,,17980
18020,"Columbus, IN Metro Area",77930.0,,-555555555.0,*****,71996.0,,592.0,,5934.0,,592.0,,18020
18060,"Columbus, MS Micro Area",59746.0,,-555555555.0,*****,58606.0,,260.0,,1140.0,,260.0,,18060
18100,"Columbus, NE Micro Area",32350.0,,-555555555.0,*****,30150.0,,251.0,,2200.0,,251.0,,18100
18140,"Columbus, OH Metro Area",1926242.0,,-555555555.0,*****,1794558.0,,3195.0,,131684.0,,3195.0,,18140
18180,"Concord, NH Micro Area",146710.0,,-555555555.0,*****,141029.0,,471.0,,5681.0,,471.0,,18180
18220,"Connersville, IN Micro Area",24112.0,,-555555555.0,*****,23950.0,,90.0,,162.0,,90.0,,18220
18260,"Cookeville, TN Micro Area",106338.0,,-555555555.0,*****,102518.0,,483.0,,3820.0,,483.0,,18260
18300,"Coos Bay, OR Micro Area",62753.0,,-555555555.0,*****,60747.0,,370.0,,2006.0,,370.0,,18300
18380,"Cordele, GA Micro Area",23521.0,,-555555555.0,*****,23170.0,,117.0,,351.0,,117.0,,18380
18420,"Corinth, MS Micro Area",37159.0,,-555555555.0,*****,36635.0,,141.0,,524.0,,141.0,,18420
18460,"Cornelia, GA Micro Area",43181.0,,-555555555.0,*****,39483.0,,308.0,,3698.0,,308.0,,18460
18500,"Corning, NY Micro Area",98951.0,,-555555555.0,*****,96488.0,,253.0,,2463.0,,253.0,,18500
18580,"Corpus Christi, TX Metro Area",433094.0,,-555555555.0,*****,402123.0,,1860.0,,30971.0,,1860.0,,18580
18620,"Corsicana, TX Micro Area",47883.0,,-555555555.0,*****,42488.0,,424.0,,5395.0,,424.0,,18620
18660,"Cortland, NY Micro Area",49271.0,,-555555555.0,*****,48214.0,,173.0,,1057.0,,173.0,,18660
18700,"Corvallis, OR Metro Area",85989.0,,-555555555.0,*****,78402.0,,691.0,,7587.0,,691.0,,18700
18740,"Coshocton, OH Micro Area",36862.0,,-555555555.0,*****,36694.0,,67.0,,168.0,,67.0,,18740
18780,"Craig, CO Micro Area",13447.0,,-555555555.0,*****,12700.0,,159.0,,747.0,,159.0,,18780
18820,"Crawfordsville, IN Micro Area",38215.0,,-555555555.0,*****,37213.0,,202.0,,1002.0,,202.0,,18820
18860,"Crescent City, CA Micro Area",28357.0,,-555555555.0,*****,26504.0,,243.0,,1853.0,,243.0,,18860
18880,"Crestview-Fort Walton Beach-Destin, FL Metro Area",242442.0,,-555555555.0,*****,227343.0,,810.0,,15099.0,,810.0,,18880
18900,"Crossville, TN Micro Area",56589.0,,-555555555.0,*****,55227.0,,240.0,,1362.0,,240.0,,18900
18980,"Cullman, AL Micro Area",80499.0,,-555555555.0,*****,78076.0,,349.0,,2423.0,,349.0,,18980
19000,"Cullowhee, NC Micro Area",40362.0,,-555555555.0,*****,38495.0,,446.0,,1867.0,,446.0,,19000
19060,"Cumberland, MD-WV Metro Area",102409.0,,-555555555.0,*****,100803.0,,336.0,,1606.0,,336.0,,19060
19100,"Dallas-Fort Worth-Arlington, TX Metro Area",6575833.0,,-555555555.0,*****,5434055.0,,8814.0,,1141778.0,,8814.0,,19100
19140,"Dalton, GA Metro Area",142060.0,,-555555555.0,*****,120615.0,,866.0,,21445.0,,866.0,,19140
19180,"Danville, IL Metro Area",81147.0,,-555555555.0,*****,79429.0,,244.0,,1718.0,,244.0,,19180
19220,"Danville, KY Micro Area",53303.0,,-555555555.0,*****,52500.0,,138.0,,803.0,,138.0,,19220
19260,"Danville, VA Micro Area",106073.0,,-555555555.0,*****,103300.0,,300.0,,2773.0,,300.0,,19260
19300,"Daphne-Fairhope-Foley, AL Metro Area",187114.0,,-555555555.0,*****,180308.0,,802.0,,6806.0,,802.0,,19300
19340,"Davenport-Moline-Rock Island, IA-IL Metro Area",381142.0,,-555555555.0,*****,363058.0,,832.0,,18084.0,,832.0,,19340
19380,"Dayton, OH Metro Area",801888.0,,-555555555.0,*****,772747.0,,1304.0,,29141.0,,1304.0,,19380
19420,"Dayton, TN Micro Area",32080.0,,-555555555.0,*****,31424.0,,200.0,,656.0,,200.0,,19420
19460,"Decatur, AL Metro Area",153682.0,,-555555555.0,*****,147165.0,,567.0,,6517.0,,567.0,,19460
19500,"Decatur, IL Metro Area",110262.0,,-555555555.0,*****,107942.0,,333.0,,2320.0,,333.0,,19500
19540,"Decatur, IN Micro Area",34424.0,,-555555555.0,*****,34178.0,,129.0,,246.0,,129.0,,19540
19580,"Defiance, OH Micro Area",38911.0,,-555555555.0,*****,38213.0,,189.0,,698.0,,189.0,,19580
19620,"Del Rio, TX Micro Area",48730.0,,-555555555.0,*****,37388.0,,744.0,,11342.0,,744.0,,19620
19660,"Deltona-Daytona Beach-Ormond Beach, FL Metro Area",593569.0,,-555555555.0,*****,545938.0,,1729.0,,47631.0,,1729.0,,19660
19700,"Deming, NM Micro Area",25001.0,,-555555555.0,*****,21104.0,,404.0,,3897.0,,404.0,,19700
19740,"Denver-Aurora-Lakewood, CO Metro Area",2601465.0,,-555555555.0,*****,2289871.0,,4401.0,,311594.0,,4401.0,,19740
19760,"DeRidder, LA Micro Area",35891.0,,-555555555.0,*****,35159.0,,160.0,,732.0,,160.0,,19760
19780,"Des Moines-West Des Moines, IA Metro Area",580913.0,,-555555555.0,*****,537997.0,,1416.0,,42916.0,,1416.0,,19780
19820,"Detroit-Warren-Dearborn, MI Metro Area",4295700.0,,-555555555.0,*****,3916190.0,,5057.0,,379510.0,,5057.0,,19820
19860,"Dickinson, ND Micro Area",25666.0,,-555555555.0,*****,24869.0,,174.0,,797.0,,174.0,,19860
19940,"Dixon, IL Micro Area",35535.0,,-555555555.0,*****,34717.0,,182.0,,818.0,,182.0,,19940
19980,"Dodge City, KS Micro Area",34217.0,,-555555555.0,*****,25515.0,,551.0,,8702.0,,551.0,,19980
20020,"Dothan, AL Metro Area",146425.0,,-555555555.0,*****,143000.0,,303.0,,3425.0,,303.0,,20020
20060,"Douglas, GA Micro Area",42841.0,,-555555555.0,*****,40237.0,,383.0,,2604.0,,383.0,,20060
20100,"Dover, DE Metro Area",165030.0,,-555555555.0,*****,156252.0,,789.0,,8778.0,,789.0,,20100
20140,"Dublin, GA Micro Area",58106.0,,-555555555.0,*****,56858.0,,202.0,,1248.0,,202.0,,20140
20180,"DuBois, PA Micro Area",81536.0,,-555555555.0,*****,79884.0,,150.0,,1652.0,,150.0,,20180
20220,"Dubuque, IA Metro Area",94411.0,,-555555555.0,*****,92570.0,,245.0,,1841.0,,245.0,,20220
20260,"Duluth, MN-WI Metro Area",279719.0,,-555555555.0,*****,274534.0,,373.0,,5185.0,,373.0,,20260
20300,"Dumas, TX Micro Area",22029.0,,-555555555.0,*****,15797.0,,452.0,,6232.0,,452.0,,20300
20340,"Duncan, OK Micro Area",44929.0,,-555555555.0,*****,43987.0,,220.0,,942.0,,220.0,,20340
20380,"Dunn, NC Micro Area",118793.0,,-555555555.0,*****,112153.0,,559.0,,6640.0,,559.0,,20380
20420,"Durango, CO Micro Area",52039.0,,-555555555.0,*****,50214.0,,328.0,,1825.0,,328.0,,20420
20460,"Durant, OK Micro Area",43079.0,,-555555555.0,*****,42168.0,,151.0,,911.0,,151.0,,20460
20500,"Durham-Chapel Hill, NC Metro Area",516798.0,,-555555555.0,*****,453538.0,,1491.0,,63260.0,,1491.0,,20500
20540,"Dyersburg, TN Micro Area",38239.0,,-555555555.0,*****,37568.0,,136.0,,671.0,,136.0,,20540
20580,"Eagle Pass, TX Micro Area",54880.0,,-555555555.0,*****,35727.0,,865.0,,19153.0,,865.0,,20580
20660,"Easton, MD Micro Area",37859.0,,-555555555.0,*****,35909.0,,266.0,,1950.0,,266.0,,20660
20700,"East Stroudsburg, PA Metro Area",168947.0,,-555555555.0,*****,151791.0,,1425.0,,17156.0,,1425.0,,20700
20740,"Eau Claire, WI Metro Area",162464.0,,-555555555.0,*****,158888.0,,367.0,,3576.0,,367.0,,20740
20780,"Edwards, CO Micro Area",52151.0,,-555555555.0,*****,42123.0,,703.0,,10028.0,,703.0,,20780
20820,"Effingham, IL Micro Area",34274.0,,-555555555.0,*****,33958.0,,128.0,,316.0,,128.0,,20820
20900,"El Campo, TX Micro Area",41185.0,,-555555555.0,*****,37741.0,,509.0,,3444.0,,509.0,,20900
20940,"El Centro, CA Metro Area",175201.0,,-555555555.0,*****,118649.0,,1420.0,,56552.0,,1420.0,,20940
20980,"El Dorado, AR Micro Area",41307.0,,-555555555.0,*****,40430.0,,164.0,,877.0,,164.0,,20980
21020,"Elizabeth City, NC Micro Area",63919.0,,-555555555.0,*****,62153.0,,313.0,,1766.0,,313.0,,21020
21060,"Elizabethtown-Fort Knox, KY Metro Area",149388.0,,-555555555.0,*****,143933.0,,471.0,,5455.0,,471.0,,21060
21120,"Elk City, OK Micro Area",22715.0,,-555555555.0,*****,21925.0,,256.0,,790.0,,256.0,,21120
21140,"Elkhart-Goshen, IN Metro Area",198662.0,,-555555555.0,*****,181839.0,,969.0,,16823.0,,969.0,,21140
21180,"Elkins, WV Micro Area",29399.0,,-555555555.0,*****,29308.0,,47.0,,91.0,,47.0,,21180
21260,"Ellensburg, WA Micro Area",41291.0,,-555555555.0,*****,38930.0,,430.0,,2361.0,,430.0,,21260
21300,"Elmira, NY Metro Area",88876.0,,-555555555.0,*****,86521.0,,330.0,,2355.0,,330.0,,21300
21340,"El Paso, TX Metro Area",816409.0,,-555555555.0,*****,604288.0,,3618.0,,212121.0,,3618.0,,21340
21380,"Emporia, KS Micro Area",33624.0,,-555555555.0,*****,30461.0,,285.0,,3163.0,,285.0,,21380
21420,"Enid, OK Micro Area",60956.0,,-555555555.0,*****,56943.0,,490.0,,4013.0,,490.0,,21420
21460,"Enterprise, AL Micro Area",50468.0,,-555555555.0,*****,47918.0,,351.0,,2550.0,,351.0,,21460
21500,"Erie, PA Metro Area",280518.0,,-555555555.0,*****,269304.0,,632.0,,11214.0,,632.0,,21500
21540,"Escanaba, MI Micro Area",36967.0,,-555555555.0,*****,36521.0,,107.0,,446.0,,107.0,,21540
21580,"Espa?ola, NM Micro Area",40218.0,,-555555555.0,*****,37816.0,,470.0,,2402.0,,470.0,,21580
21660,"Eugene, OR Metro Area",353382.0,,-555555555.0,*****,333166.0,,1096.0,,20216.0,,1096.0,,21660
21700,"Eureka-Arcata-Fortuna, CA Micro Area",134613.0,,-555555555.0,*****,126886.0,,613.0,,7727.0,,613.0,,21700
21740,"Evanston, WY Micro Area",21040.0,,-555555555.0,*****,20318.0,,249.0,,722.0,,249.0,,21740
21780,"Evansville, IN-KY Metro Area",312412.0,,-555555555.0,*****,305500.0,,674.0,,6912.0,,674.0,,21780
21820,"Fairbanks, AK Metro Area",98656.0,,-555555555.0,*****,93074.0,,627.0,,5582.0,,627.0,,21820
21840,"Fairfield, IA Micro Area",16800.0,,-555555555.0,*****,14779.0,,303.0,,2021.0,,303.0,,21840
21900,"Fairmont, WV Micro Area",56666.0,,-555555555.0,*****,55963.0,,157.0,,703.0,,157.0,,21900
21980,"Fallon, NV Micro Area",24572.0,,-555555555.0,*****,23116.0,,280.0,,1456.0,,280.0,,21980
22020,"Fargo, ND-MN Metro Area",213718.0,,-555555555.0,*****,203441.0,,802.0,,10277.0,,802.0,,22020
22060,"Faribault-Northfield, MN Micro Area",64585.0,,-555555555.0,*****,60126.0,,394.0,,4459.0,,394.0,,22060
22100,"Farmington, MO Micro Area",65602.0,,-555555555.0,*****,65064.0,,120.0,,538.0,,120.0,,22100
22140,"Farmington, NM Metro Area",128476.0,,-555555555.0,*****,123798.0,,572.0,,4678.0,,572.0,,22140
22180,"Fayetteville, NC Metro Area",370875.0,,-555555555.0,*****,349982.0,,1003.0,,20893.0,,1003.0,,22180
22220,"Fayetteville-Springdale-Rogers, AR-MO Metro Area",473913.0,,-555555555.0,*****,422684.0,,1593.0,,51229.0,,1593.0,,22220
22260,"Fergus Falls, MN Micro Area",57369.0,,-555555555.0,*****,55908.0,,185.0,,1461.0,,185.0,,22260
22280,"Fernley, NV Micro Area",51648.0,,-555555555.0,*****,47933.0,,508.0,,3715.0,,508.0,,22280
22300,"Findlay, OH Micro Area",75239.0,,-555555555.0,*****,73531.0,,316.0,,1708.0,,316.0,,22300
22340,"Fitzgerald, GA Micro Area",17576.0,,-555555555.0,*****,17295.0,,187.0,,281.0,,187.0,,22340
22380,"Flagstaff, AZ Metro Area",134795.0,,-555555555.0,*****,127610.0,,699.0,,7185.0,,699.0,,22380
22420,"Flint, MI Metro Area",421575.0,,-555555555.0,*****,412022.0,,766.0,,9553.0,,766.0,,22420
22500,"Florence, SC Metro Area",205739.0,,-555555555.0,*****,200935.0,,507.0,,4804.0,,507.0,,22500
22520,"Florence-Muscle Shoals, AL Metro Area",147122.0,,-555555555.0,*****,144122.0,,350.0,,3000.0,,350.0,,22520
22540,"Fond du Lac, WI Metro Area",101666.0,,-555555555.0,*****,98301.0,,407.0,,3365.0,,407.0,,22540
22580,"Forest City, NC Micro Area",67403.0,,-555555555.0,*****,65487.0,,342.0,,1916.0,,342.0,,22580
22620,"Forrest City, AR Micro Area",27914.0,,-555555555.0,*****,27239.0,,175.0,,675.0,,175.0,,22620
22660,"Fort Collins, CO Metro Area",305798.0,,-555555555.0,*****,289170.0,,1125.0,,16628.0,,1125.0,,22660
22700,"Fort Dodge, IA Micro Area",37626.0,,-555555555.0,*****,36816.0,,200.0,,810.0,,200.0,,22700
22780,"Fort Leonard Wood, MO Micro Area",52795.0,,-555555555.0,*****,49990.0,,388.0,,2805.0,,388.0,,22780
22800,"Fort Madison-Keokuk, IA-IL-MO Micro Area",61720.0,,-555555555.0,*****,60755.0,,200.0,,965.0,,200.0,,22800
22820,"Fort Morgan, CO Micro Area",28308.0,,-555555555.0,*****,24752.0,,404.0,,3556.0,,404.0,,22820
22860,"Fort Polk South, LA Micro Area",52510.0,,-555555555.0,*****,50681.0,,206.0,,1829.0,,206.0,,22860
22900,"Fort Smith, AR-OK Metro Area",280228.0,,-555555555.0,*****,263343.0,,757.0,,16885.0,,757.0,,22900
23060,"Fort Wayne, IN Metro Area",419305.0,,-555555555.0,*****,396489.0,,1175.0,,22816.0,,1175.0,,23060
23140,"Frankfort, IN Micro Area",33086.0,,-555555555.0,*****,30930.0,,313.0,,2156.0,,313.0,,23140
23180,"Frankfort, KY Micro Area",70965.0,,-555555555.0,*****,69026.0,,316.0,,1939.0,,316.0,,23180
23240,"Fredericksburg, TX Micro Area",25003.0,,-555555555.0,*****,23045.0,,478.0,,1958.0,,478.0,,23240
23300,"Freeport, IL Micro Area",47315.0,,-555555555.0,*****,46404.0,,196.0,,911.0,,196.0,,23300
23340,"Fremont, NE Micro Area",36675.0,,-555555555.0,*****,34694.0,,204.0,,1981.0,,204.0,,23340
23380,"Fremont, OH Micro Area",60619.0,,-555555555.0,*****,59543.0,,264.0,,1076.0,,264.0,,23380
23420,"Fresno, CA Metro Area",939605.0,,-555555555.0,*****,734256.0,,2989.0,,205349.0,,2989.0,,23420
23460,"Gadsden, AL Metro Area",104260.0,,-555555555.0,*****,101934.0,,238.0,,2326.0,,238.0,,23460
23500,"Gaffney, SC Micro Area",55587.0,,-555555555.0,*****,54225.0,,177.0,,1362.0,,177.0,,23500
23540,"Gainesville, FL Metro Area",266765.0,,-555555555.0,*****,239494.0,,1162.0,,27271.0,,1162.0,,23540
23580,"Gainesville, GA Metro Area",182841.0,,-555555555.0,*****,154690.0,,1040.0,,28151.0,,1040.0,,23580
23620,"Gainesville, TX Micro Area",38484.0,,-555555555.0,*****,35438.0,,365.0,,3046.0,,365.0,,23620
23660,"Galesburg, IL Micro Area",52545.0,,-555555555.0,*****,51363.0,,212.0,,1182.0,,212.0,,23660
23700,"Gallup, NM Micro Area",72373.0,,-555555555.0,*****,70441.0,,448.0,,1932.0,,448.0,,23700
23780,"Garden City, KS Micro Area",40876.0,,-555555555.0,*****,32634.0,,543.0,,8242.0,,543.0,,23780
23820,"Gardnerville Ranchos, NV Micro Area",47035.0,,-555555555.0,*****,44061.0,,404.0,,2974.0,,404.0,,23820
23860,"Georgetown, SC Micro Area",60280.0,,-555555555.0,*****,58472.0,,258.0,,1808.0,,258.0,,23860
23900,"Gettysburg, PA Metro Area",101496.0,,-555555555.0,*****,97366.0,,315.0,,4130.0,,315.0,,23900
23940,"Gillette, WY Micro Area",46901.0,,-555555555.0,*****,45206.0,,393.0,,1695.0,,393.0,,23940
23980,"Glasgow, KY Micro Area",52547.0,,-555555555.0,*****,51805.0,,168.0,,742.0,,168.0,,23980
24020,"Glens Falls, NY Metro Area",128821.0,,-555555555.0,*****,125393.0,,369.0,,3428.0,,369.0,,24020
24060,"Glenwood Springs, CO Micro Area",73860.0,,-555555555.0,*****,63289.0,,735.0,,10571.0,,735.0,,24060
24100,"Gloversville, NY Micro Area",55165.0,,-555555555.0,*****,53898.0,,281.0,,1267.0,,281.0,,24100
24140,"Goldsboro, NC Metro Area",123382.0,,-555555555.0,*****,114827.0,,540.0,,8555.0,,540.0,,24140
24220,"Grand Forks, ND-MN Metro Area",98879.0,,-555555555.0,*****,95246.0,,424.0,,3633.0,,424.0,,24220
24260,"Grand Island, NE Metro Area",82631.0,,-555555555.0,*****,74473.0,,636.0,,8158.0,,636.0,,24260
24300,"Grand Junction, CO Metro Area",147432.0,,-555555555.0,*****,141446.0,,629.0,,5986.0,,629.0,,24300
24340,"Grand Rapids-Wyoming, MI Metro Area",998916.0,,-555555555.0,*****,937145.0,,1824.0,,61771.0,,1824.0,,24340
24380,"Grants, NM Micro Area",27296.0,,-555555555.0,*****,25871.0,,313.0,,1425.0,,313.0,,24380
24420,"Grants Pass, OR Metro Area",82783.0,,-555555555.0,*****,80482.0,,374.0,,2301.0,,374.0,,24420
24460,"Great Bend, KS Micro Area",27602.0,,-555555555.0,*****,25753.0,,255.0,,1849.0,,255.0,,24460
24500,"Great Falls, MT Metro Area",81621.0,,-555555555.0,*****,79746.0,,288.0,,1875.0,,288.0,,24500
24540,"Greeley, CO Metro Area",258780.0,,-555555555.0,*****,236820.0,,1457.0,,21960.0,,1457.0,,24540
24580,"Green Bay, WI Metro Area",308706.0,,-555555555.0,*****,295091.0,,730.0,,13615.0,,730.0,,24580
24620,"Greeneville, TN Micro Area",68679.0,,-555555555.0,*****,67346.0,,247.0,,1333.0,,247.0,,24620
24640,"Greenfield Town, MA Micro Area",71408.0,,-555555555.0,*****,68432.0,,390.0,,2976.0,,390.0,,24640
24660,"Greensboro-High Point, NC Metro Area",730342.0,,-555555555.0,*****,669282.0,,1818.0,,61060.0,,1818.0,,24660
24700,"Greensburg, IN Micro Area",25939.0,,-555555555.0,*****,25448.0,,156.0,,491.0,,156.0,,24700
24740,"Greenville, MS Micro Area",50578.0,,-555555555.0,*****,49915.0,,209.0,,663.0,,209.0,,24740
24780,"Greenville, NC Metro Area",170485.0,,-555555555.0,*****,162259.0,,688.0,,8226.0,,688.0,,24780
24820,"Greenville, OH Micro Area",52666.0,,-555555555.0,*****,52291.0,,111.0,,375.0,,111.0,,24820
24860,"Greenville-Anderson-Mauldin, SC Metro Area",834277.0,,-555555555.0,*****,786240.0,,1575.0,,48037.0,,1575.0,,24860
24900,"Greenwood, MS Micro Area",42494.0,,-555555555.0,*****,41436.0,,410.0,,1058.0,,410.0,,24900
24940,"Greenwood, SC Micro Area",94960.0,,-555555555.0,*****,91983.0,,449.0,,2977.0,,449.0,,24940
24980,"Grenada, MS Micro Area",21745.0,,-555555555.0,*****,21653.0,,97.0,,92.0,,97.0,,24980
25020,"Guayama, PR Metro Area",83185.0,,-555555555.0,*****,82686.0,,201.0,,499.0,,201.0,,25020
25060,"Gulfport-Biloxi-Pascagoula, MS Metro Area",375259.0,,-555555555.0,*****,360187.0,,926.0,,15072.0,,926.0,,25060
25100,"Guymon, OK Micro Area",21157.0,,-555555555.0,*****,16411.0,,318.0,,4746.0,,318.0,,25100
25180,"Hagerstown-Martinsburg, MD-WV Metro Area",254247.0,,-555555555.0,*****,243473.0,,872.0,,10774.0,,872.0,,25180
25220,"Hammond, LA Metro Area",122665.0,,-555555555.0,*****,120239.0,,449.0,,2426.0,,449.0,,25220
25260,"Hanford-Corcoran, CA Metro Area",151806.0,,-555555555.0,*****,121286.0,,1264.0,,30520.0,,1264.0,,25260
25300,"Hannibal, MO Micro Area",39010.0,,-555555555.0,*****,38592.0,,92.0,,418.0,,92.0,,25300
25420,"Harrisburg-Carlisle, PA Metro Area",552292.0,,-555555555.0,*****,523013.0,,1430.0,,29279.0,,1430.0,,25420
25460,"Harrison, AR Micro Area",45310.0,,-555555555.0,*****,44753.0,,235.0,,557.0,,235.0,,25460
25500,"Harrisonburg, VA Metro Area",126811.0,,-555555555.0,*****,115839.0,,743.0,,10972.0,,743.0,,25500
25540,"Hartford-West Hartford-East Hartford, CT Metro Area",1213883.0,,-555555555.0,*****,1058183.0,,3039.0,,155700.0,,3039.0,,25540
25580,"Hastings, NE Micro Area",31367.0,,-555555555.0,*****,29894.0,,207.0,,1473.0,,207.0,,25580
25620,"Hattiesburg, MS Metro Area",144928.0,,-555555555.0,*****,141526.0,,377.0,,3402.0,,377.0,,25620
25700,"Hays, KS Micro Area",28746.0,,-555555555.0,*****,27999.0,,175.0,,747.0,,175.0,,25700
25720,"Heber, UT Micro Area",24542.0,,-555555555.0,*****,22040.0,,300.0,,2502.0,,300.0,,25720
25740,"Helena, MT Micro Area",75577.0,,-555555555.0,*****,74438.0,,253.0,,1139.0,,253.0,,25740
25760,"Helena-West Helena, AR Micro Area",21253.0,,-555555555.0,*****,21117.0,,89.0,,136.0,,89.0,,25760
25780,"Henderson, NC Micro Area",45120.0,,-555555555.0,*****,43375.0,,195.0,,1745.0,,195.0,,25780
25820,"Hereford, TX Micro Area",19307.0,,-555555555.0,*****,16084.0,,448.0,,3223.0,,448.0,,25820
25840,"Hermiston-Pendleton, OR Micro Area",87524.0,,-555555555.0,*****,77954.0,,648.0,,9570.0,,648.0,,25840
25860,"Hickory-Lenoir-Morganton, NC Metro Area",364501.0,,-555555555.0,*****,345699.0,,852.0,,18802.0,,852.0,,25860
25880,"Hillsdale, MI Micro Area",46463.0,,-555555555.0,*****,46138.0,,85.0,,325.0,,85.0,,25880
25900,"Hilo, HI Micro Area",187044.0,,-555555555.0,*****,166644.0,,1559.0,,20400.0,,1559.0,,25900
25940,"Hilton Head Island-Bluffton-Beaufort, SC Metro Area",190762.0,,-555555555.0,*****,171400.0,,956.0,,19362.0,,956.0,,25940
25980,"Hinesville, GA Metro Area",80184.0,,-555555555.0,*****,75224.0,,601.0,,4960.0,,601.0,,25980
26020,"Hobbs, NM Micro Area",65681.0,,-555555555.0,*****,55471.0,,729.0,,10210.0,,729.0,,26020
26090,"Holland, MI Micro Area",111742.0,,-555555555.0,*****,108206.0,,394.0,,3536.0,,394.0,,26090
26140,"Homosassa Springs, FL Metro Area",140214.0,,-555555555.0,*****,133414.0,,601.0,,6800.0,,601.0,,26140
26220,"Hood River, OR Micro Area",22427.0,,-555555555.0,*****,18645.0,,400.0,,3782.0,,400.0,,26220
26300,"Hot Springs, AR Metro Area",96547.0,,-555555555.0,*****,93024.0,,485.0,,3523.0,,485.0,,26300
26340,"Houghton, MI Micro Area",38675.0,,-555555555.0,*****,36935.0,,219.0,,1740.0,,219.0,,26340
26380,"Houma-Thibodaux, LA Metro Area",208623.0,,-555555555.0,*****,202272.0,,476.0,,6351.0,,476.0,,26380
26420,"Houston-The Woodlands-Sugar Land, TX Metro Area",6063540.0,,-555555555.0,*****,4713141.0,,8594.0,,1350399.0,,8594.0,,26420
26460,"Hudson, NY Micro Area",62674.0,,-555555555.0,*****,59114.0,,413.0,,3560.0,,413.0,,26460
26500,"Huntingdon, PA Micro Area",45874.0,,-555555555.0,*****,45388.0,,113.0,,486.0,,113.0,,26500
26540,"Huntington, IN Micro Area",37044.0,,-555555555.0,*****,36481.0,,138.0,,563.0,,138.0,,26540
26580,"Huntington-Ashland, WV-KY-OH Metro Area",364749.0,,-555555555.0,*****,360671.0,,456.0,,4078.0,,456.0,,26580
26620,"Huntsville, AL Metro Area",424543.0,,-555555555.0,*****,402475.0,,1042.0,,22068.0,,1042.0,,26620
26660,"Huntsville, TX Micro Area",82570.0,,-555555555.0,*****,76985.0,,458.0,,5585.0,,458.0,,26660
26700,"Huron, SD Micro Area",17663.0,,-555555555.0,*****,16187.0,,181.0,,1476.0,,181.0,,26700
26740,"Hutchinson, KS Micro Area",64319.0,,-555555555.0,*****,62690.0,,299.0,,1629.0,,299.0,,26740
26780,"Hutchinson, MN Micro Area",36321.0,,-555555555.0,*****,35124.0,,156.0,,1197.0,,156.0,,26780
26820,"Idaho Falls, ID Metro Area",134755.0,,-555555555.0,*****,127694.0,,484.0,,7061.0,,484.0,,26820
26860,"Indiana, PA Micro Area",88404.0,,-555555555.0,*****,86928.0,,270.0,,1476.0,,270.0,,26860
26900,"Indianapolis-Carmel-Anderson, IN Metro Area",1911795.0,,-555555555.0,*****,1793910.0,,2463.0,,117885.0,,2463.0,,26900
26940,"Indianola, MS Micro Area",28722.0,,-555555555.0,*****,28514.0,,110.0,,208.0,,110.0,,26940
26960,"Ionia, MI Micro Area",63909.0,,-555555555.0,*****,63005.0,,173.0,,904.0,,173.0,,26960
26980,"Iowa City, IA Metro Area",155868.0,,-555555555.0,*****,142863.0,,704.0,,13005.0,,704.0,,26980
27020,"Iron Mountain, MI-WI Micro Area",30678.0,,-555555555.0,*****,30281.0,,94.0,,397.0,,93.0,,27020
27060,"Ithaca, NY Metro Area",102270.0,,-555555555.0,*****,89366.0,,796.0,,12904.0,,796.0,,27060
27100,"Jackson, MI Metro Area",160126.0,,-555555555.0,*****,157435.0,,384.0,,2691.0,,384.0,,27100
27140,"Jackson, MS Metro Area",571881.0,,-555555555.0,*****,557641.0,,923.0,,14240.0,,923.0,,27140
27160,"Jackson, OH Micro Area",33034.0,,-555555555.0,*****,32860.0,,74.0,,174.0,,74.0,,27160
27180,"Jackson, TN Metro Area",129988.0,,-555555555.0,*****,125921.0,,506.0,,4067.0,,506.0,,27180
27220,"Jackson, WY-ID Micro Area",31716.0,,-555555555.0,*****,28722.0,,444.0,,2994.0,,444.0,,27220
27260,"Jacksonville, FL Metro Area",1363610.0,,-555555555.0,*****,1253714.0,,3206.0,,109896.0,,3206.0,,27260
27300,"Jacksonville, IL Micro Area",40712.0,,-555555555.0,*****,40027.0,,192.0,,685.0,,192.0,,27300
27340,"Jacksonville, NC Metro Area",179935.0,,-555555555.0,*****,172466.0,,568.0,,7469.0,,568.0,,27340
27380,"Jacksonville, TX Micro Area",50865.0,,-555555555.0,*****,45748.0,,447.0,,5117.0,,447.0,,27380
27420,"Jamestown, ND Micro Area",21046.0,,-555555555.0,*****,20828.0,,93.0,,218.0,,93.0,,27420
27460,"Jamestown-Dunkirk-Fredonia, NY Micro Area",134156.0,,-555555555.0,*****,131505.0,,318.0,,2651.0,,318.0,,27460
27500,"Janesville-Beloit, WI Metro Area",160345.0,,-555555555.0,*****,153294.0,,525.0,,7051.0,,525.0,,27500
27540,"Jasper, IN Micro Area",54883.0,,-555555555.0,*****,53315.0,,190.0,,1568.0,,190.0,,27540
27580,"Jayuya, PR Micro Area",16413.0,,-555555555.0,*****,16358.0,,40.0,,55.0,,40.0,,27580
27600,"Jefferson, GA Micro Area",60577.0,,-555555555.0,*****,57934.0,,353.0,,2643.0,,353.0,,27600
27620,"Jefferson City, MO Metro Area",150003.0,,-555555555.0,*****,146552.0,,461.0,,3451.0,,461.0,,27620
27700,"Jesup, GA Micro Area",30187.0,,-555555555.0,*****,29309.0,,176.0,,878.0,,176.0,,27700
27740,"Johnson City, TN Metro Area",199583.0,,-555555555.0,*****,194421.0,,544.0,,5162.0,,544.0,,27740
27780,"Johnstown, PA Metro Area",142448.0,,-555555555.0,*****,140752.0,,213.0,,1696.0,,213.0,,27780
27860,"Jonesboro, AR Metro Area",122801.0,,-555555555.0,*****,118880.0,,336.0,,3921.0,,336.0,,27860
27900,"Joplin, MO Metro Area",175355.0,,-555555555.0,*****,168768.0,,543.0,,6587.0,,543.0,,27900
27920,"Junction City, KS Micro Area",35583.0,,-555555555.0,*****,32990.0,,394.0,,2593.0,,394.0,,27920
27940,"Juneau, AK Micro Area",31897.0,,-555555555.0,*****,29821.0,,234.0,,2076.0,,234.0,,27940
27980,"Kahului-Wailuku-Lahaina, HI Metro Area",156704.0,,-555555555.0,*****,129673.0,,1579.0,,27031.0,,1579.0,,27980
28020,"Kalamazoo-Portage, MI Metro Area",328660.0,,-555555555.0,*****,313087.0,,882.0,,15573.0,,882.0,,28020
28060,"Kalispell, MT Micro Area",91536.0,,-555555555.0,*****,89677.0,,289.0,,1859.0,,289.0,,28060
28100,"Kankakee, IL Metro Area",112991.0,,-555555555.0,*****,107680.0,,558.0,,5311.0,,558.0,,28100
28140,"Kansas City, MO-KS Metro Area",2025297.0,,-555555555.0,*****,1896903.0,,2849.0,,128394.0,,2849.0,,28140
28180,"Kapaa, HI Micro Area",67872.0,,-555555555.0,*****,57595.0,,921.0,,10277.0,,921.0,,28180
28260,"Kearney, NE Micro Area",53403.0,,-555555555.0,*****,51306.0,,245.0,,2097.0,,245.0,,28260
28300,"Keene, NH Micro Area",76896.0,,-555555555.0,*****,74738.0,,294.0,,2158.0,,294.0,,28300
28340,"Kendallville, IN Micro Area",47509.0,,-555555555.0,*****,45187.0,,233.0,,2322.0,,233.0,,28340
28380,"Kennett, MO Micro Area",31916.0,,-555555555.0,*****,31097.0,,155.0,,819.0,,155.0,,28380
28420,"Kennewick-Richland, WA Metro Area",260827.0,,-555555555.0,*****,224130.0,,1365.0,,36697.0,,1365.0,,28420
28500,"Kerrville, TX Micro Area",49696.0,,-555555555.0,*****,46590.0,,414.0,,3106.0,,414.0,,28500
28540,"Ketchikan, AK Micro Area",13595.0,,-555555555.0,*****,12609.0,,161.0,,986.0,,161.0,,28540
28580,"Key West, FL Micro Area",74213.0,,-555555555.0,*****,61327.0,,842.0,,12886.0,,842.0,,28580
28620,"Kill Devil Hills, NC Micro Area",38561.0,,-555555555.0,*****,36213.0,,249.0,,2348.0,,249.0,,28620
28660,"Killeen-Temple, TX Metro Area",412047.0,,-555555555.0,*****,382253.0,,1361.0,,29794.0,,1361.0,,28660
28700,"Kingsport-Bristol-Bristol, TN-VA Metro Area",308957.0,,-555555555.0,*****,304826.0,,458.0,,4131.0,,458.0,,28700
28740,"Kingston, NY Metro Area",182086.0,,-555555555.0,*****,168665.0,,1030.0,,13421.0,,1030.0,,28740
28820,"Kinston, NC Micro Area",59277.0,,-555555555.0,*****,57066.0,,272.0,,2211.0,,272.0,,28820
28860,"Kirksville, MO Micro Area",29970.0,,-555555555.0,*****,29267.0,,165.0,,703.0,,165.0,,28860
28900,"Klamath Falls, OR Micro Area",66211.0,,-555555555.0,*****,62715.0,,288.0,,3496.0,,288.0,,28900
28940,"Knoxville, TN Metro Area",843268.0,,-555555555.0,*****,812589.0,,1381.0,,30679.0,,1381.0,,28940
34420,"Mount Pleasant, TX Micro Area",32360.0,,-555555555.0,*****,26110.0,,430.0,,6250.0,,430.0,,34420
34460,"Mount Sterling, KY Micro Area",44828.0,,-555555555.0,*****,44458.0,,88.0,,370.0,,88.0,,34460
34500,"Mount Vernon, IL Micro Area",38769.0,,-555555555.0,*****,38266.0,,116.0,,503.0,,116.0,,34500
34540,"Mount Vernon, OH Micro Area",60925.0,,-555555555.0,*****,59975.0,,205.0,,950.0,,205.0,,34540
34580,"Mount Vernon-Anacortes, WA Metro Area",117641.0,,-555555555.0,*****,106659.0,,906.0,,10982.0,,906.0,,34580
34620,"Muncie, IN Metro Area",117575.0,,-555555555.0,*****,115184.0,,321.0,,2391.0,,321.0,,34620
34660,"Murray, KY Micro Area",37383.0,,-555555555.0,*****,35825.0,,242.0,,1558.0,,242.0,,34660
34700,"Muscatine, IA Micro Area",42798.0,,-555555555.0,*****,40247.0,,366.0,,2551.0,,366.0,,34700
34740,"Muskegon, MI Metro Area",171153.0,,-555555555.0,*****,167885.0,,457.0,,3268.0,,457.0,,34740
34780,"Muskogee, OK Micro Area",70657.0,,-555555555.0,*****,68716.0,,252.0,,1941.0,,252.0,,34780
34820,"Myrtle Beach-Conway-North Myrtle Beach, SC-NC Metro Area",387012.0,,-555555555.0,*****,363765.0,,1117.0,,23247.0,,1117.0,,34820
34860,"Nacogdoches, TX Micro Area",65085.0,,-555555555.0,*****,59080.0,,510.0,,6005.0,,510.0,,34860
34900,"Napa, CA Metro Area",137837.0,,-555555555.0,*****,106893.0,,1239.0,,30944.0,,1239.0,,34900
34940,"Naples-Immokalee-Marco Island, FL Metro Area",328209.0,,-555555555.0,*****,253126.0,,1914.0,,75083.0,,1914.0,,34940
34980,"Nashville-Davidson--Murfreesboro--Franklin, TN Metro Area",1702603.0,,-555555555.0,*****,1578630.0,,2882.0,,123973.0,,2882.0,,34980
35020,"Natchez, MS-LA Micro Area",52960.0,,-555555555.0,*****,51397.0,,233.0,,1563.0,,233.0,,35020
35060,"Natchitoches, LA Micro Area",39403.0,,-555555555.0,*****,38937.0,,133.0,,466.0,,133.0,,35060
35100,"New Bern, NC Metro Area",127350.0,,-555555555.0,*****,121474.0,,544.0,,5876.0,,544.0,,35100
35140,"Newberry, SC Micro Area",37514.0,,-555555555.0,*****,35502.0,,320.0,,2012.0,,320.0,,35140
35220,"New Castle, IN Micro Area",49275.0,,-555555555.0,*****,48824.0,,109.0,,451.0,,109.0,,35220
35260,"New Castle, PA Micro Area",90374.0,,-555555555.0,*****,89127.0,,216.0,,1247.0,,216.0,,35260
35300,"New Haven-Milford, CT Metro Area",862611.0,,-555555555.0,*****,761852.0,,2720.0,,100759.0,,2720.0,,35300
35380,"New Orleans-Metairie, LA Metro Area",1209239.0,,-555555555.0,*****,1122911.0,,2164.0,,86328.0,,2164.0,,35380
35420,"New Philadelphia-Dover, OH Micro Area",92528.0,,-555555555.0,*****,91371.0,,290.0,,1157.0,,290.0,,35420
35440,"Newport, OR Micro Area",46070.0,,-555555555.0,*****,43664.0,,347.0,,2406.0,,347.0,,35440
35460,"Newport, TN Micro Area",35596.0,,-555555555.0,*****,35032.0,,160.0,,564.0,,160.0,,35460
35500,"Newton, IA Micro Area",36710.0,,-555555555.0,*****,36294.0,,97.0,,416.0,,97.0,,35500
35580,"New Ulm, MN Micro Area",25643.0,,-555555555.0,*****,25307.0,,98.0,,336.0,,98.0,,35580
35620,"New York-Newark-Jersey City, NY-NJ-PA Metro Area",19716880.0,,-555555555.0,*****,14152572.0,,20109.0,,5564308.0,,20109.0,,35620
35660,"Niles-Benton Harbor, MI Metro Area",156290.0,,-555555555.0,*****,147463.0,,630.0,,8827.0,,630.0,,35660
35700,"Nogales, AZ Micro Area",47122.0,,-555555555.0,*****,31333.0,,784.0,,15789.0,,784.0,,35700
35740,"Norfolk, NE Micro Area",48354.0,,-555555555.0,*****,45788.0,,238.0,,2566.0,,238.0,,35740
35840,"North Port-Sarasota-Bradenton, FL Metro Area",712581.0,,-555555555.0,*****,624685.0,,2268.0,,87896.0,,2268.0,,35840
35860,"North Vernon, IN Micro Area",28324.0,,-555555555.0,*****,27970.0,,117.0,,354.0,,117.0,,35860
35900,"North Wilkesboro, NC Micro Area",69184.0,,-555555555.0,*****,66826.0,,211.0,,2358.0,,211.0,,35900
35940,"Norwalk, OH Micro Area",59390.0,,-555555555.0,*****,57721.0,,309.0,,1669.0,,309.0,,35940
35980,"Norwich-New London, CT Metro Area",274090.0,,-555555555.0,*****,250434.0,,1230.0,,23656.0,,1230.0,,35980
36020,"Oak Harbor, WA Micro Area",78806.0,,-555555555.0,*****,72848.0,,535.0,,5958.0,,535.0,,36020
36100,"Ocala, FL Metro Area",333503.0,,-555555555.0,*****,308113.0,,1626.0,,25390.0,,1626.0,,36100
36140,"Ocean City, NJ Metro Area",96684.0,,-555555555.0,*****,91438.0,,548.0,,5246.0,,548.0,,36140
36220,"Odessa, TX Metro Area",141542.0,,-555555555.0,*****,122162.0,,1157.0,,19380.0,,1157.0,,36220
36260,"Ogden-Clearfield, UT Metro Area",605609.0,,-555555555.0,*****,572767.0,,1463.0,,32842.0,,1463.0,,36260
36300,"Ogdensburg-Massena, NY Micro Area",112097.0,,-555555555.0,*****,107593.0,,454.0,,4504.0,,454.0,,36300
36340,"Oil City, PA Micro Area",54590.0,,-555555555.0,*****,54164.0,,91.0,,426.0,,91.0,,36340
36380,"Okeechobee, FL Micro Area",39642.0,,-555555555.0,*****,34844.0,,441.0,,4798.0,,441.0,,36380
36420,"Oklahoma City, OK Metro Area",1277830.0,,-555555555.0,*****,1177138.0,,2076.0,,100692.0,,2076.0,,36420
36460,"Olean, NY Micro Area",79735.0,,-555555555.0,*****,78327.0,,183.0,,1408.0,,183.0,,36460
36500,"Olympia-Tumwater, WA Metro Area",256080.0,,-555555555.0,*****,236576.0,,1065.0,,19504.0,,1065.0,,36500
36540,"Omaha-Council Bluffs, NE-IA Metro Area",876355.0,,-555555555.0,*****,816704.0,,1624.0,,59651.0,,1624.0,,36540
36580,"Oneonta, NY Micro Area",62029.0,,-555555555.0,*****,59915.0,,257.0,,2114.0,,257.0,,36580
36620,"Ontario, OR-ID Micro Area",53527.0,,-555555555.0,*****,49119.0,,385.0,,4408.0,,385.0,,36620
36660,"Opelousas, LA Micro Area",83534.0,,-555555555.0,*****,82829.0,,211.0,,705.0,,211.0,,36660
36700,"Orangeburg, SC Micro Area",91836.0,,-555555555.0,*****,90023.0,,290.0,,1813.0,,290.0,,36700
36740,"Orlando-Kissimmee-Sanford, FL Metro Area",2183363.0,,-555555555.0,*****,1828604.0,,5971.0,,354759.0,,5971.0,,36740
36780,"Oshkosh-Neenah, WI Metro Area",167860.0,,-555555555.0,*****,162445.0,,506.0,,5415.0,,506.0,,36780
36820,"Oskaloosa, IA Micro Area",22428.0,,-555555555.0,*****,22088.0,,119.0,,340.0,,119.0,,36820
36830,"Othello, WA Micro Area",18802.0,,-555555555.0,*****,14095.0,,344.0,,4707.0,,344.0,,36830
36840,"Ottawa, KS Micro Area",25870.0,,-555555555.0,*****,25559.0,,132.0,,311.0,,132.0,,36840
36860,"Ottawa-Peru, IL Micro Area",153816.0,,-555555555.0,*****,148707.0,,452.0,,5109.0,,452.0,,36860
36900,"Ottumwa, IA Micro Area",44224.0,,-555555555.0,*****,41726.0,,268.0,,2498.0,,268.0,,36900
36940,"Owatonna, MN Micro Area",36512.0,,-555555555.0,*****,35041.0,,198.0,,1471.0,,198.0,,36940
36980,"Owensboro, KY Metro Area",115362.0,,-555555555.0,*****,113349.0,,366.0,,2013.0,,366.0,,36980
37020,"Owosso, MI Micro Area",69910.0,,-555555555.0,*****,69226.0,,136.0,,684.0,,136.0,,37020
37060,"Oxford, MS Micro Area",48905.0,,-555555555.0,*****,47491.0,,302.0,,1414.0,,302.0,,37060
37080,"Oxford, NC Micro Area",58188.0,,-555555555.0,*****,55832.0,,353.0,,2356.0,,353.0,,37080
37100,"Oxnard-Thousand Oaks-Ventura, CA Metro Area",829017.0,,-555555555.0,*****,639913.0,,3089.0,,189104.0,,3089.0,,37100
37120,"Ozark, AL Micro Area",50102.0,,-555555555.0,*****,48227.0,,296.0,,1875.0,,296.0,,37120
37140,"Paducah, KY-IL Micro Area",98641.0,,-555555555.0,*****,97048.0,,267.0,,1593.0,,267.0,,37140
37220,"Pahrump, NV Micro Area",43368.0,,-555555555.0,*****,39891.0,,407.0,,3477.0,,407.0,,37220
37260,"Palatka, FL Micro Area",73683.0,,-555555555.0,*****,70124.0,,376.0,,3559.0,,376.0,,37260
37300,"Palestine, TX Micro Area",58262.0,,-555555555.0,*****,54546.0,,370.0,,3716.0,,370.0,,37300
37340,"Palm Bay-Melbourne-Titusville, FL Metro Area",545667.0,,-555555555.0,*****,498156.0,,1913.0,,47511.0,,1913.0,,37340
37420,"Pampa, TX Micro Area",22777.0,,-555555555.0,*****,21109.0,,297.0,,1668.0,,297.0,,37420
37460,"Panama City, FL Metro Area",186497.0,,-555555555.0,*****,177646.0,,774.0,,8851.0,,774.0,,37460
37500,"Paragould, AR Micro Area",42580.0,,-555555555.0,*****,42094.0,,154.0,,486.0,,154.0,,37500
37540,"Paris, TN Micro Area",32293.0,,-555555555.0,*****,31775.0,,171.0,,518.0,,171.0,,37540
37580,"Paris, TX Micro Area",49751.0,,-555555555.0,*****,47661.0,,268.0,,2090.0,,268.0,,37580
37620,"Parkersburg-Vienna, WV Metro Area",92575.0,,-555555555.0,*****,91893.0,,139.0,,682.0,,139.0,,37620
37660,"Parsons, KS Micro Area",21369.0,,-555555555.0,*****,21130.0,,95.0,,239.0,,95.0,,37660
37740,"Payson, AZ Micro Area",53335.0,,-555555555.0,*****,51520.0,,374.0,,1815.0,,374.0,,37740
37780,"Pecos, TX Micro Area",13775.0,,-555555555.0,*****,11404.0,,426.0,,2371.0,,426.0,,37780
37860,"Pensacola-Ferry Pass-Brent, FL Metro Area",456374.0,,-555555555.0,*****,432724.0,,1337.0,,23650.0,,1337.0,,37860
37900,"Peoria, IL Metro Area",380163.0,,-555555555.0,*****,367883.0,,668.0,,12280.0,,668.0,,37900
37940,"Peru, IN Micro Area",36624.0,,-555555555.0,*****,36178.0,,136.0,,446.0,,136.0,,37940
37980,"Philadelphia-Camden-Wilmington, PA-NJ-DE-MD Metro Area",5992766.0,,-555555555.0,*****,5406753.0,,6666.0,,586013.0,,6666.0,,37980
38060,"Phoenix-Mesa-Scottsdale, AZ Metro Area",4268289.0,,-555555555.0,*****,3652027.0,,5940.0,,616262.0,,5940.0,,38060
38100,"Picayune, MS Micro Area",55569.0,,-555555555.0,*****,54633.0,,318.0,,936.0,,318.0,,38100
38220,"Pine Bluff, AR Metro Area",98578.0,,-555555555.0,*****,97246.0,,175.0,,1332.0,,175.0,,38220
38240,"Pinehurst-Southern Pines, NC Micro Area",89425.0,,-555555555.0,*****,84413.0,,513.0,,5012.0,,513.0,,38240
38260,"Pittsburg, KS Micro Area",39182.0,,-555555555.0,*****,37846.0,,287.0,,1336.0,,287.0,,38260
38300,"Pittsburgh, PA Metro Area",2358746.0,,-555555555.0,*****,2280358.0,,1760.0,,78388.0,,1760.0,,38300
38340,"Pittsfield, MA Metro Area",130545.0,,-555555555.0,*****,124184.0,,660.0,,6361.0,,660.0,,38340
38380,"Plainview, TX Micro Area",36150.0,,-555555555.0,*****,32710.0,,462.0,,3440.0,,462.0,,38380
38420,"Platteville, WI Micro Area",51080.0,,-555555555.0,*****,50402.0,,104.0,,678.0,,104.0,,38420
38460,"Plattsburgh, NY Micro Area",81865.0,,-555555555.0,*****,77944.0,,415.0,,3921.0,,415.0,,38460
38500,"Plymouth, IN Micro Area",47057.0,,-555555555.0,*****,45064.0,,247.0,,1993.0,,247.0,,38500
38540,"Pocatello, ID Metro Area",83091.0,,-555555555.0,*****,80539.0,,346.0,,2552.0,,346.0,,38540
38580,"Point Pleasant, WV-OH Micro Area",58130.0,,-555555555.0,*****,57709.0,,141.0,,421.0,,141.0,,38580
38620,"Ponca City, OK Micro Area",46122.0,,-555555555.0,*****,44637.0,,198.0,,1485.0,,198.0,,38620
38660,"Ponce, PR Metro Area",343990.0,,-555555555.0,*****,341789.0,,285.0,,2201.0,,285.0,,38660
38700,"Pontiac, IL Micro Area",38687.0,,-555555555.0,*****,38105.0,,183.0,,582.0,,183.0,,38700
38740,"Poplar Bluff, MO Micro Area",42946.0,,-555555555.0,*****,42414.0,,158.0,,532.0,,158.0,,38740
38780,"Portales, NM Micro Area",19984.0,,-555555555.0,*****,18263.0,,313.0,,1721.0,,313.0,,38780
38820,"Port Angeles, WA Micro Area",71731.0,,-555555555.0,*****,68491.0,,362.0,,3240.0,,362.0,,38820
38840,"Port Clinton, OH Micro Area",41372.0,,-555555555.0,*****,40831.0,,156.0,,541.0,,156.0,,38840
38860,"Portland-South Portland, ME Metro Area",516460.0,,-555555555.0,*****,493071.0,,861.0,,23389.0,,861.0,,38860
38900,"Portland-Vancouver-Hillsboro, OR-WA Metro Area",2260591.0,,-555555555.0,*****,1979510.0,,4516.0,,281081.0,,4516.0,,38900
38920,"Port Lavaca, TX Micro Area",21503.0,,-555555555.0,*****,19541.0,,363.0,,1962.0,,363.0,,38920
38940,"Port St. Lucie, FL Metro Area",428801.0,,-555555555.0,*****,372602.0,,2034.0,,56199.0,,2034.0,,38940
39020,"Portsmouth, OH Micro Area",78952.0,,-555555555.0,*****,78166.0,,148.0,,786.0,,148.0,,39020
39060,"Pottsville, PA Micro Area",147700.0,,-555555555.0,*****,144824.0,,318.0,,2876.0,,318.0,,39060
39140,"Prescott, AZ Metro Area",211968.0,,-555555555.0,*****,197468.0,,1090.0,,14500.0,,1090.0,,39140
39220,"Price, UT Micro Area",21227.0,,-555555555.0,*****,20602.0,,169.0,,625.0,,169.0,,39220
39260,"Prineville, OR Micro Area",20894.0,,-555555555.0,*****,20240.0,,233.0,,654.0,,233.0,,39260
39300,"Providence-Warwick, RI-MA Metro Area",1601565.0,,-555555555.0,*****,1398145.0,,3361.0,,203420.0,,3361.0,,39300
39340,"Provo-Orem, UT Metro Area",539562.0,,-555555555.0,*****,501176.0,,1483.0,,38386.0,,1483.0,,39340
39380,"Pueblo, CO Metro Area",160048.0,,-555555555.0,*****,153660.0,,816.0,,6388.0,,816.0,,39380
39420,"Pullman, WA Micro Area",45512.0,,-555555555.0,*****,41218.0,,502.0,,4294.0,,502.0,,39420
39460,"Punta Gorda, FL Metro Area",161276.0,,-555555555.0,*****,145568.0,,1016.0,,15708.0,,1016.0,,39460
39500,"Quincy, IL-MO Micro Area",77345.0,,-555555555.0,*****,76150.0,,210.0,,1195.0,,210.0,,39500
39540,"Racine, WI Metro Area",195045.0,,-555555555.0,*****,185376.0,,602.0,,9669.0,,602.0,,39540
39580,"Raleigh, NC Metro Area",1162689.0,,-555555555.0,*****,1027695.0,,3125.0,,134994.0,,3125.0,,39580
39660,"Rapid City, SD Metro Area",136972.0,,-555555555.0,*****,134405.0,,274.0,,2567.0,,274.0,,39660
39700,"Raymondville, TX Micro Area",22039.0,,-555555555.0,*****,18586.0,,440.0,,3453.0,,440.0,,39700
39740,"Reading, PA Metro Area",412078.0,,-555555555.0,*****,383942.0,,1494.0,,28136.0,,1494.0,,39740
39780,"Red Bluff, CA Micro Area",63241.0,,-555555555.0,*****,57644.0,,486.0,,5597.0,,486.0,,39780
39820,"Redding, CA Metro Area",177966.0,,-555555555.0,*****,168778.0,,785.0,,9188.0,,785.0,,39820
39860,"Red Wing, MN Micro Area",46259.0,,-555555555.0,*****,45158.0,,189.0,,1101.0,,189.0,,39860
39900,"Reno, NV Metro Area",429476.0,,-555555555.0,*****,365736.0,,1595.0,,63740.0,,1595.0,,39900
39940,"Rexburg, ID Micro Area",50630.0,,-555555555.0,*****,48144.0,,309.0,,2486.0,,309.0,,39940
39980,"Richmond, IN Micro Area",68557.0,,-555555555.0,*****,67170.0,,218.0,,1387.0,,218.0,,39980
40060,"Richmond, VA Metro Area",1221729.0,,-555555555.0,*****,1134097.0,,2044.0,,87632.0,,2045.0,,40060
40080,"Richmond-Berea, KY Micro Area",100973.0,,-555555555.0,*****,99187.0,,257.0,,1786.0,,257.0,,40080
40100,"Rio Grande City, TX Micro Area",61351.0,,-555555555.0,*****,42133.0,,1159.0,,19218.0,,1159.0,,40100
40140,"Riverside-San Bernardino-Ontario, CA Metro Area",4285443.0,,-555555555.0,*****,3364583.0,,6338.0,,920860.0,,6338.0,,40140
40180,"Riverton, WY Micro Area",40517.0,,-555555555.0,*****,40070.0,,141.0,,447.0,,141.0,,40180
40220,"Roanoke, VA Metro Area",309599.0,,-555555555.0,*****,295017.0,,954.0,,14582.0,,954.0,,40220
40260,"Roanoke Rapids, NC Micro Area",75896.0,,-555555555.0,*****,74669.0,,235.0,,1227.0,,235.0,,40260
40300,"Rochelle, IL Micro Area",53092.0,,-555555555.0,*****,50465.0,,288.0,,2627.0,,288.0,,40300
40340,"Rochester, MN Metro Area",208641.0,,-555555555.0,*****,193580.0,,878.0,,15061.0,,878.0,,40340
40380,"Rochester, NY Metro Area",1081126.0,,-555555555.0,*****,1009600.0,,2188.0,,71526.0,,2188.0,,40380
40420,"Rockford, IL Metro Area",347452.0,,-555555555.0,*****,318999.0,,1162.0,,28453.0,,1162.0,,40420
40460,"Rockingham, NC Micro Area",46534.0,,-555555555.0,*****,44579.0,,238.0,,1955.0,,238.0,,40460
40540,"Rock Springs, WY Micro Area",44437.0,,-555555555.0,*****,42002.0,,396.0,,2435.0,,396.0,,40540
40580,"Rocky Mount, NC Metro Area",151620.0,,-555555555.0,*****,145926.0,,431.0,,5694.0,,431.0,,40580
40620,"Rolla, MO Micro Area",44969.0,,-555555555.0,*****,43156.0,,311.0,,1813.0,,311.0,,40620
40660,"Rome, GA Metro Area",96147.0,,-555555555.0,*****,89925.0,,403.0,,6222.0,,403.0,,40660
40700,"Roseburg, OR Micro Area",107286.0,,-555555555.0,*****,104168.0,,380.0,,3118.0,,380.0,,40700
40740,"Roswell, NM Micro Area",65627.0,,-555555555.0,*****,56428.0,,791.0,,9199.0,,791.0,,40740
40780,"Russellville, AR Micro Area",84262.0,,-555555555.0,*****,79294.0,,325.0,,4968.0,,325.0,,40780
40820,"Ruston, LA Micro Area",46926.0,,-555555555.0,*****,44661.0,,509.0,,2265.0,,509.0,,40820
40860,"Rutland, VT Micro Area",61270.0,,-555555555.0,*****,60011.0,,174.0,,1259.0,,174.0,,40860
40900,"Sacramento--Roseville--Arden-Arcade, CA Metro Area",2174401.0,,-555555555.0,*****,1791126.0,,4923.0,,383275.0,,4923.0,,40900
40940,"Safford, AZ Micro Area",37168.0,,-555555555.0,*****,35308.0,,262.0,,1860.0,,262.0,,40940
40980,"Saginaw, MI Metro Area",198841.0,,-555555555.0,*****,194248.0,,475.0,,4593.0,,475.0,,40980
41060,"St. Cloud, MN Metro Area",189809.0,,-555555555.0,*****,182819.0,,771.0,,6990.0,,771.0,,41060
41100,"St. George, UT Metro Area",141902.0,,-555555555.0,*****,133477.0,,781.0,,8425.0,,781.0,,41100
41140,"St. Joseph, MO-KS Metro Area",127516.0,,-555555555.0,*****,124034.0,,483.0,,3482.0,,483.0,,41140
41180,"St. Louis, MO-IL Metro Area",2792127.0,,-555555555.0,*****,2668276.0,,2725.0,,123851.0,,2725.0,,41180
41220,"St. Marys, GA Micro Area",50799.0,,-555555555.0,*****,49720.0,,175.0,,1079.0,,175.0,,41220
41400,"Salem, OH Micro Area",107078.0,,-555555555.0,*****,105793.0,,247.0,,1285.0,,247.0,,41400
41420,"Salem, OR Metro Area",394371.0,,-555555555.0,*****,345127.0,,1606.0,,49244.0,,1606.0,,41420
41460,"Salina, KS Micro Area",61711.0,,-555555555.0,*****,58840.0,,420.0,,2871.0,,420.0,,41460
41500,"Salinas, CA Metro Area",420569.0,,-555555555.0,*****,294732.0,,2241.0,,125837.0,,2241.0,,41500
41540,"Salisbury, MD-DE Metro Area",378141.0,,-555555555.0,*****,352733.0,,1313.0,,25408.0,,1313.0,,41540
41620,"Salt Lake City, UT Metro Area",1107434.0,,-555555555.0,*****,978719.0,,2645.0,,128715.0,,2645.0,,41620
41700,"San Antonio-New Braunfels, TX Metro Area",2192724.0,,-555555555.0,*****,1934619.0,,4948.0,,258105.0,,4948.0,,41700
41740,"San Diego-Carlsbad, CA Metro Area",3138265.0,,-555555555.0,*****,2404688.0,,5966.0,,733577.0,,5966.0,,41740
41760,"Sandpoint, ID Micro Area",40743.0,,-555555555.0,*****,39959.0,,140.0,,784.0,,140.0,,41760
41780,"Sandusky, OH Micro Area",76634.0,,-555555555.0,*****,75347.0,,196.0,,1287.0,,196.0,,41780
41820,"Sanford, NC Micro Area",58735.0,,-555555555.0,*****,52116.0,,457.0,,6619.0,,457.0,,41820
41860,"San Francisco-Oakland-Hayward, CA Metro Area",4402729.0,,-555555555.0,*****,3091925.0,,7965.0,,1310804.0,,7965.0,,41860
41900,"San Germ?n, PR Metro Area",136355.0,,-555555555.0,*****,135413.0,,230.0,,942.0,,230.0,,41900
41940,"San Jose-Sunnyvale-Santa Clara, CA Metro Area",1868323.0,,-555555555.0,*****,1185489.0,,5412.0,,682834.0,,5412.0,,41940
41980,"San Juan-Carolina-Caguas, PR Metro Area",2324828.0,,-555555555.0,*****,2232943.0,,2756.0,,91885.0,,2756.0,,41980
42020,"San Luis Obispo-Paso Robles-Arroyo Grande, CA Metro Area",272094.0,,-555555555.0,*****,243921.0,,1404.0,,28173.0,,1404.0,,42020
42100,"Santa Cruz-Watsonville, CA Metro Area",264808.0,,-555555555.0,*****,216445.0,,1667.0,,48363.0,,1667.0,,42100
42140,"Santa Fe, NM Metro Area",145400.0,,-555555555.0,*****,125752.0,,1236.0,,19648.0,,1236.0,,42140
42180,"Santa Isabel, PR Micro Area",23231.0,,-555555555.0,*****,23100.0,,82.0,,131.0,,82.0,,42180
42200,"Santa Maria-Santa Barbara, CA Metro Area",427288.0,,-555555555.0,*****,327361.0,,2353.0,,99927.0,,2353.0,,42200
42220,"Santa Rosa, CA Metro Area",487469.0,,-555555555.0,*****,406621.0,,2013.0,,80848.0,,2013.0,,42220
42300,"Sault Ste. Marie, MI Micro Area",38760.0,,-555555555.0,*****,37675.0,,117.0,,1085.0,,117.0,,42300
42340,"Savannah, GA Metro Area",355473.0,,-555555555.0,*****,335773.0,,1171.0,,19700.0,,1171.0,,42340
42380,"Sayre, PA Micro Area",62624.0,,-555555555.0,*****,61683.0,,140.0,,941.0,,140.0,,42380
42420,"Scottsbluff, NE Micro Area",38928.0,,-555555555.0,*****,37276.0,,328.0,,1652.0,,328.0,,42420
42460,"Scottsboro, AL Micro Area",53171.0,,-555555555.0,*****,52013.0,,217.0,,1158.0,,217.0,,42460
42540,"Scranton--Wilkes-Barre--Hazleton, PA Metro Area",563279.0,,-555555555.0,*****,535780.0,,1176.0,,27499.0,,1176.0,,42540
42620,"Searcy, AR Micro Area",77767.0,,-555555555.0,*****,75801.0,,397.0,,1966.0,,397.0,,42620
42660,"Seattle-Tacoma-Bellevue, WA Metro Area",3504628.0,,-555555555.0,*****,2913223.0,,5878.0,,591405.0,,5878.0,,42660
42680,"Sebastian-Vero Beach, FL Metro Area",139356.0,,-555555555.0,*****,124871.0,,768.0,,14485.0,,768.0,,42680
42700,"Sebring, FL Metro Area",98275.0,,-555555555.0,*****,87521.0,,858.0,,10754.0,,858.0,,42700
42740,"Sedalia, MO Micro Area",42146.0,,-555555555.0,*****,39361.0,,353.0,,2785.0,,353.0,,42740
42780,"Selinsgrove, PA Micro Area",39711.0,,-555555555.0,*****,39260.0,,110.0,,451.0,,110.0,,42780
42820,"Selma, AL Micro Area",43091.0,,-555555555.0,*****,42760.0,,141.0,,331.0,,141.0,,42820
42860,"Seneca, SC Micro Area",74419.0,,-555555555.0,*****,72026.0,,323.0,,2393.0,,323.0,,42860
42900,"Seneca Falls, NY Micro Area",35359.0,,-555555555.0,*****,34654.0,,115.0,,705.0,,115.0,,42900
42940,"Sevierville, TN Micro Area",91295.0,,-555555555.0,*****,86524.0,,586.0,,4771.0,,586.0,,42940
42980,"Seymour, IN Micro Area",42769.0,,-555555555.0,*****,40373.0,,326.0,,2396.0,,326.0,,42980
43020,"Shawano, WI Micro Area",46068.0,,-555555555.0,*****,45336.0,,168.0,,732.0,,169.0,,43020
43060,"Shawnee, OK Micro Area",70144.0,,-555555555.0,*****,69109.0,,163.0,,1035.0,,163.0,,43060
43100,"Sheboygan, WI Metro Area",115235.0,,-555555555.0,*****,109187.0,,588.0,,6048.0,,588.0,,43100
43140,"Shelby, NC Micro Area",97670.0,,-555555555.0,*****,95287.0,,348.0,,2383.0,,348.0,,43140
43180,"Shelbyville, TN Micro Area",45339.0,,-555555555.0,*****,42089.0,,365.0,,3250.0,,365.0,,43180
43220,"Shelton, WA Micro Area",60647.0,,-555555555.0,*****,57283.0,,359.0,,3364.0,,359.0,,43220
43260,"Sheridan, WY Micro Area",29376.0,,-555555555.0,*****,28530.0,,195.0,,846.0,,195.0,,43260
43300,"Sherman-Denison, TX Metro Area",121292.0,,-555555555.0,*****,114385.0,,656.0,,6907.0,,656.0,,43300
43320,"Show Low, AZ Micro Area",107326.0,,-555555555.0,*****,104534.0,,458.0,,2792.0,,458.0,,43320
43340,"Shreveport-Bossier City, LA Metro Area",443350.0,,-555555555.0,*****,431875.0,,788.0,,11475.0,,788.0,,43340
43380,"Sidney, OH Micro Area",49317.0,,-555555555.0,*****,48516.0,,178.0,,801.0,,178.0,,43380
43420,"Sierra Vista-Douglas, AZ Metro Area",131038.0,,-555555555.0,*****,115867.0,,885.0,,15171.0,,885.0,,43420
43460,"Sikeston, MO Micro Area",39216.0,,-555555555.0,*****,38902.0,,91.0,,314.0,,91.0,,43460
43500,"Silver City, NM Micro Area",29471.0,,-555555555.0,*****,28131.0,,286.0,,1340.0,,286.0,,43500
43580,"Sioux City, IA-NE-SD Metro Area",168526.0,,-555555555.0,*****,154796.0,,620.0,,13730.0,,620.0,,43580
43620,"Sioux Falls, SD Metro Area",233750.0,,-555555555.0,*****,221983.0,,875.0,,11767.0,,875.0,,43620
43660,"Snyder, TX Micro Area",17014.0,,-555555555.0,*****,15866.0,,297.0,,1148.0,,297.0,,43660
43700,"Somerset, KY Micro Area",63369.0,,-555555555.0,*****,62575.0,,179.0,,794.0,,179.0,,43700
43740,"Somerset, PA Micro Area",77341.0,,-555555555.0,*****,76832.0,,99.0,,509.0,,99.0,,43740
43760,"Sonora, CA Micro Area",54728.0,,-555555555.0,*****,52092.0,,351.0,,2636.0,,351.0,,43760
43780,"South Bend-Mishawaka, IN-MI Metro Area",318906.0,,-555555555.0,*****,302746.0,,857.0,,16160.0,,857.0,,43780
43900,"Spartanburg, SC Metro Area",315383.0,,-555555555.0,*****,296914.0,,1258.0,,18469.0,,1258.0,,43900
43940,"Spearfish, SD Micro Area",24305.0,,-555555555.0,*****,23777.0,,206.0,,528.0,,206.0,,43940
43980,"Spencer, IA Micro Area",16604.0,,-555555555.0,*****,16246.0,,82.0,,358.0,,82.0,,43980
44020,"Spirit Lake, IA Micro Area",16818.0,,-555555555.0,*****,16645.0,,61.0,,173.0,,61.0,,44020
44060,"Spokane-Spokane Valley, WA Metro Area",530301.0,,-555555555.0,*****,502506.0,,1400.0,,27795.0,,1400.0,,44060
44100,"Springfield, IL Metro Area",210956.0,,-555555555.0,*****,204029.0,,623.0,,6927.0,,623.0,,44100
44140,"Springfield, MA Metro Area",624411.0,,-555555555.0,*****,568017.0,,1877.0,,56394.0,,1877.0,,44140
44180,"Springfield, MO Metro Area",441050.0,,-555555555.0,*****,430264.0,,888.0,,10786.0,,888.0,,44180
44220,"Springfield, OH Metro Area",137763.0,,-555555555.0,*****,134732.0,,345.0,,3031.0,,345.0,,44220
44260,"Starkville, MS Micro Area",48198.0,,-555555555.0,*****,46423.0,,249.0,,1775.0,,249.0,,44260
44300,"State College, PA Metro Area",154460.0,,-555555555.0,*****,143620.0,,700.0,,10840.0,,700.0,,44300
44340,"Statesboro, GA Micro Area",71190.0,,-555555555.0,*****,68320.0,,410.0,,2870.0,,410.0,,44340
44420,"Staunton-Waynesboro, VA Metro Area",118814.0,,-555555555.0,*****,115938.0,,472.0,,2876.0,,472.0,,44420
44460,"Steamboat Springs, CO Micro Area",23409.0,,-555555555.0,*****,22583.0,,256.0,,826.0,,256.0,,44460
44500,"Stephenville, TX Micro Area",38744.0,,-555555555.0,*****,35456.0,,360.0,,3288.0,,360.0,,44500
44540,"Sterling, CO Micro Area",22607.0,,-555555555.0,*****,21319.0,,449.0,,1288.0,,449.0,,44540
44580,"Sterling, IL Micro Area",58150.0,,-555555555.0,*****,56540.0,,294.0,,1610.0,,294.0,,44580
44620,"Stevens Point, WI Micro Area",70136.0,,-555555555.0,*****,68201.0,,205.0,,1935.0,,205.0,,44620
44660,"Stillwater, OK Micro Area",77897.0,,-555555555.0,*****,73556.0,,392.0,,4341.0,,392.0,,44660
44700,"Stockton-Lodi, CA Metro Area",693177.0,,-555555555.0,*****,533190.0,,2878.0,,159987.0,,2878.0,,44700
44740,"Storm Lake, IA Micro Area",20350.0,,-555555555.0,*****,16573.0,,246.0,,3777.0,,246.0,,44740
44780,"Sturgis, MI Micro Area",61111.0,,-555555555.0,*****,58996.0,,220.0,,2115.0,,220.0,,44780
44860,"Sulphur Springs, TX Micro Area",35295.0,,-555555555.0,*****,32378.0,,280.0,,2917.0,,280.0,,44860
44900,"Summerville, GA Micro Area",25670.0,,-555555555.0,*****,24883.0,,97.0,,787.0,,97.0,,44900
44920,"Summit Park, UT Micro Area",37232.0,,-555555555.0,*****,33303.0,,439.0,,3929.0,,439.0,,44920
44940,"Sumter, SC Metro Area",107645.0,,-555555555.0,*****,103904.0,,459.0,,3741.0,,459.0,,44940
44980,"Sunbury, PA Micro Area",94444.0,,-555555555.0,*****,93221.0,,217.0,,1223.0,,217.0,,44980
45000,"Susanville, CA Micro Area",34018.0,,-555555555.0,*****,31633.0,,249.0,,2385.0,,249.0,,45000
45020,"Sweetwater, TX Micro Area",15087.0,,-555555555.0,*****,14404.0,,230.0,,683.0,,230.0,,45020
45060,"Syracuse, NY Metro Area",661838.0,,-555555555.0,*****,624609.0,,1157.0,,37229.0,,1157.0,,45060
45140,"Tahlequah, OK Micro Area",47488.0,,-555555555.0,*****,46205.0,,231.0,,1283.0,,231.0,,45140
45180,"Talladega-Sylacauga, AL Micro Area",93043.0,,-555555555.0,*****,91569.0,,263.0,,1474.0,,263.0,,45180
45220,"Tallahassee, FL Metro Area",370777.0,,-555555555.0,*****,348330.0,,1089.0,,22447.0,,1089.0,,45220
45300,"Tampa-St. Petersburg-Clearwater, FL Metro Area",2819241.0,,-555555555.0,*****,2466146.0,,5135.0,,353095.0,,5135.0,,45300
45340,"Taos, NM Micro Area",32899.0,,-555555555.0,*****,31259.0,,434.0,,1640.0,,434.0,,45340
45380,"Taylorville, IL Micro Area",34651.0,,-555555555.0,*****,34145.0,,116.0,,506.0,,116.0,,45380
45460,"Terre Haute, IN Metro Area",172368.0,,-555555555.0,*****,168399.0,,432.0,,3969.0,,432.0,,45460
45500,"Texarkana, TX-AR Metro Area",149358.0,,-555555555.0,*****,145674.0,,489.0,,3684.0,,489.0,,45500
45520,"The Dalles, OR Micro Area",25281.0,,-555555555.0,*****,22852.0,,386.0,,2429.0,,386.0,,45520
45540,"The Villages, FL Metro Area",98409.0,,-555555555.0,*****,92662.0,,623.0,,5747.0,,623.0,,45540
45580,"Thomaston, GA Micro Area",26918.0,,-555555555.0,*****,26440.0,,163.0,,478.0,,163.0,,45580
45620,"Thomasville, GA Micro Area",44692.0,,-555555555.0,*****,43572.0,,211.0,,1120.0,,211.0,,45620
45660,"Tiffin, OH Micro Area",56376.0,,-555555555.0,*****,55672.0,,172.0,,704.0,,172.0,,45660
45700,"Tifton, GA Micro Area",40537.0,,-555555555.0,*****,38213.0,,297.0,,2324.0,,297.0,,45700
45740,"Toccoa, GA Micro Area",25910.0,,-555555555.0,*****,25379.0,,213.0,,531.0,,213.0,,45740
45780,"Toledo, OH Metro Area",609437.0,,-555555555.0,*****,589467.0,,1192.0,,19970.0,,1192.0,,45780
45820,"Topeka, KS Metro Area",234089.0,,-555555555.0,*****,225542.0,,712.0,,8547.0,,712.0,,45820
45860,"Torrington, CT Micro Area",188629.0,,-555555555.0,*****,175230.0,,744.0,,13399.0,,744.0,,45860
45900,"Traverse City, MI Micro Area",144480.0,,-555555555.0,*****,141631.0,,445.0,,2849.0,,445.0,,45900
45940,"Trenton, NJ Metro Area",368094.0,,-555555555.0,*****,291290.0,,1536.0,,76804.0,,1536.0,,45940
45980,"Troy, AL Micro Area",32977.0,,-555555555.0,*****,31674.0,,376.0,,1303.0,,376.0,,45980
46020,"Truckee-Grass Valley, CA Micro Area",98509.0,,-555555555.0,*****,92629.0,,691.0,,5880.0,,691.0,,46020
46060,"Tucson, AZ Metro Area",986891.0,,-555555555.0,*****,860921.0,,3483.0,,125970.0,,3483.0,,46060
46100,"Tullahoma-Manchester, TN Micro Area",100343.0,,-555555555.0,*****,98051.0,,248.0,,2292.0,,248.0,,46100
46140,"Tulsa, OK Metro Area",945802.0,,-555555555.0,*****,891332.0,,1334.0,,54470.0,,1334.0,,46140
46180,"Tupelo, MS Micro Area",137537.0,,-555555555.0,*****,135074.0,,433.0,,2463.0,,433.0,,46180
46220,"Tuscaloosa, AL Metro Area",231934.0,,-555555555.0,*****,224721.0,,504.0,,7213.0,,504.0,,46220
46300,"Twin Falls, ID Micro Area",100458.0,,-555555555.0,*****,90030.0,,792.0,,10428.0,,792.0,,46300
46340,"Tyler, TX Metro Area",212227.0,,-555555555.0,*****,192842.0,,1012.0,,19385.0,,1012.0,,46340
46380,"Ukiah, CA Micro Area",87497.0,,-555555555.0,*****,76567.0,,579.0,,10930.0,,579.0,,46380
46460,"Union City, TN-KY Micro Area",38216.0,,-555555555.0,*****,37457.0,,186.0,,759.0,,186.0,,46460
46500,"Urbana, OH Micro Area",39855.0,,-555555555.0,*****,39461.0,,94.0,,394.0,,94.0,,46500
46520,"Urban Honolulu, HI Metro Area",964678.0,,-555555555.0,*****,775651.0,,3708.0,,189027.0,,3708.0,,46520
46540,"Utica-Rome, NY Metro Area",298634.0,,-555555555.0,*****,278833.0,,965.0,,19801.0,,965.0,,46540
46620,"Uvalde, TX Micro Area",26578.0,,-555555555.0,*****,23989.0,,399.0,,2589.0,,399.0,,46620
46660,"Valdosta, GA Metro Area",141522.0,,-555555555.0,*****,135860.0,,622.0,,5662.0,,622.0,,46660
46700,"Vallejo-Fairfield, CA Metro Area",417258.0,,-555555555.0,*****,333257.0,,1784.0,,84001.0,,1784.0,,46700
46740,"Valley, AL Micro Area",34145.0,,-555555555.0,*****,33786.0,,101.0,,359.0,,101.0,,46740
46780,"Van Wert, OH Micro Area",28685.0,,-555555555.0,*****,28459.0,,103.0,,226.0,,103.0,,46780
46820,"Vermillion, SD Micro Area",13953.0,,-555555555.0,*****,13559.0,,114.0,,394.0,,114.0,,46820
46860,"Vernal, UT Micro Area",33722.0,,-555555555.0,*****,32485.0,,300.0,,1237.0,,300.0,,46860
46900,"Vernon, TX Micro Area",13371.0,,-555555555.0,*****,12795.0,,207.0,,576.0,,207.0,,46900
46980,"Vicksburg, MS Micro Area",57942.0,,-555555555.0,*****,57105.0,,150.0,,837.0,,150.0,,46980
47020,"Victoria, TX Metro Area",95349.0,,-555555555.0,*****,90253.0,,607.0,,5096.0,,607.0,,47020
47080,"Vidalia, GA Micro Area",36279.0,,-555555555.0,*****,34568.0,,328.0,,1711.0,,328.0,,47080
47180,"Vincennes, IN Micro Area",38266.0,,-555555555.0,*****,37763.0,,140.0,,503.0,,140.0,,47180
47220,"Vineland-Bridgeton, NJ Metro Area",157342.0,,-555555555.0,*****,140874.0,,969.0,,16468.0,,969.0,,47220
47240,"Vineyard Haven, MA Micro Area",16739.0,,-555555555.0,*****,15434.0,,399.0,,1305.0,,399.0,,47240
47260,"Virginia Beach-Norfolk-Newport News, VA-NC Metro Area",1688238.0,,-555555555.0,*****,1583947.0,,2316.0,,104291.0,,2316.0,,47260
47300,"Visalia-Porterville, CA Metro Area",446644.0,,-555555555.0,*****,344956.0,,2594.0,,101688.0,,2594.0,,47300
47340,"Wabash, IN Micro Area",32650.0,,-555555555.0,*****,32136.0,,134.0,,514.0,,134.0,,47340
47380,"Waco, TX Metro Area",255035.0,,-555555555.0,*****,234303.0,,1024.0,,20732.0,,1024.0,,47380
47420,"Wahpeton, ND-MN Micro Area",22834.0,,-555555555.0,*****,22592.0,,83.0,,242.0,,83.0,,47420
47460,"Walla Walla, WA Metro Area",63119.0,,-555555555.0,*****,56412.0,,534.0,,6707.0,,534.0,,47460
47540,"Wapakoneta, OH Micro Area",45906.0,,-555555555.0,*****,45447.0,,127.0,,459.0,,127.0,,47540
47580,"Warner Robins, GA Metro Area",182461.0,,-555555555.0,*****,172342.0,,869.0,,10119.0,,860.0,,47580
47620,"Warren, PA Micro Area",41429.0,,-555555555.0,*****,40897.0,,99.0,,532.0,,99.0,,47620
47660,"Warrensburg, MO Micro Area",53517.0,,-555555555.0,*****,52116.0,,317.0,,1401.0,,317.0,,47660
47700,"Warsaw, IN Micro Area",77527.0,,-555555555.0,*****,74354.0,,290.0,,3173.0,,290.0,,47700
47780,"Washington, IN Micro Area",31928.0,,-555555555.0,*****,31228.0,,107.0,,700.0,,107.0,,47780
47820,"Washington, NC Micro Area",47575.0,,-555555555.0,*****,45371.0,,244.0,,2204.0,,244.0,,47820
47900,"Washington-Arlington-Alexandria, DC-VA-MD-WV Metro Area",5759330.0,,-555555555.0,*****,4513483.0,,8017.0,,1245847.0,,8017.0,,47900
47920,"Washington Court House, OH Micro Area",28902.0,,-555555555.0,*****,28521.0,,109.0,,381.0,,109.0,,47920
47940,"Waterloo-Cedar Falls, IA Metro Area",168271.0,,-555555555.0,*****,161697.0,,675.0,,6574.0,,675.0,,47940
47980,"Watertown, SD Micro Area",27439.0,,-555555555.0,*****,27156.0,,107.0,,283.0,,107.0,,47980
48020,"Watertown-Fort Atkinson, WI Micro Area",83985.0,,-555555555.0,*****,80653.0,,343.0,,3332.0,,343.0,,48020
48060,"Watertown-Fort Drum, NY Metro Area",118073.0,,-555555555.0,*****,113001.0,,517.0,,5072.0,,517.0,,48060
48100,"Wauchula, FL Micro Area",27336.0,,-555555555.0,*****,21654.0,,605.0,,5682.0,,605.0,,48100
48140,"Wausau, WI Metro Area",134497.0,,-555555555.0,*****,129208.0,,323.0,,5289.0,,323.0,,48140
48180,"Waycross, GA Micro Area",54782.0,,-555555555.0,*****,53145.0,,270.0,,1637.0,,270.0,,48180
48220,"Weatherford, OK Micro Area",28092.0,,-555555555.0,*****,26119.0,,334.0,,1973.0,,334.0,,48220
48260,"Weirton-Steubenville, WV-OH Metro Area",123377.0,,-555555555.0,*****,122038.0,,239.0,,1339.0,,239.0,,48260
48300,"Wenatchee, WA Metro Area",111854.0,,-555555555.0,*****,97222.0,,765.0,,14632.0,,765.0,,48300
48460,"West Plains, MO Micro Area",40458.0,,-555555555.0,*****,39834.0,,206.0,,624.0,,206.0,,48460
48540,"Wheeling, WV-OH Metro Area",146986.0,,-555555555.0,*****,145505.0,,215.0,,1481.0,,215.0,,48540
48580,"Whitewater-Elkhorn, WI Micro Area",102619.0,,-555555555.0,*****,96341.0,,523.0,,6278.0,,523.0,,48580
48620,"Wichita, KS Metro Area",633020.0,,-555555555.0,*****,588108.0,,1555.0,,44912.0,,1555.0,,48620
48660,"Wichita Falls, TX Metro Area",150862.0,,-555555555.0,*****,141418.0,,708.0,,9444.0,,708.0,,48660
48700,"Williamsport, PA Metro Area",116604.0,,-555555555.0,*****,114931.0,,244.0,,1673.0,,244.0,,48700
48780,"Williston, ND Micro Area",25024.0,,-555555555.0,*****,24525.0,,132.0,,499.0,,132.0,,48780
48820,"Willmar, MN Micro Area",42265.0,,-555555555.0,*****,40179.0,,310.0,,2086.0,,310.0,,48820
48900,"Wilmington, NC Metro Area",259815.0,,-555555555.0,*****,246192.0,,887.0,,13623.0,,887.0,,48900
48940,"Wilmington, OH Micro Area",42013.0,,-555555555.0,*****,41476.0,,189.0,,537.0,,189.0,,48940
48980,"Wilson, NC Micro Area",81365.0,,-555555555.0,*****,75630.0,,426.0,,5735.0,,426.0,,48980
49020,"Winchester, VA-WV Metro Area",129786.0,,-555555555.0,*****,122263.0,,657.0,,7523.0,,657.0,,49020
49080,"Winnemucca, NV Micro Area",16800.0,,-555555555.0,*****,14680.0,,281.0,,2120.0,,281.0,,49080
49100,"Winona, MN Micro Area",51328.0,,-555555555.0,*****,49490.0,,237.0,,1838.0,,237.0,,49100
49180,"Winston-Salem, NC Metro Area",644250.0,,-555555555.0,*****,599523.0,,1363.0,,44727.0,,1363.0,,49180
49220,"Wisconsin Rapids-Marshfield, WI Micro Area",74469.0,,-555555555.0,*****,72710.0,,236.0,,1759.0,,236.0,,49220
49260,"Woodward, OK Micro Area",20483.0,,-555555555.0,*****,19703.0,,177.0,,780.0,,177.0,,49260
49300,"Wooster, OH Micro Area",114750.0,,-555555555.0,*****,112729.0,,252.0,,2021.0,,252.0,,49300
49340,"Worcester, MA-CT Metro Area",920803.0,,-555555555.0,*****,824327.0,,2619.0,,96476.0,,2619.0,,49340
49380,"Worthington, MN Micro Area",21490.0,,-555555555.0,*****,17532.0,,235.0,,3958.0,,235.0,,49380
49420,"Yakima, WA Metro Area",244654.0,,-555555555.0,*****,200420.0,,1392.0,,44234.0,,1392.0,,49420
49460,"Yankton, SD Micro Area",22518.0,,-555555555.0,*****,22098.0,,164.0,,420.0,,164.0,,49460
49620,"York-Hanover, PA Metro Area",436339.0,,-555555555.0,*****,421329.0,,841.0,,15010.0,,841.0,,49620
49660,"Youngstown-Warren-Boardman, OH-PA Metro Area",561884.0,,-555555555.0,*****,549521.0,,798.0,,12363.0,,798.0,,49660
49700,"Yuba City, CA Metro Area",167361.0,,-555555555.0,*****,136925.0,,1121.0,,30436.0,,1121.0,,49700
49740,"Yuma, AZ Metro Area",199026.0,,-555555555.0,*****,148723.0,,1474.0,,50303.0,,1474.0,,49740
49780,"Zanesville, OH Micro Area",85872.0,,-555555555.0,*****,85003.0,,257.0,,869.0,,257.0,,49780
49820,"Zapata, TX Micro Area",14164.0,,-555555555.0,*****,10694.0,,472.0,,3470.0,,472.0,,49820
28780,"Kingsville, TX Micro Area",32576.0,,199.0,,30122.0,,539.0,,2454.0,,515.0,,28780
35820,"North Platte, NE Micro Area",37297.0,,105.0,,36624.0,,220.0,,673.0,,200.0,,35820
21220,"Elko, NV Micro Area",51827.0,,173.0,,47168.0,,453.0,,4659.0,,439.0,,21220
13700,"Big Spring, TX Micro Area",36473.0,,108.0,,32562.0,,489.0,,3911.0,,477.0,,13700
13740,"Billings, MT Metro Area",160991.0,,104.0,,158229.0,,448.0,,2762.0,,442.0,,13740
41660,"San Angelo, TX Metro Area",113572.0,,121.0,,105794.0,,839.0,,7778.0,,820.0,,41660
38180,"Pierre, SD Micro Area",21624.0,,117.0,,21399.0,,154.0,,225.0,,122.0,,38180
11100,"Amarillo, TX Metro Area",254583.0,,87.0,,232016.0,,1205.0,,22567.0,,1194.0,,11100
25200,"Hailey, ID Micro Area",27782.0,,140.0,,24022.0,,346.0,,3760.0,,327.0,,25200
13900,"Bismarck, ND Metro Area",117878.0,,87.0,,116499.0,,275.0,,1379.0,,250.0,,13900
