geoid,name,universe,universe_annotation,universe_moe,universe_moe_annotation,region
1,Northeast Region,55564549.0,,-555555555.0,*****,1
2,Midwest Region,67148157.0,,-555555555.0,*****,2
3,South Region,116015264.0,,-555555555.0,*****,3
4,West Region,72808624.0,,-555555555.0,*****,4
