geoid,name,universe,universe_annotation,universe_moe,universe_moe_annotation,native,native_annotation,native_moe,native_moe_annotation,foreign_born,foreign_born_annotation,foreign_born_moe,foreign_born_moe_annotation,american indian area/alaska native area/hawaiian home land
2595,"Osage Reservation, OK",47800.0,,-555555555.0,*****,47218.0,,154.0,,582.0,,154.0,,2595
4255,"Torres-Martinez Reservation, CA",4588.0,,449.0,,1864.0,,227.0,,2724.0,,310.0,,4255
9150,"Hassanamisco (state) Reservation, MA",4.0,,6.0,,2.0,,3.0,,2.0,,3.0,,9150
9850,"Ramapough SDTSA, NJ",962.0,,221.0,,885.0,,217.0,,77.0,,45.0,,9850
7650,"Twin Hills ANVSA, AK",86.0,,34.0,,86.0,,34.0,,0.0,,9.0,,7650
9560,"Cherokee Tribe of Northeast Alabama SDTSA, AL",13377.0,,735.0,,12135.0,,551.0,,1242.0,,429.0,,9560
2070,"Lummi Reservation, WA",4705.0,,363.0,,4417.0,,374.0,,288.0,,88.0,,2070
5820,"Sac and Fox OTSA, OK",57981.0,,902.0,,57063.0,,913.0,,918.0,,193.0,,5820
7520,"Stevens Village ANVSA, AK",66.0,,38.0,,66.0,,38.0,,0.0,,9.0,,7520
9825,"Meherrin SDTSA, NC",8107.0,,374.0,,8017.0,,377.0,,90.0,,48.0,,9825
3480,"Santa Ana Pueblo, NM",691.0,,163.0,,691.0,,163.0,,0.0,,12.0,,3480
4075,"Swinomish Reservation and Off-Reservation Trust Land, WA",3214.0,,225.0,,3005.0,,219.0,,209.0,,62.0,,4075
4595,"White Earth Reservation and Off-Reservation Trust Land, MN",9979.0,,207.0,,9902.0,,201.0,,77.0,,27.0,,4595
5011,"Hanapepe Hawaiian Home Land, HI",24.0,,20.0,,14.0,,13.0,,10.0,,11.0,,5011
1160,"Fort Berthold Reservation, ND",6840.0,,287.0,,6759.0,,289.0,,81.0,,52.0,,1160
5950,"Kaw/Ponca joint-use OTSA, OK",26988.0,,221.0,,26260.0,,254.0,,728.0,,145.0,,5950
6255,"Cantwell ANVSA, AK",195.0,,56.0,,195.0,,56.0,,0.0,,9.0,,6255
2430,"Navajo Nation Reservation and Off-Reservation Trust Land, AZ--NM--UT",173998.0,,2636.0,,172785.0,,2680.0,,1213.0,,265.0,,2430
3165,"Rincon Reservation, CA",1082.0,,175.0,,896.0,,168.0,,186.0,,59.0,,3165
2715,"Pauma and Yuima Reservation, CA",167.0,,77.0,,163.0,,76.0,,4.0,,6.0,,2715
3525,"Santa Rosa Reservation, CA",138.0,,107.0,,138.0,,107.0,,0.0,,12.0,,3525
2400,"Nambe Pueblo and Off-Reservation Trust Land, NM",1942.0,,162.0,,1896.0,,165.0,,46.0,,22.0,,2400
7025,"Nelson Lagoon ANVSA, AK",46.0,,29.0,,46.0,,29.0,,0.0,,9.0,,7025
7560,"Tazlina ANVSA, AK",313.0,,75.0,,305.0,,76.0,,8.0,,8.0,,7560
4635,"Winnemucca Indian Colony, NV",19.0,,13.0,,15.0,,13.0,,4.0,,7.0,,4635
0185,"Benton Paiute Reservation and Off-Reservation Trust Land, CA",39.0,,31.0,,36.0,,29.0,,3.0,,5.0,,0185
2510,"Ohkay Owingeh, NM",6858.0,,462.0,,6211.0,,419.0,,647.0,,167.0,,2510
6070,"Allakaket ANVSA, AK",136.0,,33.0,,136.0,,33.0,,0.0,,9.0,,6070
2340,"Mooretown Rancheria and Off-Reservation Trust Land, CA",248.0,,65.0,,235.0,,64.0,,13.0,,11.0,,2340
5860,"Tonkawa OTSA, OK",4104.0,,141.0,,3988.0,,147.0,,116.0,,47.0,,5860
0265,"Big Sandy Rancheria, CA",230.0,,100.0,,223.0,,100.0,,7.0,,10.0,,0265
5241,"Waiehu Hawaiian Home Land, HI",1349.0,,323.0,,1330.0,,320.0,,19.0,,13.0,,5241
7205,"Pedro Bay ANVSA, AK",26.0,,16.0,,26.0,,16.0,,0.0,,9.0,,7205
9745,"Haliwa-Saponi SDTSA, NC",8259.0,,641.0,,8105.0,,649.0,,154.0,,81.0,,9745
9970,"Waccamaw Siouan SDTSA, NC",2373.0,,378.0,,2364.0,,378.0,,9.0,,17.0,,9970
6025,"Akiak ANVSA, AK",392.0,,65.0,,390.0,,65.0,,2.0,,3.0,,6025
6075,"Ambler ANVSA, AK",290.0,,71.0,,282.0,,70.0,,8.0,,8.0,,6075
6895,"McGrath ANVSA, AK",380.0,,64.0,,371.0,,62.0,,9.0,,8.0,,6895
7500,"Solomon ANVSA, AK",0.0,,9.0,,0.0,,9.0,,0.0,,9.0,,7500
3840,"Skull Valley Reservation, UT",26.0,,22.0,,26.0,,22.0,,0.0,,11.0,,3840
2625,"Paiute (UT) Reservation, UT",297.0,,132.0,,280.0,,127.0,,17.0,,24.0,,2625
7410,"Sand Point ANVSA, AK",1238.0,,246.0,,606.0,,174.0,,632.0,,272.0,,7410
0585,"Chemehuevi Reservation, CA",277.0,,89.0,,277.0,,89.0,,0.0,,12.0,,0585
1235,"Fort Mojave Reservation and Off-Reservation Trust Land, AZ--CA--NV",1638.0,,234.0,,1528.0,,225.0,,110.0,,56.0,,1235
1735,"Kalispel Reservation and Off-Reservation Trust Land, WA",343.0,,103.0,,338.0,,101.0,,5.0,,8.0,,1735
5283,"Waiohinu Hawaiian Home Land, HI",0.0,,11.0,,0.0,,11.0,,0.0,,11.0,,5283
9580,"Chickahominy SDTSA, VA",3689.0,,210.0,,3658.0,,207.0,,31.0,,17.0,,9580
1220,"Fort McDowell Yavapai Nation Reservation, AZ",1054.0,,152.0,,1029.0,,151.0,,25.0,,24.0,,1220
2055,"Lower Sioux Indian Community, MN",393.0,,89.0,,393.0,,89.0,,0.0,,9.0,,2055
3070,"Ramona Village, CA",0.0,,12.0,,0.0,,12.0,,0.0,,12.0,,3070
7740,"Wales ANVSA, AK",118.0,,27.0,,118.0,,27.0,,0.0,,9.0,,7740
2415,"Narragansett Reservation, RI",15.0,,35.0,,15.0,,35.0,,0.0,,13.0,,2415
7180,"Ouzinkie ANVSA, AK",300.0,,82.0,,292.0,,77.0,,8.0,,13.0,,7180
1670,"Jamul Indian Village, CA",0.0,,12.0,,0.0,,12.0,,0.0,,12.0,,1670
6275,"Chefornak ANVSA, AK",493.0,,85.0,,493.0,,85.0,,0.0,,9.0,,6275
6300,"Chignik Lagoon ANVSA, AK",72.0,,32.0,,72.0,,32.0,,0.0,,9.0,,6300
7400,"Salamatof ANVSA, AK",955.0,,158.0,,936.0,,156.0,,19.0,,14.0,,7400
0170,"Bay Mills Reservation and Off-Reservation Trust Land, MI",1057.0,,175.0,,1048.0,,175.0,,9.0,,7.0,,0170
3235,"Rosebud Indian Reservation and Off-Reservation Trust Land, SD",11219.0,,205.0,,11124.0,,213.0,,95.0,,75.0,,3235
9370,"Shinnecock (state) Reservation, NY",281.0,,129.0,,281.0,,129.0,,0.0,,12.0,,9370
4180,"Timbi-Sha Shoshone Reservation and Off-Reservation Trust Land, CA--NV",25.0,,19.0,,17.0,,11.0,,8.0,,14.0,,4180
5166,"Nienie Hawaiian Home Land, HI",73.0,,69.0,,73.0,,69.0,,0.0,,11.0,,5166
2115,"Manzanita Reservation and Off-Reservation Trust Land, CA",69.0,,29.0,,69.0,,29.0,,0.0,,12.0,,2115
2300,"Mississippi Choctaw Reservation and Off-Reservation Trust Land, MS",7664.0,,437.0,,7505.0,,407.0,,159.0,,118.0,,2300
2785,"Picuris Pueblo, NM",1805.0,,234.0,,1771.0,,236.0,,34.0,,16.0,,2785
5148,"Maluohai Hawaiian Home Land, HI",879.0,,225.0,,858.0,,225.0,,21.0,,12.0,,5148
4225,"Tonawanda Reservation, NY",501.0,,109.0,,462.0,,107.0,,39.0,,17.0,,4225
4930,"San Felipe Pueblo/Santa Ana Pueblo joint-use area, NM",0.0,,12.0,,0.0,,12.0,,0.0,,12.0,,4930
7540,"Tanana ANVSA, AK",261.0,,60.0,,261.0,,60.0,,0.0,,9.0,,7540
7655,"Tyonek ANVSA, AK",251.0,,94.0,,251.0,,94.0,,0.0,,9.0,,7655
1450,"Ho-Chunk Nation Reservation and Off-Reservation Trust Land, WI--MN",1462.0,,250.0,,1427.0,,251.0,,35.0,,37.0,,1450
1970,"Lone Pine Reservation, CA",223.0,,66.0,,223.0,,66.0,,0.0,,12.0,,1970
5176,"Panaewa (Agricultural) Hawaiian Home Land, HI",742.0,,160.0,,737.0,,161.0,,5.0,,6.0,,5176
7035,"Newhalen ANVSA, AK",188.0,,47.0,,188.0,,47.0,,0.0,,9.0,,7035
3445,"San Manuel Reservation and Off-Reservation Trust Land, CA",157.0,,136.0,,157.0,,136.0,,0.0,,12.0,,3445
5030,"Honolulu Makai Hawaiian Home Land, HI",0.0,,11.0,,0.0,,11.0,,0.0,,11.0,,5030
0010,"Acoma Pueblo and Off-Reservation Trust Land, NM",3239.0,,349.0,,3239.0,,349.0,,0.0,,12.0,,0010
6140,"Arctic Village ANVSA, AK",127.0,,33.0,,127.0,,33.0,,0.0,,9.0,,6140
6915,"Mary's Igloo ANVSA, AK",0.0,,9.0,,0.0,,9.0,,0.0,,9.0,,6915
7133,"Nunam Iqua ANVSA, AK",135.0,,42.0,,135.0,,42.0,,0.0,,9.0,,7133
7505,"South Naknek ANVSA, AK",57.0,,19.0,,57.0,,19.0,,0.0,,9.0,,7505
4360,"Tuscarora Nation Reservation, NY",997.0,,161.0,,933.0,,168.0,,64.0,,40.0,,4360
4710,"Yavapai-Prescott Reservation, AZ",314.0,,186.0,,300.0,,186.0,,14.0,,17.0,,4710
0955,"Dry Creek Rancheria and Off-Reservation Trust Land, CA",0.0,,12.0,,0.0,,12.0,,0.0,,12.0,,0955
5540,"Caddo-Wichita-Delaware OTSA, OK",14965.0,,482.0,,14453.0,,499.0,,512.0,,127.0,,5540
7535,"Tanacross ANVSA, AK",141.0,,52.0,,141.0,,52.0,,0.0,,9.0,,7535
0125,"Augustine Reservation, CA",0.0,,12.0,,0.0,,12.0,,0.0,,12.0,,0125
9675,"Eastern Chickahominy SDTSA, VA",175.0,,66.0,,175.0,,66.0,,0.0,,12.0,,9675
6900,"Manley Hot Springs ANVSA, AK",79.0,,33.0,,79.0,,33.0,,0.0,,9.0,,6900
7510,"Stebbins ANVSA, AK",591.0,,89.0,,591.0,,89.0,,0.0,,9.0,,7510
7175,"Oscarville ANVSA, AK",83.0,,50.0,,83.0,,50.0,,0.0,,9.0,,7175
9300,"Poospatuck (state) Reservation, NY",629.0,,205.0,,574.0,,184.0,,55.0,,53.0,,9300
0325,"Blue Lake Rancheria and Off-Reservation Trust Land, CA",48.0,,32.0,,48.0,,32.0,,0.0,,12.0,,0325
2495,"North Fork Rancheria and Off-Reservation Trust Land, CA",51.0,,25.0,,51.0,,25.0,,0.0,,12.0,,2495
2835,"Pit River Trust Land, CA",0.0,,12.0,,0.0,,12.0,,0.0,,12.0,,2835
6335,"Chuathbaluk ANVSA, AK",101.0,,46.0,,101.0,,46.0,,0.0,,9.0,,6335
7075,"Nikolski ANVSA, AK",39.0,,16.0,,39.0,,16.0,,0.0,,9.0,,7075
7085,"Noatak ANVSA, AK",442.0,,76.0,,442.0,,76.0,,0.0,,9.0,,7085
6525,"Galena ANVSA, AK",566.0,,75.0,,542.0,,79.0,,24.0,,25.0,,6525
3495,"Santa Clara Pueblo, NM",11417.0,,490.0,,10413.0,,480.0,,1004.0,,149.0,,3495
3540,"Santa Ynez Reservation, CA",257.0,,105.0,,248.0,,101.0,,9.0,,11.0,,3540
5026,"Honokaia Hawaiian Home Land, HI",0.0,,11.0,,0.0,,11.0,,0.0,,11.0,,5026
1545,"Hualapai Indian Reservation and Off-Reservation Trust Land, AZ",949.0,,190.0,,938.0,,193.0,,11.0,,12.0,,1545
2320,"Mohegan Reservation and Off-Reservation Trust Land, CT",72.0,,70.0,,62.0,,58.0,,10.0,,23.0,,2320
5580,"Chickasaw OTSA, OK",305445.0,,823.0,,297453.0,,1010.0,,7992.0,,563.0,,5580
1400,"Guidiville Rancheria and Off-Reservation Trust Land, CA",15.0,,22.0,,15.0,,22.0,,0.0,,12.0,,1400
4130,"Tampa Reservation, FL",0.0,,14.0,,0.0,,14.0,,0.0,,14.0,,4130
1070,"Fallon Paiute-Shoshone Colony and Off-Reservation Trust Land, NV",278.0,,147.0,,278.0,,147.0,,0.0,,13.0,,1070
5067,"Kanehili Hawaiian Home Land, HI",142.0,,157.0,,142.0,,157.0,,0.0,,11.0,,5067
5730,"Miami OTSA, OK",226.0,,55.0,,225.0,,55.0,,1.0,,3.0,,5730
6520,"Gakona ANVSA, AK",117.0,,54.0,,110.0,,54.0,,7.0,,7.0,,6520
3635,"Sault Ste. Marie Reservation and Off-Reservation Trust Land, MI",1994.0,,284.0,,1935.0,,277.0,,59.0,,32.0,,3635
6905,"Manokotak ANVSA, AK",588.0,,116.0,,559.0,,87.0,,29.0,,63.0,,6905
1720,"Kaibab Indian Reservation, AZ",271.0,,113.0,,270.0,,113.0,,1.0,,3.0,,1720
6045,"Aleknagik ANVSA, AK",208.0,,70.0,,208.0,,70.0,,0.0,,9.0,,6045
4430,"Upper Lake Rancheria, CA",115.0,,49.0,,109.0,,48.0,,6.0,,9.0,,4430
0165,"Battle Mountain Reservation, NV",139.0,,46.0,,138.0,,46.0,,1.0,,4.0,,0165
1140,"Fort Apache Reservation, AZ",14375.0,,910.0,,14324.0,,903.0,,51.0,,36.0,,1140
6310,"Chilkat ANVSA, AK",110.0,,43.0,,105.0,,44.0,,5.0,,5.0,,6310
6825,"Koyuk ANVSA, AK",279.0,,61.0,,279.0,,61.0,,0.0,,9.0,,6825
5123,"Kolaoa Hawaiian Home Land, HI",0.0,,11.0,,0.0,,11.0,,0.0,,11.0,,5123
0690,"Coconut Creek Trust Land, FL",0.0,,14.0,,0.0,,14.0,,0.0,,14.0,,0690
2555,"Oneida Nation Reservation, NY",0.0,,12.0,,0.0,,12.0,,0.0,,12.0,,2555
3030,"Quileute Reservation, WA",451.0,,130.0,,444.0,,130.0,,7.0,,8.0,,3030
0965,"Duck Valley Reservation, NV--ID",1531.0,,251.0,,1527.0,,251.0,,4.0,,6.0,,0965
5114,"Keokea (Agricultural) Hawaiian Home Land, HI",15.0,,17.0,,15.0,,17.0,,0.0,,11.0,,5114
6560,"Gulkana ANVSA, AK",144.0,,53.0,,144.0,,53.0,,0.0,,9.0,,6560
1825,"Lac du Flambeau Reservation, WI",3372.0,,84.0,,3332.0,,86.0,,40.0,,24.0,,1825
5223,"Waiahole Hawaiian Home Land, HI",14.0,,14.0,,14.0,,14.0,,0.0,,11.0,,5223
6020,"Akiachak ANVSA, AK",606.0,,81.0,,594.0,,80.0,,12.0,,11.0,,6020
7475,"Sitka ANVSA, AK",4634.0,,269.0,,4203.0,,236.0,,431.0,,106.0,,7475
9950,"United Cherokee Ani-Yun-Wiya Nation SDTSA, AL",5914.0,,414.0,,5440.0,,420.0,,474.0,,142.0,,9950
4545,"Warm Springs Reservation and Off-Reservation Trust Land, OR",4188.0,,338.0,,4089.0,,322.0,,99.0,,68.0,,4545
4580,"Wells Colony, NV",28.0,,22.0,,26.0,,21.0,,2.0,,3.0,,4580
0815,"Cow Creek Reservation and Off-Reservation Trust Land, OR",81.0,,42.0,,72.0,,38.0,,9.0,,14.0,,0815
7235,"Pitkas Point ANVSA, AK",157.0,,37.0,,157.0,,37.0,,0.0,,9.0,,7235
1550,"Huron Potawatomi Reservation and Off-Reservation Trust Land, MI",41.0,,21.0,,41.0,,21.0,,0.0,,10.0,,1550
2360,"Morongo Reservation and Off-Reservation Trust Land, CA",574.0,,146.0,,566.0,,144.0,,8.0,,12.0,,2360
5004,"Anahola (Residential) Hawaiian Home Land, HI",1783.0,,278.0,,1741.0,,270.0,,42.0,,34.0,,5004
6830,"Koyukuk ANVSA, AK",104.0,,32.0,,104.0,,32.0,,0.0,,9.0,,6830
1940,"Leech Lake Reservation and Off-Reservation Trust Land, MN",10804.0,,333.0,,10686.0,,326.0,,118.0,,38.0,,1940
5106,"Keaukaha Hawaiian Home Land, HI",1635.0,,267.0,,1625.0,,264.0,,10.0,,11.0,,5106
6385,"Craig ANVSA, AK",1748.0,,134.0,,1708.0,,136.0,,40.0,,36.0,,6385
9720,"Four Winds Cherokee SDTSA, LA",30960.0,,853.0,,29623.0,,842.0,,1337.0,,172.0,,9720
3780,"Shoalwater Bay Indian Reservation and Off-Reservation Trust Land, WA",138.0,,57.0,,138.0,,57.0,,0.0,,12.0,,3780
1963,"Little Traverse Bay Reservation and Off-Reservation Trust Land, MI",61.0,,27.0,,61.0,,27.0,,0.0,,10.0,,1963
2375,"Muckleshoot Reservation and Off-Reservation Trust Land, WA",4349.0,,655.0,,3916.0,,597.0,,433.0,,137.0,,2375
5133,"Lalamilo Hawaiian Home Land, HI",90.0,,65.0,,81.0,,63.0,,9.0,,10.0,,5133
7310,"Ruby ANVSA, AK",209.0,,49.0,,207.0,,49.0,,2.0,,3.0,,7310
7695,"Unalaska ANVSA, AK",4362.0,,192.0,,2504.0,,171.0,,1858.0,,140.0,,7695
4940,"San Felipe Pueblo/Santo Domingo Pueblo joint-use area, NM",0.0,,12.0,,0.0,,12.0,,0.0,,12.0,,4940
5071,"Kapaa Hawaiian Home Land, HI",0.0,,11.0,,0.0,,11.0,,0.0,,11.0,,5071
3795,"Siletz Reservation and Off-Reservation Trust Land, OR",441.0,,135.0,,417.0,,124.0,,24.0,,29.0,,3795
3285,"Sac and Fox Nation Reservation and Off-Reservation Trust Land, NE--KS",183.0,,58.0,,179.0,,59.0,,4.0,,5.0,,3285
0990,"Eastern Cherokee Reservation, NC",9368.0,,734.0,,8948.0,,712.0,,420.0,,215.0,,0990
6460,"Ekwok ANVSA, AK",139.0,,43.0,,139.0,,43.0,,0.0,,9.0,,6460
7530,"Takotna ANVSA, AK",48.0,,24.0,,48.0,,24.0,,0.0,,9.0,,7530
9630,"Clifton Choctaw SDTSA, LA",338.0,,102.0,,336.0,,102.0,,2.0,,4.0,,9630
6265,"Chalkyitsik ANVSA, AK",65.0,,28.0,,63.0,,28.0,,2.0,,3.0,,6265
6540,"Golovin ANVSA, AK",124.0,,41.0,,122.0,,39.0,,2.0,,4.0,,6540
1830,"Lac Vieux Desert Reservation, MI",86.0,,70.0,,86.0,,70.0,,0.0,,10.0,,1830
2865,"Poarch Creek Reservation and Off-Reservation Trust Land, AL--FL",450.0,,133.0,,450.0,,133.0,,0.0,,12.0,,2865
6290,"Chickaloon ANVSA, AK",23960.0,,696.0,,23438.0,,676.0,,522.0,,104.0,,6290
7645,"Tununak ANVSA, AK",277.0,,52.0,,277.0,,52.0,,0.0,,9.0,,7645
5003,"Anahola (Agricultural) Hawaiian Home Land, HI",162.0,,99.0,,152.0,,93.0,,10.0,,14.0,,5003
5600,"Citizen Potawatomi Nation-Absentee Shawnee OTSA, OK",117866.0,,1571.0,,115700.0,,1535.0,,2166.0,,319.0,,5600
6690,"Kaltag ANVSA, AK",196.0,,44.0,,196.0,,44.0,,0.0,,9.0,,6690
2285,"Minnesota Chippewa Trust Land, MN",79.0,,40.0,,79.0,,40.0,,0.0,,9.0,,2285
2680,"Pascua Pueblo Yaqui Reservation and Off-Reservation Trust Land, AZ",4043.0,,336.0,,3898.0,,337.0,,145.0,,51.0,,2680
5550,"Cherokee OTSA, OK",506432.0,,1690.0,,489231.0,,1685.0,,17201.0,,817.0,,5550
6550,"Grayling ANVSA, AK",171.0,,48.0,,171.0,,48.0,,0.0,,9.0,,6550
4110,"Table Mountain Rancheria, CA",38.0,,42.0,,38.0,,42.0,,0.0,,12.0,,4110
2850,"Pleasant Point Reservation, ME",685.0,,81.0,,679.0,,80.0,,6.0,,12.0,,2850
5780,"Pawnee OTSA, OK",16461.0,,57.0,,16258.0,,86.0,,203.0,,64.0,,5780
6380,"Council ANVSA, AK",0.0,,9.0,,0.0,,9.0,,0.0,,9.0,,6380
3520,"Santa Rosa Rancheria, CA",891.0,,213.0,,868.0,,212.0,,23.0,,15.0,,3520
5066,"Kamoku-Kapulena Hawaiian Home Land, HI",31.0,,36.0,,31.0,,36.0,,0.0,,11.0,,5066
1395,"Grindstone Indian Rancheria, CA",144.0,,66.0,,138.0,,61.0,,6.0,,12.0,,1395
5177,"Panaewa (Residential) Hawaiian Home Land, HI",1226.0,,244.0,,1213.0,,243.0,,13.0,,8.0,,5177
0750,"Colusa Rancheria, CA",94.0,,54.0,,78.0,,45.0,,16.0,,20.0,,0750
6400,"Deering ANVSA, AK",97.0,,30.0,,97.0,,30.0,,0.0,,9.0,,6400
5056,"Kamaoa-Puueo Hawaiian Home Land, HI",7.0,,9.0,,7.0,,9.0,,0.0,,11.0,,5056
5120,"Kewalo Hawaiian Home Land, HI",151.0,,81.0,,151.0,,81.0,,0.0,,11.0,,5120
4030,"Sulphur Bank Rancheria, CA",68.0,,72.0,,68.0,,72.0,,0.0,,12.0,,4030
0495,"Capitan Grande Reservation, CA",0.0,,12.0,,0.0,,12.0,,0.0,,12.0,,0495
1610,"Isabella Reservation and Off-Reservation Trust Land, MI",27010.0,,629.0,,26529.0,,631.0,,481.0,,89.0,,1610
2900,"Ponca (NE) Trust Land, NE--IA",19.0,,19.0,,19.0,,19.0,,0.0,,12.0,,2900
5760,"Otoe-Missouria OTSA, OK",773.0,,144.0,,751.0,,131.0,,22.0,,31.0,,5760
6195,"Belkofski ANVSA, AK",0.0,,9.0,,0.0,,9.0,,0.0,,9.0,,6195
5029,"Honokowai Hawaiian Home Land, HI",0.0,,11.0,,0.0,,11.0,,0.0,,11.0,,5029
5198,"Princess Kahanu Estates Hawaiian Home Land, HI",1045.0,,277.0,,1013.0,,283.0,,32.0,,41.0,,5198
5222,"Upolu Hawaiian Home Land, HI",0.0,,11.0,,0.0,,11.0,,0.0,,11.0,,5222
6815,"Kotlik ANVSA, AK",572.0,,82.0,,572.0,,82.0,,0.0,,9.0,,6815
7245,"Platinum ANVSA, AK",62.0,,28.0,,62.0,,28.0,,0.0,,9.0,,7245
0155,"Barona Reservation, CA",654.0,,145.0,,618.0,,139.0,,36.0,,30.0,,0155
5104,"Keanae-Wailua Hawaiian Home Land, HI",5.0,,8.0,,5.0,,8.0,,0.0,,11.0,,5104
6285,"Chevak ANVSA, AK",1062.0,,124.0,,1028.0,,124.0,,34.0,,38.0,,6285
3980,"Stewart Community, NV",119.0,,45.0,,117.0,,44.0,,2.0,,3.0,,3980
1955,"Likely Rancheria, CA",0.0,,12.0,,0.0,,12.0,,0.0,,12.0,,1955
6450,"Eklutna ANVSA, AK",71.0,,44.0,,65.0,,41.0,,6.0,,10.0,,6450
7010,"Napakiak ANVSA, AK",364.0,,65.0,,364.0,,65.0,,0.0,,9.0,,7010
5061,"Kamiloloa-Makakupaia Hawaiian Home Land, HI",35.0,,33.0,,35.0,,33.0,,0.0,,11.0,,5061
4610,"Wind River Reservation and Off-Reservation Trust Land, WY",27148.0,,469.0,,26935.0,,496.0,,213.0,,102.0,,4610
1410,"Hannahville Indian Community and Off-Reservation Trust Land, MI",457.0,,86.0,,457.0,,86.0,,0.0,,10.0,,1410
1860,"Lake Traverse Reservation and Off-Reservation Trust Land, SD--ND",11103.0,,240.0,,10945.0,,249.0,,158.0,,93.0,,1860
2040,"Lower Elwha Reservation and Off-Reservation Trust Land, WA",808.0,,197.0,,783.0,,192.0,,25.0,,15.0,,2040
6810,"Kongiganak ANVSA, AK",370.0,,56.0,,370.0,,56.0,,0.0,,9.0,,6810
6455,"Ekuk ANVSA, AK",0.0,,9.0,,0.0,,9.0,,0.0,,9.0,,6455
7185,"Paimiut ANVSA, AK",0.0,,9.0,,0.0,,9.0,,0.0,,9.0,,7185
9260,"Pamunkey (state) Reservation, VA",84.0,,39.0,,66.0,,27.0,,18.0,,30.0,,9260
5134,"Lanai City Hawaiian Home Land, HI",41.0,,44.0,,41.0,,44.0,,0.0,,11.0,,5134
4090,"Sycuan Reservation and Off-Reservation Trust Land, CA",182.0,,81.0,,163.0,,74.0,,19.0,,17.0,,4090
4725,"Yerington Colony, NV",279.0,,133.0,,276.0,,133.0,,3.0,,5.0,,4725
1355,"Grand Portage Reservation and Off-Reservation Trust Land, MN",525.0,,88.0,,482.0,,80.0,,43.0,,27.0,,1355
9100,"Golden Hill Paugussett (state) Reservation, CT",2.0,,4.0,,2.0,,4.0,,0.0,,12.0,,9100
2475,"Nooksack Reservation and Off-Reservation Trust Land, WA",1070.0,,213.0,,996.0,,211.0,,74.0,,32.0,,2475
5181,"Pauahi Hawaiian Home Land, HI",0.0,,11.0,,0.0,,11.0,,0.0,,11.0,,5181
7050,"New Stuyahok ANVSA, AK",563.0,,91.0,,563.0,,91.0,,0.0,,9.0,,7050
3265,"Rumsey Indian Rancheria, CA",0.0,,12.0,,0.0,,12.0,,0.0,,12.0,,3265
6225,"Bill Moore's ANVSA, AK",0.0,,9.0,,0.0,,9.0,,0.0,,9.0,,6225
6650,"Ivanof Bay ANVSA, AK",0.0,,9.0,,0.0,,9.0,,0.0,,9.0,,6650
3305,"St. Croix Reservation and Off-Reservation Trust Land, WI",735.0,,108.0,,708.0,,107.0,,27.0,,18.0,,3305
1280,"Fort Yuma Indian Reservation, CA--AZ",2069.0,,274.0,,1795.0,,257.0,,274.0,,109.0,,1280
3220,"Rohnerville Rancheria, CA",12.0,,12.0,,12.0,,12.0,,0.0,,12.0,,3220
7485,"Skagway ANVSA, AK",1080.0,,178.0,,984.0,,95.0,,96.0,,121.0,,7485
9515,"Apache Choctaw SDTSA, LA",6833.0,,478.0,,6687.0,,470.0,,146.0,,80.0,,9515
9820,"MaChis Lower Creek SDTSA, AL",22418.0,,529.0,,21807.0,,555.0,,611.0,,171.0,,9820
0605,"Cheyenne River Reservation and Off-Reservation Trust Land, SD",8234.0,,10.0,,8194.0,,29.0,,40.0,,24.0,,0605
1380,"Greenville Rancheria, CA",18.0,,12.0,,18.0,,12.0,,0.0,,12.0,,1380
6795,"Kodiak ANVSA, AK",0.0,,9.0,,0.0,,9.0,,0.0,,9.0,,6795
9400,"Tama (state) Reservation, GA",36.0,,46.0,,36.0,,46.0,,0.0,,13.0,,9400
5083,"Kapolei Hawaiian Home Land, HI",0.0,,11.0,,0.0,,11.0,,0.0,,11.0,,5083
5135,"Leialii Hawaiian Home Land, HI",454.0,,190.0,,440.0,,187.0,,14.0,,19.0,,5135
5795,"Peoria OTSA, OK",5003.0,,261.0,,4863.0,,260.0,,140.0,,50.0,,5795
6750,"Kipnuk ANVSA, AK",644.0,,94.0,,644.0,,94.0,,0.0,,9.0,,6750
9525,"Beaver Creek SDTSA, SC",1456.0,,397.0,,1456.0,,397.0,,0.0,,13.0,,9525
2810,"Pine Ridge Reservation, SD--NE",19007.0,,134.0,,18947.0,,143.0,,60.0,,38.0,,2810
7100,"Nondalton ANVSA, AK",192.0,,52.0,,192.0,,52.0,,0.0,,9.0,,7100
3400,"San Felipe Pueblo, NM",4295.0,,476.0,,4231.0,,466.0,,64.0,,86.0,,3400
4690,"Yakama Nation Reservation and Off-Reservation Trust Land, WA",31824.0,,835.0,,24511.0,,948.0,,7313.0,,582.0,,4690
1895,"La Posta Indian Reservation, CA",27.0,,36.0,,26.0,,33.0,,1.0,,4.0,,1895
5236,"Waiakea Hawaiian Home Land, HI",2.0,,6.0,,2.0,,6.0,,0.0,,11.0,,5236
6257,"Canyon Village ANVSA, AK",0.0,,9.0,,0.0,,9.0,,0.0,,9.0,,6257
6595,"Hooper Bay ANVSA, AK",1222.0,,140.0,,1222.0,,140.0,,0.0,,9.0,,6595
7420,"Saxman ANVSA, AK",439.0,,137.0,,424.0,,134.0,,15.0,,19.0,,7420
7450,"Shaktoolik ANVSA, AK",209.0,,53.0,,209.0,,53.0,,0.0,,9.0,,7450
9865,"Sappony SDTSA, NC",2554.0,,337.0,,2540.0,,336.0,,14.0,,13.0,,9865
2745,"Pechanga Reservation, CA",224.0,,73.0,,202.0,,63.0,,22.0,,21.0,,2745
0825,"Coyote Valley Reservation, CA",118.0,,77.0,,118.0,,77.0,,0.0,,12.0,,0825
1310,"Gila River Indian Reservation, AZ",13306.0,,1493.0,,12810.0,,1504.0,,496.0,,222.0,,1310
5810,"Quapaw OTSA, OK",5713.0,,262.0,,5523.0,,274.0,,190.0,,55.0,,5810
6240,"Brevig Mission ANVSA, AK",407.0,,58.0,,407.0,,58.0,,0.0,,9.0,,6240
6530,"Gambell ANVSA, AK",757.0,,98.0,,741.0,,83.0,,16.0,,27.0,,6530
6610,"Huslia ANVSA, AK",327.0,,39.0,,327.0,,39.0,,0.0,,9.0,,6610
6800,"Kokhanok ANVSA, AK",98.0,,32.0,,98.0,,32.0,,0.0,,9.0,,6800
4470,"Ute Mountain Reservation and Off-Reservation Trust Land, CO--NM--UT",1696.0,,292.0,,1688.0,,293.0,,8.0,,11.0,,4470
2150,"Match-e-be-nash-she-wish Band of Pottawatomi Reservation, MI",0.0,,10.0,,0.0,,10.0,,0.0,,10.0,,2150
5286,"Waiohuli (Residential) Hawaiian Home Land, HI",840.0,,249.0,,824.0,,251.0,,16.0,,15.0,,5286
7570,"Teller ANVSA, AK",225.0,,57.0,,217.0,,54.0,,8.0,,7.0,,7570
3550,"Santa Ysabel Reservation, CA",315.0,,92.0,,311.0,,91.0,,4.0,,5.0,,3550
5009,"Haiku Hawaiian Home Land, HI",0.0,,11.0,,0.0,,11.0,,0.0,,11.0,,5009
0140,"Bad River Reservation, WI",1519.0,,151.0,,1508.0,,151.0,,11.0,,12.0,,0140
6165,"Atqasuk ANVSA, AK",276.0,,67.0,,276.0,,67.0,,0.0,,9.0,,6165
5008,"East Kapolei Hawaiian Home Land, HI",0.0,,11.0,,0.0,,11.0,,0.0,,11.0,,5008
6235,"Birch Creek ANVSA, AK",12.0,,10.0,,12.0,,10.0,,0.0,,9.0,,6235
6330,"Chitina ANVSA, AK",63.0,,32.0,,62.0,,32.0,,1.0,,2.0,,6330
5053,"Kalawahine Hawaiian Home Land, HI",303.0,,83.0,,303.0,,83.0,,0.0,,11.0,,5053
5186,"Paukukalo Hawaiian Home Land, HI",1068.0,,283.0,,1066.0,,283.0,,2.0,,5.0,,5186
7300,"Rampart ANVSA, AK",20.0,,16.0,,20.0,,16.0,,0.0,,9.0,,7300
7555,"Tatitlek ANVSA, AK",62.0,,30.0,,62.0,,30.0,,0.0,,9.0,,7555
3860,"Snoqualmie Reservation, WA",0.0,,12.0,,0.0,,12.0,,0.0,,12.0,,3860
2085,"Makah Indian Reservation, WA",1448.0,,210.0,,1414.0,,206.0,,34.0,,27.0,,2085
3100,"Red Lake Reservation, MN",5871.0,,47.0,,5688.0,,203.0,,183.0,,198.0,,3100
5800,"Ponca OTSA, OK",2148.0,,237.0,,2060.0,,232.0,,88.0,,37.0,,5800
0120,"Auburn Rancheria and Off-Reservation Trust Land, CA",0.0,,12.0,,0.0,,12.0,,0.0,,12.0,,0120
1260,"Fort Pierce Reservation, FL",26.0,,16.0,,25.0,,16.0,,1.0,,3.0,,1260
1590,"Iowa (KS-NE) Reservation and Off-Reservation Trust Land, KS--NE",278.0,,83.0,,272.0,,83.0,,6.0,,7.0,,1590
7215,"Perryville ANVSA, AK",123.0,,37.0,,123.0,,37.0,,0.0,,9.0,,7215
7745,"White Mountain ANVSA, AK",166.0,,49.0,,166.0,,49.0,,0.0,,9.0,,7745
6390,"Crooked Creek ANVSA, AK",120.0,,51.0,,120.0,,51.0,,0.0,,9.0,,6390
7565,"Telida ANVSA, AK",3.0,,5.0,,3.0,,5.0,,0.0,,9.0,,7565
4275,"Trinidad Rancheria and Off-Reservation Trust Land, CA",129.0,,58.0,,129.0,,58.0,,0.0,,12.0,,4275
2980,"Prairie Band of Potawatomi Nation Reservation, KS",1469.0,,148.0,,1459.0,,149.0,,10.0,,10.0,,2980
5620,"Creek OTSA, OK",764167.0,,1640.0,,719436.0,,2063.0,,44731.0,,1467.0,,5620
5041,"Kahikinui Hawaiian Home Land, HI",0.0,,11.0,,0.0,,11.0,,0.0,,11.0,,5041
0695,"Cocopah Reservation, AZ",1148.0,,185.0,,1061.0,,184.0,,87.0,,33.0,,0695
2175,"Menominee Reservation and Off-Reservation Trust Land, WI",3604.0,,216.0,,3489.0,,241.0,,115.0,,122.0,,2175
5239,"Waianae Kai Hawaiian Home Land, HI",610.0,,190.0,,606.0,,191.0,,4.0,,5.0,,5239
6765,"Klawock ANVSA, AK",508.0,,70.0,,505.0,,70.0,,3.0,,4.0,,6765
3970,"Standing Rock Reservation, SD--ND",8342.0,,10.0,,8301.0,,25.0,,41.0,,23.0,,3970
6065,"Algaaciq ANVSA, AK",430.0,,52.0,,424.0,,53.0,,6.0,,6.0,,6065
6095,"Andreafsky ANVSA, AK",91.0,,31.0,,91.0,,31.0,,0.0,,9.0,,6095
6440,"Eek ANVSA, AK",349.0,,43.0,,348.0,,43.0,,1.0,,3.0,,6440
1785,"Klamath Reservation, OR",19.0,,14.0,,14.0,,14.0,,5.0,,8.0,,1785
2890,"Pokagon Reservation and Off-Reservation Trust Land, MI",75.0,,41.0,,75.0,,41.0,,0.0,,10.0,,2890
5670,"Iowa OTSA, OK",6619.0,,466.0,,6574.0,,460.0,,45.0,,32.0,,5670
7630,"Tuluksak ANVSA, AK",418.0,,81.0,,418.0,,81.0,,0.0,,9.0,,7630
7735,"Wainwright ANVSA, AK",540.0,,108.0,,540.0,,108.0,,0.0,,9.0,,7735
3250,"Round Valley Reservation and Off-Reservation Trust Land, CA",369.0,,104.0,,361.0,,101.0,,8.0,,9.0,,3250
5051,"Kalaupapa Hawaiian Home Land, HI",71.0,,18.0,,57.0,,18.0,,14.0,,11.0,,5051
0575,"Chehalis Reservation and Off-Reservation Trust Land, WA",861.0,,240.0,,857.0,,240.0,,4.0,,5.0,,0575
6965,"Minto ANVSA, AK",217.0,,50.0,,217.0,,50.0,,0.0,,9.0,,6965
0735,"Colorado River Indian Reservation, AZ--CA",8970.0,,583.0,,7618.0,,462.0,,1352.0,,241.0,,0735
0940,"Dresslerville Colony, NV",318.0,,105.0,,313.0,,104.0,,5.0,,7.0,,0940
6585,"Holy Cross ANVSA, AK",221.0,,40.0,,221.0,,40.0,,0.0,,9.0,,6585
3320,"St. Regis Mohawk Reservation, NY",3240.0,,15.0,,2837.0,,236.0,,403.0,,238.0,,3320
5086,"Kaumana Hawaiian Home Land, HI",84.0,,42.0,,84.0,,42.0,,0.0,,11.0,,5086
6150,"Atka ANVSA, AK",60.0,,19.0,,58.0,,18.0,,2.0,,3.0,,6150
0240,"Big Lagoon Rancheria, CA",4.0,,10.0,,4.0,,10.0,,0.0,,12.0,,0240
5213,"South Maui Hawaiian Home Land, HI",0.0,,11.0,,0.0,,11.0,,0.0,,11.0,,5213
6935,"Mekoryuk ANVSA, AK",190.0,,42.0,,190.0,,42.0,,0.0,,9.0,,6935
9838,"Occaneechi-Saponi SDTSA, NC",7916.0,,555.0,,7549.0,,541.0,,367.0,,145.0,,9838
6860,"Lesnoi ANVSA, AK",0.0,,9.0,,0.0,,9.0,,0.0,,9.0,,6860
7055,"Newtok ANVSA, AK",409.0,,73.0,,409.0,,73.0,,0.0,,9.0,,7055
9280,"Paucatuck Eastern Pequot (state) Reservation, CT",41.0,,50.0,,41.0,,50.0,,0.0,,12.0,,9280
4530,"Wampanoag-Aquinnah Trust Land, MA",155.0,,112.0,,155.0,,112.0,,0.0,,12.0,,4530
6785,"Knik ANVSA, AK",67364.0,,713.0,,64779.0,,872.0,,2585.0,,606.0,,6785
4170,"Tesuque Pueblo and Off-Reservation Trust Land, NM",837.0,,166.0,,719.0,,166.0,,118.0,,48.0,,4170
4330,"Tuolumne Rancheria, CA",134.0,,56.0,,133.0,,56.0,,1.0,,2.0,,4330
1925,"Laytonville Rancheria, CA",328.0,,133.0,,320.0,,128.0,,8.0,,13.0,,1925
5076,"Kapaakea Hawaiian Home Land, HI",166.0,,53.0,,166.0,,53.0,,0.0,,11.0,,5076
5590,"Choctaw OTSA, OK",232113.0,,684.0,,227372.0,,769.0,,4741.0,,332.0,,5590
7525,"Stony River ANVSA, AK",53.0,,26.0,,53.0,,26.0,,0.0,,9.0,,7525
2695,"Passamaquoddy Trust Land, ME",284.0,,621.0,,209.0,,452.0,,75.0,,169.0,,2695
2775,"Picayune Rancheria and Off-Reservation Trust Land, CA",328.0,,352.0,,328.0,,352.0,,0.0,,12.0,,2775
4515,"Walker River Reservation, NV",717.0,,134.0,,687.0,,133.0,,30.0,,41.0,,4515
5970,"Miami/Peoria joint-use OTSA, OK",4181.0,,231.0,,4049.0,,220.0,,132.0,,60.0,,5970
6605,"Hughes ANVSA, AK",61.0,,22.0,,61.0,,22.0,,0.0,,9.0,,6605
7005,"Napaimute ANVSA, AK",0.0,,9.0,,0.0,,9.0,,0.0,,9.0,,7005
0050,"Alabama-Coushatta Reservation and Off-Reservation Trust Land, TX",595.0,,155.0,,563.0,,137.0,,32.0,,47.0,,0050
3355,"San Carlos Reservation, AZ",10762.0,,457.0,,10695.0,,466.0,,67.0,,78.0,,3355
0400,"Burns Paiute Indian Colony and Off-Reservation Trust Land, OR",171.0,,75.0,,171.0,,75.0,,0.0,,12.0,,0400
7250,"Point Hope ANVSA, AK",718.0,,141.0,,718.0,,141.0,,0.0,,9.0,,7250
4500,"Viejas Reservation, CA",403.0,,114.0,,374.0,,107.0,,29.0,,20.0,,4500
3020,"Quartz Valley Reservation and Off-Reservation Trust Land, CA",223.0,,79.0,,213.0,,79.0,,10.0,,10.0,,3020
0350,"Bridgeport Reservation, CA",50.0,,54.0,,15.0,,14.0,,35.0,,51.0,,0350
0450,"Campo Indian Reservation, CA",382.0,,173.0,,382.0,,173.0,,0.0,,12.0,,0450
1340,"Goshute Reservation, NV--UT",164.0,,70.0,,164.0,,70.0,,0.0,,12.0,,1340
5201,"Puukapu Hawaiian Home Land, HI",1026.0,,228.0,,1010.0,,228.0,,16.0,,14.0,,5201
1110,"Flathead Reservation, MT",28851.0,,360.0,,28298.0,,398.0,,553.0,,166.0,,1110
1880,"L'Anse Reservation and Off-Reservation Trust Land, MI",3274.0,,275.0,,3155.0,,274.0,,119.0,,48.0,,1880
5018,"Homuula-Upper Piihonua Hawaiian Home Land, HI",83.0,,124.0,,83.0,,124.0,,0.0,,11.0,,5018
1815,"Lac Courte Oreilles Reservation and Off-Reservation Trust Land, WI",2992.0,,254.0,,2972.0,,255.0,,20.0,,13.0,,1815
3870,"Soboba Reservation and Off-Reservation Trust Land, CA",508.0,,206.0,,499.0,,200.0,,9.0,,13.0,,3870
1195,"Fort Independence Reservation, CA",119.0,,63.0,,119.0,,63.0,,0.0,,12.0,,1195
5238,"Waianae Hawaiian Home Land, HI",2699.0,,472.0,,2579.0,,415.0,,120.0,,137.0,,5238
6835,"Kwethluk ANVSA, AK",702.0,,85.0,,698.0,,85.0,,4.0,,5.0,,6835
9815,"Lumbee SDTSA, NC",493012.0,,1366.0,,465850.0,,1709.0,,27162.0,,1148.0,,9815
0250,"Big Pine Reservation, CA",398.0,,78.0,,389.0,,76.0,,9.0,,9.0,,0250
2130,"Maricopa (Ak Chin) Indian Reservation, AZ",1459.0,,401.0,,1443.0,,398.0,,16.0,,19.0,,2130
6725,"Ketchikan ANVSA, AK",12986.0,,167.0,,12021.0,,232.0,,965.0,,162.0,,6725
3415,"San Ildefonso Pueblo and Off-Reservation Trust Land, NM",2075.0,,149.0,,1997.0,,139.0,,78.0,,28.0,,3415
3750,"Shingle Springs Rancheria and Off-Reservation Trust Land, CA",104.0,,52.0,,104.0,,52.0,,0.0,,12.0,,3750
0435,"Cahuilla Reservation, CA",111.0,,80.0,,111.0,,80.0,,0.0,,12.0,,0435
1270,"Fort Sill Apache Indian Reservation, NM",0.0,,12.0,,0.0,,12.0,,0.0,,12.0,,1270
6570,"Hamilton ANVSA, AK",0.0,,9.0,,0.0,,9.0,,0.0,,9.0,,6570
6820,"Kotzebue ANVSA, AK",3250.0,,28.0,,3176.0,,38.0,,74.0,,26.0,,6820
4760,"Yurok Reservation, CA",1364.0,,268.0,,1332.0,,267.0,,32.0,,17.0,,4760
6405,"Dillingham ANVSA, AK",2174.0,,179.0,,2139.0,,177.0,,35.0,,23.0,,6405
1370,"Grand Traverse Reservation and Off-Reservation Trust Land, MI",692.0,,129.0,,675.0,,128.0,,17.0,,14.0,,1370
5111,"Kekaha Hawaiian Home Land, HI",465.0,,156.0,,447.0,,160.0,,18.0,,17.0,,5111
0540,"Cattaraugus Reservation, NY",2212.0,,226.0,,1945.0,,220.0,,267.0,,145.0,,0540
1040,"Ely Reservation, NV",234.0,,100.0,,234.0,,100.0,,0.0,,13.0,,1040
1770,"Kickapoo (KS) Reservation, KS",4445.0,,228.0,,4407.0,,230.0,,38.0,,23.0,,1770
6295,"Chignik ANVSA, AK",101.0,,37.0,,99.0,,38.0,,2.0,,4.0,,6295
7130,"Nulato ANVSA, AK",278.0,,51.0,,278.0,,51.0,,0.0,,9.0,,7130
5031,"Honomu Hawaiian Home Land, HI",11.0,,17.0,,11.0,,17.0,,0.0,,11.0,,5031
1010,"Elk Valley Rancheria and Off-Reservation Trust Land, CA",130.0,,77.0,,127.0,,77.0,,3.0,,5.0,,1010
2560,"Oneida (WI) Reservation and Off-Reservation Trust Land, WI",23620.0,,565.0,,23224.0,,589.0,,396.0,,155.0,,2560
5835,"Seneca-Cayuga OTSA, OK",4440.0,,307.0,,4397.0,,304.0,,43.0,,24.0,,5835
4300,"Tule River Reservation and Off-Reservation Trust Land, CA",1414.0,,228.0,,1391.0,,230.0,,23.0,,25.0,,4300
4700,"Yankton Reservation, SD",6659.0,,212.0,,6629.0,,208.0,,30.0,,23.0,,4700
4910,"Kickapoo (KS) Reservation/Sac and Fox Nation Trust Land joint-use area, KS",0.0,,10.0,,0.0,,10.0,,0.0,,10.0,,4910
1440,"Havasupai Reservation, AZ",181.0,,81.0,,181.0,,81.0,,0.0,,13.0,,1440
1055,"Enterprise Rancheria, CA",1.0,,2.0,,1.0,,2.0,,0.0,,12.0,,1055
3115,"Redwood Valley Rancheria, CA",285.0,,133.0,,267.0,,129.0,,18.0,,16.0,,3115
0020,"Agua Caliente Indian Reservation and Off-Reservation Trust Land, CA",24521.0,,624.0,,20496.0,,525.0,,4025.0,,290.0,,0020
5248,"Waiku-Hana Hawaiian Home Land, HI",0.0,,11.0,,0.0,,11.0,,0.0,,11.0,,5248
8100,"Cayuga Nation TDSA, NY",2711.0,,278.0,,2665.0,,277.0,,46.0,,29.0,,8100
1980,"Lookout Rancheria, CA",4.0,,8.0,,4.0,,8.0,,0.0,,12.0,,1980
6480,"Emmonak ANVSA, AK",858.0,,97.0,,854.0,,96.0,,4.0,,5.0,,6480
6515,"Fort Yukon ANVSA, AK",516.0,,66.0,,514.0,,66.0,,2.0,,4.0,,6515
6160,"Atmautluak ANVSA, AK",295.0,,65.0,,295.0,,65.0,,0.0,,9.0,,6160
6205,"Bethel ANVSA, AK",6197.0,,55.0,,6025.0,,109.0,,172.0,,90.0,,6205
6625,"Iliamna ANVSA, AK",90.0,,31.0,,90.0,,31.0,,0.0,,9.0,,6625
6705,"Kasaan ANVSA, AK",50.0,,22.0,,50.0,,22.0,,0.0,,9.0,,6705
7020,"Napaskiak ANVSA, AK",402.0,,81.0,,402.0,,81.0,,0.0,,9.0,,7020
0845,"Crow Reservation and Off-Reservation Trust Land, MT",6847.0,,315.0,,6784.0,,321.0,,63.0,,45.0,,0845
2190,"Mesa Grande Reservation, CA",148.0,,48.0,,138.0,,47.0,,10.0,,14.0,,2190
7225,"Pilot Point ANVSA, AK",43.0,,18.0,,43.0,,18.0,,0.0,,9.0,,7225
7110,"Noorvik ANVSA, AK",692.0,,90.0,,692.0,,90.0,,0.0,,9.0,,7110
9240,"MOWA Choctaw (state) Reservation, AL",148.0,,93.0,,148.0,,93.0,,0.0,,11.0,,9240
6685,"Kalskag ANVSA, AK",231.0,,41.0,,231.0,,41.0,,0.0,,9.0,,6685
8450,"Mechoopda TDSA, CA",3287.0,,439.0,,2742.0,,347.0,,545.0,,146.0,,8450
6420,"Douglas ANVSA, AK",5675.0,,301.0,,5428.0,,315.0,,247.0,,78.0,,6420
6990,"Naknek ANVSA, AK",600.0,,94.0,,594.0,,91.0,,6.0,,8.0,,6990
5161,"Nanakuli Hawaiian Home Land, HI",5330.0,,691.0,,5271.0,,693.0,,59.0,,36.0,,5161
4560,"Washoe Ranches Trust Land, NV--CA",2849.0,,234.0,,2669.0,,226.0,,180.0,,67.0,,4560
1490,"Hoopa Valley Reservation, CA",3013.0,,335.0,,2852.0,,340.0,,161.0,,83.0,,1490
1530,"Houlton Maliseet Reservation and Off-Reservation Trust Land, ME",182.0,,62.0,,172.0,,60.0,,10.0,,12.0,,1530
1655,"Jamestown S'Klallam Reservation and Off-Reservation Trust Land, WA",76.0,,100.0,,76.0,,100.0,,0.0,,12.0,,1655
1995,"Los Coyotes Reservation, CA",52.0,,33.0,,52.0,,33.0,,0.0,,12.0,,1995
5196,"Ponohawaii Hawaiian Home Land, HI",4.0,,8.0,,4.0,,8.0,,0.0,,11.0,,5196
3625,"Sauk-Suiattle Reservation, WA",68.0,,74.0,,65.0,,71.0,,3.0,,6.0,,3625
5700,"Kickapoo OTSA, OK",19913.0,,707.0,,19563.0,,689.0,,350.0,,99.0,,5700
6470,"Elim ANVSA, AK",358.0,,60.0,,356.0,,60.0,,2.0,,3.0,,6470
6500,"False Pass ANVSA, AK",15.0,,11.0,,15.0,,11.0,,0.0,,9.0,,6500
6865,"Levelock ANVSA, AK",123.0,,44.0,,123.0,,44.0,,0.0,,9.0,,6865
6875,"Lime Village ANVSA, AK",21.0,,18.0,,21.0,,18.0,,0.0,,9.0,,6875
5193,"Piihonua Hawaiian Home Land, HI",27.0,,15.0,,27.0,,15.0,,0.0,,11.0,,5193
6360,"Clarks Point ANVSA, AK",84.0,,29.0,,84.0,,29.0,,0.0,,9.0,,6360
6790,"Kobuk ANVSA, AK",130.0,,43.0,,130.0,,43.0,,0.0,,9.0,,6790
3565,"Santee Reservation, NE",995.0,,94.0,,960.0,,92.0,,35.0,,21.0,,3565
0620,"Chicken Ranch Rancheria and Off-Reservation Trust Land, CA",0.0,,12.0,,0.0,,12.0,,0.0,,12.0,,0620
5281,"Waimea Hawaiian Home Land, HI",0.0,,11.0,,0.0,,11.0,,0.0,,11.0,,5281
7095,"Nome ANVSA, AK",3597.0,,104.0,,3488.0,,112.0,,109.0,,46.0,,7095
7725,"Venetie ANVSA, AK",147.0,,48.0,,147.0,,48.0,,0.0,,9.0,,7725
0335,"Bois Forte Reservation, MN",875.0,,170.0,,846.0,,172.0,,29.0,,26.0,,0335
0555,"Cedarville Rancheria and Off-Reservation Trust Land, CA",9.0,,14.0,,9.0,,14.0,,0.0,,12.0,,0555
5139,"Makaha Valley Hawaiian Home Land, HI",0.0,,11.0,,0.0,,11.0,,0.0,,11.0,,5139
4015,"Stockbridge Munsee Community and Off-Reservation Trust Land, WI",891.0,,134.0,,891.0,,134.0,,0.0,,9.0,,4015
3585,"Santo Domingo Pueblo, NM",3245.0,,385.0,,3242.0,,385.0,,3.0,,6.0,,3585
2925,"Port Madison Reservation, WA",7434.0,,324.0,,7050.0,,320.0,,384.0,,67.0,,2925
7040,"New Koliganek ANVSA, AK",217.0,,75.0,,211.0,,74.0,,6.0,,7.0,,7040
4708,"Yavapai-Apache Nation Reservation, AZ",986.0,,312.0,,971.0,,312.0,,15.0,,14.0,,4708
1750,"Karuk Reservation and Off-Reservation Trust Land, CA",384.0,,132.0,,345.0,,116.0,,39.0,,51.0,,1750
1915,"Las Vegas Indian Colony, NV",88.0,,47.0,,85.0,,44.0,,3.0,,6.0,,1915
4315,"Tunica-Biloxi Reservation and Off-Reservation Trust Land, LA",111.0,,63.0,,111.0,,63.0,,0.0,,12.0,,4315
5136,"Lualualei Hawaiian Home Land, HI",107.0,,111.0,,107.0,,111.0,,0.0,,11.0,,5136
6430,"Eagle ANVSA, AK",24.0,,12.0,,24.0,,12.0,,0.0,,9.0,,6430
6535,"Georgetown ANVSA, AK",0.0,,9.0,,0.0,,9.0,,0.0,,9.0,,6535
2445,"Nez Perce Reservation, ID",18952.0,,312.0,,18589.0,,296.0,,363.0,,76.0,,2445
7275,"Port Lions ANVSA, AK",238.0,,79.0,,234.0,,79.0,,4.0,,5.0,,7275
9230,"Mattaponi (state) Reservation, VA",27.0,,17.0,,26.0,,17.0,,1.0,,2.0,,9230
0115,"Aroostook Band of Micmac Trust Land, ME",300.0,,111.0,,295.0,,112.0,,5.0,,5.0,,0115
7340,"St. George ANVSA, AK",62.0,,22.0,,62.0,,22.0,,0.0,,9.0,,7340
5069,"Kaohe-Olaa Hawaiian Home Land, HI",0.0,,11.0,,0.0,,11.0,,0.0,,11.0,,5069
3460,"San Pasqual Reservation, CA",733.0,,134.0,,613.0,,108.0,,120.0,,65.0,,3460
2460,"Nisqually Reservation, WA",588.0,,187.0,,571.0,,184.0,,17.0,,15.0,,2460
7065,"Nightmute ANVSA, AK",313.0,,73.0,,313.0,,73.0,,0.0,,9.0,,7065
9680,"Echota Cherokee SDTSA, AL",54356.0,,1437.0,,53488.0,,1433.0,,868.0,,278.0,,9680
6545,"Goodnews Bay ANVSA, AK",331.0,,71.0,,331.0,,71.0,,0.0,,9.0,,6545
6975,"Mountain Village ANVSA, AK",760.0,,93.0,,757.0,,94.0,,3.0,,4.0,,6975
5046,"Kalamaula Hawaiian Home Land, HI",341.0,,94.0,,336.0,,92.0,,5.0,,8.0,,5046
0275,"Big Valley Rancheria, CA",158.0,,104.0,,158.0,,104.0,,0.0,,12.0,,0275
3195,"Robinson Rancheria and Off-Reservation Trust Land, CA",197.0,,98.0,,197.0,,98.0,,0.0,,12.0,,3195
5156,"Moloaa Hawaiian Home Land, HI",8.0,,11.0,,8.0,,11.0,,0.0,,11.0,,5156
7270,"Port Heiden ANVSA, AK",69.0,,27.0,,69.0,,27.0,,0.0,,9.0,,7270
4445,"Upper Sioux Community and Off-Reservation Trust Land, MN",159.0,,58.0,,156.0,,58.0,,3.0,,5.0,,4445
1960,"Little River Reservation and Off-Reservation Trust Land, MI",94.0,,52.0,,94.0,,52.0,,0.0,,10.0,,1960
6620,"Igiugig ANVSA, AK",31.0,,20.0,,31.0,,20.0,,0.0,,9.0,,6620
7305,"Red Devil ANVSA, AK",32.0,,19.0,,32.0,,19.0,,0.0,,9.0,,7305
3825,"Skokomish Reservation, WA",662.0,,134.0,,650.0,,132.0,,12.0,,8.0,,3825
3145,"Resighini Rancheria, CA",12.0,,19.0,,12.0,,19.0,,0.0,,12.0,,3145
5098,"Keahuolu Hawaiian Home Land, HI",0.0,,11.0,,0.0,,11.0,,0.0,,11.0,,5098
6735,"King Cove ANVSA, AK",831.0,,173.0,,429.0,,129.0,,402.0,,131.0,,6735
6850,"Lake Minchumina ANVSA, AK",14.0,,13.0,,14.0,,13.0,,0.0,,9.0,,6850
0225,"Big Cypress Reservation, FL",604.0,,120.0,,602.0,,120.0,,2.0,,4.0,,0225
0290,"Bishop Reservation, CA",1796.0,,204.0,,1716.0,,199.0,,80.0,,35.0,,0290
1775,"Kickapoo (TX) Reservation, TX",484.0,,196.0,,469.0,,190.0,,15.0,,15.0,,1775
6015,"Akhiok ANVSA, AK",167.0,,107.0,,165.0,,107.0,,2.0,,4.0,,6015
7125,"Nuiqsut ANVSA, AK",405.0,,100.0,,405.0,,100.0,,0.0,,9.0,,7125
4060,"Susanville Indian Rancheria and Off-Reservation Trust Land, CA",541.0,,136.0,,510.0,,132.0,,31.0,,29.0,,4060
2985,"Prairie Island Indian Community and Off-Reservation Trust Land, MN",250.0,,114.0,,241.0,,110.0,,9.0,,11.0,,2985
4290,"Tulalip Reservation and Off-Reservation Trust Land, WA",10172.0,,435.0,,9596.0,,419.0,,576.0,,199.0,,4290
1505,"Hopi Reservation and Off-Reservation Trust Land, AZ",7654.0,,764.0,,7603.0,,767.0,,51.0,,42.0,,1505
1555,"Immokalee Reservation, FL",133.0,,69.0,,123.0,,66.0,,10.0,,11.0,,1555
4755,"Ysleta del Sur Pueblo and Off-Reservation Trust Land, TX",978.0,,310.0,,798.0,,214.0,,180.0,,161.0,,4755
1560,"Inaja and Cosmit Reservation, CA",0.0,,12.0,,0.0,,12.0,,0.0,,12.0,,1560
3085,"Red Cliff Reservation and Off-Reservation Trust Land, WI",1147.0,,98.0,,1132.0,,99.0,,15.0,,12.0,,3085
1125,"Fond du Lac Reservation and Off-Reservation Trust Land, MN--WI",4183.0,,252.0,,4138.0,,246.0,,45.0,,27.0,,1125
3665,"Seminole (FL) Trust Land, FL",0.0,,14.0,,0.0,,14.0,,0.0,,14.0,,3665
1365,"Grand Ronde Community and Off-Reservation Trust Land, OR",458.0,,127.0,,453.0,,124.0,,5.0,,10.0,,1365
7115,"Northway ANVSA, AK",243.0,,73.0,,242.0,,72.0,,1.0,,4.0,,7115
9880,"Star Muskogee Creek SDTSA, AL",5669.0,,462.0,,5509.0,,449.0,,160.0,,127.0,,9880
4140,"Taos Pueblo and Off-Reservation Trust Land, NM",4958.0,,647.0,,4653.0,,559.0,,305.0,,192.0,,4140
9830,"Nanticoke Indian Tribe SDTSA, DE",7261.0,,569.0,,6727.0,,546.0,,534.0,,128.0,,9830
2505,"Northwestern Shoshone Reservation, UT",0.0,,11.0,,0.0,,11.0,,0.0,,11.0,,2505
5179,"Papakolea Hawaiian Home Land, HI",1070.0,,281.0,,1047.0,,277.0,,23.0,,17.0,,5179
5251,"Wailau Hawaiian Home Land, HI",0.0,,11.0,,0.0,,11.0,,0.0,,11.0,,5251
6250,"Buckland ANVSA, AK",577.0,,79.0,,577.0,,79.0,,0.0,,9.0,,6250
6415,"Dot Lake ANVSA, AK",50.0,,43.0,,48.0,,43.0,,2.0,,3.0,,6415
0680,"Pueblo de Cochiti, NM",1490.0,,166.0,,1440.0,,164.0,,50.0,,23.0,,0680
9350,"Schaghticoke (state) Reservation, CT",9.0,,13.0,,9.0,,13.0,,0.0,,12.0,,9350
7375,"St. Michael ANVSA, AK",385.0,,70.0,,385.0,,70.0,,0.0,,9.0,,7375
6305,"Chignik Lake ANVSA, AK",60.0,,21.0,,60.0,,21.0,,0.0,,9.0,,6305
7580,"Tetlin ANVSA, AK",128.0,,58.0,,128.0,,58.0,,0.0,,9.0,,7580
0095,"Alturas Indian Rancheria, CA",0.0,,12.0,,0.0,,12.0,,0.0,,12.0,,0095
6190,"Beaver ANVSA, AK",98.0,,36.0,,98.0,,36.0,,0.0,,9.0,,6190
7435,"Seldovia ANVSA, AK",497.0,,87.0,,477.0,,88.0,,20.0,,17.0,,7435
3930,"South Fork Reservation and Off-Reservation Trust Land, NV",83.0,,39.0,,83.0,,39.0,,0.0,,13.0,,3930
0415,"Cabazon Reservation, CA",890.0,,166.0,,473.0,,106.0,,417.0,,98.0,,0415
6700,"Karluk ANVSA, AK",17.0,,20.0,,17.0,,20.0,,0.0,,9.0,,6700
2030,"Lower Brule Reservation and Off-Reservation Trust Land, SD",1611.0,,53.0,,1600.0,,54.0,,11.0,,8.0,,2030
5116,"Keoniki Hawaiian Home Land, HI",0.0,,11.0,,0.0,,11.0,,0.0,,11.0,,5116
6030,"Akutan ANVSA, AK",929.0,,255.0,,205.0,,77.0,,724.0,,215.0,,6030
6755,"Kivalina ANVSA, AK",448.0,,74.0,,448.0,,74.0,,0.0,,9.0,,6755
0855,"Crow Creek Reservation, SD",2152.0,,139.0,,2145.0,,139.0,,7.0,,9.0,,0855
1515,"Hopland Rancheria, CA",347.0,,136.0,,343.0,,136.0,,4.0,,5.0,,1515
2490,"Northern Cheyenne Indian Reservation and Off-Reservation Trust Land, MT--SD",4697.0,,328.0,,4673.0,,330.0,,24.0,,17.0,,2490
3000,"Puyallup Reservation and Off-Reservation Trust Land, WA",47972.0,,1195.0,,40365.0,,1062.0,,7607.0,,564.0,,3000
7145,"Ohogamiut ANVSA, AK",0.0,,9.0,,0.0,,9.0,,0.0,,9.0,,7145
9635,"Coharie SDTSA, NC",59711.0,,1394.0,,55827.0,,1308.0,,3884.0,,531.0,,9635
5091,"Kawaihae Hawaiian Home Land, HI",408.0,,104.0,,407.0,,103.0,,1.0,,3.0,,5091
1840,"Laguna Pueblo and Off-Reservation Trust Land, NM",4169.0,,500.0,,4133.0,,490.0,,36.0,,45.0,,1840
2550,"Omaha Reservation, NE--IA",4703.0,,210.0,,4644.0,,211.0,,59.0,,24.0,,2550
3885,"Sokaogon Chippewa Community and Off-Reservation Trust Land, WI",486.0,,109.0,,486.0,,109.0,,0.0,,9.0,,3885
2580,"Ontonagon Reservation, MI",0.0,,10.0,,0.0,,10.0,,0.0,,10.0,,2580
6280,"Chenega ANVSA, AK",84.0,,57.0,,84.0,,57.0,,0.0,,9.0,,6280
6575,"Healy Lake ANVSA, AK",0.0,,9.0,,0.0,,9.0,,0.0,,9.0,,6575
4770,"Zia Pueblo and Off-Reservation Trust Land, NM",899.0,,195.0,,899.0,,195.0,,0.0,,12.0,,4770
1005,"Elko Colony, NV",869.0,,169.0,,826.0,,157.0,,43.0,,32.0,,1005
5188,"Pearl City Hawaiian Home Land, HI",118.0,,164.0,,118.0,,164.0,,0.0,,11.0,,5188
6680,"Kaktovik ANVSA, AK",208.0,,62.0,,206.0,,63.0,,2.0,,3.0,,6680
4455,"Upper Skagit Reservation, WA",309.0,,144.0,,296.0,,141.0,,13.0,,16.0,,4455
2205,"Mescalero Reservation, NM",3885.0,,369.0,,3876.0,,368.0,,9.0,,10.0,,2205
6365,"Copper Center ANVSA, AK",527.0,,106.0,,527.0,,106.0,,0.0,,9.0,,6365
8300,"Ione Band of Miwok TDSA, CA",15.0,,27.0,,15.0,,27.0,,0.0,,12.0,,8300
5770,"Ottawa OTSA, OK",5955.0,,208.0,,5816.0,,205.0,,139.0,,54.0,,5770
5955,"Kiowa-Comanche-Apache-Ft Sill Apache/Caddo-Wichita-Delaware joint-use OTSA, OK",11386.0,,369.0,,11039.0,,365.0,,347.0,,112.0,,5955
3205,"Rocky Boy's Reservation and Off-Reservation Trust Land, MT",3812.0,,188.0,,3784.0,,184.0,,28.0,,25.0,,3205
5271,"Waimanalo Hawaiian Home Land, HI",2916.0,,333.0,,2889.0,,333.0,,27.0,,16.0,,5271
9975,"Wassamasaw SDTSA, SC",1793.0,,328.0,,1774.0,,325.0,,19.0,,14.0,,9975
6740,"King Salmon ANVSA, AK",127.0,,44.0,,127.0,,44.0,,0.0,,9.0,,6740
0775,"Coquille Reservation, OR",559.0,,241.0,,532.0,,229.0,,27.0,,32.0,,0775
1690,"Jena Band of Choctaw Reservation, LA",0.0,,12.0,,0.0,,12.0,,0.0,,12.0,,1690
5199,"Pulehunui Hawaiian Home Land, HI",0.0,,11.0,,0.0,,11.0,,0.0,,11.0,,5199
9967,"Waccamaw SDTSA, SC",55.0,,37.0,,55.0,,37.0,,0.0,,13.0,,9967
4000,"Stillaguamish Reservation and Off-Reservation Trust Land, WA",4.0,,9.0,,4.0,,9.0,,0.0,,12.0,,4000
1150,"Fort Belknap Reservation and Off-Reservation Trust Land, MT",2978.0,,140.0,,2978.0,,140.0,,0.0,,10.0,,1150
6340,"Chulloonawick ANVSA, AK",0.0,,9.0,,0.0,,9.0,,0.0,,9.0,,6340
7470,"Shungnak ANVSA, AK",361.0,,88.0,,361.0,,88.0,,0.0,,9.0,,7470
6035,"Alakanuk ANVSA, AK",675.0,,73.0,,675.0,,73.0,,0.0,,9.0,,6035
6490,"Evansville ANVSA, AK",38.0,,17.0,,38.0,,17.0,,0.0,,9.0,,6490
2075,"Lytton Rancheria, CA",0.0,,12.0,,0.0,,12.0,,0.0,,12.0,,2075
6315,"Chilkoot ANVSA, AK",393.0,,100.0,,373.0,,96.0,,20.0,,13.0,,6315
7220,"Petersburg ANVSA, AK",2357.0,,202.0,,2218.0,,186.0,,139.0,,128.0,,7220
3940,"Spokane Reservation and Off-Reservation Trust Land, WA",1999.0,,202.0,,1975.0,,200.0,,24.0,,21.0,,3940
3955,"Squaxin Island Reservation and Off-Reservation Trust Land, WA",465.0,,132.0,,464.0,,132.0,,1.0,,2.0,,3955
0795,"Coushatta Reservation and Off-Reservation Trust Land, LA",44.0,,32.0,,42.0,,32.0,,2.0,,4.0,,0795
1685,"Jemez Pueblo, NM",1873.0,,205.0,,1867.0,,205.0,,6.0,,8.0,,1685
9963,"Upper South Carolina Pee Dee SDTSA, SC",1678.0,,310.0,,1656.0,,308.0,,22.0,,20.0,,9963
3680,"Shakopee Mdewakanton Sioux Community and Off-Reservation Trust Land, MN",325.0,,92.0,,324.0,,91.0,,1.0,,4.0,,3680
0525,"Catawba Reservation, SC",903.0,,184.0,,872.0,,183.0,,31.0,,33.0,,0525
1100,"Flandreau Reservation, SD",422.0,,112.0,,419.0,,110.0,,3.0,,7.0,,1100
2910,"Port Gamble Reservation and Off-Reservation Trust Land, WA",596.0,,136.0,,590.0,,136.0,,6.0,,7.0,,2910
1575,"Indian Township Reservation, ME",857.0,,108.0,,848.0,,107.0,,9.0,,8.0,,1575
5101,"Kealakehe Hawaiian Home Land, HI",995.0,,224.0,,964.0,,212.0,,31.0,,24.0,,5101
5560,"Cheyenne-Arapaho OTSA, OK",175831.0,,1196.0,,167577.0,,1293.0,,8254.0,,666.0,,5560
6350,"Circle ANVSA, AK",103.0,,43.0,,103.0,,43.0,,0.0,,9.0,,6350
6890,"Lower Kalskag ANVSA, AK",302.0,,53.0,,288.0,,46.0,,14.0,,18.0,,6890
9844,"Pee Dee SDTSA, SC",2461.0,,258.0,,2155.0,,258.0,,306.0,,61.0,,9844
3130,"Reno-Sparks Indian Colony, NV",1059.0,,218.0,,1040.0,,216.0,,19.0,,16.0,,3130
9510,"Adais Caddo SDTSA, LA",2708.0,,339.0,,2617.0,,337.0,,91.0,,62.0,,9510
9960,"United Houma Nation SDTSA, LA",202293.0,,1279.0,,194809.0,,1377.0,,7484.0,,513.0,,9960
5033,"Hoolehua-Palaau Hawaiian Home Land, HI",1249.0,,203.0,,1211.0,,202.0,,38.0,,22.0,,5033
0770,"Coos, Lower Umpqua, and Siuslaw Reservation and Off-Reservation Trust Land, OR",59.0,,42.0,,59.0,,42.0,,0.0,,12.0,,0770
1075,"Fallon Paiute-Shoshone Reservation and Off-Reservation Trust Land, NV",522.0,,161.0,,517.0,,162.0,,5.0,,8.0,,1075
9875,"Santee SDTSA, SC",487.0,,165.0,,478.0,,161.0,,9.0,,15.0,,9875
0510,"Carson Colony, NV",254.0,,94.0,,254.0,,94.0,,0.0,,13.0,,0510
1475,"Hollywood Reservation, FL",1717.0,,260.0,,1340.0,,238.0,,377.0,,87.0,,1475
2535,"Oil Springs Reservation, NY",9.0,,13.0,,0.0,,12.0,,9.0,,13.0,,2535
6040,"Alatna ANVSA, AK",1.0,,2.0,,1.0,,2.0,,0.0,,9.0,,6040
7640,"Tuntutuliak ANVSA, AK",376.0,,58.0,,376.0,,58.0,,0.0,,9.0,,7640
8750,"Samish TDSA, WA",36674.0,,271.0,,34415.0,,337.0,,2259.0,,162.0,,8750
1625,"Isleta Pueblo, NM",3487.0,,467.0,,3430.0,,458.0,,57.0,,36.0,,1625
2100,"Manchester-Point Arena Rancheria, CA",276.0,,94.0,,251.0,,84.0,,25.0,,28.0,,2100
5043,"Kakaina-Kumuhau Hawaiian Home Land, HI",132.0,,204.0,,132.0,,204.0,,0.0,,11.0,,5043
5256,"Wailua Hawaiian Home Land, HI",0.0,,11.0,,0.0,,11.0,,0.0,,11.0,,5256
2685,"Paskenta Rancheria, CA",0.0,,12.0,,0.0,,12.0,,0.0,,12.0,,2685
4785,"Zuni Reservation and Off-Reservation Trust Land, NM--AZ",10942.0,,1157.0,,10895.0,,1158.0,,47.0,,52.0,,4785
5216,"Ualapue Hawaiian Home Land, HI",3.0,,6.0,,3.0,,6.0,,0.0,,11.0,,5216
6590,"Hoonah ANVSA, AK",722.0,,95.0,,710.0,,93.0,,12.0,,10.0,,6590
1800,"Kootenai Reservation and Off-Reservation Trust Land, ID",53.0,,36.0,,50.0,,36.0,,3.0,,4.0,,1800
2015,"Lovelock Indian Colony, NV",90.0,,42.0,,89.0,,43.0,,1.0,,3.0,,2015
7263,"Port Alsworth ANVSA, AK",138.0,,37.0,,126.0,,33.0,,12.0,,13.0,,7263
3280,"Sac and Fox/Meskwaki Settlement and Off-Reservation Trust Land, IA",1260.0,,124.0,,1221.0,,119.0,,39.0,,36.0,,3280
4625,"Winnebago Reservation and Off-Reservation Trust Land, NE--IA",2746.0,,183.0,,2728.0,,185.0,,18.0,,14.0,,4625
6100,"Angoon ANVSA, AK",447.0,,106.0,,433.0,,87.0,,14.0,,30.0,,6100
6845,"Kwinhagak ANVSA, AK",596.0,,71.0,,596.0,,71.0,,0.0,,9.0,,6845
7070,"Nikolai ANVSA, AK",66.0,,24.0,,66.0,,24.0,,0.0,,9.0,,7070
0975,"Duckwater Reservation, NV",178.0,,75.0,,178.0,,75.0,,0.0,,13.0,,0975
2255,"Middletown Rancheria, CA",5.0,,8.0,,3.0,,4.0,,2.0,,5.0,,2255
6080,"Anaktuvuk Pass ANVSA, AK",304.0,,67.0,,304.0,,67.0,,0.0,,9.0,,6080
7255,"Point Lay ANVSA, AK",274.0,,91.0,,274.0,,91.0,,0.0,,9.0,,7255
0760,"Colville Reservation and Off-Reservation Trust Land, WA",7694.0,,560.0,,7474.0,,535.0,,220.0,,111.0,,0760
5690,"Kaw OTSA, OK",5848.0,,225.0,,5796.0,,223.0,,52.0,,24.0,,5690
6730,"Kiana ANVSA, AK",391.0,,63.0,,391.0,,63.0,,0.0,,9.0,,6730
7230,"Pilot Station ANVSA, AK",521.0,,69.0,,521.0,,69.0,,0.0,,9.0,,7230
4235,"Tonto Apache Reservation and Off-Reservation Trust Land, AZ",84.0,,69.0,,81.0,,69.0,,3.0,,4.0,,4235
4665,"Woodfords Community, CA",226.0,,79.0,,222.0,,76.0,,4.0,,6.0,,4665
0440,"Campbell Ranch, NV",471.0,,174.0,,454.0,,169.0,,17.0,,15.0,,0440
6445,"Egegik ANVSA, AK",55.0,,27.0,,44.0,,25.0,,11.0,,20.0,,6445
7605,"Togiak ANVSA, AK",855.0,,102.0,,851.0,,103.0,,4.0,,6.0,,7605
7690,"Unalakleet ANVSA, AK",699.0,,91.0,,699.0,,91.0,,0.0,,9.0,,7690
2570,"Onondaga Nation Reservation, NY",179.0,,134.0,,65.0,,54.0,,114.0,,84.0,,2570
7755,"Wrangell ANVSA, AK",1252.0,,154.0,,1200.0,,157.0,,52.0,,35.0,,7755
2315,"Moapa River Indian Reservation, NV",317.0,,99.0,,307.0,,95.0,,10.0,,10.0,,2315
2820,"Pinoleville Rancheria, CA",160.0,,74.0,,147.0,,72.0,,13.0,,24.0,,2820
7030,"Nenana ANVSA, AK",446.0,,62.0,,445.0,,62.0,,1.0,,3.0,,7030
0110,"Annette Island Reserve, AK",1630.0,,93.0,,1622.0,,94.0,,8.0,,10.0,,0110
9800,"Lenape Indian Tribe of Delaware SDTSA, DE",427.0,,132.0,,425.0,,132.0,,2.0,,4.0,,9800
7495,"Sleetmute ANVSA, AK",85.0,,28.0,,85.0,,28.0,,0.0,,9.0,,7495
5044,"Kalaeloa Hawaiian Home Land, HI",14.0,,23.0,,11.0,,18.0,,3.0,,6.0,,5044
1640,"Jackson Rancheria, CA",0.0,,12.0,,0.0,,12.0,,0.0,,12.0,,1640
5146,"Makuu Hawaiian Home Land, HI",93.0,,43.0,,93.0,,43.0,,0.0,,11.0,,5146
6125,"Anvik ANVSA, AK",99.0,,37.0,,99.0,,37.0,,0.0,,9.0,,6125
6615,"Hydaburg ANVSA, AK",364.0,,84.0,,361.0,,85.0,,3.0,,7.0,,6615
5720,"Kiowa-Comanche-Apache-Fort Sill Apache OTSA, OK",197317.0,,646.0,,187577.0,,1023.0,,9740.0,,767.0,,5720
3340,"Salt River Reservation, AZ",6475.0,,630.0,,6008.0,,558.0,,467.0,,267.0,,3340
4740,"Yomba Reservation, NV",180.0,,129.0,,146.0,,118.0,,34.0,,49.0,,4740
5138,"Maili Hawaiian Home Land, HI",425.0,,354.0,,269.0,,239.0,,156.0,,201.0,,5138
0215,"Big Bend Rancheria, CA",0.0,,12.0,,0.0,,12.0,,0.0,,12.0,,0215
0720,"Cold Springs Rancheria, CA",236.0,,101.0,,236.0,,101.0,,0.0,,12.0,,0720
0780,"Cortina Indian Rancheria, CA",18.0,,18.0,,18.0,,18.0,,0.0,,12.0,,0780
5740,"Modoc OTSA, OK",485.0,,260.0,,485.0,,260.0,,0.0,,10.0,,5740
6175,"Barrow ANVSA, AK",4280.0,,32.0,,3870.0,,93.0,,410.0,,93.0,,6175
6855,"Larsen Bay ANVSA, AK",74.0,,39.0,,74.0,,39.0,,0.0,,9.0,,6855
6995,"Nanwalek ANVSA, AK",253.0,,91.0,,253.0,,91.0,,0.0,,9.0,,6995
0305,"Blackfeet Indian Reservation and Off-Reservation Trust Land, MT",10581.0,,254.0,,10366.0,,262.0,,215.0,,101.0,,0305
6720,"Kenaitze ANVSA, AK",33564.0,,645.0,,32906.0,,656.0,,658.0,,177.0,,6720
6910,"Marshall ANVSA, AK",344.0,,58.0,,344.0,,58.0,,0.0,,9.0,,6910
2145,"Mashantucket Pequot Reservation and Off-Reservation Trust Land, CT",238.0,,104.0,,223.0,,103.0,,15.0,,12.0,,2145
4405,"Umatilla Reservation and Off-Reservation Trust Land, OR",2956.0,,242.0,,2891.0,,240.0,,65.0,,35.0,,4405
6710,"Kasigluk ANVSA, AK",532.0,,69.0,,532.0,,69.0,,0.0,,9.0,,6710
0200,"Berry Creek Rancheria and Off-Reservation Trust Land, CA",208.0,,138.0,,204.0,,138.0,,4.0,,7.0,,0200
2990,"Pueblo of Pojoaque and Off-Reservation Trust Land, NM",3779.0,,210.0,,3535.0,,207.0,,244.0,,63.0,,2990
5640,"Eastern Shawnee OTSA, OK",803.0,,88.0,,798.0,,87.0,,5.0,,4.0,,5640
1460,"Hoh Indian Reservation and Off-Reservation Trust Land, WA",176.0,,93.0,,171.0,,92.0,,5.0,,10.0,,1460
7135,"Nunapitchuk ANVSA, AK",420.0,,69.0,,420.0,,69.0,,0.0,,9.0,,7135
7425,"Scammon Bay ANVSA, AK",484.0,,97.0,,484.0,,97.0,,0.0,,9.0,,7425
7625,"Toksook Bay ANVSA, AK",643.0,,92.0,,643.0,,92.0,,0.0,,9.0,,7625
0635,"Chitimacha Reservation, LA",625.0,,118.0,,601.0,,118.0,,24.0,,21.0,,0635
3370,"Sandia Pueblo, NM",5112.0,,306.0,,4568.0,,300.0,,544.0,,82.0,,3370
1185,"Fort Hall Reservation and Off-Reservation Trust Land, ID",6041.0,,490.0,,5883.0,,471.0,,158.0,,72.0,,1185
7150,"Old Harbor ANVSA, AK",229.0,,90.0,,229.0,,90.0,,0.0,,9.0,,7150
3925,"Southern Ute Reservation, CO",13200.0,,719.0,,12921.0,,716.0,,279.0,,69.0,,3925
7315,"Russian Mission ANVSA, AK",360.0,,58.0,,360.0,,58.0,,0.0,,9.0,,7315
7390,"St. Paul ANVSA, AK",675.0,,134.0,,614.0,,73.0,,61.0,,90.0,,7390
7465,"Shishmaref ANVSA, AK",623.0,,78.0,,623.0,,78.0,,0.0,,9.0,,7465
0360,"Brighton Reservation, FL",705.0,,152.0,,678.0,,151.0,,27.0,,16.0,,0360
2240,"Miccosukee Reservation and Off-Reservation Trust Land, FL",0.0,,14.0,,0.0,,14.0,,0.0,,14.0,,2240
5830,"Seminole OTSA, OK",23419.0,,211.0,,23103.0,,226.0,,316.0,,76.0,,5830
0560,"Celilo Village, OR",66.0,,36.0,,66.0,,36.0,,0.0,,12.0,,0560
1135,"Forest County Potawatomi Community and Off-Reservation Trust Land, WI",674.0,,120.0,,645.0,,120.0,,29.0,,32.0,,1135
1850,"La Jolla Reservation, CA",365.0,,77.0,,364.0,,77.0,,1.0,,3.0,,1850
6630,"Inalik ANVSA, AK",103.0,,48.0,,103.0,,48.0,,0.0,,9.0,,6630
6325,"Chistochina ANVSA, AK",64.0,,35.0,,64.0,,35.0,,0.0,,9.0,,6325
4680,"XL Ranch Rancheria, CA",55.0,,44.0,,50.0,,38.0,,5.0,,8.0,,4680
0705,"Coeur d'Alene Reservation, ID",6749.0,,355.0,,6675.0,,356.0,,74.0,,23.0,,0705
2760,"Penobscot Reservation and Off-Reservation Trust Land, ME",807.0,,140.0,,793.0,,140.0,,14.0,,11.0,,2760
7415,"Savoonga ANVSA, AK",828.0,,97.0,,828.0,,97.0,,0.0,,9.0,,7415
4345,"Turtle Mountain Reservation and Off-Reservation Trust Land, MT--ND--SD",8921.0,,234.0,,8921.0,,234.0,,0.0,,17.0,,4345
0080,"Allegany Reservation, NY",6457.0,,171.0,,6272.0,,182.0,,185.0,,82.0,,0080
2270,"Mille Lacs Reservation and Off-Reservation Trust Land, MN",5189.0,,233.0,,5100.0,,223.0,,89.0,,45.0,,2270
7765,"Yakutat ANVSA, AK",569.0,,89.0,,552.0,,86.0,,17.0,,16.0,,7765
4390,"Uintah and Ouray Reservation and Off-Reservation Trust Land, UT",24839.0,,369.0,,24121.0,,393.0,,718.0,,150.0,,4390
3735,"Sherwood Valley Rancheria and Off-Reservation Trust Land, CA",137.0,,79.0,,124.0,,67.0,,13.0,,20.0,,3735
3855,"Smith River Rancheria and Off-Reservation Trust Land, CA",154.0,,81.0,,152.0,,81.0,,2.0,,3.0,,3855
3095,"Redding Rancheria, CA",52.0,,64.0,,52.0,,64.0,,0.0,,12.0,,3095
7440,"Shageluk ANVSA, AK",74.0,,35.0,,74.0,,35.0,,0.0,,9.0,,7440
1210,"Fort McDermitt Indian Reservation, NV--OR",534.0,,95.0,,525.0,,91.0,,9.0,,13.0,,1210
1700,"Jicarilla Apache Nation Reservation and Off-Reservation Trust Land, NM",3262.0,,293.0,,3216.0,,299.0,,46.0,,28.0,,1700
5276,"Waimanu Hawaiian Home Land, HI",0.0,,11.0,,0.0,,11.0,,0.0,,11.0,,5276
9835,"Nanticoke Lenni Lenape SDTSA, NJ",5824.0,,352.0,,5348.0,,311.0,,476.0,,141.0,,9835
1250,"Fort Peck Indian Reservation and Off-Reservation Trust Land, MT",10085.0,,190.0,,9990.0,,201.0,,95.0,,57.0,,1250
6495,"Eyak ANVSA, AK",110.0,,61.0,,102.0,,62.0,,8.0,,9.0,,6495
7430,"Selawik ANVSA, AK",693.0,,95.0,,693.0,,95.0,,0.0,,9.0,,7430
9550,"Cher-O-Creek SDTSA, AL",83920.0,,805.0,,81934.0,,826.0,,1986.0,,179.0,,9550
3010,"Pyramid Lake Paiute Reservation, NV",1619.0,,224.0,,1543.0,,216.0,,76.0,,48.0,,3010
6945,"Mentasta Lake ANVSA, AK",182.0,,63.0,,182.0,,63.0,,0.0,,9.0,,6945
7665,"Ugashik ANVSA, AK",15.0,,8.0,,15.0,,8.0,,0.0,,9.0,,7665
5088,"Kaupea Hawaiian Home Land, HI",707.0,,170.0,,695.0,,169.0,,12.0,,9.0,,5088
5890,"Wyandotte OTSA, OK",1791.0,,139.0,,1760.0,,138.0,,31.0,,18.0,,5890
7265,"Port Graham ANVSA, AK",129.0,,52.0,,126.0,,51.0,,3.0,,6.0,,7265
2330,"Montgomery Creek Rancheria, CA",0.0,,12.0,,0.0,,12.0,,0.0,,12.0,,2330
3040,"Quinault Reservation, WA",1261.0,,179.0,,1238.0,,179.0,,23.0,,14.0,,3040
3935,"Spirit Lake Reservation, ND",4204.0,,105.0,,4171.0,,110.0,,33.0,,24.0,,3935
3985,"Stewarts Point Rancheria, CA",61.0,,36.0,,61.0,,36.0,,0.0,,12.0,,3985
4095,"Table Bluff Reservation, CA",87.0,,62.0,,83.0,,61.0,,4.0,,9.0,,4095
4200,"Tohono O'odham Nation Reservation and Off-Reservation Trust Land, AZ",9912.0,,927.0,,9665.0,,931.0,,247.0,,90.0,,4200
1065,"Ewiiaapaayp Reservation, CA",0.0,,12.0,,0.0,,12.0,,0.0,,12.0,,1065
6105,"Aniak ANVSA, AK",553.0,,87.0,,550.0,,88.0,,3.0,,5.0,,6105
7260,"Portage Creek ANVSA, AK",0.0,,9.0,,0.0,,9.0,,0.0,,9.0,,7260
4375,"Twenty-Nine Palms Reservation, CA",6.0,,6.0,,6.0,,6.0,,0.0,,12.0,,4375
5915,"Creek/Seminole joint-use OTSA, OK",2024.0,,211.0,,2009.0,,213.0,,15.0,,12.0,,5915
6670,"Kake ANVSA, AK",487.0,,114.0,,482.0,,114.0,,5.0,,7.0,,6670
1170,"Fort Bidwell Reservation and Off-Reservation Trust Land, CA",94.0,,51.0,,94.0,,51.0,,0.0,,12.0,,1170
7080,"Ninilchik ANVSA, AK",14447.0,,454.0,,13976.0,,445.0,,471.0,,83.0,,7080
4045,"Summit Lake Reservation and Off-Reservation Trust Land, NV",0.0,,13.0,,0.0,,13.0,,0.0,,13.0,,4045
3185,"Roaring Creek Rancheria, CA",15.0,,18.0,,15.0,,18.0,,0.0,,12.0,,3185
6840,"Kwigillingok ANVSA, AK",317.0,,61.0,,317.0,,61.0,,0.0,,9.0,,6840
2635,"Pala Reservation, CA",1175.0,,249.0,,936.0,,212.0,,239.0,,82.0,,2635
