B23025_001E,B23025_001EA,B23025_001M,B23025_001MA,B23025_002E,B23025_002EA,B23025_002M,B23025_002MA,B23025_003E,B23025_003EA,B23025_003M,B23025_003MA,B23025_004E,B23025_004EA,B23025_004M,B23025_004MA,B23025_005E,B23025_005EA,B23025_005M,B23025_005MA,B23025_006E,B23025_006EA,B23025_006M,B23025_006MA,B23025_007E,B23025_007EA,B23025_007M,B23025_007MA,NAME,region
44849079.0,,4735.0,,29150275.0,,28948.0,,29089038.0,,28715.0,,26415158.0,,30691.0,,2673880.0,,11390.0,,61237.0,,1549.0,,15698804.0,,28903.0,,Northeast Region,1
53035924.0,,5763.0,,34832732.0,,28137.0,,34734448.0,,27432.0,,31509365.0,,36073.0,,3225083.0,,16143.0,,98284.0,,2168.0,,18203192.0,,26711.0,,Midwest Region,2
91318110.0,,9804.0,,57456819.0,,57145.0,,56868525.0,,53767.0,,51357451.0,,56240.0,,5511074.0,,17340.0,,588294.0,,6551.0,,33861291.0,,53548.0,,South Region,3
56988841.0,,5709.0,,36757751.0,,26184.0,,36421875.0,,24542.0,,32582723.0,,28849.0,,3839152.0,,15348.0,,335876.0,,3852.0,,20231090.0,,25472.0,,West Region,4
