B23025_001E,B23025_001EA,B23025_001M,B23025_001MA,B23025_002E,B23025_002EA,B23025_002M,B23025_002MA,B23025_003E,B23025_003EA,B23025_003M,B23025_003MA,B23025_004E,B23025_004EA,B23025_004M,B23025_004MA,B23025_005E,B23025_005EA,B23025_005M,B23025_005MA,B23025_006E,B23025_006EA,B23025_006M,B23025_006MA,B23025_007E,B23025_007EA,B23025_007M,B23025_007MA,NAME,congressional district,state
530819.0,,1604.0,,319323.0,,2550.0,,316664.0,,2568.0,,286237.0,,2679.0,,30427.0,,1366.0,,2659.0,,369.0,,211496.0,,2660.0,,"Congressional District 3 (113th Congress), New Mexico",03,35
575796.0,,1760.0,,373090.0,,2647.0,,372748.0,,2640.0,,347044.0,,2622.0,,25704.0,,1326.0,,342.0,,115.0,,202706.0,,2621.0,,"Congressional District 1 (113th Congress), New York",01,36
574190.0,,2061.0,,389360.0,,2567.0,,389132.0,,2567.0,,359160.0,,2681.0,,29972.0,,1146.0,,228.0,,101.0,,184830.0,,2285.0,,"Congressional District 2 (113th Congress), New York",02,36
578150.0,,2321.0,,366311.0,,2531.0,,366161.0,,2543.0,,339933.0,,2600.0,,26228.0,,1260.0,,150.0,,63.0,,211839.0,,2487.0,,"Congressional District 3 (113th Congress), New York",03,36
573503.0,,2061.0,,377842.0,,2452.0,,377510.0,,2477.0,,348550.0,,2371.0,,28960.0,,1115.0,,332.0,,158.0,,195661.0,,2467.0,,"Congressional District 4 (113th Congress), New York",04,36
593595.0,,4194.0,,387133.0,,3999.0,,386878.0,,4013.0,,340447.0,,3944.0,,46431.0,,1811.0,,255.0,,142.0,,206462.0,,2640.0,,"Congressional District 5 (113th Congress), New York",05,36
598208.0,,3903.0,,371331.0,,3274.0,,371182.0,,3279.0,,338275.0,,3333.0,,32907.0,,1343.0,,149.0,,85.0,,226877.0,,2795.0,,"Congressional District 6 (113th Congress), New York",06,36
581643.0,,5196.0,,370272.0,,4050.0,,370024.0,,4028.0,,331055.0,,3610.0,,38969.0,,1564.0,,248.0,,115.0,,211371.0,,3464.0,,"Congressional District 7 (113th Congress), New York",07,36
577649.0,,4236.0,,349580.0,,3301.0,,349253.0,,3322.0,,305248.0,,3145.0,,44005.0,,1584.0,,327.0,,143.0,,228069.0,,3091.0,,"Congressional District 8 (113th Congress), New York",08,36
579595.0,,3936.0,,369579.0,,3153.0,,369274.0,,3113.0,,327815.0,,3292.0,,41459.0,,1403.0,,305.0,,136.0,,210016.0,,3122.0,,"Congressional District 9 (113th Congress), New York",09,36
594307.0,,4876.0,,398046.0,,3569.0,,397898.0,,3556.0,,368543.0,,3470.0,,29355.0,,1279.0,,148.0,,116.0,,196261.0,,3399.0,,"Congressional District 10 (113th Congress), New York",10,36
578976.0,,2780.0,,342136.0,,3163.0,,341399.0,,3150.0,,312322.0,,3055.0,,29077.0,,1098.0,,737.0,,161.0,,236840.0,,3033.0,,"Congressional District 11 (113th Congress), New York",11,36
635912.0,,4371.0,,458975.0,,4309.0,,458732.0,,4330.0,,428195.0,,4306.0,,30537.0,,1521.0,,243.0,,111.0,,176937.0,,3239.0,,"Congressional District 12 (113th Congress), New York",12,36
600590.0,,4823.0,,372458.0,,4580.0,,372123.0,,4556.0,,319316.0,,4143.0,,52807.0,,2139.0,,335.0,,206.0,,228132.0,,3469.0,,"Congressional District 13 (113th Congress), New York",13,36
583278.0,,4195.0,,376004.0,,3737.0,,375741.0,,3746.0,,340226.0,,3759.0,,35515.0,,1281.0,,263.0,,168.0,,207274.0,,3151.0,,"Congressional District 14 (113th Congress), New York",14,36
535275.0,,3676.0,,308118.0,,3614.0,,307960.0,,3615.0,,255702.0,,3477.0,,52258.0,,2034.0,,158.0,,100.0,,227157.0,,3050.0,,"Congressional District 15 (113th Congress), New York",15,36
577535.0,,3369.0,,366813.0,,3464.0,,366609.0,,3454.0,,327330.0,,3241.0,,39279.0,,1535.0,,204.0,,112.0,,210722.0,,3035.0,,"Congressional District 16 (113th Congress), New York",16,36
565831.0,,1421.0,,380199.0,,2664.0,,379966.0,,2670.0,,349849.0,,2734.0,,30117.0,,1217.0,,233.0,,103.0,,185632.0,,2524.0,,"Congressional District 17 (113th Congress), New York",17,36
560833.0,,1015.0,,371540.0,,2264.0,,366562.0,,2329.0,,335468.0,,2471.0,,31094.0,,1326.0,,4978.0,,484.0,,189293.0,,2400.0,,"Congressional District 18 (113th Congress), New York",18,36
591580.0,,1047.0,,367563.0,,2414.0,,367023.0,,2423.0,,331902.0,,2695.0,,35121.0,,1198.0,,540.0,,155.0,,224017.0,,2442.0,,"Congressional District 19 (113th Congress), New York",19,36
587544.0,,878.0,,386760.0,,2068.0,,385497.0,,2088.0,,355845.0,,2380.0,,29652.0,,1201.0,,1263.0,,283.0,,200784.0,,2076.0,,"Congressional District 20 (113th Congress), New York",20,36
583478.0,,914.0,,353653.0,,2036.0,,343155.0,,2163.0,,310731.0,,2222.0,,32424.0,,1060.0,,10498.0,,614.0,,229825.0,,1901.0,,"Congressional District 21 (113th Congress), New York",21,36
581281.0,,726.0,,348508.0,,2074.0,,347864.0,,2073.0,,318771.0,,2096.0,,29093.0,,1115.0,,644.0,,148.0,,232773.0,,2072.0,,"Congressional District 22 (113th Congress), New York",22,36
584146.0,,595.0,,350325.0,,2037.0,,350025.0,,2025.0,,322106.0,,2183.0,,27919.0,,1037.0,,300.0,,96.0,,233821.0,,2081.0,,"Congressional District 23 (113th Congress), New York",23,36
576864.0,,667.0,,365177.0,,2200.0,,364385.0,,2202.0,,334822.0,,2366.0,,29563.0,,1102.0,,792.0,,191.0,,211687.0,,2074.0,,"Congressional District 24 (113th Congress), New York",24,36
580906.0,,578.0,,371862.0,,2078.0,,371595.0,,2086.0,,340088.0,,2133.0,,31507.0,,1317.0,,267.0,,108.0,,209044.0,,2161.0,,"Congressional District 25 (113th Congress), New York",25,36
584812.0,,1233.0,,363897.0,,2511.0,,363531.0,,2513.0,,328163.0,,2463.0,,35368.0,,1460.0,,366.0,,110.0,,220915.0,,2678.0,,"Congressional District 26 (113th Congress), New York",26,36
581806.0,,1256.0,,372655.0,,2343.0,,372137.0,,2377.0,,345851.0,,2283.0,,26286.0,,1035.0,,518.0,,169.0,,209151.0,,2319.0,,"Congressional District 27 (113th Congress), New York",27,36
574947.0,,3783.0,,338223.0,,3330.0,,335231.0,,3240.0,,285393.0,,2922.0,,49838.0,,1787.0,,2992.0,,423.0,,236724.0,,3249.0,,"Congressional District 1 (113th Congress), North Carolina",01,37
572160.0,,2185.0,,372154.0,,2633.0,,345290.0,,2708.0,,308479.0,,2895.0,,36811.0,,1377.0,,26864.0,,1038.0,,200006.0,,2329.0,,"Congressional District 2 (113th Congress), North Carolina",02,37
598167.0,,2488.0,,384253.0,,2791.0,,345079.0,,2952.0,,306428.0,,2896.0,,38651.0,,1579.0,,39174.0,,1112.0,,213914.0,,2543.0,,"Congressional District 3 (113th Congress), North Carolina",03,37
590417.0,,3213.0,,399419.0,,3142.0,,388492.0,,3182.0,,349826.0,,3257.0,,38666.0,,1691.0,,10927.0,,721.0,,190998.0,,2996.0,,"Congressional District 4 (113th Congress), North Carolina",04,37
596123.0,,2293.0,,369821.0,,3116.0,,369288.0,,3127.0,,331675.0,,3419.0,,37613.0,,1583.0,,533.0,,179.0,,226302.0,,2605.0,,"Congressional District 5 (113th Congress), North Carolina",05,37
603542.0,,2651.0,,378450.0,,2631.0,,377957.0,,2656.0,,342420.0,,2862.0,,35537.0,,1236.0,,493.0,,166.0,,225092.0,,2486.0,,"Congressional District 6 (113th Congress), North Carolina",06,37
589117.0,,1822.0,,362407.0,,2688.0,,360522.0,,2626.0,,319707.0,,2677.0,,40815.0,,1784.0,,1885.0,,352.0,,226710.0,,2420.0,,"Congressional District 7 (113th Congress), North Carolina",07,37
573335.0,,2511.0,,347101.0,,2896.0,,346474.0,,2898.0,,301080.0,,3006.0,,45394.0,,1355.0,,627.0,,210.0,,226234.0,,2824.0,,"Congressional District 8 (113th Congress), North Carolina",08,37
576417.0,,2861.0,,408614.0,,3088.0,,408288.0,,3120.0,,373549.0,,2823.0,,34739.0,,1581.0,,326.0,,116.0,,167803.0,,2580.0,,"Congressional District 9 (113th Congress), North Carolina",09,37
587346.0,,2173.0,,366891.0,,2552.0,,366442.0,,2513.0,,321580.0,,2431.0,,44862.0,,1586.0,,449.0,,299.0,,220455.0,,2560.0,,"Congressional District 10 (113th Congress), North Carolina",10,37
605480.0,,2016.0,,337786.0,,3089.0,,337300.0,,3119.0,,301565.0,,3192.0,,35735.0,,1487.0,,486.0,,152.0,,267694.0,,2521.0,,"Congressional District 11 (113th Congress), North Carolina",11,37
575702.0,,4013.0,,387733.0,,3591.0,,387101.0,,3559.0,,330725.0,,3215.0,,56376.0,,1725.0,,632.0,,232.0,,187969.0,,2887.0,,"Congressional District 12 (113th Congress), North Carolina",12,37
579477.0,,3240.0,,397288.0,,3326.0,,394943.0,,3426.0,,362550.0,,3462.0,,32393.0,,1429.0,,2345.0,,367.0,,182189.0,,2448.0,,"Congressional District 13 (113th Congress), North Carolina",13,37
553026.0,,477.0,,389669.0,,1562.0,,384229.0,,1657.0,,371612.0,,1909.0,,12617.0,,735.0,,5440.0,,325.0,,163357.0,,1581.0,,"Congressional District (at Large) (113th Congress), North Dakota",00,38
560836.0,,1586.0,,368155.0,,2163.0,,367819.0,,2160.0,,330308.0,,2352.0,,37511.0,,1276.0,,336.0,,139.0,,192681.0,,2308.0,,"Congressional District 1 (113th Congress), Ohio",01,39
572643.0,,1714.0,,365989.0,,2588.0,,365660.0,,2575.0,,330412.0,,2610.0,,35248.0,,1264.0,,329.0,,133.0,,206654.0,,2460.0,,"Congressional District 2 (113th Congress), Ohio",02,39
561742.0,,2741.0,,380399.0,,3110.0,,379942.0,,3113.0,,337802.0,,2881.0,,42140.0,,1496.0,,457.0,,147.0,,181343.0,,2534.0,,"Congressional District 3 (113th Congress), Ohio",03,39
569477.0,,1079.0,,355406.0,,2000.0,,355045.0,,2007.0,,319821.0,,2287.0,,35224.0,,1255.0,,361.0,,118.0,,214071.0,,2084.0,,"Congressional District 4 (113th Congress), Ohio",04,39
574892.0,,1262.0,,379783.0,,2068.0,,379463.0,,2095.0,,344072.0,,2255.0,,35391.0,,1260.0,,320.0,,130.0,,195109.0,,1947.0,,"Congressional District 5 (113th Congress), Ohio",05,39
581071.0,,1056.0,,327266.0,,2168.0,,327108.0,,2168.0,,294903.0,,2434.0,,32205.0,,1167.0,,158.0,,67.0,,253805.0,,2309.0,,"Congressional District 6 (113th Congress), Ohio",06,39
567822.0,,1475.0,,361409.0,,2068.0,,361142.0,,2080.0,,326989.0,,2210.0,,34153.0,,1347.0,,267.0,,93.0,,206413.0,,2037.0,,"Congressional District 7 (113th Congress), Ohio",07,39
565567.0,,638.0,,367082.0,,2335.0,,366598.0,,2318.0,,331981.0,,2324.0,,34617.0,,1393.0,,484.0,,168.0,,198485.0,,2293.0,,"Congressional District 8 (113th Congress), Ohio",08,39
571634.0,,1780.0,,366780.0,,3021.0,,366443.0,,3017.0,,318352.0,,2759.0,,48091.0,,1709.0,,337.0,,105.0,,204854.0,,2718.0,,"Congressional District 9 (113th Congress), Ohio",09,39
579182.0,,600.0,,362751.0,,1978.0,,357955.0,,1947.0,,319292.0,,2238.0,,38663.0,,1490.0,,4796.0,,480.0,,216431.0,,2011.0,,"Congressional District 10 (113th Congress), Ohio",10,39
566483.0,,2084.0,,342578.0,,2523.0,,342444.0,,2528.0,,286144.0,,2627.0,,56300.0,,1610.0,,134.0,,70.0,,223905.0,,2161.0,,"Congressional District 11 (113th Congress), Ohio",11,39
571371.0,,2508.0,,385976.0,,2522.0,,385495.0,,2532.0,,360329.0,,2675.0,,25166.0,,1007.0,,481.0,,154.0,,185395.0,,2479.0,,"Congressional District 12 (113th Congress), Ohio",12,39
590103.0,,1995.0,,364425.0,,2471.0,,363958.0,,2465.0,,322582.0,,2519.0,,41376.0,,1568.0,,467.0,,182.0,,225678.0,,2302.0,,"Congressional District 13 (113th Congress), Ohio",13,39
575964.0,,1273.0,,376379.0,,2267.0,,376095.0,,2278.0,,347654.0,,2335.0,,28441.0,,1050.0,,284.0,,102.0,,199585.0,,2097.0,,"Congressional District 14 (113th Congress), Ohio",14,39
583655.0,,2148.0,,372756.0,,2619.0,,372187.0,,2642.0,,341614.0,,2553.0,,30573.0,,1088.0,,569.0,,190.0,,210899.0,,2691.0,,"Congressional District 15 (113th Congress), Ohio",15,39
578042.0,,1825.0,,382382.0,,2262.0,,381985.0,,2242.0,,354131.0,,2183.0,,27854.0,,1283.0,,397.0,,125.0,,195660.0,,2092.0,,"Congressional District 16 (113th Congress), Ohio",16,39
585960.0,,775.0,,388005.0,,2016.0,,387410.0,,2026.0,,360172.0,,1979.0,,27238.0,,926.0,,595.0,,148.0,,197955.0,,1953.0,,"Congressional District 1 (113th Congress), Oklahoma",01,40
588487.0,,645.0,,324221.0,,1839.0,,323826.0,,1836.0,,294670.0,,1949.0,,29156.0,,942.0,,395.0,,123.0,,264266.0,,1902.0,,"Congressional District 2 (113th Congress), Oklahoma",02,40
591603.0,,702.0,,363209.0,,1916.0,,360270.0,,1913.0,,337942.0,,2123.0,,22328.0,,953.0,,2939.0,,410.0,,228394.0,,1933.0,,"Congressional District 3 (113th Congress), Oklahoma",03,40
595155.0,,1061.0,,377940.0,,2163.0,,363650.0,,2286.0,,340696.0,,2309.0,,22954.0,,956.0,,14290.0,,685.0,,217215.0,,2103.0,,"Congressional District 4 (113th Congress), Oklahoma",04,40
589578.0,,1046.0,,380991.0,,2505.0,,379090.0,,2552.0,,352924.0,,2654.0,,26166.0,,1254.0,,1901.0,,343.0,,208587.0,,2484.0,,"Congressional District 5 (113th Congress), Oklahoma",05,40
611295.0,,1166.0,,416239.0,,2173.0,,415326.0,,2196.0,,374454.0,,2450.0,,40872.0,,1359.0,,913.0,,235.0,,195056.0,,1949.0,,"Congressional District 1 (113th Congress), Oregon",01,41
617210.0,,980.0,,364012.0,,2579.0,,363383.0,,2594.0,,318109.0,,2994.0,,45274.0,,1544.0,,629.0,,203.0,,253198.0,,2537.0,,"Congressional District 2 (113th Congress), Oregon",02,41
633915.0,,1956.0,,433415.0,,2460.0,,433071.0,,2485.0,,386650.0,,2306.0,,46421.0,,1685.0,,344.0,,141.0,,200500.0,,2525.0,,"Congressional District 3 (113th Congress), Oregon",03,41
634156.0,,829.0,,362555.0,,2607.0,,361799.0,,2593.0,,317866.0,,2684.0,,43933.0,,1447.0,,756.0,,177.0,,271601.0,,2651.0,,"Congressional District 4 (113th Congress), Oregon",04,41
609450.0,,1729.0,,385066.0,,2810.0,,384506.0,,2777.0,,339815.0,,3034.0,,44691.0,,1731.0,,560.0,,190.0,,224384.0,,2722.0,,"Congressional District 5 (113th Congress), Oregon",05,41
556005.0,,3625.0,,341697.0,,3464.0,,341456.0,,3444.0,,290690.0,,3205.0,,50766.0,,1950.0,,241.0,,95.0,,214308.0,,2889.0,,"Congressional District 1 (113th Congress), Pennsylvania",01,42
581993.0,,3779.0,,331618.0,,3639.0,,331454.0,,3614.0,,283317.0,,3261.0,,48137.0,,1938.0,,164.0,,104.0,,250375.0,,3503.0,,"Congressional District 2 (113th Congress), Pennsylvania",02,42
569904.0,,861.0,,346225.0,,2153.0,,345939.0,,2168.0,,316394.0,,2184.0,,29545.0,,1146.0,,286.0,,108.0,,223679.0,,2239.0,,"Congressional District 3 (113th Congress), Pennsylvania",03,42
567412.0,,839.0,,378628.0,,1898.0,,377900.0,,1911.0,,346801.0,,2278.0,,31099.0,,1142.0,,728.0,,162.0,,188784.0,,2028.0,,"Congressional District 4 (113th Congress), Pennsylvania",04,42
586533.0,,920.0,,340514.0,,2154.0,,340117.0,,2176.0,,313553.0,,2162.0,,26564.0,,896.0,,397.0,,123.0,,246019.0,,2219.0,,"Congressional District 5 (113th Congress), Pennsylvania",05,42
565658.0,,1525.0,,388998.0,,2392.0,,388639.0,,2401.0,,361885.0,,2241.0,,26754.0,,996.0,,359.0,,128.0,,176660.0,,2316.0,,"Congressional District 6 (113th Congress), Pennsylvania",06,42
566383.0,,1983.0,,375693.0,,2453.0,,375330.0,,2420.0,,349080.0,,2457.0,,26250.0,,1104.0,,363.0,,138.0,,190690.0,,1994.0,,"Congressional District 7 (113th Congress), Pennsylvania",07,42
567874.0,,692.0,,394268.0,,1800.0,,393781.0,,1806.0,,362775.0,,2025.0,,31006.0,,1050.0,,487.0,,140.0,,173606.0,,1778.0,,"Congressional District 8 (113th Congress), Pennsylvania",08,42
574791.0,,890.0,,335380.0,,2028.0,,335112.0,,2043.0,,306453.0,,2037.0,,28659.0,,1164.0,,268.0,,122.0,,239411.0,,2009.0,,"Congressional District 9 (113th Congress), Pennsylvania",09,42
575845.0,,1588.0,,344499.0,,2326.0,,344163.0,,2334.0,,313717.0,,2252.0,,30446.0,,1117.0,,336.0,,106.0,,231346.0,,1988.0,,"Congressional District 10 (113th Congress), Pennsylvania",10,42
578973.0,,1188.0,,362131.0,,2056.0,,361274.0,,2061.0,,333404.0,,2068.0,,27870.0,,928.0,,857.0,,201.0,,216842.0,,2063.0,,"Congressional District 11 (113th Congress), Pennsylvania",11,42
579005.0,,1166.0,,357882.0,,2211.0,,357466.0,,2213.0,,332866.0,,2054.0,,24600.0,,1011.0,,416.0,,136.0,,221123.0,,2143.0,,"Congressional District 12 (113th Congress), Pennsylvania",12,42
566981.0,,3492.0,,376556.0,,3846.0,,376139.0,,3835.0,,336585.0,,3568.0,,39554.0,,1436.0,,417.0,,148.0,,190425.0,,2619.0,,"Congressional District 13 (113th Congress), Pennsylvania",13,42
594281.0,,1394.0,,371419.0,,2149.0,,371158.0,,2139.0,,335511.0,,2027.0,,35647.0,,1199.0,,261.0,,103.0,,222862.0,,2214.0,,"Congressional District 14 (113th Congress), Pennsylvania",14,42
572603.0,,1145.0,,373714.0,,2398.0,,373136.0,,2421.0,,340344.0,,2518.0,,32792.0,,1399.0,,578.0,,162.0,,198889.0,,2284.0,,"Congressional District 15 (113th Congress), Pennsylvania",15,42
550161.0,,1173.0,,365060.0,,2113.0,,364666.0,,2115.0,,331335.0,,2182.0,,33331.0,,1287.0,,394.0,,141.0,,185101.0,,1904.0,,"Congressional District 16 (113th Congress), Pennsylvania",16,42
573848.0,,1737.0,,349663.0,,2497.0,,349254.0,,2497.0,,314960.0,,2321.0,,34294.0,,1523.0,,409.0,,128.0,,224185.0,,2512.0,,"Congressional District 17 (113th Congress), Pennsylvania",17,42
582154.0,,1525.0,,369816.0,,2282.0,,369425.0,,2279.0,,345206.0,,2354.0,,24219.0,,1089.0,,391.0,,130.0,,212338.0,,2165.0,,"Congressional District 18 (113th Congress), Pennsylvania",18,42
428234.0,,1635.0,,280961.0,,2074.0,,278558.0,,2118.0,,250542.0,,2235.0,,28016.0,,1393.0,,2403.0,,283.0,,147273.0,,1898.0,,"Congressional District 1 (113th Congress), Rhode Island",01,44
431151.0,,1627.0,,288214.0,,2584.0,,287432.0,,2610.0,,259323.0,,2798.0,,28109.0,,1202.0,,782.0,,226.0,,142937.0,,2434.0,,"Congressional District 2 (113th Congress), Rhode Island",02,44
543294.0,,2522.0,,359752.0,,2817.0,,349038.0,,2835.0,,317011.0,,3070.0,,32027.0,,1691.0,,10714.0,,820.0,,183542.0,,2715.0,,"Congressional District 1 (113th Congress), South Carolina",01,45
526563.0,,2154.0,,349104.0,,2537.0,,336996.0,,2447.0,,305942.0,,2623.0,,31054.0,,1406.0,,12108.0,,787.0,,177459.0,,2277.0,,"Congressional District 2 (113th Congress), South Carolina",02,45
532390.0,,1504.0,,307351.0,,2580.0,,306892.0,,2606.0,,269643.0,,2739.0,,37249.0,,1540.0,,459.0,,166.0,,225039.0,,2703.0,,"Congressional District 3 (113th Congress), South Carolina",03,45
541803.0,,796.0,,319715.0,,2502.0,,318226.0,,2455.0,,280683.0,,2507.0,,37543.0,,1471.0,,1489.0,,305.0,,222088.0,,2571.0,,"Congressional District 1 (113th Congress), Alabama",01,01
542061.0,,1338.0,,322712.0,,2498.0,,315538.0,,2485.0,,285351.0,,2664.0,,30187.0,,1233.0,,7174.0,,445.0,,219349.0,,2240.0,,"Congressional District 2 (113th Congress), Alabama",02,01
549015.0,,1221.0,,320008.0,,2643.0,,316963.0,,2553.0,,279201.0,,2833.0,,37762.0,,1438.0,,3045.0,,395.0,,229007.0,,2612.0,,"Congressional District 3 (113th Congress), Alabama",03,01
542587.0,,1431.0,,302001.0,,2636.0,,301514.0,,2672.0,,269312.0,,2477.0,,32202.0,,1287.0,,487.0,,192.0,,240586.0,,2518.0,,"Congressional District 4 (113th Congress), Alabama",04,01
550086.0,,488.0,,345484.0,,2409.0,,343486.0,,2420.0,,308672.0,,2476.0,,34814.0,,1357.0,,1998.0,,395.0,,204602.0,,2504.0,,"Congressional District 5 (113th Congress), Alabama",05,01
539923.0,,2142.0,,345499.0,,2558.0,,344911.0,,2553.0,,319101.0,,2564.0,,25810.0,,1028.0,,588.0,,150.0,,194424.0,,2260.0,,"Congressional District 6 (113th Congress), Alabama",06,01
540959.0,,2630.0,,303925.0,,2773.0,,303455.0,,2805.0,,259843.0,,2541.0,,43612.0,,1637.0,,470.0,,163.0,,237034.0,,2581.0,,"Congressional District 7 (113th Congress), Alabama",07,01
553214.0,,488.0,,393037.0,,1830.0,,376305.0,,1904.0,,343366.0,,2206.0,,32939.0,,1216.0,,16732.0,,698.0,,160177.0,,1889.0,,"Congressional District (at Large) (113th Congress), Alaska",00,02
553588.0,,2783.0,,304401.0,,3029.0,,303892.0,,3088.0,,265752.0,,2892.0,,38140.0,,1428.0,,509.0,,140.0,,249187.0,,3244.0,,"Congressional District 1 (113th Congress), Arizona",01,04
582214.0,,2640.0,,342502.0,,2769.0,,334134.0,,2756.0,,302481.0,,2765.0,,31653.0,,1528.0,,8368.0,,568.0,,239712.0,,2529.0,,"Congressional District 2 (113th Congress), Arizona",02,04
528609.0,,3957.0,,325743.0,,3374.0,,323827.0,,3429.0,,279985.0,,3195.0,,43842.0,,1907.0,,1916.0,,331.0,,202866.0,,3193.0,,"Congressional District 3 (113th Congress), Arizona",03,04
578183.0,,2603.0,,288781.0,,3517.0,,285358.0,,3521.0,,250984.0,,3562.0,,34374.0,,1463.0,,3423.0,,479.0,,289402.0,,3412.0,,"Congressional District 4 (113th Congress), Arizona",04,04
552107.0,,3200.0,,355315.0,,3271.0,,354911.0,,3326.0,,327400.0,,3412.0,,27511.0,,1233.0,,404.0,,167.0,,196792.0,,2979.0,,"Congressional District 5 (113th Congress), Arizona",05,04
587091.0,,3150.0,,390076.0,,3291.0,,389799.0,,3295.0,,358263.0,,3097.0,,31536.0,,1640.0,,277.0,,119.0,,197015.0,,2766.0,,"Congressional District 6 (113th Congress), Arizona",06,04
511703.0,,3695.0,,310774.0,,3344.0,,310490.0,,3364.0,,268239.0,,3529.0,,42251.0,,1821.0,,284.0,,110.0,,200929.0,,3345.0,,"Congressional District 7 (113th Congress), Arizona",07,04
565800.0,,3697.0,,332499.0,,3580.0,,329819.0,,3637.0,,300657.0,,3678.0,,29162.0,,1348.0,,2680.0,,422.0,,233301.0,,3121.0,,"Congressional District 8 (113th Congress), Arizona",08,04
580416.0,,4122.0,,406417.0,,3958.0,,405996.0,,3962.0,,368105.0,,3761.0,,37891.0,,1661.0,,421.0,,145.0,,173999.0,,2473.0,,"Congressional District 9 (113th Congress), Arizona",09,04
573672.0,,642.0,,319765.0,,2339.0,,318356.0,,2401.0,,284637.0,,2363.0,,33719.0,,1379.0,,1409.0,,247.0,,253907.0,,2281.0,,"Congressional District 1 (113th Congress), Arkansas",01,05
580373.0,,642.0,,370343.0,,2597.0,,366782.0,,2636.0,,337201.0,,2617.0,,29581.0,,1357.0,,3561.0,,402.0,,210030.0,,2570.0,,"Congressional District 2 (113th Congress), Arkansas",02,05
571653.0,,1189.0,,358095.0,,2370.0,,357263.0,,2327.0,,332205.0,,2338.0,,25058.0,,1350.0,,832.0,,295.0,,213558.0,,2340.0,,"Congressional District 3 (113th Congress), Arkansas",03,05
575745.0,,1198.0,,324772.0,,2536.0,,324266.0,,2559.0,,291389.0,,2777.0,,32877.0,,1414.0,,506.0,,141.0,,250973.0,,2515.0,,"Congressional District 4 (113th Congress), Arkansas",04,05
576141.0,,1096.0,,311265.0,,2332.0,,310612.0,,2322.0,,268852.0,,2670.0,,41760.0,,1498.0,,653.0,,189.0,,264876.0,,2728.0,,"Congressional District 1 (113th Congress), California",01,06
576436.0,,1629.0,,360313.0,,2414.0,,359426.0,,2438.0,,325609.0,,2451.0,,33817.0,,1281.0,,887.0,,224.0,,216123.0,,2461.0,,"Congressional District 2 (113th Congress), California",02,06
553714.0,,1538.0,,341011.0,,2397.0,,332436.0,,2398.0,,290954.0,,2636.0,,41482.0,,1339.0,,8575.0,,744.0,,212703.0,,2719.0,,"Congressional District 3 (113th Congress), California",03,06
568506.0,,1708.0,,340892.0,,2684.0,,340028.0,,2672.0,,300357.0,,2889.0,,39671.0,,1387.0,,864.0,,199.0,,227614.0,,2662.0,,"Congressional District 4 (113th Congress), California",04,06
571449.0,,2278.0,,373332.0,,2494.0,,372711.0,,2506.0,,330568.0,,2611.0,,42143.0,,1553.0,,621.0,,194.0,,198117.0,,2447.0,,"Congressional District 5 (113th Congress), California",05,06
548350.0,,2312.0,,348005.0,,2871.0,,347323.0,,2858.0,,297042.0,,2903.0,,50281.0,,1790.0,,682.0,,216.0,,200345.0,,2732.0,,"Congressional District 6 (113th Congress), California",06,06
556121.0,,2197.0,,356959.0,,2585.0,,356287.0,,2552.0,,310586.0,,2401.0,,45701.0,,1857.0,,672.0,,185.0,,199162.0,,2353.0,,"Congressional District 7 (113th Congress), California",07,06
525984.0,,3138.0,,300922.0,,3642.0,,288658.0,,3394.0,,243556.0,,3506.0,,45102.0,,1793.0,,12264.0,,793.0,,225062.0,,2846.0,,"Congressional District 8 (113th Congress), California",08,06
536306.0,,2422.0,,333047.0,,2859.0,,332751.0,,2849.0,,280635.0,,2778.0,,52116.0,,1870.0,,296.0,,125.0,,203259.0,,2922.0,,"Congressional District 9 (113th Congress), California",09,06
529106.0,,1515.0,,338497.0,,2497.0,,338279.0,,2505.0,,284237.0,,2991.0,,54042.0,,1833.0,,218.0,,114.0,,190609.0,,2460.0,,"Congressional District 10 (113th Congress), California",10,06
565990.0,,2044.0,,366825.0,,2579.0,,366402.0,,2598.0,,328479.0,,2512.0,,37923.0,,1560.0,,423.0,,136.0,,199165.0,,2603.0,,"Congressional District 11 (113th Congress), California",11,06
627976.0,,2150.0,,438814.0,,2912.0,,438589.0,,2924.0,,403669.0,,3161.0,,34920.0,,1546.0,,225.0,,112.0,,189162.0,,2458.0,,"Congressional District 12 (113th Congress), California",12,06
587898.0,,1519.0,,386588.0,,2798.0,,385390.0,,2749.0,,342924.0,,2801.0,,42466.0,,1671.0,,1198.0,,213.0,,201310.0,,2855.0,,"Congressional District 13 (113th Congress), California",13,06
583095.0,,2150.0,,399359.0,,2706.0,,399110.0,,2699.0,,364711.0,,2628.0,,34399.0,,1275.0,,249.0,,128.0,,183736.0,,2661.0,,"Congressional District 14 (113th Congress), California",14,06
556854.0,,1987.0,,376771.0,,2727.0,,376302.0,,2752.0,,339604.0,,2632.0,,36698.0,,1384.0,,469.0,,169.0,,180083.0,,2683.0,,"Congressional District 15 (113th Congress), California",15,06
509626.0,,2771.0,,294742.0,,2808.0,,294446.0,,2838.0,,245487.0,,2848.0,,48959.0,,1772.0,,296.0,,125.0,,214884.0,,3172.0,,"Congressional District 16 (113th Congress), California",16,06
566545.0,,2198.0,,378426.0,,2831.0,,378158.0,,2818.0,,344385.0,,2707.0,,33773.0,,1293.0,,268.0,,153.0,,188119.0,,2679.0,,"Congressional District 17 (113th Congress), California",17,06
571123.0,,3063.0,,382167.0,,2911.0,,381939.0,,2927.0,,352921.0,,3051.0,,29018.0,,1242.0,,228.0,,112.0,,188956.0,,2532.0,,"Congressional District 18 (113th Congress), California",18,06
553944.0,,3023.0,,376552.0,,3548.0,,376468.0,,3538.0,,333395.0,,3352.0,,43073.0,,1371.0,,84.0,,58.0,,177392.0,,2347.0,,"Congressional District 19 (113th Congress), California",19,06
551358.0,,1304.0,,353268.0,,2586.0,,346961.0,,2590.0,,308957.0,,2832.0,,38004.0,,1641.0,,6307.0,,575.0,,198090.0,,2367.0,,"Congressional District 20 (113th Congress), California",20,06
502647.0,,2935.0,,291632.0,,2661.0,,286958.0,,2810.0,,241338.0,,2583.0,,45620.0,,1442.0,,4674.0,,623.0,,211015.0,,2780.0,,"Congressional District 21 (113th Congress), California",21,06
531316.0,,3145.0,,340564.0,,3105.0,,339900.0,,3128.0,,295794.0,,2945.0,,44106.0,,1723.0,,664.0,,210.0,,190752.0,,2800.0,,"Congressional District 22 (113th Congress), California",22,06
536704.0,,3094.0,,321754.0,,3298.0,,319423.0,,3291.0,,279524.0,,3213.0,,39899.0,,1757.0,,2331.0,,672.0,,214950.0,,2771.0,,"Congressional District 23 (113th Congress), California",23,06
576810.0,,799.0,,359861.0,,2352.0,,356972.0,,2410.0,,324446.0,,2415.0,,32526.0,,1285.0,,2889.0,,993.0,,216949.0,,2350.0,,"Congressional District 24 (113th Congress), California",24,06
535073.0,,3948.0,,344841.0,,3596.0,,344411.0,,3581.0,,305669.0,,3658.0,,38742.0,,1404.0,,430.0,,160.0,,190232.0,,3089.0,,"Congressional District 25 (113th Congress), California",25,06
547571.0,,1391.0,,365920.0,,2546.0,,361780.0,,2595.0,,326619.0,,2570.0,,35161.0,,1255.0,,4140.0,,600.0,,181651.0,,2336.0,,"Congressional District 26 (113th Congress), California",26,06
586383.0,,2627.0,,369987.0,,2869.0,,369809.0,,2858.0,,336433.0,,3019.0,,33376.0,,1249.0,,178.0,,65.0,,216396.0,,2766.0,,"Congressional District 27 (113th Congress), California",27,06
603779.0,,3546.0,,412365.0,,3506.0,,412220.0,,3497.0,,366133.0,,3434.0,,46087.0,,1505.0,,145.0,,91.0,,191414.0,,2528.0,,"Congressional District 28 (113th Congress), California",28,06
540298.0,,3862.0,,364833.0,,3260.0,,364649.0,,3261.0,,315898.0,,2925.0,,48751.0,,1562.0,,184.0,,98.0,,175465.0,,2708.0,,"Congressional District 29 (113th Congress), California",29,06
589144.0,,4296.0,,397938.0,,3545.0,,397663.0,,3547.0,,357742.0,,3452.0,,39921.0,,1360.0,,275.0,,150.0,,191206.0,,3213.0,,"Congressional District 30 (113th Congress), California",30,06
534747.0,,3532.0,,335177.0,,3572.0,,334866.0,,3563.0,,289095.0,,3561.0,,45771.0,,1613.0,,311.0,,128.0,,199570.0,,2984.0,,"Congressional District 31 (113th Congress), California",31,06
551743.0,,2943.0,,350456.0,,2900.0,,350197.0,,2907.0,,307846.0,,2821.0,,42351.0,,1454.0,,259.0,,90.0,,201287.0,,2649.0,,"Congressional District 32 (113th Congress), California",32,06
591785.0,,3451.0,,395279.0,,3186.0,,394824.0,,3175.0,,361804.0,,3146.0,,33020.0,,1202.0,,455.0,,165.0,,196506.0,,2558.0,,"Congressional District 33 (113th Congress), California",33,06
564255.0,,3802.0,,366564.0,,3049.0,,366398.0,,3059.0,,317182.0,,3108.0,,49216.0,,1689.0,,166.0,,107.0,,197691.0,,2993.0,,"Congressional District 34 (113th Congress), California",34,06
533615.0,,2870.0,,342231.0,,3389.0,,342068.0,,3360.0,,292228.0,,2818.0,,49840.0,,1737.0,,163.0,,101.0,,191384.0,,2779.0,,"Congressional District 35 (113th Congress), California",35,06
549524.0,,2881.0,,304049.0,,2921.0,,303615.0,,2936.0,,256418.0,,3013.0,,47197.0,,1740.0,,434.0,,170.0,,245475.0,,2705.0,,"Congressional District 36 (113th Congress), California",36,06
579122.0,,4195.0,,380911.0,,3593.0,,380722.0,,3611.0,,337204.0,,3044.0,,43518.0,,1390.0,,189.0,,111.0,,198211.0,,2752.0,,"Congressional District 37 (113th Congress), California",37,06
555777.0,,2616.0,,347841.0,,2537.0,,347601.0,,2521.0,,313517.0,,2834.0,,34084.0,,1384.0,,240.0,,118.0,,207936.0,,2998.0,,"Congressional District 38 (113th Congress), California",38,06
568896.0,,2314.0,,372736.0,,2701.0,,372513.0,,2681.0,,337808.0,,2630.0,,34705.0,,1349.0,,223.0,,83.0,,196160.0,,2741.0,,"Congressional District 39 (113th Congress), California",39,06
510633.0,,3188.0,,323126.0,,3214.0,,322971.0,,3212.0,,282196.0,,3126.0,,40775.0,,1598.0,,155.0,,109.0,,187507.0,,2616.0,,"Congressional District 40 (113th Congress), California",40,06
531321.0,,2891.0,,338167.0,,2645.0,,337673.0,,2638.0,,282480.0,,2810.0,,55193.0,,1760.0,,494.0,,156.0,,193154.0,,2934.0,,"Congressional District 41 (113th Congress), California",41,06
542354.0,,3171.0,,351730.0,,2546.0,,349064.0,,2500.0,,302646.0,,2786.0,,46418.0,,1671.0,,2666.0,,401.0,,190624.0,,3085.0,,"Congressional District 42 (113th Congress), California",42,06
543050.0,,3149.0,,354641.0,,2899.0,,354243.0,,2909.0,,312094.0,,2718.0,,42149.0,,1581.0,,398.0,,163.0,,188409.0,,2476.0,,"Congressional District 43 (113th Congress), California",43,06
521884.0,,3045.0,,327047.0,,2857.0,,326507.0,,2891.0,,276364.0,,2937.0,,50143.0,,1469.0,,540.0,,167.0,,194837.0,,2620.0,,"Congressional District 44 (113th Congress), California",44,06
575685.0,,2761.0,,385065.0,,3747.0,,384616.0,,3745.0,,356142.0,,3723.0,,28474.0,,1303.0,,449.0,,151.0,,190620.0,,3076.0,,"Congressional District 45 (113th Congress), California",45,06
532078.0,,2826.0,,358839.0,,3356.0,,358542.0,,3365.0,,317880.0,,3026.0,,40662.0,,1755.0,,297.0,,120.0,,173239.0,,2555.0,,"Congressional District 46 (113th Congress), California",46,06
563796.0,,3152.0,,371378.0,,2856.0,,370874.0,,2872.0,,330154.0,,2841.0,,40720.0,,1440.0,,504.0,,163.0,,192418.0,,2425.0,,"Congressional District 47 (113th Congress), California",47,06
581318.0,,2236.0,,389503.0,,3162.0,,388955.0,,3164.0,,353696.0,,2903.0,,35259.0,,1371.0,,548.0,,135.0,,191815.0,,2384.0,,"Congressional District 48 (113th Congress), California",48,06
557471.0,,3246.0,,362323.0,,3828.0,,334026.0,,3240.0,,304138.0,,2916.0,,29888.0,,1188.0,,28297.0,,1631.0,,195148.0,,2796.0,,"Congressional District 49 (113th Congress), California",49,06
554453.0,,3107.0,,344761.0,,2888.0,,339703.0,,2892.0,,305218.0,,2969.0,,34485.0,,1423.0,,5058.0,,555.0,,209692.0,,3631.0,,"Congressional District 50 (113th Congress), California",50,06
536835.0,,3568.0,,322367.0,,3166.0,,307690.0,,2876.0,,259883.0,,2693.0,,47807.0,,1866.0,,14677.0,,1730.0,,214468.0,,2969.0,,"Congressional District 51 (113th Congress), California",51,06
587881.0,,3468.0,,402614.0,,3233.0,,380541.0,,3253.0,,351796.0,,3553.0,,28745.0,,1553.0,,22073.0,,1523.0,,185267.0,,3321.0,,"Congressional District 52 (113th Congress), California",52,06
582125.0,,3646.0,,391989.0,,3553.0,,380249.0,,3660.0,,341541.0,,3555.0,,38708.0,,1649.0,,11740.0,,785.0,,190136.0,,2935.0,,"Congressional District 53 (113th Congress), California",53,06
597117.0,,1187.0,,427053.0,,2440.0,,426557.0,,2442.0,,390074.0,,2376.0,,36483.0,,1244.0,,496.0,,210.0,,170064.0,,2362.0,,"Congressional District 1 (113th Congress), Colorado",01,08
599256.0,,1488.0,,423142.0,,2269.0,,422585.0,,2266.0,,392202.0,,2554.0,,30383.0,,1243.0,,557.0,,173.0,,176114.0,,2286.0,,"Congressional District 2 (113th Congress), Colorado",02,08
572749.0,,955.0,,368521.0,,2482.0,,367872.0,,2487.0,,334256.0,,2640.0,,33616.0,,1362.0,,649.0,,175.0,,204228.0,,2643.0,,"Congressional District 3 (113th Congress), Colorado",03,08
554984.0,,1366.0,,376955.0,,1893.0,,376297.0,,1908.0,,347487.0,,1950.0,,28810.0,,1229.0,,658.0,,172.0,,178029.0,,2036.0,,"Congressional District 4 (113th Congress), Colorado",04,08
569254.0,,718.0,,377561.0,,2120.0,,349616.0,,2277.0,,316789.0,,2251.0,,32827.0,,1425.0,,27945.0,,906.0,,191693.0,,2087.0,,"Congressional District 5 (113th Congress), Colorado",05,08
558419.0,,1699.0,,401477.0,,2321.0,,399356.0,,2408.0,,365694.0,,2416.0,,33662.0,,1289.0,,2121.0,,411.0,,156942.0,,2004.0,,"Congressional District 6 (113th Congress), Colorado",06,08
571943.0,,1393.0,,399781.0,,2596.0,,399235.0,,2560.0,,363275.0,,2615.0,,35960.0,,1453.0,,546.0,,147.0,,172162.0,,2301.0,,"Congressional District 7 (113th Congress), Colorado",07,08
576755.0,,1051.0,,393635.0,,2348.0,,393204.0,,2348.0,,352286.0,,2128.0,,40918.0,,1400.0,,431.0,,154.0,,183120.0,,2261.0,,"Congressional District 1 (113th Congress), Connecticut",01,09
582920.0,,928.0,,394593.0,,1974.0,,387316.0,,2001.0,,354115.0,,2077.0,,33201.0,,1244.0,,7277.0,,359.0,,188327.0,,2006.0,,"Congressional District 2 (113th Congress), Connecticut",02,09
582922.0,,1599.0,,397440.0,,2453.0,,396959.0,,2462.0,,356480.0,,2482.0,,40479.0,,1318.0,,481.0,,186.0,,185482.0,,2323.0,,"Congressional District 3 (113th Congress), Connecticut",03,09
561573.0,,1046.0,,380776.0,,2377.0,,380634.0,,2376.0,,341784.0,,2238.0,,38850.0,,1306.0,,142.0,,74.0,,180797.0,,2472.0,,"Congressional District 4 (113th Congress), Connecticut",04,09
574980.0,,1892.0,,392279.0,,2269.0,,392008.0,,2261.0,,354747.0,,2132.0,,37261.0,,1361.0,,271.0,,129.0,,182701.0,,2205.0,,"Congressional District 5 (113th Congress), Connecticut",05,09
726364.0,,684.0,,466696.0,,2282.0,,463216.0,,2305.0,,422009.0,,2403.0,,41207.0,,1407.0,,3480.0,,394.0,,259668.0,,2308.0,,"Congressional District (at Large) (113th Congress), Delaware",00,10
525070.0,,395.0,,357458.0,,2354.0,,354171.0,,2347.0,,315177.0,,2349.0,,38994.0,,1294.0,,3287.0,,266.0,,167612.0,,2381.0,,"Delegate District (at Large) (113th Congress), District of Columbia",98,11
572578.0,,823.0,,357398.0,,2524.0,,334587.0,,2657.0,,298489.0,,2630.0,,36098.0,,1519.0,,22811.0,,1278.0,,215180.0,,2635.0,,"Congressional District 1 (113th Congress), Florida",01,12
575107.0,,845.0,,342589.0,,2304.0,,339400.0,,2282.0,,300666.0,,2562.0,,38734.0,,1542.0,,3189.0,,362.0,,232518.0,,2358.0,,"Congressional District 2 (113th Congress), Florida",02,12
573061.0,,2199.0,,323071.0,,3290.0,,320636.0,,3287.0,,283689.0,,3395.0,,36947.0,,1849.0,,2435.0,,456.0,,249990.0,,3043.0,,"Congressional District 3 (113th Congress), Florida",03,12
566643.0,,2741.0,,380306.0,,3066.0,,370930.0,,3137.0,,335518.0,,3242.0,,35412.0,,1435.0,,9376.0,,982.0,,186337.0,,2506.0,,"Congressional District 4 (113th Congress), Florida",04,12
538650.0,,5084.0,,339617.0,,4127.0,,337864.0,,4153.0,,282569.0,,3914.0,,55295.0,,1821.0,,1753.0,,319.0,,199033.0,,3321.0,,"Congressional District 5 (113th Congress), Florida",05,12
589533.0,,1803.0,,317159.0,,3375.0,,316347.0,,3403.0,,283724.0,,3237.0,,32623.0,,1342.0,,812.0,,279.0,,272374.0,,3389.0,,"Congressional District 6 (113th Congress), Florida",06,12
569370.0,,3350.0,,367826.0,,3011.0,,367305.0,,3062.0,,328777.0,,3203.0,,38528.0,,1671.0,,521.0,,192.0,,201544.0,,3603.0,,"Congressional District 7 (113th Congress), Florida",07,12
582169.0,,1083.0,,328953.0,,2496.0,,327318.0,,2523.0,,285446.0,,2759.0,,41872.0,,1529.0,,1635.0,,272.0,,253216.0,,2633.0,,"Congressional District 8 (113th Congress), Florida",08,12
570846.0,,4211.0,,381993.0,,4404.0,,381549.0,,4408.0,,336556.0,,4116.0,,44993.0,,1857.0,,444.0,,167.0,,188853.0,,3299.0,,"Congressional District 9 (113th Congress), Florida",09,12
575687.0,,3959.0,,360634.0,,3709.0,,360182.0,,3696.0,,322445.0,,3675.0,,37737.0,,1726.0,,452.0,,197.0,,215053.0,,3124.0,,"Congressional District 10 (113th Congress), Florida",10,12
595930.0,,1792.0,,263850.0,,2507.0,,263598.0,,2500.0,,224604.0,,2889.0,,38994.0,,1487.0,,252.0,,117.0,,332080.0,,2073.0,,"Congressional District 11 (113th Congress), Florida",11,12
573593.0,,2135.0,,330869.0,,2741.0,,330143.0,,2784.0,,294054.0,,3016.0,,36089.0,,1428.0,,726.0,,213.0,,242724.0,,2560.0,,"Congressional District 12 (113th Congress), Florida",12,12
593165.0,,2372.0,,350247.0,,2980.0,,349243.0,,2959.0,,313942.0,,3148.0,,35301.0,,1382.0,,1004.0,,201.0,,242918.0,,2629.0,,"Congressional District 13 (113th Congress), Florida",13,12
569244.0,,3231.0,,374623.0,,3220.0,,371283.0,,3287.0,,323892.0,,3517.0,,47391.0,,1455.0,,3340.0,,580.0,,194621.0,,2696.0,,"Congressional District 14 (113th Congress), Florida",14,12
558699.0,,3519.0,,354977.0,,3484.0,,353375.0,,3555.0,,315533.0,,3522.0,,37842.0,,1737.0,,1602.0,,332.0,,203722.0,,2647.0,,"Congressional District 15 (113th Congress), Florida",15,12
596752.0,,681.0,,316570.0,,2583.0,,316208.0,,2581.0,,280163.0,,2421.0,,36045.0,,1498.0,,362.0,,162.0,,280182.0,,2541.0,,"Congressional District 16 (113th Congress), Florida",16,12
581097.0,,3665.0,,289092.0,,3327.0,,288047.0,,3285.0,,250344.0,,3641.0,,37703.0,,1613.0,,1045.0,,311.0,,292005.0,,3571.0,,"Congressional District 17 (113th Congress), Florida",17,12
576446.0,,2360.0,,332908.0,,3150.0,,332618.0,,3143.0,,293613.0,,2982.0,,39005.0,,1781.0,,290.0,,143.0,,243538.0,,3120.0,,"Congressional District 18 (113th Congress), Florida",18,12
595876.0,,2640.0,,316199.0,,3678.0,,315967.0,,3710.0,,275833.0,,3543.0,,40134.0,,1829.0,,232.0,,139.0,,279677.0,,2988.0,,"Congressional District 19 (113th Congress), Florida",19,12
561763.0,,3814.0,,366090.0,,3861.0,,365884.0,,3859.0,,308803.0,,3766.0,,57081.0,,1962.0,,206.0,,110.0,,195673.0,,3165.0,,"Congressional District 20 (113th Congress), Florida",20,12
577723.0,,3302.0,,352236.0,,3703.0,,351967.0,,3699.0,,314023.0,,3824.0,,37944.0,,1456.0,,269.0,,124.0,,225487.0,,2683.0,,"Congressional District 21 (113th Congress), Florida",21,12
600249.0,,3967.0,,382507.0,,3829.0,,382106.0,,3816.0,,338953.0,,3542.0,,43153.0,,1640.0,,401.0,,131.0,,217742.0,,2973.0,,"Congressional District 22 (113th Congress), Florida",22,12
582187.0,,2659.0,,384611.0,,3465.0,,383926.0,,3467.0,,345000.0,,3132.0,,38926.0,,1671.0,,685.0,,192.0,,197576.0,,3136.0,,"Congressional District 23 (113th Congress), Florida",23,12
550789.0,,4346.0,,353122.0,,3526.0,,352769.0,,3513.0,,298730.0,,3385.0,,54039.0,,1901.0,,353.0,,155.0,,197667.0,,2863.0,,"Congressional District 24 (113th Congress), Florida",24,12
567281.0,,4213.0,,353642.0,,4233.0,,353239.0,,4217.0,,315100.0,,3953.0,,38139.0,,1908.0,,403.0,,161.0,,213639.0,,3157.0,,"Congressional District 25 (113th Congress), Florida",25,12
588220.0,,4280.0,,372461.0,,4055.0,,370577.0,,4092.0,,331373.0,,3827.0,,39204.0,,1737.0,,1884.0,,322.0,,215759.0,,3458.0,,"Congressional District 26 (113th Congress), Florida",26,12
580876.0,,4114.0,,362259.0,,3903.0,,361596.0,,3897.0,,320797.0,,3925.0,,40799.0,,1608.0,,663.0,,243.0,,218617.0,,2936.0,,"Congressional District 27 (113th Congress), Florida",27,12
547512.0,,1130.0,,338789.0,,2219.0,,322200.0,,2440.0,,286743.0,,2488.0,,35457.0,,1511.0,,16589.0,,845.0,,208723.0,,2570.0,,"Congressional District 1 (113th Congress), Georgia",01,13
540545.0,,1726.0,,306396.0,,2714.0,,291856.0,,2613.0,,252368.0,,2758.0,,39488.0,,1690.0,,14540.0,,783.0,,234149.0,,2724.0,,"Congressional District 2 (113th Congress), Georgia",02,13
538625.0,,2074.0,,337250.0,,2221.0,,335129.0,,2221.0,,297619.0,,2260.0,,37510.0,,1532.0,,2121.0,,333.0,,201375.0,,2356.0,,"Congressional District 3 (113th Congress), Georgia",03,13
539420.0,,3267.0,,371032.0,,3189.0,,370416.0,,3163.0,,314647.0,,3235.0,,55769.0,,2163.0,,616.0,,193.0,,168388.0,,2775.0,,"Congressional District 4 (113th Congress), Georgia",04,13
572837.0,,2950.0,,377899.0,,3115.0,,377293.0,,3116.0,,321524.0,,3158.0,,55769.0,,2127.0,,606.0,,177.0,,194938.0,,2710.0,,"Congressional District 5 (113th Congress), Georgia",05,13
547013.0,,3299.0,,390621.0,,3247.0,,390325.0,,3269.0,,361257.0,,3296.0,,29068.0,,1551.0,,296.0,,129.0,,156392.0,,2453.0,,"Congressional District 6 (113th Congress), Georgia",06,13
527748.0,,3153.0,,372799.0,,3053.0,,372311.0,,3053.0,,336372.0,,3087.0,,35939.0,,1624.0,,488.0,,201.0,,154949.0,,2621.0,,"Congressional District 7 (113th Congress), Georgia",07,13
543746.0,,1408.0,,315556.0,,3158.0,,309948.0,,3263.0,,276066.0,,3330.0,,33882.0,,1392.0,,5608.0,,562.0,,228190.0,,2862.0,,"Congressional District 8 (113th Congress), Georgia",08,13
547903.0,,1721.0,,324909.0,,3047.0,,324257.0,,3062.0,,290725.0,,3024.0,,33532.0,,1523.0,,652.0,,205.0,,222994.0,,2783.0,,"Congressional District 9 (113th Congress), Georgia",09,13
548911.0,,2579.0,,328488.0,,3389.0,,327550.0,,3401.0,,294452.0,,3066.0,,33098.0,,1391.0,,938.0,,231.0,,220423.0,,2812.0,,"Congressional District 10 (113th Congress), Georgia",10,13
542253.0,,2301.0,,380728.0,,2951.0,,379929.0,,2989.0,,344853.0,,2660.0,,35076.0,,1480.0,,799.0,,239.0,,161525.0,,2809.0,,"Congressional District 11 (113th Congress), Georgia",11,13
544025.0,,1269.0,,313369.0,,2543.0,,305341.0,,2380.0,,274089.0,,2681.0,,31252.0,,1366.0,,8028.0,,806.0,,230656.0,,2552.0,,"Congressional District 12 (113th Congress), Georgia",12,13
525124.0,,3782.0,,362012.0,,3893.0,,360868.0,,3899.0,,310845.0,,3837.0,,50023.0,,1565.0,,1144.0,,304.0,,163112.0,,3063.0,,"Congressional District 13 (113th Congress), Georgia",13,13
532512.0,,849.0,,332796.0,,2585.0,,332258.0,,2561.0,,293319.0,,2787.0,,38939.0,,1604.0,,538.0,,165.0,,199716.0,,2566.0,,"Congressional District 14 (113th Congress), Georgia",14,13
563423.0,,2497.0,,372355.0,,3033.0,,350706.0,,2882.0,,332126.0,,3034.0,,18580.0,,868.0,,21649.0,,1006.0,,191068.0,,2348.0,,"Congressional District 1 (113th Congress), Hawaii",01,15
541111.0,,2415.0,,356440.0,,2716.0,,338114.0,,2789.0,,307946.0,,2650.0,,30168.0,,1265.0,,18326.0,,831.0,,184671.0,,2637.0,,"Congressional District 2 (113th Congress), Hawaii",02,15
605643.0,,1463.0,,375038.0,,2839.0,,374218.0,,2791.0,,337618.0,,2916.0,,36600.0,,1510.0,,820.0,,218.0,,230605.0,,2450.0,,"Congressional District 1 (113th Congress), Idaho",01,16
596356.0,,1318.0,,391611.0,,1895.0,,389161.0,,1928.0,,358572.0,,2048.0,,30589.0,,1172.0,,2450.0,,352.0,,204745.0,,1919.0,,"Congressional District 2 (113th Congress), Idaho",02,16
565633.0,,4028.0,,354308.0,,2823.0,,354087.0,,2828.0,,295394.0,,2878.0,,58693.0,,1976.0,,221.0,,109.0,,211325.0,,3165.0,,"Congressional District 1 (113th Congress), Illinois",01,17
549372.0,,2865.0,,344760.0,,2659.0,,344572.0,,2656.0,,285034.0,,2665.0,,59538.0,,1827.0,,188.0,,118.0,,204612.0,,2438.0,,"Congressional District 2 (113th Congress), Illinois",02,17
556378.0,,3519.0,,372586.0,,3570.0,,372547.0,,3569.0,,330362.0,,3558.0,,42185.0,,1457.0,,39.0,,33.0,,183792.0,,2621.0,,"Congressional District 3 (113th Congress), Illinois",03,17
529063.0,,4543.0,,363807.0,,3347.0,,363641.0,,3358.0,,315977.0,,3227.0,,47664.0,,1331.0,,166.0,,76.0,,165256.0,,3115.0,,"Congressional District 4 (113th Congress), Illinois",04,17
604899.0,,3961.0,,442542.0,,3456.0,,442303.0,,3446.0,,407951.0,,3351.0,,34352.0,,1362.0,,239.0,,94.0,,162357.0,,2678.0,,"Congressional District 5 (113th Congress), Illinois",05,17
561774.0,,3009.0,,395976.0,,2851.0,,395780.0,,2856.0,,364887.0,,2743.0,,30893.0,,1279.0,,196.0,,110.0,,165798.0,,2347.0,,"Congressional District 6 (113th Congress), Illinois",06,17
571843.0,,4697.0,,360426.0,,4091.0,,360196.0,,4099.0,,305081.0,,3593.0,,55115.0,,2045.0,,230.0,,114.0,,211417.0,,3136.0,,"Congressional District 7 (113th Congress), Illinois",07,17
557257.0,,3084.0,,405718.0,,3632.0,,405634.0,,3633.0,,367267.0,,3532.0,,38367.0,,1548.0,,84.0,,63.0,,151539.0,,2534.0,,"Congressional District 8 (113th Congress), Illinois",08,17
585489.0,,3928.0,,381213.0,,3573.0,,381124.0,,3574.0,,350299.0,,3303.0,,30825.0,,1369.0,,89.0,,57.0,,204276.0,,3298.0,,"Congressional District 9 (113th Congress), Illinois",09,17
548961.0,,2183.0,,379402.0,,2489.0,,368552.0,,2564.0,,334721.0,,2682.0,,33831.0,,1180.0,,10850.0,,716.0,,169559.0,,2065.0,,"Congressional District 10 (113th Congress), Illinois",10,17
539495.0,,2782.0,,386552.0,,2832.0,,386015.0,,2845.0,,347924.0,,3067.0,,38091.0,,1510.0,,537.0,,211.0,,152943.0,,2270.0,,"Congressional District 11 (113th Congress), Illinois",11,17
566798.0,,968.0,,343246.0,,2655.0,,339592.0,,2696.0,,306187.0,,2546.0,,33405.0,,1302.0,,3654.0,,387.0,,223552.0,,2678.0,,"Congressional District 12 (113th Congress), Illinois",12,17
578937.0,,2055.0,,364186.0,,2515.0,,363616.0,,2498.0,,331616.0,,2507.0,,32000.0,,1150.0,,570.0,,304.0,,214751.0,,2826.0,,"Congressional District 13 (113th Congress), Illinois",13,17
541540.0,,3047.0,,385893.0,,2995.0,,385300.0,,2985.0,,350812.0,,2950.0,,34488.0,,1530.0,,593.0,,268.0,,155647.0,,2600.0,,"Congressional District 14 (113th Congress), Illinois",14,17
568018.0,,1143.0,,347650.0,,2439.0,,347402.0,,2444.0,,316256.0,,2390.0,,31146.0,,1113.0,,248.0,,102.0,,220368.0,,2366.0,,"Congressional District 15 (113th Congress), Illinois",15,17
563082.0,,1402.0,,368409.0,,2004.0,,368290.0,,1998.0,,329415.0,,2276.0,,38875.0,,1294.0,,119.0,,48.0,,194673.0,,1987.0,,"Congressional District 16 (113th Congress), Illinois",16,17
562709.0,,1513.0,,350381.0,,2058.0,,349967.0,,2045.0,,313982.0,,2158.0,,35985.0,,1278.0,,414.0,,121.0,,212328.0,,2072.0,,"Congressional District 17 (113th Congress), Illinois",17,17
572871.0,,1951.0,,371181.0,,2515.0,,370318.0,,2499.0,,345155.0,,2454.0,,25163.0,,1030.0,,863.0,,226.0,,201690.0,,2241.0,,"Congressional District 18 (113th Congress), Illinois",18,17
563346.0,,772.0,,350413.0,,2157.0,,350101.0,,2118.0,,311970.0,,2180.0,,38131.0,,1365.0,,312.0,,131.0,,212933.0,,2197.0,,"Congressional District 1 (113th Congress), Indiana",01,18
557532.0,,926.0,,359561.0,,1649.0,,359369.0,,1643.0,,320250.0,,1870.0,,39119.0,,1345.0,,192.0,,71.0,,197971.0,,1662.0,,"Congressional District 2 (113th Congress), Indiana",02,18
553681.0,,687.0,,366485.0,,1623.0,,366152.0,,1623.0,,330284.0,,1847.0,,35868.0,,1274.0,,333.0,,119.0,,187196.0,,1663.0,,"Congressional District 3 (113th Congress), Indiana",03,18
574190.0,,820.0,,367210.0,,1966.0,,366859.0,,1984.0,,335980.0,,2105.0,,30879.0,,1205.0,,351.0,,143.0,,206980.0,,2101.0,,"Congressional District 4 (113th Congress), Indiana",04,18
566832.0,,1980.0,,386537.0,,2562.0,,385982.0,,2582.0,,358099.0,,2636.0,,27883.0,,1146.0,,555.0,,177.0,,180295.0,,2251.0,,"Congressional District 5 (113th Congress), Indiana",05,18
572325.0,,562.0,,356062.0,,1890.0,,355517.0,,1886.0,,318968.0,,2264.0,,36549.0,,1526.0,,545.0,,171.0,,216263.0,,1849.0,,"Congressional District 6 (113th Congress), Indiana",06,18
558255.0,,1861.0,,371451.0,,2127.0,,371071.0,,2130.0,,321379.0,,2566.0,,49692.0,,1675.0,,380.0,,124.0,,186804.0,,2313.0,,"Congressional District 7 (113th Congress), Indiana",07,18
574481.0,,511.0,,356268.0,,2114.0,,355734.0,,2122.0,,329855.0,,2155.0,,25879.0,,961.0,,534.0,,156.0,,218213.0,,1941.0,,"Congressional District 8 (113th Congress), Indiana",08,18
578697.0,,784.0,,369420.0,,2071.0,,368570.0,,2087.0,,337094.0,,2360.0,,31476.0,,1210.0,,850.0,,237.0,,209277.0,,2196.0,,"Congressional District 9 (113th Congress), Indiana",09,18
606245.0,,427.0,,414729.0,,2010.0,,414487.0,,2014.0,,390470.0,,2044.0,,24017.0,,1100.0,,242.0,,75.0,,191516.0,,1999.0,,"Congressional District 1 (113th Congress), Iowa",01,19
609788.0,,524.0,,402968.0,,1945.0,,402221.0,,1961.0,,377186.0,,2158.0,,25035.0,,977.0,,747.0,,218.0,,206820.0,,1988.0,,"Congressional District 2 (113th Congress), Iowa",02,19
597809.0,,546.0,,426162.0,,1888.0,,425458.0,,1875.0,,400521.0,,2073.0,,24937.0,,1060.0,,704.0,,177.0,,171647.0,,1819.0,,"Congressional District 3 (113th Congress), Iowa",03,19
606260.0,,505.0,,406281.0,,1637.0,,405777.0,,1682.0,,384853.0,,1947.0,,20924.0,,991.0,,504.0,,165.0,,199979.0,,1659.0,,"Congressional District 4 (113th Congress), Iowa",04,19
559230.0,,625.0,,377101.0,,1891.0,,365486.0,,1906.0,,345913.0,,2041.0,,19573.0,,920.0,,11615.0,,589.0,,182129.0,,1954.0,,"Congressional District 1 (113th Congress), Kansas",01,20
563711.0,,740.0,,366993.0,,2110.0,,364458.0,,2086.0,,336788.0,,2339.0,,27670.0,,1138.0,,2535.0,,404.0,,196718.0,,2141.0,,"Congressional District 2 (113th Congress), Kansas",02,20
551656.0,,629.0,,397748.0,,1937.0,,397342.0,,1955.0,,369888.0,,2341.0,,27454.0,,1186.0,,406.0,,125.0,,153908.0,,1876.0,,"Congressional District 3 (113th Congress), Kansas",03,20
547618.0,,579.0,,367345.0,,1747.0,,364126.0,,1841.0,,334482.0,,2053.0,,29644.0,,1032.0,,3219.0,,414.0,,180273.0,,1839.0,,"Congressional District 4 (113th Congress), Kansas",04,20
574512.0,,575.0,,326053.0,,2107.0,,318554.0,,2049.0,,286919.0,,2236.0,,31635.0,,1257.0,,7499.0,,506.0,,248459.0,,2198.0,,"Congressional District 1 (113th Congress), Kentucky",01,21
572977.0,,845.0,,355376.0,,2305.0,,348018.0,,2419.0,,314189.0,,2685.0,,33829.0,,1151.0,,7358.0,,549.0,,217601.0,,2248.0,,"Congressional District 2 (113th Congress), Kentucky",02,21
578842.0,,668.0,,381676.0,,2271.0,,380619.0,,2318.0,,341636.0,,2511.0,,38983.0,,1408.0,,1057.0,,266.0,,197166.0,,2151.0,,"Congressional District 3 (113th Congress), Kentucky",03,21
566563.0,,1128.0,,366376.0,,2465.0,,366143.0,,2468.0,,334703.0,,2548.0,,31440.0,,1199.0,,233.0,,100.0,,200187.0,,2525.0,,"Congressional District 4 (113th Congress), Kentucky",04,21
576978.0,,935.0,,269869.0,,2785.0,,269695.0,,2786.0,,237897.0,,2734.0,,31798.0,,1279.0,,174.0,,78.0,,307109.0,,2827.0,,"Congressional District 5 (113th Congress), Kentucky",05,21
584235.0,,841.0,,377205.0,,2365.0,,376725.0,,2362.0,,342423.0,,2515.0,,34302.0,,1459.0,,480.0,,145.0,,207030.0,,2426.0,,"Congressional District 6 (113th Congress), Kentucky",06,21
607319.0,,2571.0,,391092.0,,3201.0,,389199.0,,3238.0,,360156.0,,3492.0,,29043.0,,1579.0,,1893.0,,321.0,,216227.0,,2466.0,,"Congressional District 1 (113th Congress), Louisiana",01,22
602451.0,,3361.0,,372629.0,,2749.0,,371228.0,,2688.0,,327456.0,,2842.0,,43772.0,,1416.0,,1401.0,,273.0,,229822.0,,2563.0,,"Congressional District 2 (113th Congress), Louisiana",02,22
588392.0,,813.0,,370757.0,,2762.0,,370310.0,,2752.0,,339174.0,,2975.0,,31136.0,,1356.0,,447.0,,151.0,,217635.0,,2863.0,,"Congressional District 3 (113th Congress), Louisiana",03,22
592093.0,,1087.0,,348053.0,,2491.0,,337421.0,,2604.0,,309565.0,,2545.0,,27856.0,,1087.0,,10632.0,,625.0,,244040.0,,2537.0,,"Congressional District 4 (113th Congress), Louisiana",04,22
589077.0,,1621.0,,323356.0,,2657.0,,322429.0,,2651.0,,288180.0,,2598.0,,34249.0,,1347.0,,927.0,,217.0,,265721.0,,2683.0,,"Congressional District 5 (113th Congress), Louisiana",05,22
598628.0,,3064.0,,397438.0,,3458.0,,396957.0,,3470.0,,370847.0,,3232.0,,26110.0,,1392.0,,481.0,,158.0,,201190.0,,2970.0,,"Congressional District 6 (113th Congress), Louisiana",06,22
547398.0,,611.0,,365669.0,,2081.0,,364326.0,,2108.0,,339580.0,,2174.0,,24746.0,,949.0,,1343.0,,281.0,,181729.0,,2094.0,,"Congressional District 1 (113th Congress), Maine",01,23
545451.0,,560.0,,337397.0,,1900.0,,336639.0,,1890.0,,307519.0,,2098.0,,29120.0,,1043.0,,758.0,,161.0,,208054.0,,1903.0,,"Congressional District 2 (113th Congress), Maine",02,23
582970.0,,1879.0,,383638.0,,2832.0,,382606.0,,2783.0,,351653.0,,2934.0,,30953.0,,1254.0,,1032.0,,327.0,,199332.0,,2676.0,,"Congressional District 1 (113th Congress), Maryland",01,24
577287.0,,3620.0,,399054.0,,3565.0,,393996.0,,3441.0,,358056.0,,3235.0,,35940.0,,1630.0,,5058.0,,584.0,,178233.0,,2339.0,,"Congressional District 2 (113th Congress), Maryland",02,24
591429.0,,4093.0,,414883.0,,3534.0,,408073.0,,3372.0,,378097.0,,3278.0,,29976.0,,1299.0,,6810.0,,1264.0,,176546.0,,3319.0,,"Congressional District 3 (113th Congress), Maryland",03,24
571734.0,,2872.0,,422143.0,,2784.0,,418717.0,,2735.0,,378952.0,,2613.0,,39765.0,,1426.0,,3426.0,,363.0,,149591.0,,2292.0,,"Congressional District 4 (113th Congress), Maryland",04,24
576642.0,,2767.0,,410062.0,,2841.0,,404193.0,,2935.0,,373465.0,,2915.0,,30728.0,,1399.0,,5869.0,,430.0,,166580.0,,2135.0,,"Congressional District 5 (113th Congress), Maryland",05,24
580071.0,,2117.0,,399722.0,,2428.0,,397804.0,,2445.0,,369781.0,,2531.0,,28023.0,,1105.0,,1918.0,,291.0,,180349.0,,2373.0,,"Congressional District 6 (113th Congress), Maryland",06,24
578868.0,,3639.0,,365283.0,,2977.0,,364382.0,,2969.0,,323277.0,,2955.0,,41105.0,,1585.0,,901.0,,180.0,,213585.0,,2595.0,,"Congressional District 7 (113th Congress), Maryland",07,24
586778.0,,2509.0,,419848.0,,2603.0,,416994.0,,2468.0,,392917.0,,2741.0,,24077.0,,1219.0,,2854.0,,448.0,,166930.0,,1849.0,,"Congressional District 8 (113th Congress), Maryland",08,24
589276.0,,1051.0,,374383.0,,2548.0,,373789.0,,2535.0,,336337.0,,2547.0,,37452.0,,1548.0,,594.0,,163.0,,214893.0,,2492.0,,"Congressional District 1 (113th Congress), Massachusetts",01,25
593530.0,,1398.0,,399266.0,,2649.0,,398825.0,,2651.0,,362782.0,,2599.0,,36043.0,,1616.0,,441.0,,157.0,,194264.0,,2553.0,,"Congressional District 2 (113th Congress), Massachusetts",02,25
582053.0,,1586.0,,394853.0,,2415.0,,394496.0,,2404.0,,359373.0,,2741.0,,35123.0,,1399.0,,357.0,,158.0,,187200.0,,2665.0,,"Congressional District 3 (113th Congress), Massachusetts",03,25
582356.0,,1721.0,,401625.0,,2271.0,,401352.0,,2268.0,,369674.0,,2428.0,,31678.0,,1380.0,,273.0,,142.0,,180731.0,,2276.0,,"Congressional District 4 (113th Congress), Massachusetts",04,25
604260.0,,2016.0,,421412.0,,2316.0,,420745.0,,2287.0,,390810.0,,2341.0,,29935.0,,1443.0,,667.0,,208.0,,182848.0,,2480.0,,"Congressional District 5 (113th Congress), Massachusetts",05,25
593827.0,,1381.0,,409606.0,,2511.0,,408975.0,,2461.0,,376224.0,,2565.0,,32751.0,,1365.0,,631.0,,234.0,,184221.0,,2133.0,,"Congressional District 6 (113th Congress), Massachusetts",06,25
623239.0,,2745.0,,428837.0,,3227.0,,428375.0,,3229.0,,381959.0,,3459.0,,46416.0,,1514.0,,462.0,,152.0,,194402.0,,3195.0,,"Congressional District 7 (113th Congress), Massachusetts",07,25
604216.0,,2444.0,,421242.0,,2813.0,,420791.0,,2794.0,,384460.0,,2800.0,,36331.0,,1493.0,,451.0,,183.0,,182974.0,,2159.0,,"Congressional District 8 (113th Congress), Massachusetts",08,25
598495.0,,1529.0,,385123.0,,2215.0,,383929.0,,2224.0,,346928.0,,2456.0,,37001.0,,1334.0,,1194.0,,284.0,,213372.0,,2324.0,,"Congressional District 9 (113th Congress), Massachusetts",09,25
583593.0,,507.0,,330965.0,,1804.0,,330146.0,,1813.0,,292770.0,,1976.0,,37376.0,,991.0,,819.0,,178.0,,252628.0,,1789.0,,"Congressional District 1 (113th Congress), Michigan",01,26
554612.0,,1052.0,,359588.0,,1853.0,,359319.0,,1860.0,,319826.0,,2149.0,,39493.0,,1362.0,,269.0,,104.0,,195024.0,,1850.0,,"Congressional District 2 (113th Congress), Michigan",02,26
549355.0,,916.0,,358438.0,,2468.0,,358012.0,,2465.0,,319080.0,,2407.0,,38932.0,,1456.0,,426.0,,114.0,,190917.0,,2549.0,,"Congressional District 3 (113th Congress), Michigan",03,26
570223.0,,628.0,,328677.0,,1956.0,,328464.0,,1938.0,,288724.0,,2024.0,,39740.0,,1155.0,,213.0,,109.0,,241546.0,,1959.0,,"Congressional District 4 (113th Congress), Michigan",04,26
555044.0,,821.0,,317119.0,,2168.0,,316866.0,,2186.0,,268195.0,,2178.0,,48671.0,,1453.0,,253.0,,102.0,,237925.0,,2136.0,,"Congressional District 5 (113th Congress), Michigan",05,26
559982.0,,514.0,,352895.0,,1659.0,,352653.0,,1667.0,,312013.0,,1733.0,,40640.0,,1288.0,,242.0,,87.0,,207087.0,,1713.0,,"Congressional District 6 (113th Congress), Michigan",06,26
561322.0,,731.0,,345576.0,,2026.0,,345238.0,,2013.0,,306607.0,,2028.0,,38631.0,,1230.0,,338.0,,146.0,,215746.0,,2015.0,,"Congressional District 7 (113th Congress), Michigan",07,26
564477.0,,1278.0,,373244.0,,2262.0,,372946.0,,2275.0,,335153.0,,2221.0,,37793.0,,1260.0,,298.0,,97.0,,191233.0,,2128.0,,"Congressional District 8 (113th Congress), Michigan",08,26
578060.0,,1367.0,,374374.0,,2246.0,,373935.0,,2267.0,,327337.0,,2347.0,,46598.0,,1579.0,,439.0,,173.0,,203686.0,,2045.0,,"Congressional District 9 (113th Congress), Michigan",09,26
561456.0,,1211.0,,354915.0,,2147.0,,354435.0,,2144.0,,311691.0,,2223.0,,42744.0,,1304.0,,480.0,,136.0,,206541.0,,2167.0,,"Congressional District 10 (113th Congress), Michigan",10,26
562768.0,,1563.0,,380699.0,,2199.0,,380349.0,,2205.0,,347417.0,,2331.0,,32932.0,,1226.0,,350.0,,109.0,,182069.0,,1816.0,,"Congressional District 11 (113th Congress), Michigan",11,26
564361.0,,1558.0,,353652.0,,2324.0,,353416.0,,2333.0,,312304.0,,2587.0,,41112.0,,1431.0,,236.0,,79.0,,210709.0,,2190.0,,"Congressional District 12 (113th Congress), Michigan",12,26
545216.0,,2929.0,,309099.0,,2802.0,,309070.0,,2801.0,,240353.0,,2672.0,,68717.0,,1821.0,,29.0,,35.0,,236117.0,,2630.0,,"Congressional District 13 (113th Congress), Michigan",13,26
554881.0,,2719.0,,324773.0,,3269.0,,324568.0,,3271.0,,261478.0,,2908.0,,63090.0,,2000.0,,205.0,,86.0,,230108.0,,2564.0,,"Congressional District 14 (113th Congress), Michigan",14,26
525851.0,,595.0,,368328.0,,1449.0,,368047.0,,1467.0,,346859.0,,1519.0,,21188.0,,918.0,,281.0,,100.0,,157523.0,,1520.0,,"Congressional District 1 (113th Congress), Minnesota",01,27
514359.0,,685.0,,384351.0,,1493.0,,383981.0,,1488.0,,359099.0,,1637.0,,24882.0,,1103.0,,370.0,,107.0,,130008.0,,1270.0,,"Congressional District 2 (113th Congress), Minnesota",02,27
526489.0,,1526.0,,381276.0,,2386.0,,380974.0,,2397.0,,355931.0,,2485.0,,25043.0,,1279.0,,302.0,,119.0,,145213.0,,2235.0,,"Congressional District 3 (113th Congress), Minnesota",03,27
530494.0,,669.0,,367572.0,,1736.0,,367309.0,,1717.0,,338344.0,,1906.0,,28965.0,,1253.0,,263.0,,114.0,,162922.0,,1873.0,,"Congressional District 4 (113th Congress), Minnesota",04,27
545169.0,,1423.0,,393431.0,,2059.0,,393275.0,,2049.0,,358624.0,,2205.0,,34651.0,,1312.0,,156.0,,86.0,,151738.0,,2016.0,,"Congressional District 5 (113th Congress), Minnesota",05,27
510935.0,,1021.0,,380304.0,,1582.0,,380008.0,,1606.0,,353288.0,,1744.0,,26720.0,,912.0,,296.0,,116.0,,130631.0,,1706.0,,"Congressional District 6 (113th Congress), Minnesota",06,27
524240.0,,645.0,,350820.0,,1190.0,,350541.0,,1199.0,,329420.0,,1324.0,,21121.0,,778.0,,279.0,,66.0,,173420.0,,1178.0,,"Congressional District 7 (113th Congress), Minnesota",07,27
535200.0,,504.0,,335394.0,,1636.0,,334854.0,,1664.0,,306609.0,,2014.0,,28245.0,,914.0,,540.0,,131.0,,199806.0,,1608.0,,"Congressional District 8 (113th Congress), Minnesota",08,27
579737.0,,843.0,,350427.0,,2537.0,,348548.0,,2532.0,,310683.0,,2362.0,,37865.0,,1498.0,,1879.0,,336.0,,229310.0,,2576.0,,"Congressional District 1 (113th Congress), Mississippi",01,28
565346.0,,1501.0,,311756.0,,2600.0,,311343.0,,2586.0,,266757.0,,2482.0,,44586.0,,1475.0,,413.0,,135.0,,253590.0,,2290.0,,"Congressional District 2 (113th Congress), Mississippi",02,28
582675.0,,1525.0,,342981.0,,2853.0,,341198.0,,2859.0,,309402.0,,3057.0,,31796.0,,1398.0,,1783.0,,300.0,,239694.0,,2569.0,,"Congressional District 3 (113th Congress), Mississippi",03,28
585201.0,,675.0,,350523.0,,2509.0,,342495.0,,2624.0,,307594.0,,2925.0,,34901.0,,1455.0,,8028.0,,591.0,,234678.0,,2673.0,,"Congressional District 4 (113th Congress), Mississippi",04,28
596772.0,,2069.0,,397356.0,,2642.0,,397008.0,,2646.0,,343938.0,,2999.0,,53070.0,,1901.0,,348.0,,116.0,,199416.0,,2685.0,,"Congressional District 1 (113th Congress), Missouri",01,29
600685.0,,2459.0,,406655.0,,2661.0,,406203.0,,2664.0,,381572.0,,2745.0,,24631.0,,1124.0,,452.0,,116.0,,194030.0,,2070.0,,"Congressional District 2 (113th Congress), Missouri",02,29
591006.0,,1775.0,,397067.0,,2679.0,,396404.0,,2653.0,,364308.0,,2947.0,,32096.0,,1513.0,,663.0,,159.0,,193939.0,,2534.0,,"Congressional District 3 (113th Congress), Missouri",03,29
597751.0,,1170.0,,374251.0,,2271.0,,357293.0,,2398.0,,328044.0,,2556.0,,29249.0,,1266.0,,16958.0,,677.0,,223500.0,,2122.0,,"Congressional District 4 (113th Congress), Missouri",04,29
590361.0,,1739.0,,391051.0,,2783.0,,390784.0,,2774.0,,353399.0,,2762.0,,37385.0,,1369.0,,267.0,,106.0,,199310.0,,2761.0,,"Congressional District 5 (113th Congress), Missouri",05,29
590531.0,,1641.0,,383501.0,,2326.0,,382366.0,,2329.0,,357121.0,,2334.0,,25245.0,,1017.0,,1135.0,,227.0,,207030.0,,2135.0,,"Congressional District 6 (113th Congress), Missouri",06,29
595284.0,,669.0,,373451.0,,2316.0,,372807.0,,2260.0,,339169.0,,2211.0,,33638.0,,1252.0,,644.0,,200.0,,221833.0,,2352.0,,"Congressional District 7 (113th Congress), Missouri",07,29
593480.0,,1322.0,,335882.0,,2488.0,,335396.0,,2479.0,,303066.0,,2828.0,,32330.0,,1304.0,,486.0,,126.0,,257598.0,,2399.0,,"Congressional District 8 (113th Congress), Missouri",08,29
801199.0,,663.0,,518296.0,,2512.0,,514717.0,,2556.0,,477015.0,,2689.0,,37702.0,,1130.0,,3579.0,,323.0,,282903.0,,2532.0,,"Congressional District (at Large) (113th Congress), Montana",00,30
480938.0,,792.0,,342167.0,,1759.0,,338680.0,,1744.0,,318639.0,,1839.0,,20041.0,,868.0,,3487.0,,331.0,,138771.0,,1715.0,,"Congressional District 1 (113th Congress), Nebraska",01,31
471461.0,,696.0,,345095.0,,1724.0,,343678.0,,1776.0,,321794.0,,1981.0,,21884.0,,908.0,,1417.0,,208.0,,126366.0,,1643.0,,"Congressional District 2 (113th Congress), Nebraska",02,31
479029.0,,472.0,,324019.0,,1449.0,,323868.0,,1443.0,,308268.0,,1558.0,,15600.0,,704.0,,151.0,,55.0,,155010.0,,1404.0,,"Congressional District 3 (113th Congress), Nebraska",03,31
523810.0,,3854.0,,344455.0,,3611.0,,344052.0,,3603.0,,290603.0,,3470.0,,53449.0,,1950.0,,403.0,,152.0,,179355.0,,2472.0,,"Congressional District 1 (113th Congress), Nevada",01,32
538849.0,,836.0,,351936.0,,2173.0,,350051.0,,2228.0,,309455.0,,2618.0,,40596.0,,1619.0,,1885.0,,346.0,,186913.0,,2342.0,,"Congressional District 2 (113th Congress), Nevada",02,32
557935.0,,3478.0,,383520.0,,3503.0,,382447.0,,3515.0,,344620.0,,3174.0,,37827.0,,1674.0,,1073.0,,261.0,,174415.0,,2713.0,,"Congressional District 3 (113th Congress), Nevada",03,32
522947.0,,2885.0,,334309.0,,2903.0,,328196.0,,2783.0,,284926.0,,2753.0,,43270.0,,1682.0,,6113.0,,660.0,,188638.0,,2637.0,,"Congressional District 4 (113th Congress), Nevada",04,32
539466.0,,864.0,,377123.0,,2111.0,,376017.0,,2128.0,,350441.0,,2242.0,,25576.0,,1179.0,,1106.0,,206.0,,162343.0,,1934.0,,"Congressional District 1 (113th Congress), New Hampshire",01,33
535011.0,,905.0,,366732.0,,1966.0,,366422.0,,1975.0,,340328.0,,2038.0,,26094.0,,1216.0,,310.0,,123.0,,168279.0,,2101.0,,"Congressional District 2 (113th Congress), New Hampshire",02,33
580398.0,,894.0,,393481.0,,2176.0,,392800.0,,2162.0,,346715.0,,2652.0,,46085.0,,1504.0,,681.0,,187.0,,186917.0,,2102.0,,"Congressional District 1 (113th Congress), New Jersey",01,34
587310.0,,1228.0,,373841.0,,2373.0,,372350.0,,2469.0,,325699.0,,2479.0,,46651.0,,1638.0,,1491.0,,337.0,,213469.0,,2371.0,,"Congressional District 2 (113th Congress), New Jersey",02,34
595556.0,,1439.0,,388418.0,,2224.0,,384804.0,,2235.0,,347489.0,,2433.0,,37315.0,,1194.0,,3614.0,,348.0,,207138.0,,2256.0,,"Congressional District 3 (113th Congress), New Jersey",03,34
571217.0,,1434.0,,363861.0,,2179.0,,363120.0,,2205.0,,331153.0,,2426.0,,31967.0,,1218.0,,741.0,,184.0,,207356.0,,2167.0,,"Congressional District 4 (113th Congress), New Jersey",04,34
586474.0,,1613.0,,393792.0,,2274.0,,393511.0,,2251.0,,362168.0,,2273.0,,31343.0,,1360.0,,281.0,,124.0,,192682.0,,2300.0,,"Congressional District 5 (113th Congress), New Jersey",05,34
588042.0,,1537.0,,390887.0,,2409.0,,390612.0,,2423.0,,353191.0,,2366.0,,37421.0,,1383.0,,275.0,,107.0,,197155.0,,2298.0,,"Congressional District 6 (113th Congress), New Jersey",06,34
576516.0,,1527.0,,397851.0,,2113.0,,397757.0,,2101.0,,368076.0,,2193.0,,29681.0,,1081.0,,94.0,,76.0,,178665.0,,2019.0,,"Congressional District 7 (113th Congress), New Jersey",07,34
597235.0,,2725.0,,420884.0,,2639.0,,420779.0,,2640.0,,372702.0,,2529.0,,48077.0,,1840.0,,105.0,,84.0,,176351.0,,2252.0,,"Congressional District 8 (113th Congress), New Jersey",08,34
586423.0,,1761.0,,374433.0,,2583.0,,374308.0,,2586.0,,340192.0,,2538.0,,34116.0,,1253.0,,125.0,,86.0,,211990.0,,2312.0,,"Congressional District 9 (113th Congress), New Jersey",09,34
578211.0,,3098.0,,378316.0,,2896.0,,378100.0,,2891.0,,319672.0,,2679.0,,58428.0,,1828.0,,216.0,,130.0,,199895.0,,2485.0,,"Congressional District 10 (113th Congress), New Jersey",10,34
590329.0,,1544.0,,402259.0,,2811.0,,402074.0,,2801.0,,370492.0,,2823.0,,31582.0,,1305.0,,185.0,,117.0,,188070.0,,2492.0,,"Congressional District 11 (113th Congress), New Jersey",11,34
591084.0,,1946.0,,399643.0,,2619.0,,399362.0,,2645.0,,359934.0,,2711.0,,39428.0,,1266.0,,281.0,,137.0,,191441.0,,2248.0,,"Congressional District 12 (113th Congress), New Jersey",12,34
548316.0,,1580.0,,350490.0,,2463.0,,348282.0,,2468.0,,317771.0,,2405.0,,30511.0,,1320.0,,2208.0,,267.0,,197826.0,,2598.0,,"Congressional District 1 (113th Congress), New Mexico",01,35
533595.0,,1413.0,,309752.0,,2479.0,,305988.0,,2569.0,,272815.0,,2410.0,,33173.0,,1207.0,,3764.0,,442.0,,223843.0,,2732.0,,"Congressional District 2 (113th Congress), New Mexico",02,35
527292.0,,1598.0,,333381.0,,2531.0,,333103.0,,2523.0,,300551.0,,2571.0,,32552.0,,1479.0,,278.0,,102.0,,193911.0,,2439.0,,"Congressional District 4 (113th Congress), South Carolina",04,45
522882.0,,1423.0,,322082.0,,2458.0,,318835.0,,2474.0,,278858.0,,2658.0,,39977.0,,1350.0,,3247.0,,432.0,,200800.0,,2245.0,,"Congressional District 5 (113th Congress), South Carolina",05,45
532122.0,,3352.0,,308135.0,,3201.0,,301348.0,,3143.0,,255603.0,,2969.0,,45745.0,,1740.0,,6787.0,,671.0,,223987.0,,2708.0,,"Congressional District 6 (113th Congress), South Carolina",06,45
536157.0,,782.0,,315850.0,,2494.0,,315255.0,,2517.0,,275415.0,,2645.0,,39840.0,,1499.0,,595.0,,155.0,,220307.0,,2490.0,,"Congressional District 7 (113th Congress), South Carolina",07,45
643377.0,,605.0,,444211.0,,2190.0,,441241.0,,2203.0,,418991.0,,2279.0,,22250.0,,949.0,,2970.0,,324.0,,199166.0,,2215.0,,"Congressional District (at Large) (113th Congress), South Dakota",00,46
576559.0,,763.0,,330886.0,,2612.0,,330570.0,,2593.0,,297743.0,,2751.0,,32827.0,,1358.0,,316.0,,131.0,,245673.0,,2539.0,,"Congressional District 1 (113th Congress), Tennessee",01,47
575891.0,,855.0,,355839.0,,2271.0,,355148.0,,2273.0,,325230.0,,2601.0,,29918.0,,1399.0,,691.0,,186.0,,220052.0,,2317.0,,"Congressional District 2 (113th Congress), Tennessee",02,47
573934.0,,1034.0,,335456.0,,2696.0,,335076.0,,2668.0,,300447.0,,2973.0,,34629.0,,1487.0,,380.0,,146.0,,238478.0,,2721.0,,"Congressional District 3 (113th Congress), Tennessee",03,47
560070.0,,1384.0,,351398.0,,2564.0,,350519.0,,2620.0,,315170.0,,2742.0,,35349.0,,1614.0,,879.0,,269.0,,208672.0,,2422.0,,"Congressional District 4 (113th Congress), Tennessee",04,47
574464.0,,703.0,,393234.0,,2294.0,,392742.0,,2310.0,,357849.0,,2449.0,,34893.0,,1356.0,,492.0,,120.0,,181230.0,,2262.0,,"Congressional District 5 (113th Congress), Tennessee",05,47
565099.0,,770.0,,338586.0,,2576.0,,337894.0,,2616.0,,306037.0,,2615.0,,31857.0,,1385.0,,692.0,,199.0,,226513.0,,2447.0,,"Congressional District 6 (113th Congress), Tennessee",06,47
551799.0,,965.0,,339145.0,,2608.0,,327372.0,,2760.0,,294055.0,,2823.0,,33317.0,,1411.0,,11773.0,,733.0,,212654.0,,2512.0,,"Congressional District 7 (113th Congress), Tennessee",07,47
553857.0,,1578.0,,340924.0,,2682.0,,339631.0,,2670.0,,305353.0,,2469.0,,34278.0,,1209.0,,1293.0,,256.0,,212933.0,,2196.0,,"Congressional District 8 (113th Congress), Tennessee",08,47
546760.0,,1640.0,,355197.0,,2640.0,,354678.0,,2660.0,,305064.0,,2864.0,,49614.0,,1688.0,,519.0,,133.0,,191563.0,,2665.0,,"Congressional District 9 (113th Congress), Tennessee",09,47
545531.0,,1095.0,,326441.0,,2347.0,,326160.0,,2312.0,,299840.0,,2656.0,,26320.0,,1261.0,,281.0,,159.0,,219090.0,,2165.0,,"Congressional District 1 (113th Congress), Texas",01,48
555727.0,,4713.0,,396442.0,,4105.0,,396209.0,,4100.0,,373250.0,,3865.0,,22959.0,,1428.0,,233.0,,132.0,,159285.0,,2845.0,,"Congressional District 2 (113th Congress), Texas",02,48
544003.0,,1544.0,,395604.0,,2363.0,,395102.0,,2354.0,,372717.0,,2055.0,,22385.0,,1230.0,,502.0,,206.0,,148399.0,,2173.0,,"Congressional District 3 (113th Congress), Texas",03,48
548684.0,,1341.0,,329220.0,,2317.0,,328797.0,,2319.0,,299126.0,,2167.0,,29671.0,,1271.0,,423.0,,159.0,,219464.0,,2095.0,,"Congressional District 4 (113th Congress), Texas",04,48
537330.0,,2665.0,,331259.0,,2984.0,,330948.0,,3000.0,,304828.0,,3137.0,,26120.0,,1219.0,,311.0,,97.0,,206071.0,,2926.0,,"Congressional District 5 (113th Congress), Texas",05,48
538651.0,,2571.0,,381445.0,,3069.0,,380837.0,,3073.0,,349470.0,,3250.0,,31367.0,,1206.0,,608.0,,177.0,,157206.0,,2209.0,,"Congressional District 6 (113th Congress), Texas",06,48
546138.0,,4661.0,,393161.0,,3928.0,,392895.0,,3907.0,,367564.0,,3786.0,,25331.0,,1445.0,,266.0,,123.0,,152977.0,,2956.0,,"Congressional District 7 (113th Congress), Texas",07,48
553947.0,,2232.0,,336801.0,,3299.0,,336450.0,,3306.0,,311838.0,,3342.0,,24612.0,,1486.0,,351.0,,164.0,,217146.0,,3571.0,,"Congressional District 8 (113th Congress), Texas",08,48
536340.0,,3904.0,,371244.0,,3696.0,,371000.0,,3704.0,,330727.0,,3318.0,,40273.0,,1952.0,,244.0,,95.0,,165096.0,,3467.0,,"Congressional District 9 (113th Congress), Texas",09,48
552819.0,,4433.0,,380734.0,,4139.0,,380306.0,,4131.0,,355538.0,,4119.0,,24768.0,,1448.0,,428.0,,164.0,,172085.0,,2993.0,,"Congressional District 10 (113th Congress), Texas",10,48
551502.0,,1020.0,,339254.0,,2312.0,,334929.0,,2344.0,,315196.0,,2367.0,,19733.0,,1127.0,,4325.0,,594.0,,212248.0,,2435.0,,"Congressional District 11 (113th Congress), Texas",11,48
552253.0,,3256.0,,371770.0,,2847.0,,370259.0,,2865.0,,342177.0,,2962.0,,28082.0,,1404.0,,1511.0,,279.0,,180483.0,,2454.0,,"Congressional District 12 (113th Congress), Texas",12,48
541059.0,,1004.0,,339821.0,,2025.0,,333119.0,,2190.0,,312572.0,,2112.0,,20547.0,,972.0,,6702.0,,825.0,,201238.0,,1963.0,,"Congressional District 13 (113th Congress), Texas",13,48
549947.0,,1613.0,,337810.0,,2696.0,,336961.0,,2728.0,,306164.0,,2724.0,,30797.0,,1415.0,,849.0,,247.0,,212137.0,,2516.0,,"Congressional District 14 (113th Congress), Texas",14,48
509033.0,,2680.0,,304885.0,,3034.0,,303799.0,,3024.0,,273720.0,,3065.0,,30079.0,,1568.0,,1086.0,,222.0,,204148.0,,3212.0,,"Congressional District 15 (113th Congress), Texas",15,48
529236.0,,1811.0,,323345.0,,2753.0,,307200.0,,2751.0,,280873.0,,2719.0,,26327.0,,1437.0,,16145.0,,828.0,,205891.0,,2443.0,,"Congressional District 16 (113th Congress), Texas",16,48
561161.0,,2216.0,,359241.0,,3281.0,,358570.0,,3260.0,,330709.0,,3270.0,,27861.0,,1520.0,,671.0,,212.0,,201920.0,,2775.0,,"Congressional District 17 (113th Congress), Texas",17,48
533280.0,,5246.0,,347230.0,,4161.0,,347117.0,,4160.0,,309611.0,,3820.0,,37506.0,,1562.0,,113.0,,82.0,,186050.0,,3242.0,,"Congressional District 18 (113th Congress), Texas",18,48
545904.0,,730.0,,339446.0,,2890.0,,336003.0,,2941.0,,312767.0,,2980.0,,23236.0,,1197.0,,3443.0,,359.0,,206458.0,,3074.0,,"Congressional District 19 (113th Congress), Texas",19,48
543009.0,,3762.0,,355193.0,,3746.0,,344753.0,,3859.0,,315536.0,,3850.0,,29217.0,,1368.0,,10440.0,,979.0,,187816.0,,2827.0,,"Congressional District 20 (113th Congress), Texas",20,48
583671.0,,3910.0,,391604.0,,3879.0,,385711.0,,3902.0,,360398.0,,3550.0,,25313.0,,1359.0,,5893.0,,604.0,,192067.0,,2580.0,,"Congressional District 21 (113th Congress), Texas",21,48
539694.0,,3450.0,,370786.0,,3181.0,,370384.0,,3217.0,,351518.0,,3229.0,,18866.0,,1297.0,,402.0,,136.0,,168908.0,,2861.0,,"Congressional District 22 (113th Congress), Texas",22,48
526670.0,,3587.0,,319102.0,,3764.0,,314743.0,,3826.0,,287286.0,,3724.0,,27457.0,,1412.0,,4359.0,,507.0,,207568.0,,2918.0,,"Congressional District 23 (113th Congress), Texas",23,48
563996.0,,3085.0,,420504.0,,3145.0,,420165.0,,3134.0,,391052.0,,3003.0,,29113.0,,1368.0,,339.0,,191.0,,143492.0,,2137.0,,"Congressional District 24 (113th Congress), Texas",24,48
553648.0,,3502.0,,350907.0,,3100.0,,337506.0,,3106.0,,311826.0,,3214.0,,25680.0,,1090.0,,13401.0,,890.0,,202741.0,,3581.0,,"Congressional District 25 (113th Congress), Texas",25,48
540939.0,,2795.0,,398770.0,,2724.0,,398342.0,,2704.0,,371911.0,,2646.0,,26431.0,,1402.0,,428.0,,152.0,,142169.0,,2452.0,,"Congressional District 26 (113th Congress), Texas",26,48
544190.0,,1592.0,,341600.0,,2155.0,,338988.0,,2206.0,,312003.0,,2855.0,,26985.0,,1388.0,,2612.0,,473.0,,202590.0,,2230.0,,"Congressional District 27 (113th Congress), Texas",27,48
507084.0,,2840.0,,304007.0,,3089.0,,301511.0,,3062.0,,276805.0,,2954.0,,24706.0,,1151.0,,2496.0,,381.0,,203077.0,,2878.0,,"Congressional District 28 (113th Congress), Texas",28,48
510192.0,,4335.0,,329693.0,,3542.0,,329507.0,,3539.0,,294045.0,,3394.0,,35462.0,,1600.0,,186.0,,98.0,,180499.0,,3223.0,,"Congressional District 29 (113th Congress), Texas",29,48
528934.0,,3588.0,,337075.0,,3732.0,,336678.0,,3748.0,,298934.0,,3102.0,,37744.0,,1503.0,,397.0,,163.0,,191859.0,,3107.0,,"Congressional District 30 (113th Congress), Texas",30,48
540261.0,,1602.0,,373648.0,,2823.0,,354692.0,,2676.0,,326060.0,,2819.0,,28632.0,,1627.0,,18956.0,,996.0,,166613.0,,2843.0,,"Congressional District 31 (113th Congress), Texas",31,48
554453.0,,3352.0,,396010.0,,3355.0,,395867.0,,3338.0,,364310.0,,3310.0,,31557.0,,1381.0,,143.0,,78.0,,158443.0,,2297.0,,"Congressional District 32 (113th Congress), Texas",32,48
499823.0,,3804.0,,329245.0,,3542.0,,329031.0,,3546.0,,289404.0,,3500.0,,39627.0,,1301.0,,214.0,,95.0,,170578.0,,2626.0,,"Congressional District 33 (113th Congress), Texas",33,48
512543.0,,1687.0,,279034.0,,2698.0,,278237.0,,2705.0,,249404.0,,2639.0,,28833.0,,1444.0,,797.0,,223.0,,233509.0,,2554.0,,"Congressional District 34 (113th Congress), Texas",34,48
538545.0,,4614.0,,355725.0,,4263.0,,353813.0,,4275.0,,320129.0,,4053.0,,33684.0,,1543.0,,1912.0,,301.0,,182820.0,,2718.0,,"Congressional District 35 (113th Congress), Texas",35,48
547939.0,,2869.0,,332975.0,,3064.0,,332584.0,,3056.0,,299733.0,,3031.0,,32851.0,,1408.0,,391.0,,153.0,,214964.0,,2948.0,,"Congressional District 36 (113th Congress), Texas",36,48
498308.0,,789.0,,341707.0,,2166.0,,338481.0,,2211.0,,316061.0,,2117.0,,22420.0,,991.0,,3226.0,,382.0,,156601.0,,2087.0,,"Congressional District 1 (113th Congress), Utah",01,49
515538.0,,1964.0,,341759.0,,2742.0,,340926.0,,2746.0,,312190.0,,2868.0,,28736.0,,1369.0,,833.0,,153.0,,173779.0,,2298.0,,"Congressional District 2 (113th Congress), Utah",02,49
503370.0,,1693.0,,338876.0,,1925.0,,338423.0,,1930.0,,314709.0,,2052.0,,23714.0,,1156.0,,453.0,,159.0,,164494.0,,1766.0,,"Congressional District 3 (113th Congress), Utah",03,49
503923.0,,2369.0,,360023.0,,2581.0,,359328.0,,2563.0,,332749.0,,2366.0,,26579.0,,1258.0,,695.0,,178.0,,143900.0,,2103.0,,"Congressional District 4 (113th Congress), Utah",04,49
515484.0,,433.0,,348495.0,,1610.0,,347896.0,,1604.0,,324350.0,,1823.0,,23546.0,,888.0,,599.0,,141.0,,166989.0,,1650.0,,"Congressional District (at Large) (113th Congress), Vermont",00,50
579372.0,,2299.0,,389477.0,,2639.0,,373015.0,,2621.0,,348002.0,,2844.0,,25013.0,,1264.0,,16462.0,,1212.0,,189895.0,,2219.0,,"Congressional District 1 (113th Congress), Virginia",01,51
582531.0,,2475.0,,408634.0,,2856.0,,365898.0,,2791.0,,339496.0,,2957.0,,26402.0,,1257.0,,42736.0,,1938.0,,173897.0,,2310.0,,"Congressional District 2 (113th Congress), Virginia",02,51
590990.0,,2990.0,,389305.0,,3073.0,,369595.0,,3085.0,,324236.0,,3085.0,,45359.0,,1500.0,,19710.0,,1620.0,,201685.0,,2436.0,,"Congressional District 3 (113th Congress), Virginia",03,51
578667.0,,1470.0,,374163.0,,2507.0,,362670.0,,2600.0,,332209.0,,2544.0,,30461.0,,1320.0,,11493.0,,862.0,,204504.0,,2533.0,,"Congressional District 4 (113th Congress), Virginia",04,51
593267.0,,1236.0,,346343.0,,2924.0,,345459.0,,2932.0,,318241.0,,2976.0,,27218.0,,1290.0,,884.0,,252.0,,246924.0,,2856.0,,"Congressional District 5 (113th Congress), Virginia",05,51
597333.0,,1259.0,,366884.0,,2567.0,,365816.0,,2533.0,,339465.0,,2561.0,,26351.0,,1130.0,,1068.0,,264.0,,230449.0,,2650.0,,"Congressional District 6 (113th Congress), Virginia",06,51
579112.0,,2204.0,,392952.0,,2522.0,,391847.0,,2553.0,,365835.0,,2677.0,,26012.0,,1207.0,,1105.0,,260.0,,186160.0,,2538.0,,"Congressional District 7 (113th Congress), Virginia",07,51
603120.0,,2416.0,,462436.0,,2551.0,,451076.0,,2694.0,,428782.0,,3119.0,,22294.0,,1222.0,,11360.0,,739.0,,140684.0,,2392.0,,"Congressional District 8 (113th Congress), Virginia",08,51
601072.0,,1085.0,,327438.0,,2549.0,,326770.0,,2561.0,,298328.0,,2680.0,,28442.0,,1206.0,,668.0,,170.0,,273634.0,,2760.0,,"Congressional District 9 (113th Congress), Virginia",09,51
564054.0,,2300.0,,409076.0,,2779.0,,406377.0,,2734.0,,385501.0,,2843.0,,20876.0,,1073.0,,2699.0,,347.0,,154978.0,,2239.0,,"Congressional District 10 (113th Congress), Virginia",10,51
584098.0,,3096.0,,436903.0,,3286.0,,429957.0,,3391.0,,405256.0,,3218.0,,24701.0,,1267.0,,6946.0,,600.0,,147195.0,,2325.0,,"Congressional District 11 (113th Congress), Virginia",11,51
536545.0,,2590.0,,364942.0,,2711.0,,363826.0,,2782.0,,335041.0,,2894.0,,28785.0,,1351.0,,1116.0,,255.0,,171603.0,,2783.0,,"Congressional District 1 (113th Congress), Washington",01,53
548019.0,,2115.0,,362349.0,,2778.0,,353969.0,,2817.0,,319120.0,,3000.0,,34849.0,,1362.0,,8380.0,,887.0,,185670.0,,2659.0,,"Congressional District 2 (113th Congress), Washington",02,53
529713.0,,837.0,,324383.0,,2460.0,,323374.0,,2503.0,,285575.0,,2490.0,,37799.0,,1472.0,,1009.0,,229.0,,205330.0,,2367.0,,"Congressional District 3 (113th Congress), Washington",03,53
502131.0,,756.0,,317995.0,,2444.0,,317620.0,,2447.0,,286331.0,,2764.0,,31289.0,,1616.0,,375.0,,126.0,,184136.0,,2413.0,,"Congressional District 4 (113th Congress), Washington",04,53
543626.0,,601.0,,327083.0,,2333.0,,324685.0,,2473.0,,293725.0,,2696.0,,30960.0,,1482.0,,2398.0,,443.0,,216543.0,,2366.0,,"Congressional District 5 (113th Congress), Washington",05,53
555082.0,,1729.0,,328888.0,,2577.0,,315237.0,,2803.0,,280068.0,,2578.0,,35169.0,,1428.0,,13651.0,,1132.0,,226194.0,,2247.0,,"Congressional District 6 (113th Congress), Washington",06,53
587626.0,,2399.0,,421691.0,,2922.0,,420314.0,,2884.0,,390587.0,,2920.0,,29727.0,,1314.0,,1377.0,,258.0,,165935.0,,2363.0,,"Congressional District 7 (113th Congress), Washington",07,53
532298.0,,2818.0,,360955.0,,2878.0,,359647.0,,2892.0,,329163.0,,2779.0,,30484.0,,1324.0,,1308.0,,233.0,,171343.0,,2252.0,,"Congressional District 8 (113th Congress), Washington",08,53
544462.0,,2535.0,,369597.0,,3419.0,,368631.0,,3401.0,,336291.0,,3507.0,,32340.0,,1218.0,,966.0,,191.0,,174865.0,,2861.0,,"Congressional District 9 (113th Congress), Washington",09,53
536634.0,,2256.0,,348893.0,,2499.0,,329582.0,,2641.0,,293829.0,,2557.0,,35753.0,,1586.0,,19311.0,,1196.0,,187741.0,,2291.0,,"Congressional District 10 (113th Congress), Washington",10,53
509792.0,,501.0,,287631.0,,2144.0,,287249.0,,2157.0,,264613.0,,2311.0,,22636.0,,1109.0,,382.0,,106.0,,222161.0,,2185.0,,"Congressional District 1 (113th Congress), West Virginia",01,54
501092.0,,609.0,,294987.0,,2310.0,,294390.0,,2311.0,,268133.0,,2453.0,,26257.0,,1208.0,,597.0,,164.0,,206105.0,,2285.0,,"Congressional District 2 (113th Congress), West Virginia",02,54
501504.0,,558.0,,243607.0,,2478.0,,243344.0,,2486.0,,222886.0,,2450.0,,20458.0,,1096.0,,263.0,,112.0,,257897.0,,2531.0,,"Congressional District 3 (113th Congress), West Virginia",03,54
560324.0,,1247.0,,380159.0,,2391.0,,379658.0,,2406.0,,345388.0,,2519.0,,34270.0,,1595.0,,501.0,,162.0,,180165.0,,2187.0,,"Congressional District 1 (113th Congress), Wisconsin",01,55
576786.0,,783.0,,417754.0,,1844.0,,417326.0,,1843.0,,391111.0,,2051.0,,26215.0,,1009.0,,428.0,,126.0,,159032.0,,1743.0,,"Congressional District 2 (113th Congress), Wisconsin",02,55
575870.0,,759.0,,383668.0,,1750.0,,382854.0,,1724.0,,357338.0,,1874.0,,25516.0,,979.0,,814.0,,189.0,,192202.0,,1734.0,,"Congressional District 3 (113th Congress), Wisconsin",03,55
547484.0,,1091.0,,360228.0,,2363.0,,360011.0,,2373.0,,314301.0,,2518.0,,45710.0,,1466.0,,217.0,,95.0,,187256.0,,2339.0,,"Congressional District 4 (113th Congress), Wisconsin",04,55
571657.0,,1052.0,,398226.0,,1796.0,,397998.0,,1794.0,,372284.0,,2006.0,,25714.0,,1079.0,,228.0,,109.0,,173431.0,,1746.0,,"Congressional District 5 (113th Congress), Wisconsin",05,55
572295.0,,667.0,,382968.0,,1839.0,,382578.0,,1832.0,,355861.0,,1939.0,,26717.0,,1124.0,,390.0,,111.0,,189327.0,,1753.0,,"Congressional District 6 (113th Congress), Wisconsin",06,55
568563.0,,899.0,,372228.0,,1670.0,,371812.0,,1676.0,,343296.0,,2017.0,,28516.0,,1059.0,,416.0,,109.0,,196335.0,,1576.0,,"Congressional District 7 (113th Congress), Wisconsin",07,55
564898.0,,571.0,,387150.0,,1965.0,,386863.0,,1998.0,,360057.0,,2217.0,,26806.0,,1161.0,,287.0,,106.0,,177748.0,,1832.0,,"Congressional District 8 (113th Congress), Wisconsin",08,55
448295.0,,650.0,,309519.0,,1821.0,,306583.0,,1815.0,,289823.0,,1844.0,,16760.0,,1035.0,,2936.0,,375.0,,138776.0,,1874.0,,"Congressional District (at Large) (113th Congress), Wyoming",00,56
2925380.0,,1154.0,,1348444.0,,5412.0,,1346962.0,,5444.0,,1099138.0,,5540.0,,247824.0,,3462.0,,1482.0,,262.0,,1576936.0,,5786.0,,"Resident Commissioner District (at Large) (113th Congress), Puerto Rico",98,72
