B01003_001E,B01003_001EA,B01003_001M,B01003_001MA,NAME,combined new england city and town area
124625.0,,416.0,,"Augusta-Waterville, ME Combined NECTA",710
7642483.0,,526.0,,"Boston-Worcester-Providence, MA-RI-NH-CT-ME Combined NECTA",715
1918596.0,,121.0,,"Bridgeport-New Haven-Stamford, CT Combined NECTA",720
110819.0,,310.0,,"Pittsfield-North Adams, MA-VT Combined NECTA",770
550331.0,,550.0,,"Portland-Lewiston-South Portland, ME Combined NECTA",775
1964876.0,,437.0,,"Springfield-Hartford-West Hartford, MA-CT Combined NECTA",790
