B05002_001E,B05002_001EA,B05002_001M,B05002_001MA,B05002_002E,B05002_002EA,B05002_002M,B05002_002MA,B05002_013E,B05002_013EA,B05002_013M,B05002_013MA,NAME,congressional district,state
720316.0,,-555555555.0,*****,669941.0,,1262.0,,50375.0,,1262.0,,"Congressional District (at Large) (113th Congress), Alaska",00,02
738408.0,,-555555555.0,*****,709684.0,,1510.0,,28724.0,,1510.0,,"Congressional District 2 (113th Congress), Arkansas",02,05
908446.0,,-555555555.0,*****,831683.0,,2039.0,,76763.0,,2039.0,,"Congressional District (at Large) (113th Congress), Delaware",00,10
619371.0,,-555555555.0,*****,534142.0,,2017.0,,85229.0,,2017.0,,"Delegate District (at Large) (113th Congress), District of Columbia",98,11
764196.0,,-555555555.0,*****,740529.0,,964.0,,23667.0,,965.0,,"Congressional District 1 (113th Congress), Iowa",01,19
765751.0,,-555555555.0,*****,732743.0,,1190.0,,33008.0,,1190.0,,"Congressional District 2 (113th Congress), Iowa",02,19
771876.0,,-555555555.0,*****,724663.0,,1497.0,,47213.0,,1497.0,,"Congressional District 3 (113th Congress), Iowa",03,19
760730.0,,-555555555.0,*****,727557.0,,969.0,,33173.0,,969.0,,"Congressional District 4 (113th Congress), Iowa",04,19
998554.0,,-555555555.0,*****,978862.0,,862.0,,19692.0,,862.0,,"Congressional District (at Large) (113th Congress), Montana",00,30
689781.0,,-555555555.0,*****,671212.0,,932.0,,18569.0,,932.0,,"Congressional District (at Large) (113th Congress), North Dakota",00,38
825198.0,,-555555555.0,*****,802143.0,,1194.0,,23055.0,,1194.0,,"Congressional District (at Large) (113th Congress), South Dakota",00,46
625904.0,,-555555555.0,*****,600314.0,,1070.0,,25590.0,,1070.0,,"Congressional District (at Large) (113th Congress), Vermont",00,50
616974.0,,-555555555.0,*****,607924.0,,689.0,,9050.0,,689.0,,"Congressional District 1 (113th Congress), West Virginia",01,54
622552.0,,-555555555.0,*****,611285.0,,912.0,,11267.0,,912.0,,"Congressional District 2 (113th Congress), West Virginia",02,54
614093.0,,-555555555.0,*****,608069.0,,535.0,,6024.0,,535.0,,"Congressional District 3 (113th Congress), West Virginia",03,54
570134.0,,-555555555.0,*****,551552.0,,1182.0,,18582.0,,1182.0,,"Congressional District (at Large) (113th Congress), Wyoming",00,56
3682966.0,,-555555555.0,*****,3580447.0,,2760.0,,102519.0,,2760.0,,"Resident Commissioner District (at Large) (113th Congress), Puerto Rico",98,72
718756.0,,2422.0,,687454.0,,2607.0,,31302.0,,1450.0,,"Congressional District 9 (113th Congress), Ohio",09,39
705045.0,,908.0,,687118.0,,1148.0,,17927.0,,913.0,,"Congressional District 12 (113th Congress), Pennsylvania",12,42
710994.0,,1097.0,,651605.0,,2135.0,,59389.0,,2076.0,,"Congressional District 11 (113th Congress), Texas",11,48
725214.0,,3237.0,,639186.0,,4044.0,,86028.0,,2327.0,,"Congressional District 26 (113th Congress), Texas",26,48
794603.0,,1649.0,,757628.0,,2415.0,,36975.0,,1758.0,,"Congressional District 1 (113th Congress), Idaho",01,16
735821.0,,3108.0,,564805.0,,3141.0,,171016.0,,3143.0,,"Congressional District 8 (113th Congress), Maryland",08,24
527330.0,,1872.0,,442867.0,,2379.0,,84463.0,,2289.0,,"Congressional District 1 (113th Congress), Rhode Island",01,44
725298.0,,685.0,,555604.0,,3179.0,,169694.0,,3077.0,,"Congressional District 17 (113th Congress), New York",17,36
684488.0,,2188.0,,650246.0,,2611.0,,34242.0,,1327.0,,"Congressional District 6 (113th Congress), Alabama",06,01
721723.0,,4677.0,,385219.0,,5015.0,,336504.0,,5469.0,,"Congressional District 26 (113th Congress), Florida",26,12
700887.0,,3905.0,,576590.0,,4705.0,,124297.0,,3226.0,,"Congressional District 3 (113th Congress), Nevada",03,32
686373.0,,3798.0,,576627.0,,3843.0,,109746.0,,3115.0,,"Congressional District 4 (113th Congress), Nevada",04,32
723706.0,,1956.0,,703340.0,,2105.0,,20366.0,,1209.0,,"Congressional District 2 (113th Congress), Ohio",02,39
764555.0,,4229.0,,720776.0,,4099.0,,43779.0,,1665.0,,"Congressional District 2 (113th Congress), Louisiana",02,22
733514.0,,1112.0,,646203.0,,2269.0,,87311.0,,2048.0,,"Congressional District 4 (113th Congress), Massachusetts",04,25
728692.0,,750.0,,707488.0,,1268.0,,21204.0,,1041.0,,"Congressional District 2 (113th Congress), Kentucky",02,21
705742.0,,1082.0,,664761.0,,2045.0,,40981.0,,1931.0,,"Congressional District 10 (113th Congress), Michigan",10,26
679270.0,,868.0,,624086.0,,2191.0,,55184.0,,2283.0,,"Congressional District 3 (113th Congress), Washington",03,53
712838.0,,700.0,,696503.0,,1013.0,,16335.0,,712.0,,"Congressional District 3 (113th Congress), Wisconsin",03,55
721578.0,,1863.0,,600417.0,,3554.0,,121161.0,,3134.0,,"Congressional District 2 (113th Congress), New York",02,36
710045.0,,4058.0,,611239.0,,3970.0,,98806.0,,2959.0,,"Congressional District 23 (113th Congress), California",23,06
770897.0,,850.0,,723829.0,,1828.0,,47068.0,,1636.0,,"Congressional District 2 (113th Congress), Oregon",02,41
715860.0,,2719.0,,391266.0,,4010.0,,324594.0,,3912.0,,"Congressional District 17 (113th Congress), California",17,06
711522.0,,3721.0,,555512.0,,3806.0,,156010.0,,3331.0,,"Congressional District 52 (113th Congress), California",52,06
716083.0,,939.0,,672207.0,,1943.0,,43876.0,,1659.0,,"Congressional District 19 (113th Congress), New York",19,36
723247.0,,312.0,,695515.0,,1265.0,,27732.0,,1285.0,,"Congressional District 10 (113th Congress), Ohio",10,39
740638.0,,1333.0,,672738.0,,2113.0,,67900.0,,1762.0,,"Congressional District 3 (113th Congress), Arkansas",03,05
658193.0,,170.0,,623073.0,,1204.0,,35120.0,,1199.0,,"Congressional District 2 (113th Congress), New Hampshire",02,33
697699.0,,2765.0,,613150.0,,3414.0,,84549.0,,2356.0,,"Congressional District 13 (113th Congress), Florida",13,12
712934.0,,3878.0,,536936.0,,4269.0,,175998.0,,3493.0,,"Congressional District 21 (113th Congress), Florida",21,12
737611.0,,2375.0,,624535.0,,3589.0,,113076.0,,2751.0,,"Congressional District 8 (113th Congress), Massachusetts",08,25
707712.0,,3895.0,,411051.0,,4762.0,,296661.0,,4368.0,,"Congressional District 28 (113th Congress), California",28,06
711444.0,,3524.0,,665788.0,,3705.0,,45656.0,,1993.0,,"Congressional District 2 (113th Congress), Illinois",02,17
735939.0,,467.0,,650929.0,,2237.0,,85010.0,,2269.0,,"Congressional District 6 (113th Congress), Massachusetts",06,25
676586.0,,395.0,,637277.0,,1584.0,,39309.0,,1611.0,,"Congressional District 5 (113th Congress), Washington",05,53
716463.0,,2117.0,,521442.0,,3923.0,,195021.0,,3911.0,,"Congressional District 45 (113th Congress), California",45,06
725035.0,,5069.0,,630432.0,,4462.0,,94603.0,,3144.0,,"Congressional District 6 (113th Congress), Arizona",06,04
728065.0,,2262.0,,665739.0,,2580.0,,62326.0,,2135.0,,"Congressional District 7 (113th Congress), Indiana",07,18
711856.0,,4802.0,,655303.0,,4700.0,,56553.0,,2292.0,,"Congressional District 2 (113th Congress), Pennsylvania",02,42
743991.0,,3061.0,,711078.0,,2897.0,,32913.0,,1541.0,,"Congressional District 3 (113th Congress), North Carolina",03,37
707600.0,,3509.0,,528330.0,,4112.0,,179270.0,,3719.0,,"Congressional District 16 (113th Congress), California",16,06
697518.0,,2294.0,,644021.0,,2372.0,,53497.0,,1623.0,,"Congressional District 9 (113th Congress), Georgia",09,13
719261.0,,788.0,,693786.0,,1158.0,,25475.0,,1011.0,,"Congressional District 21 (113th Congress), New York",21,36
716445.0,,342.0,,689915.0,,1192.0,,26530.0,,1151.0,,"Congressional District 23 (113th Congress), New York",23,36
720427.0,,4752.0,,653689.0,,4546.0,,66738.0,,2133.0,,"Congressional District 7 (113th Congress), Maryland",07,24
737997.0,,998.0,,542775.0,,3519.0,,195222.0,,3397.0,,"Congressional District 12 (113th Congress), New Jersey",12,34
718722.0,,4170.0,,660164.0,,3937.0,,58558.0,,1950.0,,"Congressional District 25 (113th Congress), Texas",25,48
720177.0,,612.0,,681920.0,,1482.0,,38257.0,,1375.0,,"Congressional District 2 (113th Congress), Indiana",02,18
699400.0,,1200.0,,638488.0,,2055.0,,60912.0,,1783.0,,"Congressional District 13 (113th Congress), Texas",13,48
711508.0,,2712.0,,584026.0,,3968.0,,127482.0,,3252.0,,"Congressional District 7 (113th Congress), California",07,06
724951.0,,1486.0,,590616.0,,3149.0,,134335.0,,2873.0,,"Congressional District 3 (113th Congress), Texas",03,48
719996.0,,57.0,,659810.0,,1888.0,,60186.0,,1883.0,,"Congressional District 25 (113th Congress), New York",25,36
703369.0,,1037.0,,667603.0,,1636.0,,35766.0,,1590.0,,"Congressional District 1 (113th Congress), Georgia",01,13
709475.0,,4588.0,,590066.0,,4421.0,,119409.0,,3121.0,,"Congressional District 30 (113th Congress), Texas",30,48
709158.0,,3753.0,,565037.0,,3917.0,,144121.0,,3374.0,,"Congressional District 32 (113th Congress), Texas",32,48
727814.0,,519.0,,713822.0,,989.0,,13992.0,,783.0,,"Congressional District 1 (113th Congress), Arkansas",01,05
706679.0,,3067.0,,454684.0,,4221.0,,251995.0,,3394.0,,"Congressional District 32 (113th Congress), California",32,06
751467.0,,2036.0,,731998.0,,2323.0,,19469.0,,956.0,,"Congressional District 6 (113th Congress), Missouri",06,29
716505.0,,2937.0,,451688.0,,3045.0,,264817.0,,3052.0,,"Congressional District 14 (113th Congress), California",14,06
712284.0,,5350.0,,376460.0,,4266.0,,335824.0,,4861.0,,"Congressional District 14 (113th Congress), New York",14,36
725210.0,,4333.0,,563454.0,,4473.0,,161756.0,,3553.0,,"Congressional District 5 (113th Congress), Illinois",05,17
716669.0,,3360.0,,616779.0,,3583.0,,99890.0,,2827.0,,"Congressional District 6 (113th Congress), Illinois",06,17
703962.0,,1857.0,,633898.0,,2429.0,,70064.0,,1979.0,,"Congressional District 14 (113th Congress), Texas",14,48
711871.0,,5495.0,,617249.0,,5555.0,,94622.0,,3025.0,,"Congressional District 10 (113th Congress), Florida",10,12
712540.0,,2573.0,,477119.0,,4157.0,,235421.0,,3548.0,,"Congressional District 39 (113th Congress), California",39,06
738554.0,,1159.0,,473294.0,,3183.0,,265260.0,,2938.0,,"Congressional District 9 (113th Congress), New Jersey",09,34
728973.0,,5183.0,,432007.0,,4474.0,,296966.0,,4229.0,,"Congressional District 9 (113th Congress), New York",09,36
755153.0,,590.0,,721765.0,,1120.0,,33388.0,,1036.0,,"Congressional District 3 (113th Congress), Oklahoma",03,40
713181.0,,495.0,,689795.0,,1379.0,,23386.0,,1236.0,,"Congressional District 2 (113th Congress), Kansas",02,20
751928.0,,1095.0,,728671.0,,1533.0,,23257.0,,1344.0,,"Congressional District 4 (113th Congress), Missouri",04,29
718572.0,,837.0,,706955.0,,1251.0,,11617.0,,903.0,,"Congressional District 4 (113th Congress), Ohio",04,39
705080.0,,1613.0,,610094.0,,2653.0,,94986.0,,2219.0,,"Congressional District 2 (113th Congress), California",02,06
709794.0,,998.0,,634713.0,,2251.0,,75081.0,,2251.0,,"Congressional District 9 (113th Congress), Michigan",09,26
714295.0,,3226.0,,652987.0,,3927.0,,61308.0,,2447.0,,"Congressional District 4 (113th Congress), Arizona",04,04
714116.0,,6106.0,,592841.0,,5800.0,,121275.0,,3423.0,,"Congressional District 35 (113th Congress), Texas",35,48
724869.0,,490.0,,697378.0,,1320.0,,27491.0,,1161.0,,"Congressional District 9 (113th Congress), Indiana",09,18
714362.0,,1557.0,,681048.0,,2104.0,,33314.0,,1576.0,,"Congressional District 4 (113th Congress), Tennessee",04,47
727039.0,,1393.0,,696702.0,,2055.0,,30337.0,,1313.0,,"Congressional District 5 (113th Congress), Virginia",05,51
685502.0,,1892.0,,664305.0,,2002.0,,21197.0,,1102.0,,"Congressional District 2 (113th Congress), Alabama",02,01
704931.0,,3378.0,,491275.0,,4180.0,,213656.0,,3944.0,,"Congressional District 21 (113th Congress), California",21,06
700954.0,,3168.0,,617098.0,,3849.0,,83856.0,,2558.0,,"Congressional District 11 (113th Congress), Georgia",11,13
736637.0,,1708.0,,724868.0,,1867.0,,11769.0,,934.0,,"Congressional District 2 (113th Congress), Mississippi",02,28
723918.0,,171.0,,710699.0,,823.0,,13219.0,,785.0,,"Congressional District 1 (113th Congress), Kentucky",01,21
759767.0,,1202.0,,741696.0,,1582.0,,18071.0,,1028.0,,"Congressional District 4 (113th Congress), Louisiana",04,22
682322.0,,565.0,,571430.0,,2219.0,,110892.0,,2212.0,,"Congressional District 4 (113th Congress), Washington",04,53
703351.0,,586.0,,649672.0,,2034.0,,53679.0,,2193.0,,"Congressional District 19 (113th Congress), Texas",19,48
713090.0,,5366.0,,485356.0,,4928.0,,227734.0,,3857.0,,"Congressional District 37 (113th Congress), California",37,06
740254.0,,1237.0,,633317.0,,3120.0,,106937.0,,2866.0,,"Congressional District 1 (113th Congress), Colorado",01,08
704901.0,,3407.0,,636633.0,,3954.0,,68268.0,,2381.0,,"Congressional District 14 (113th Congress), Michigan",14,26
721469.0,,1248.0,,708318.0,,1662.0,,13151.0,,953.0,,"Congressional District 7 (113th Congress), Ohio",07,39
700716.0,,5522.0,,423332.0,,5553.0,,277384.0,,4552.0,,"Congressional District 24 (113th Congress), Florida",24,12
702286.0,,1010.0,,647206.0,,1932.0,,55080.0,,1636.0,,"Congressional District 1 (113th Congress), Texas",01,48
731197.0,,5120.0,,620798.0,,4524.0,,110399.0,,3660.0,,"Congressional District 3 (113th Congress), Maryland",03,24
720793.0,,3498.0,,564703.0,,4154.0,,156090.0,,3449.0,,"Congressional District 24 (113th Congress), Texas",24,48
717868.0,,1007.0,,710754.0,,1343.0,,7114.0,,744.0,,"Congressional District 6 (113th Congress), Ohio",06,39
687708.0,,664.0,,666955.0,,1429.0,,20753.0,,1261.0,,"Congressional District 1 (113th Congress), Alabama",01,01
714344.0,,286.0,,664671.0,,1773.0,,49673.0,,1782.0,,"Congressional District 2 (113th Congress), Connecticut",02,09
709239.0,,1090.0,,657550.0,,1882.0,,51689.0,,1733.0,,"Congressional District 16 (113th Congress), Pennsylvania",16,42
711297.0,,2296.0,,493637.0,,3753.0,,217660.0,,3239.0,,"Congressional District 38 (113th Congress), California",38,06
684234.0,,2928.0,,582757.0,,3403.0,,101477.0,,2749.0,,"Congressional District 1 (113th Congress), Washington",01,53
712056.0,,816.0,,674903.0,,1522.0,,37153.0,,1313.0,,"Congressional District 1 (113th Congress), Wisconsin",01,55
714905.0,,3299.0,,669829.0,,3851.0,,45076.0,,2118.0,,"Congressional District 1 (113th Congress), Arizona",01,04
705977.0,,4530.0,,595005.0,,4290.0,,110972.0,,3067.0,,"Congressional District 4 (113th Congress), Georgia",04,13
738091.0,,2531.0,,514266.0,,3680.0,,223825.0,,3671.0,,"Congressional District 7 (113th Congress), Massachusetts",07,25
715141.0,,2720.0,,578998.0,,4545.0,,136143.0,,3419.0,,"Congressional District 11 (113th Congress), Illinois",11,17
735302.0,,3406.0,,691782.0,,3056.0,,43520.0,,1465.0,,"Congressional District 8 (113th Congress), North Carolina",08,37
749231.0,,5058.0,,643933.0,,4574.0,,105298.0,,2677.0,,"Congressional District 12 (113th Congress), North Carolina",12,37
729175.0,,2659.0,,694943.0,,2816.0,,34232.0,,1855.0,,"Congressional District 12 (113th Congress), Ohio",12,39
717291.0,,3408.0,,522680.0,,3905.0,,194611.0,,3542.0,,"Congressional District 18 (113th Congress), California",18,06
713822.0,,2189.0,,554391.0,,3771.0,,159431.0,,3405.0,,"Congressional District 9 (113th Congress), California",09,06
719933.0,,945.0,,682982.0,,1631.0,,36951.0,,1323.0,,"Congressional District 14 (113th Congress), Ohio",14,39
728954.0,,457.0,,672365.0,,2106.0,,56589.0,,2087.0,,"Congressional District 1 (113th Congress), Massachusetts",01,25
722785.0,,5206.0,,482565.0,,4337.0,,240220.0,,4474.0,,"Congressional District 30 (113th Congress), California",30,06
710592.0,,1032.0,,659416.0,,2326.0,,51176.0,,2097.0,,"Congressional District 15 (113th Congress), Pennsylvania",15,42
702086.0,,2462.0,,650945.0,,2961.0,,51141.0,,1816.0,,"Congressional District 3 (113th Congress), Florida",03,12
699734.0,,3381.0,,656940.0,,3516.0,,42794.0,,1788.0,,"Congressional District 13 (113th Congress), Michigan",13,26
719449.0,,3622.0,,514329.0,,3969.0,,205120.0,,3564.0,,"Congressional District 11 (113th Congress), New York",11,36
706910.0,,4247.0,,463283.0,,3840.0,,243627.0,,3534.0,,"Congressional District 44 (113th Congress), California",44,06
686805.0,,3394.0,,598898.0,,3746.0,,87907.0,,2962.0,,"Congressional District 2 (113th Congress), Hawaii",02,15
664864.0,,284.0,,628605.0,,1139.0,,36259.0,,1138.0,,"Congressional District 1 (113th Congress), Minnesota",01,27
733481.0,,2525.0,,698846.0,,2693.0,,34635.0,,1684.0,,"Congressional District 10 (113th Congress), North Carolina",10,37
759751.0,,364.0,,737032.0,,1197.0,,22719.0,,1155.0,,"Congressional District 3 (113th Congress), Louisiana",03,22
719211.0,,2917.0,,647675.0,,3356.0,,71536.0,,2555.0,,"Congressional District 14 (113th Congress), Illinois",14,17
716926.0,,617.0,,640940.0,,2440.0,,75986.0,,2297.0,,"Congressional District 5 (113th Congress), Tennessee",05,47
721177.0,,4981.0,,473112.0,,5784.0,,248065.0,,4927.0,,"Congressional District 15 (113th Congress), New York",15,36
742794.0,,2658.0,,695727.0,,2856.0,,47067.0,,1549.0,,"Congressional District 7 (113th Congress), North Carolina",07,37
696619.0,,1684.0,,665465.0,,2202.0,,31154.0,,1294.0,,"Congressional District 8 (113th Congress), Georgia",08,13
709509.0,,3132.0,,583928.0,,4351.0,,125581.0,,3438.0,,"Congressional District 49 (113th Congress), California",49,06
731605.0,,676.0,,649616.0,,2312.0,,81989.0,,2110.0,,"Congressional District 2 (113th Congress), Massachusetts",02,25
724968.0,,4114.0,,657066.0,,4630.0,,67902.0,,2543.0,,"Congressional District 8 (113th Congress), Arizona",08,04
719912.0,,503.0,,671866.0,,1479.0,,48046.0,,1407.0,,"Congressional District 2 (113th Congress), Wisconsin",02,55
714956.0,,620.0,,679264.0,,1453.0,,35692.0,,1350.0,,"Congressional District 22 (113th Congress), New York",22,36
720771.0,,265.0,,706122.0,,955.0,,14649.0,,934.0,,"Congressional District 8 (113th Congress), Indiana",08,18
666672.0,,1831.0,,644012.0,,2206.0,,22660.0,,1160.0,,"Congressional District 5 (113th Congress), South Carolina",05,45
721673.0,,3067.0,,637099.0,,3725.0,,84574.0,,2489.0,,"Congressional District 8 (113th Congress), Texas",08,48
749622.0,,4428.0,,691342.0,,4561.0,,58280.0,,2208.0,,"Congressional District 13 (113th Congress), North Carolina",13,37
718975.0,,5326.0,,521593.0,,5496.0,,197382.0,,4446.0,,"Congressional District 7 (113th Congress), Arizona",07,04
707544.0,,825.0,,684723.0,,1553.0,,22821.0,,1300.0,,"Congressional District 18 (113th Congress), Pennsylvania",18,42
707012.0,,557.0,,687528.0,,1042.0,,19484.0,,963.0,,"Congressional District 1 (113th Congress), Tennessee",01,47
700791.0,,731.0,,665408.0,,1604.0,,35383.0,,1437.0,,"Congressional District 2 (113th Congress), Florida",02,12
710492.0,,166.0,,693837.0,,855.0,,16655.0,,855.0,,"Congressional District 12 (113th Congress), Illinois",12,17
709220.0,,427.0,,671209.0,,1565.0,,38011.0,,1559.0,,"Congressional District 2 (113th Congress), Michigan",02,26
689995.0,,33.0,,658682.0,,1118.0,,31313.0,,1116.0,,"Congressional District 5 (113th Congress), Alabama",05,01
710184.0,,2029.0,,674597.0,,2294.0,,35587.0,,1403.0,,"Congressional District 13 (113th Congress), Illinois",13,17
741564.0,,5989.0,,472388.0,,6118.0,,269176.0,,5518.0,,"Congressional District 13 (113th Congress), New York",13,36
710251.0,,3029.0,,416737.0,,3782.0,,293514.0,,3892.0,,"Congressional District 46 (113th Congress), California",46,06
702789.0,,2737.0,,634536.0,,3519.0,,68253.0,,2423.0,,"Congressional District 12 (113th Congress), Florida",12,12
716782.0,,3135.0,,492616.0,,4786.0,,224166.0,,4172.0,,"Congressional District 35 (113th Congress), California",35,06
722189.0,,374.0,,574337.0,,3075.0,,147852.0,,2992.0,,"Congressional District 4 (113th Congress), Connecticut",04,09
712166.0,,4117.0,,540725.0,,4011.0,,171441.0,,3679.0,,"Congressional District 7 (113th Congress), Georgia",07,13
719948.0,,2062.0,,650276.0,,2880.0,,69672.0,,2136.0,,"Congressional District 31 (113th Congress), Texas",31,48
686251.0,,2374.0,,581602.0,,2721.0,,104649.0,,2500.0,,"Congressional District 7 (113th Congress), Washington",07,53
728317.0,,1534.0,,669237.0,,2715.0,,59080.0,,2265.0,,"Congressional District 4 (113th Congress), Colorado",04,08
748973.0,,556.0,,733959.0,,894.0,,15014.0,,665.0,,"Congressional District 2 (113th Congress), Oklahoma",02,40
713834.0,,2248.0,,539630.0,,3759.0,,174204.0,,3216.0,,"Congressional District 11 (113th Congress), California",11,06
705446.0,,3800.0,,637359.0,,4199.0,,68087.0,,2696.0,,"Congressional District 4 (113th Congress), Florida",04,12
734831.0,,1209.0,,574435.0,,3394.0,,160396.0,,3174.0,,"Congressional District 5 (113th Congress), Massachusetts",05,25
750456.0,,1981.0,,706175.0,,2751.0,,44281.0,,2015.0,,"Congressional District 5 (113th Congress), Missouri",05,29
719598.0,,495.0,,678573.0,,1737.0,,41025.0,,1685.0,,"Congressional District 1 (113th Congress), Indiana",01,18
719589.0,,884.0,,662322.0,,2034.0,,57267.0,,1776.0,,"Congressional District 20 (113th Congress), New York",20,36
731887.0,,751.0,,695623.0,,1342.0,,36264.0,,1128.0,,"Congressional District 6 (113th Congress), Kentucky",06,21
686997.0,,1470.0,,668206.0,,1814.0,,18791.0,,1109.0,,"Congressional District 3 (113th Congress), Alabama",03,01
710659.0,,5177.0,,327232.0,,4369.0,,383427.0,,4023.0,,"Congressional District 27 (113th Congress), Florida",27,12
691624.0,,2073.0,,615026.0,,3775.0,,76598.0,,3332.0,,"Congressional District 1 (113th Congress), New Mexico",01,35
707173.0,,1068.0,,540230.0,,3085.0,,166943.0,,3062.0,,"Congressional District 26 (113th Congress), California",26,06
704455.0,,683.0,,625836.0,,2093.0,,78619.0,,1936.0,,"Congressional District 12 (113th Congress), Michigan",12,26
685310.0,,2974.0,,615492.0,,3222.0,,69818.0,,2086.0,,"Congressional District 10 (113th Congress), Washington",10,53
713773.0,,1864.0,,449317.0,,3991.0,,264456.0,,4105.0,,"Congressional District 23 (113th Congress), Florida",23,12
706206.0,,4478.0,,535804.0,,3746.0,,170402.0,,3840.0,,"Congressional District 22 (113th Congress), Florida",22,12
710298.0,,649.0,,695202.0,,837.0,,15096.0,,539.0,,"Congressional District 7 (113th Congress), Wisconsin",07,55
720418.0,,1039.0,,636958.0,,2983.0,,83460.0,,2958.0,,"Congressional District 1 (113th Congress), New York",01,36
709858.0,,2844.0,,550334.0,,4036.0,,159524.0,,3318.0,,"Congressional District 6 (113th Congress), California",06,06
715442.0,,1491.0,,489490.0,,3120.0,,225952.0,,3152.0,,"Congressional District 15 (113th Congress), California",15,06
712768.0,,109.0,,644308.0,,1743.0,,68460.0,,1751.0,,"Congressional District 4 (113th Congress), Wisconsin",04,55
695190.0,,2179.0,,670325.0,,2339.0,,24865.0,,1384.0,,"Congressional District 2 (113th Congress), Georgia",02,13
700582.0,,667.0,,686196.0,,1107.0,,14386.0,,867.0,,"Congressional District 5 (113th Congress), Michigan",05,26
752890.0,,546.0,,728822.0,,1372.0,,24068.0,,1349.0,,"Congressional District 7 (113th Congress), Missouri",07,29
733531.0,,879.0,,657601.0,,2086.0,,75930.0,,1900.0,,"Congressional District 2 (113th Congress), New Jersey",02,34
747568.0,,2421.0,,705657.0,,3027.0,,41911.0,,1882.0,,"Congressional District 1 (113th Congress), Missouri",01,29
703635.0,,883.0,,688223.0,,1273.0,,15412.0,,877.0,,"Congressional District 3 (113th Congress), Pennsylvania",03,42
701875.0,,3853.0,,400881.0,,3493.0,,300994.0,,3773.0,,"Congressional District 40 (113th Congress), California",40,06
677416.0,,2341.0,,630443.0,,2837.0,,46973.0,,1811.0,,"Congressional District 6 (113th Congress), Washington",06,53
729216.0,,3825.0,,659583.0,,3977.0,,69633.0,,2405.0,,"Congressional District 5 (113th Congress), Arizona",05,04
707138.0,,4329.0,,627894.0,,4503.0,,79244.0,,2925.0,,"Congressional District 15 (113th Congress), Florida",15,12
755125.0,,1904.0,,743084.0,,2030.0,,12041.0,,929.0,,"Congressional District 5 (113th Congress), Louisiana",05,22
729196.0,,3142.0,,655280.0,,3132.0,,73916.0,,2403.0,,"Congressional District 5 (113th Congress), Maryland",05,24
679579.0,,668.0,,594232.0,,1792.0,,85347.0,,1855.0,,"Congressional District 2 (113th Congress), Nevada",02,32
736026.0,,2845.0,,676247.0,,3091.0,,59779.0,,2017.0,,"Congressional District 7 (113th Congress), Virginia",07,51
717390.0,,707.0,,692789.0,,1513.0,,24601.0,,1335.0,,"Congressional District 27 (113th Congress), New York",27,36
726509.0,,1366.0,,703728.0,,1486.0,,22781.0,,802.0,,"Congressional District 4 (113th Congress), Arkansas",04,05
744775.0,,2981.0,,420255.0,,3305.0,,324520.0,,3291.0,,"Congressional District 8 (113th Congress), New Jersey",08,34
694661.0,,7009.0,,607811.0,,6223.0,,86850.0,,3487.0,,"Congressional District 5 (113th Congress), Florida",05,12
732011.0,,3318.0,,535973.0,,4653.0,,196038.0,,3505.0,,"Congressional District 10 (113th Congress), New Jersey",10,34
701538.0,,1788.0,,656736.0,,2607.0,,44802.0,,1856.0,,"Congressional District 11 (113th Congress), Florida",11,12
707787.0,,339.0,,676882.0,,1335.0,,30905.0,,1283.0,,"Congressional District 6 (113th Congress), Michigan",06,26
720913.0,,273.0,,705152.0,,905.0,,15761.0,,814.0,,"Congressional District 6 (113th Congress), Indiana",06,18
724953.0,,3029.0,,666167.0,,3226.0,,58786.0,,1722.0,,"Congressional District 2 (113th Congress), Virginia",02,51
703728.0,,5311.0,,388676.0,,4305.0,,315052.0,,4727.0,,"Congressional District 29 (113th Congress), California",29,06
751122.0,,2970.0,,602919.0,,3183.0,,148203.0,,3178.0,,"Congressional District 10 (113th Congress), Virginia",10,51
728046.0,,4604.0,,683239.0,,4783.0,,44807.0,,1852.0,,"Congressional District 1 (113th Congress), North Carolina",01,37
667516.0,,758.0,,639183.0,,1518.0,,28333.0,,1218.0,,"Congressional District 7 (113th Congress), South Carolina",07,45
751263.0,,3101.0,,686229.0,,3454.0,,65034.0,,2165.0,,"Congressional District 2 (113th Congress), North Carolina",02,37
707065.0,,3655.0,,639727.0,,4203.0,,67338.0,,2568.0,,"Congressional District 5 (113th Congress), Georgia",05,13
709584.0,,2144.0,,676738.0,,2222.0,,32846.0,,1448.0,,"Congressional District 17 (113th Congress), Illinois",17,17
710874.0,,3614.0,,552894.0,,4289.0,,157980.0,,3161.0,,"Congressional District 28 (113th Congress), Texas",28,48
717584.0,,779.0,,630690.0,,2482.0,,86894.0,,2402.0,,"Congressional District 18 (113th Congress), New York",18,36
747697.0,,3622.0,,702450.0,,3291.0,,45247.0,,1974.0,,"Congressional District 6 (113th Congress), North Carolina",06,37
706678.0,,1864.0,,653684.0,,2616.0,,52994.0,,1998.0,,"Congressional District 6 (113th Congress), Florida",06,12
714259.0,,4651.0,,488134.0,,5370.0,,226125.0,,5088.0,,"Congressional District 20 (113th Congress), Florida",20,12
735783.0,,1009.0,,610458.0,,2260.0,,125325.0,,2258.0,,"Congressional District 7 (113th Congress), New Jersey",07,34
708385.0,,6406.0,,515325.0,,5569.0,,193060.0,,4410.0,,"Congressional District 7 (113th Congress), Texas",07,48
709510.0,,2877.0,,628843.0,,3418.0,,80667.0,,1855.0,,"Congressional District 17 (113th Congress), Texas",17,48
689493.0,,3394.0,,530665.0,,4197.0,,158828.0,,2950.0,,"Congressional District 1 (113th Congress), Hawaii",01,15
718444.0,,6382.0,,491350.0,,5663.0,,227094.0,,4363.0,,"Congressional District 10 (113th Congress), New York",10,36
747137.0,,5660.0,,431391.0,,4230.0,,315746.0,,4457.0,,"Congressional District 5 (113th Congress), New York",05,36
733703.0,,1016.0,,699131.0,,1539.0,,34572.0,,1247.0,,"Congressional District 6 (113th Congress), Virginia",06,51
758636.0,,821.0,,705867.0,,1526.0,,52769.0,,1322.0,,"Congressional District 1 (113th Congress), Oklahoma",01,40
726582.0,,726.0,,689639.0,,1658.0,,36943.0,,1409.0,,"Congressional District 4 (113th Congress), Indiana",04,18
710356.0,,2328.0,,532998.0,,3754.0,,177358.0,,3402.0,,"Congressional District 16 (113th Congress), Texas",16,48
710407.0,,7067.0,,562304.0,,6218.0,,148103.0,,4255.0,,"Congressional District 18 (113th Congress), Texas",18,48
708838.0,,751.0,,677161.0,,1484.0,,31677.0,,1284.0,,"Congressional District 4 (113th Congress), Pennsylvania",04,42
713955.0,,4214.0,,563887.0,,5032.0,,150068.0,,3014.0,,"Congressional District 3 (113th Congress), Arizona",03,04
723445.0,,5391.0,,616320.0,,5075.0,,107125.0,,3171.0,,"Congressional District 9 (113th Congress), Arizona",09,04
735171.0,,856.0,,673614.0,,2224.0,,61557.0,,1925.0,,"Congressional District 3 (113th Congress), New Jersey",03,34
711858.0,,3045.0,,499093.0,,3999.0,,212765.0,,3180.0,,"Congressional District 47 (113th Congress), California",47,06
741105.0,,3317.0,,534911.0,,3734.0,,206194.0,,3726.0,,"Congressional District 8 (113th Congress), Virginia",08,51
729855.0,,570.0,,680973.0,,2106.0,,48882.0,,1979.0,,"Congressional District 5 (113th Congress), Colorado",05,08
708720.0,,6405.0,,478388.0,,6177.0,,230332.0,,5206.0,,"Congressional District 9 (113th Congress), Texas",09,48
722210.0,,2087.0,,699544.0,,2211.0,,22666.0,,1267.0,,"Congressional District 13 (113th Congress), Ohio",13,39
681346.0,,3063.0,,665035.0,,3065.0,,16311.0,,1096.0,,"Congressional District 7 (113th Congress), Alabama",07,01
710604.0,,3217.0,,597274.0,,3845.0,,113330.0,,3870.0,,"Congressional District 19 (113th Congress), Florida",19,12
705961.0,,633.0,,672033.0,,1426.0,,33928.0,,1370.0,,"Congressional District 14 (113th Congress), Pennsylvania",14,42
709257.0,,695.0,,579917.0,,2772.0,,129340.0,,2816.0,,"Congressional District 24 (113th Congress), California",24,06
702059.0,,1903.0,,651525.0,,2508.0,,50534.0,,1795.0,,"Congressional District 3 (113th Congress), Utah",03,49
723786.0,,366.0,,693073.0,,1420.0,,30713.0,,1268.0,,"Congressional District 3 (113th Congress), Indiana",03,18
709653.0,,3406.0,,638792.0,,3226.0,,70861.0,,2754.0,,"Congressional District 36 (113th Congress), Texas",36,48
740448.0,,3623.0,,701780.0,,3729.0,,38668.0,,1631.0,,"Congressional District 3 (113th Congress), Virginia",03,51
759834.0,,1041.0,,726816.0,,1694.0,,33018.0,,1286.0,,"Congressional District 4 (113th Congress), Oklahoma",04,40
706250.0,,3044.0,,550030.0,,3981.0,,156220.0,,3161.0,,"Congressional District 36 (113th Congress), California",36,06
730456.0,,4941.0,,581815.0,,6069.0,,148641.0,,4436.0,,"Congressional District 9 (113th Congress), Florida",09,12
708930.0,,1649.0,,672970.0,,2079.0,,35960.0,,1514.0,,"Congressional District 16 (113th Congress), Illinois",16,17
764563.0,,3430.0,,716028.0,,3675.0,,48535.0,,1938.0,,"Congressional District 1 (113th Congress), Louisiana",01,22
682076.0,,3171.0,,488687.0,,3588.0,,193389.0,,3371.0,,"Congressional District 9 (113th Congress), Washington",09,53
743030.0,,3675.0,,646044.0,,4337.0,,96986.0,,3617.0,,"Congressional District 4 (113th Congress), North Carolina",04,37
710894.0,,2556.0,,674793.0,,2744.0,,36101.0,,1279.0,,"Congressional District 11 (113th Congress), Ohio",11,39
672356.0,,226.0,,587981.0,,1784.0,,84375.0,,1835.0,,"Congressional District 4 (113th Congress), Minnesota",04,27
735532.0,,1231.0,,606890.0,,3036.0,,128642.0,,2722.0,,"Congressional District 11 (113th Congress), New Jersey",11,34
707889.0,,3571.0,,546747.0,,4120.0,,161142.0,,3208.0,,"Congressional District 33 (113th Congress), California",33,06
662593.0,,300.0,,651985.0,,630.0,,10608.0,,568.0,,"Congressional District 8 (113th Congress), Minnesota",08,27
721860.0,,321.0,,696829.0,,1170.0,,25031.0,,1127.0,,"Congressional District 8 (113th Congress), Ohio",08,39
704490.0,,1714.0,,651386.0,,2966.0,,53104.0,,2571.0,,"Congressional District 27 (113th Congress), Texas",27,48
705858.0,,2123.0,,562176.0,,3085.0,,143682.0,,3252.0,,"Congressional District 34 (113th Congress), Texas",34,48
714117.0,,3313.0,,535963.0,,3924.0,,178154.0,,3253.0,,"Congressional District 41 (113th Congress), California",41,06
716679.0,,228.0,,664470.0,,1708.0,,52209.0,,1722.0,,"Congressional District 1 (113th Congress), Kansas",01,20
708992.0,,5382.0,,520740.0,,5171.0,,188252.0,,4207.0,,"Congressional District 12 (113th Congress), New York",12,36
696908.0,,2442.0,,600476.0,,3365.0,,96432.0,,2781.0,,"Congressional District 18 (113th Congress), Florida",18,12
778240.0,,1224.0,,669754.0,,2712.0,,108486.0,,2348.0,,"Congressional District 1 (113th Congress), Oregon",01,41
683241.0,,1550.0,,657616.0,,1730.0,,25625.0,,900.0,,"Congressional District 4 (113th Congress), Alabama",04,01
725946.0,,4820.0,,559776.0,,5245.0,,166170.0,,3902.0,,"Congressional District 22 (113th Congress), Texas",22,48
664164.0,,1846.0,,640317.0,,2159.0,,23847.0,,1106.0,,"Congressional District 3 (113th Congress), South Carolina",03,45
710378.0,,1951.0,,666564.0,,2163.0,,43814.0,,1666.0,,"Congressional District 9 (113th Congress), Tennessee",09,47
715511.0,,4064.0,,586540.0,,4532.0,,128971.0,,2960.0,,"Congressional District 22 (113th Congress), California",22,06
720369.0,,572.0,,674738.0,,1737.0,,45631.0,,1704.0,,"Congressional District 3 (113th Congress), Colorado",03,08
701729.0,,3029.0,,615791.0,,3954.0,,85938.0,,2845.0,,"Congressional District 8 (113th Congress), California",08,06
666179.0,,190.0,,639003.0,,978.0,,27176.0,,961.0,,"Congressional District 1 (113th Congress), Maine",01,23
713442.0,,4118.0,,590019.0,,4259.0,,123423.0,,3224.0,,"Congressional District 23 (113th Congress), Texas",23,48
662141.0,,190.0,,644032.0,,923.0,,18109.0,,894.0,,"Congressional District 2 (113th Congress), Maine",02,23
691876.0,,1780.0,,611536.0,,3196.0,,80340.0,,2457.0,,"Congressional District 2 (113th Congress), New Mexico",02,35
682503.0,,3167.0,,638069.0,,3400.0,,44434.0,,2028.0,,"Congressional District 1 (113th Congress), South Carolina",01,45
703545.0,,5654.0,,451693.0,,5200.0,,251852.0,,4197.0,,"Congressional District 4 (113th Congress), Illinois",04,17
710613.0,,109.0,,675089.0,,1433.0,,35524.0,,1428.0,,"Congressional District 3 (113th Congress), Michigan",03,26
709733.0,,2646.0,,465114.0,,3254.0,,244619.0,,3305.0,,"Congressional District 12 (113th Congress), California",12,06
678741.0,,2420.0,,586732.0,,3212.0,,92009.0,,2747.0,,"Congressional District 2 (113th Congress), Washington",02,53
716172.0,,4935.0,,523040.0,,3916.0,,193132.0,,4324.0,,"Congressional District 9 (113th Congress), Illinois",09,17
711429.0,,3501.0,,558070.0,,4868.0,,153359.0,,3558.0,,"Congressional District 31 (113th Congress), California",31,06
692831.0,,635.0,,646875.0,,1400.0,,45956.0,,1300.0,,"Congressional District 14 (113th Congress), Georgia",14,13
730666.0,,2562.0,,704778.0,,2735.0,,25888.0,,1450.0,,"Congressional District 15 (113th Congress), Ohio",15,39
695326.0,,2831.0,,661069.0,,2921.0,,34257.0,,1572.0,,"Congressional District 3 (113th Congress), Georgia",03,13
662031.0,,4603.0,,637092.0,,4513.0,,24939.0,,1181.0,,"Congressional District 6 (113th Congress), South Carolina",06,45
700844.0,,3798.0,,663852.0,,3820.0,,36992.0,,1938.0,,"Congressional District 10 (113th Congress), Georgia",10,13
703460.0,,1232.0,,657959.0,,2205.0,,45501.0,,1850.0,,"Congressional District 1 (113th Congress), California",01,06
706946.0,,1955.0,,578526.0,,2946.0,,128420.0,,2684.0,,"Congressional District 3 (113th Congress), California",03,06
710402.0,,1148.0,,698572.0,,1343.0,,11830.0,,768.0,,"Congressional District 15 (113th Congress), Illinois",15,17
745946.0,,614.0,,730629.0,,954.0,,15317.0,,841.0,,"Congressional District 1 (113th Congress), Mississippi",01,28
703609.0,,3808.0,,623842.0,,4088.0,,79767.0,,3123.0,,"Congressional District 7 (113th Congress), Florida",07,12
713146.0,,3975.0,,591689.0,,4394.0,,121457.0,,3099.0,,"Congressional District 14 (113th Congress), Florida",14,12
704830.0,,1346.0,,660862.0,,2131.0,,43968.0,,1790.0,,"Congressional District 4 (113th Congress), Texas",04,48
741896.0,,2718.0,,677124.0,,2562.0,,64772.0,,2173.0,,"Congressional District 1 (113th Congress), Virginia",01,51
711013.0,,1103.0,,663443.0,,2174.0,,47570.0,,1754.0,,"Congressional District 6 (113th Congress), Pennsylvania",06,42
735955.0,,2825.0,,585199.0,,4089.0,,150756.0,,3494.0,,"Congressional District 6 (113th Congress), Maryland",06,24
707163.0,,333.0,,649278.0,,2011.0,,57885.0,,2036.0,,"Congressional District 8 (113th Congress), Pennsylvania",08,42
714568.0,,1192.0,,629858.0,,2514.0,,84710.0,,2365.0,,"Congressional District 3 (113th Congress), Connecticut",03,09
710443.0,,605.0,,671511.0,,1661.0,,38932.0,,1559.0,,"Congressional District 1 (113th Congress), Florida",01,12
706740.0,,542.0,,619776.0,,2229.0,,86964.0,,2240.0,,"Congressional District 16 (113th Congress), Florida",16,12
729435.0,,1314.0,,708791.0,,1577.0,,20644.0,,1105.0,,"Congressional District 4 (113th Congress), Kentucky",04,21
753878.0,,2557.0,,737606.0,,2733.0,,16272.0,,1070.0,,"Congressional District 3 (113th Congress), Missouri",03,29
712825.0,,2824.0,,543977.0,,3941.0,,168848.0,,3960.0,,"Congressional District 15 (113th Congress), Texas",15,48
714583.0,,1048.0,,689007.0,,1808.0,,25576.0,,1538.0,,"Congressional District 7 (113th Congress), Tennessee",07,47
713621.0,,449.0,,520998.0,,3438.0,,192623.0,,3459.0,,"Congressional District 13 (113th Congress), California",13,06
772994.0,,1939.0,,693143.0,,2718.0,,79851.0,,2312.0,,"Congressional District 5 (113th Congress), Oregon",05,41
703670.0,,848.0,,692333.0,,1195.0,,11337.0,,785.0,,"Congressional District 9 (113th Congress), Pennsylvania",09,42
667132.0,,2930.0,,636684.0,,3256.0,,30448.0,,1455.0,,"Congressional District 2 (113th Congress), South Carolina",02,45
730517.0,,1453.0,,656599.0,,2629.0,,73918.0,,2318.0,,"Congressional District 7 (113th Congress), Colorado",07,08
740236.0,,3033.0,,691828.0,,3074.0,,48408.0,,1855.0,,"Congressional District 5 (113th Congress), North Carolina",05,37
788761.0,,1649.0,,731932.0,,2711.0,,56829.0,,2124.0,,"Congressional District 2 (113th Congress), Idaho",02,16
705868.0,,999.0,,686339.0,,1140.0,,19529.0,,889.0,,"Congressional District 5 (113th Congress), Pennsylvania",05,42
716937.0,,859.0,,607755.0,,3171.0,,109182.0,,3025.0,,"Congressional District 1 (113th Congress), Connecticut",01,09
614946.0,,706.0,,578150.0,,1518.0,,36796.0,,1394.0,,"Congressional District 1 (113th Congress), Nebraska",01,31
729011.0,,3728.0,,516024.0,,4589.0,,212987.0,,3867.0,,"Congressional District 16 (113th Congress), New York",16,36
704640.0,,5025.0,,614330.0,,5307.0,,90310.0,,3308.0,,"Congressional District 1 (113th Congress), Pennsylvania",01,42
719558.0,,664.0,,714580.0,,883.0,,4978.0,,510.0,,"Congressional District 5 (113th Congress), Kentucky",05,21
608164.0,,75.0,,578747.0,,1116.0,,29417.0,,1114.0,,"Congressional District 3 (113th Congress), Nebraska",03,31
736846.0,,1173.0,,533940.0,,2779.0,,202906.0,,2729.0,,"Congressional District 6 (113th Congress), New Jersey",06,34
721393.0,,4411.0,,552145.0,,4972.0,,169248.0,,3741.0,,"Congressional District 53 (113th Congress), California",53,06
715641.0,,2457.0,,559456.0,,2962.0,,156185.0,,2941.0,,"Congressional District 4 (113th Congress), New York",04,36
733407.0,,827.0,,648887.0,,2586.0,,84520.0,,2434.0,,"Congressional District 4 (113th Congress), New Jersey",04,34
714963.0,,107.0,,667397.0,,1522.0,,47566.0,,1532.0,,"Congressional District 4 (113th Congress), Kansas",04,20
669584.0,,2049.0,,618922.0,,2349.0,,50662.0,,1805.0,,"Congressional District 4 (113th Congress), South Carolina",04,45
716540.0,,184.0,,676877.0,,1341.0,,39663.0,,1318.0,,"Congressional District 24 (113th Congress), New York",24,36
778448.0,,2388.0,,673619.0,,3776.0,,104829.0,,2729.0,,"Congressional District 3 (113th Congress), Oregon",03,41
714289.0,,4801.0,,648682.0,,4240.0,,65607.0,,2595.0,,"Congressional District 21 (113th Congress), Texas",21,48
750787.0,,3702.0,,675531.0,,3726.0,,75256.0,,2547.0,,"Congressional District 9 (113th Congress), North Carolina",09,37
711858.0,,3915.0,,467477.0,,4201.0,,244381.0,,3170.0,,"Congressional District 51 (113th Congress), California",51,06
712795.0,,6524.0,,627327.0,,6300.0,,85468.0,,2861.0,,"Congressional District 7 (113th Congress), Illinois",07,17
724195.0,,2369.0,,690098.0,,2505.0,,34097.0,,1404.0,,"Congressional District 1 (113th Congress), Maryland",01,24
704169.0,,541.0,,689320.0,,837.0,,14849.0,,637.0,,"Congressional District 4 (113th Congress), Michigan",04,26
669600.0,,588.0,,643959.0,,1648.0,,25641.0,,1479.0,,"Congressional District 6 (113th Congress), Minnesota",06,27
713976.0,,4515.0,,608946.0,,5132.0,,105030.0,,3407.0,,"Congressional District 20 (113th Congress), Texas",20,48
705658.0,,986.0,,675691.0,,1802.0,,29967.0,,1609.0,,"Congressional District 11 (113th Congress), Pennsylvania",11,42
711839.0,,2421.0,,541854.0,,3189.0,,169985.0,,3081.0,,"Congressional District 10 (113th Congress), Illinois",10,17
704440.0,,1954.0,,681151.0,,1882.0,,23289.0,,1279.0,,"Congressional District 8 (113th Congress), Tennessee",08,47
524365.0,,1872.0,,470869.0,,2074.0,,53496.0,,1860.0,,"Congressional District 2 (113th Congress), Rhode Island",02,44
704553.0,,3710.0,,558595.0,,3577.0,,145958.0,,3079.0,,"Congressional District 6 (113th Congress), Georgia",06,13
727843.0,,775.0,,680463.0,,1853.0,,47380.0,,1714.0,,"Congressional District 3 (113th Congress), Kentucky",03,21
618515.0,,707.0,,568098.0,,1763.0,,50417.0,,1535.0,,"Congressional District 2 (113th Congress), Nebraska",02,31
720957.0,,6063.0,,610461.0,,5691.0,,110496.0,,3905.0,,"Congressional District 10 (113th Congress), Texas",10,48
702734.0,,3505.0,,481020.0,,4301.0,,221714.0,,3467.0,,"Congressional District 43 (113th Congress), California",43,06
714863.0,,3382.0,,513653.0,,3677.0,,201210.0,,3417.0,,"Congressional District 8 (113th Congress), Illinois",08,17
729128.0,,4681.0,,651247.0,,4691.0,,77881.0,,2650.0,,"Congressional District 2 (113th Congress), Maryland",02,24
670066.0,,343.0,,619939.0,,1873.0,,50127.0,,1838.0,,"Congressional District 2 (113th Congress), Minnesota",02,27
712645.0,,4462.0,,597795.0,,4930.0,,114850.0,,2976.0,,"Congressional District 13 (113th Congress), Pennsylvania",13,42
713938.0,,3301.0,,622818.0,,3385.0,,91120.0,,2736.0,,"Congressional District 6 (113th Congress), Texas",06,48
673379.0,,469.0,,603999.0,,1867.0,,69380.0,,1974.0,,"Congressional District 3 (113th Congress), Minnesota",03,27
715491.0,,6096.0,,481471.0,,5110.0,,234020.0,,4535.0,,"Congressional District 29 (113th Congress), Texas",29,48
720750.0,,3242.0,,567572.0,,3266.0,,153178.0,,3216.0,,"Congressional District 3 (113th Congress), New York",03,36
702324.0,,1470.0,,664161.0,,2285.0,,38163.0,,1551.0,,"Congressional District 17 (113th Congress), Pennsylvania",17,42
704155.0,,2071.0,,643275.0,,2548.0,,60880.0,,1958.0,,"Congressional District 4 (113th Congress), California",04,06
711088.0,,729.0,,683120.0,,1415.0,,27968.0,,1350.0,,"Congressional District 2 (113th Congress), Tennessee",02,47
723657.0,,1517.0,,705966.0,,1657.0,,17691.0,,1246.0,,"Congressional District 5 (113th Congress), Ohio",05,39
746986.0,,1463.0,,736935.0,,1727.0,,10051.0,,700.0,,"Congressional District 8 (113th Congress), Missouri",08,29
713484.0,,677.0,,681128.0,,1537.0,,32356.0,,1349.0,,"Congressional District 5 (113th Congress), Wisconsin",05,55
717252.0,,2263.0,,692229.0,,2448.0,,25023.0,,949.0,,"Congressional District 18 (113th Congress), Illinois",18,17
730100.0,,2249.0,,689205.0,,2416.0,,40895.0,,1843.0,,"Congressional District 5 (113th Congress), Indiana",05,18
745663.0,,1830.0,,728606.0,,1905.0,,17057.0,,1022.0,,"Congressional District 3 (113th Congress), Mississippi",03,28
709288.0,,594.0,,660027.0,,1769.0,,49261.0,,1719.0,,"Congressional District 8 (113th Congress), Michigan",08,26
672851.0,,441.0,,574921.0,,2377.0,,97930.0,,2358.0,,"Congressional District 5 (113th Congress), Minnesota",05,27
714909.0,,3130.0,,638138.0,,3925.0,,76771.0,,2350.0,,"Congressional District 2 (113th Congress), Arizona",02,04
705108.0,,4940.0,,337076.0,,4645.0,,368032.0,,4610.0,,"Congressional District 25 (113th Congress), Florida",25,12
704897.0,,369.0,,687837.0,,1186.0,,17060.0,,1166.0,,"Congressional District 7 (113th Congress), Michigan",07,26
663227.0,,5006.0,,460686.0,,4996.0,,202541.0,,4296.0,,"Congressional District 1 (113th Congress), Nevada",01,32
711440.0,,2659.0,,638379.0,,2777.0,,73061.0,,2352.0,,"Congressional District 4 (113th Congress), Utah",04,49
733796.0,,1745.0,,698537.0,,2034.0,,35259.0,,1686.0,,"Congressional District 4 (113th Congress), Virginia",04,51
724625.0,,5444.0,,487464.0,,5043.0,,237161.0,,3825.0,,"Congressional District 8 (113th Congress), New York",08,36
721708.0,,1897.0,,684369.0,,2462.0,,37339.0,,1514.0,,"Congressional District 1 (113th Congress), Ohio",01,39
708208.0,,1158.0,,565683.0,,3544.0,,142525.0,,3219.0,,"Congressional District 10 (113th Congress), California",10,06
715523.0,,1364.0,,619753.0,,2855.0,,95770.0,,2773.0,,"Congressional District 5 (113th Congress), Connecticut",05,09
713046.0,,613.0,,689746.0,,1333.0,,23300.0,,1120.0,,"Congressional District 6 (113th Congress), Tennessee",06,47
711216.0,,476.0,,687307.0,,1116.0,,23909.0,,1099.0,,"Congressional District 6 (113th Congress), Wisconsin",06,55
697614.0,,1384.0,,668723.0,,1846.0,,28891.0,,1454.0,,"Congressional District 12 (113th Congress), Georgia",12,13
717722.0,,4878.0,,667306.0,,4493.0,,50416.0,,2447.0,,"Congressional District 1 (113th Congress), Illinois",01,17
699213.0,,1060.0,,635854.0,,2272.0,,63359.0,,2049.0,,"Congressional District 8 (113th Congress), Florida",08,12
764207.0,,4061.0,,733353.0,,4233.0,,30854.0,,1722.0,,"Congressional District 6 (113th Congress), Louisiana",06,22
709416.0,,799.0,,624155.0,,2254.0,,85261.0,,2009.0,,"Congressional District 11 (113th Congress), Michigan",11,26
717451.0,,5215.0,,349856.0,,4066.0,,367595.0,,4791.0,,"Congressional District 6 (113th Congress), New York",06,36
700391.0,,4794.0,,620664.0,,4967.0,,79727.0,,3158.0,,"Congressional District 13 (113th Congress), Georgia",13,13
735900.0,,2110.0,,702583.0,,2360.0,,33317.0,,1707.0,,"Congressional District 11 (113th Congress), North Carolina",11,37
763146.0,,1073.0,,688308.0,,2106.0,,74838.0,,1891.0,,"Congressional District 5 (113th Congress), Oklahoma",05,40
686206.0,,2224.0,,639612.0,,2837.0,,46594.0,,2052.0,,"Congressional District 3 (113th Congress), New Mexico",03,35
728380.0,,3400.0,,598434.0,,3344.0,,129946.0,,2809.0,,"Congressional District 4 (113th Congress), Maryland",04,24
662031.0,,593.0,,644314.0,,1011.0,,17717.0,,718.0,,"Congressional District 7 (113th Congress), Minnesota",07,27
709915.0,,2141.0,,536486.0,,3341.0,,173429.0,,3498.0,,"Congressional District 48 (113th Congress), California",48,06
717099.0,,4208.0,,567318.0,,4331.0,,149781.0,,3437.0,,"Congressional District 3 (113th Congress), Illinois",03,17
714739.0,,4549.0,,642056.0,,4737.0,,72683.0,,2796.0,,"Congressional District 12 (113th Congress), Texas",12,48
706743.0,,1268.0,,685227.0,,1605.0,,21516.0,,1419.0,,"Congressional District 10 (113th Congress), Pennsylvania",10,42
711741.0,,3254.0,,454755.0,,3776.0,,256986.0,,3492.0,,"Congressional District 19 (113th Congress), California",19,06
739966.0,,6165.0,,464984.0,,5259.0,,274982.0,,5142.0,,"Congressional District 7 (113th Congress), New York",07,36
704448.0,,4413.0,,350455.0,,3754.0,,353993.0,,3641.0,,"Congressional District 34 (113th Congress), California",34,06
737221.0,,1809.0,,628107.0,,3437.0,,109114.0,,2733.0,,"Congressional District 6 (113th Congress), Colorado",06,08
705497.0,,254.0,,692260.0,,736.0,,13237.0,,705.0,,"Congressional District 1 (113th Congress), Michigan",01,26
752009.0,,3291.0,,697753.0,,3820.0,,54256.0,,2130.0,,"Congressional District 2 (113th Congress), Missouri",02,29
706780.0,,5502.0,,474001.0,,5191.0,,232779.0,,3834.0,,"Congressional District 33 (113th Congress), Texas",33,48
714299.0,,255.0,,689163.0,,953.0,,25136.0,,890.0,,"Congressional District 8 (113th Congress), Wisconsin",08,55
709973.0,,2303.0,,562213.0,,3935.0,,147760.0,,2980.0,,"Congressional District 5 (113th Congress), California",05,06
723284.0,,454.0,,655345.0,,1623.0,,67939.0,,1627.0,,"Congressional District 3 (113th Congress), Kansas",03,20
709635.0,,2525.0,,436316.0,,3985.0,,273319.0,,3415.0,,"Congressional District 27 (113th Congress), California",27,06
710172.0,,3246.0,,575203.0,,4041.0,,134969.0,,3240.0,,"Congressional District 50 (113th Congress), California",50,06
714222.0,,5935.0,,564151.0,,5509.0,,150071.0,,4159.0,,"Congressional District 2 (113th Congress), Texas",02,48
720969.0,,1523.0,,682191.0,,1932.0,,38778.0,,1289.0,,"Congressional District 16 (113th Congress), Ohio",16,39
710552.0,,1271.0,,686892.0,,1691.0,,23660.0,,1064.0,,"Congressional District 3 (113th Congress), Tennessee",03,47
716451.0,,641.0,,664578.0,,2111.0,,51873.0,,1963.0,,"Congressional District 26 (113th Congress), New York",26,36
708947.0,,2235.0,,661420.0,,2628.0,,47527.0,,1325.0,,"Congressional District 7 (113th Congress), Pennsylvania",07,42
705642.0,,3128.0,,610260.0,,3403.0,,95382.0,,2516.0,,"Congressional District 5 (113th Congress), Texas",05,48
687373.0,,3303.0,,602982.0,,3762.0,,84391.0,,2373.0,,"Congressional District 8 (113th Congress), Washington",08,53
707291.0,,4219.0,,563148.0,,4768.0,,144143.0,,3000.0,,"Congressional District 25 (113th Congress), California",25,06
732796.0,,1354.0,,680838.0,,2040.0,,51958.0,,1659.0,,"Congressional District 2 (113th Congress), Colorado",02,08
660978.0,,170.0,,624540.0,,1514.0,,36438.0,,1506.0,,"Congressional District 1 (113th Congress), New Hampshire",01,33
748626.0,,435.0,,726187.0,,1075.0,,22439.0,,1003.0,,"Congressional District 4 (113th Congress), Mississippi",04,28
723672.0,,1004.0,,703801.0,,1401.0,,19871.0,,1248.0,,"Congressional District 9 (113th Congress), Virginia",09,51
746893.0,,4147.0,,525780.0,,4054.0,,221113.0,,4020.0,,"Congressional District 11 (113th Congress), Virginia",11,51
700815.0,,418.0,,659258.0,,1545.0,,41557.0,,1459.0,,"Congressional District 1 (113th Congress), Utah",01,49
724900.0,,3332.0,,649520.0,,4357.0,,75380.0,,2661.0,,"Congressional District 3 (113th Congress), Ohio",03,39
724529.0,,4035.0,,584745.0,,4216.0,,139784.0,,3064.0,,"Congressional District 42 (113th Congress), California",42,06
768142.0,,920.0,,728715.0,,1823.0,,39427.0,,1607.0,,"Congressional District 4 (113th Congress), Oregon",04,41
711237.0,,1446.0,,523513.0,,3075.0,,187724.0,,3098.0,,"Congressional District 20 (113th Congress), California",20,06
728437.0,,1026.0,,663355.0,,2274.0,,65082.0,,2359.0,,"Congressional District 9 (113th Congress), Massachusetts",09,25
735803.0,,961.0,,593939.0,,3019.0,,141864.0,,3054.0,,"Congressional District 5 (113th Congress), New Jersey",05,34
703962.0,,4087.0,,622351.0,,4074.0,,81611.0,,2893.0,,"Congressional District 17 (113th Congress), Florida",17,12
736076.0,,640.0,,617646.0,,2994.0,,118430.0,,2815.0,,"Congressional District 3 (113th Congress), Massachusetts",03,25
732996.0,,407.0,,665968.0,,2160.0,,67028.0,,2137.0,,"Congressional District 1 (113th Congress), New Jersey",01,34
699359.0,,2143.0,,633142.0,,2722.0,,66217.0,,2301.0,,"Congressional District 2 (113th Congress), Utah",02,49
