B15002_001E,B15002_001EA,B15002_001M,B15002_001MA,B15002_002E,B15002_002EA,B15002_002M,B15002_002MA,B15002_003E,B15002_003EA,B15002_003M,B15002_003MA,B15002_004E,B15002_004EA,B15002_004M,B15002_004MA,B15002_005E,B15002_005EA,B15002_005M,B15002_005MA,B15002_006E,B15002_006EA,B15002_006M,B15002_006MA,B15002_007E,B15002_007EA,B15002_007M,B15002_007MA,B15002_008E,B15002_008EA,B15002_008M,B15002_008MA,B15002_009E,B15002_009EA,B15002_009M,B15002_009MA,B15002_010E,B15002_010EA,B15002_010M,B15002_010MA,B15002_011E,B15002_011EA,B15002_011M,B15002_011MA,B15002_012E,B15002_012EA,B15002_012M,B15002_012MA,B15002_013E,B15002_013EA,B15002_013M,B15002_013MA,B15002_014E,B15002_014EA,B15002_014M,B15002_014MA,B15002_015E,B15002_015EA,B15002_015M,B15002_015MA,B15002_016E,B15002_016EA,B15002_016M,B15002_016MA,B15002_017E,B15002_017EA,B15002_017M,B15002_017MA,B15002_018E,B15002_018EA,B15002_018M,B15002_018MA,B15002_019E,B15002_019EA,B15002_019M,B15002_019MA,B15002_020E,B15002_020EA,B15002_020M,B15002_020MA,B15002_021E,B15002_021EA,B15002_021M,B15002_021MA,B15002_022E,B15002_022EA,B15002_022M,B15002_022MA,B15002_023E,B15002_023EA,B15002_023M,B15002_023MA,B15002_024E,B15002_024EA,B15002_024M,B15002_024MA,B15002_025E,B15002_025EA,B15002_025M,B15002_025MA,B15002_026E,B15002_026EA,B15002_026M,B15002_026MA,B15002_027E,B15002_027EA,B15002_027M,B15002_027MA,B15002_028E,B15002_028EA,B15002_028M,B15002_028MA,B15002_029E,B15002_029EA,B15002_029M,B15002_029MA,B15002_030E,B15002_030EA,B15002_030M,B15002_030MA,B15002_031E,B15002_031EA,B15002_031M,B15002_031MA,B15002_032E,B15002_032EA,B15002_032M,B15002_032MA,B15002_033E,B15002_033EA,B15002_033M,B15002_033MA,B15002_034E,B15002_034EA,B15002_034M,B15002_034MA,B15002_035E,B15002_035EA,B15002_035M,B15002_035MA,NAME,new england city and town area
14228.0,,434.0,,7045.0,,323.0,,42.0,,27.0,,0.0,,23.0,,75.0,,54.0,,329.0,,160.0,,240.0,,107.0,,234.0,,84.0,,190.0,,103.0,,115.0,,56.0,,2904.0,,298.0,,589.0,,146.0,,975.0,,162.0,,492.0,,137.0,,639.0,,121.0,,122.0,,51.0,,46.0,,23.0,,53.0,,22.0,,7183.0,,335.0,,32.0,,27.0,,0.0,,23.0,,84.0,,61.0,,118.0,,70.0,,89.0,,59.0,,175.0,,86.0,,139.0,,56.0,,117.0,,65.0,,2418.0,,242.0,,532.0,,113.0,,1143.0,,220.0,,971.0,,193.0,,857.0,,173.0,,411.0,,134.0,,30.0,,24.0,,67.0,,53.0,,"Athol, MA Micropolitan NECTA",70450
56504.0,,523.0,,27190.0,,345.0,,210.0,,82.0,,20.0,,23.0,,150.0,,76.0,,662.0,,134.0,,378.0,,138.0,,436.0,,138.0,,493.0,,150.0,,220.0,,75.0,,9824.0,,517.0,,2213.0,,265.0,,3413.0,,311.0,,2245.0,,226.0,,4463.0,,332.0,,1546.0,,198.0,,598.0,,121.0,,319.0,,82.0,,29314.0,,441.0,,89.0,,50.0,,29.0,,27.0,,125.0,,92.0,,562.0,,166.0,,277.0,,117.0,,403.0,,118.0,,294.0,,83.0,,286.0,,91.0,,10029.0,,542.0,,2240.0,,249.0,,4271.0,,369.0,,3252.0,,299.0,,4731.0,,362.0,,2185.0,,254.0,,349.0,,112.0,,192.0,,70.0,,"Augusta, ME Micropolitan NECTA",70600
90082.0,,546.0,,43269.0,,380.0,,247.0,,85.0,,49.0,,32.0,,166.0,,74.0,,1121.0,,207.0,,625.0,,146.0,,800.0,,177.0,,901.0,,184.0,,384.0,,102.0,,15085.0,,612.0,,2628.0,,258.0,,6214.0,,382.0,,4199.0,,301.0,,6613.0,,433.0,,2471.0,,259.0,,915.0,,159.0,,851.0,,131.0,,46813.0,,341.0,,281.0,,95.0,,55.0,,40.0,,124.0,,75.0,,560.0,,122.0,,343.0,,78.0,,762.0,,182.0,,620.0,,150.0,,327.0,,99.0,,15322.0,,623.0,,2776.0,,263.0,,7008.0,,451.0,,5467.0,,499.0,,8437.0,,553.0,,3583.0,,339.0,,569.0,,145.0,,579.0,,138.0,,"Bangor, ME Metropolitan NECTA",70750
179664.0,,542.0,,82680.0,,551.0,,530.0,,157.0,,82.0,,46.0,,218.0,,134.0,,861.0,,216.0,,536.0,,151.0,,1050.0,,251.0,,1142.0,,271.0,,1146.0,,222.0,,22934.0,,1054.0,,5569.0,,463.0,,11455.0,,775.0,,6687.0,,512.0,,17692.0,,855.0,,8227.0,,580.0,,2690.0,,352.0,,1861.0,,256.0,,96984.0,,462.0,,451.0,,134.0,,182.0,,112.0,,230.0,,114.0,,577.0,,165.0,,970.0,,231.0,,889.0,,224.0,,721.0,,207.0,,907.0,,227.0,,24074.0,,915.0,,6730.0,,582.0,,14105.0,,808.0,,10556.0,,612.0,,21858.0,,812.0,,11606.0,,637.0,,1806.0,,277.0,,1322.0,,264.0,,"Barnstable Town, MA Metropolitan NECTA",70900
31634.0,,371.0,,15169.0,,264.0,,64.0,,41.0,,42.0,,32.0,,31.0,,32.0,,355.0,,102.0,,165.0,,73.0,,288.0,,115.0,,310.0,,83.0,,252.0,,92.0,,5646.0,,368.0,,672.0,,127.0,,1841.0,,233.0,,1126.0,,196.0,,2408.0,,225.0,,1394.0,,176.0,,373.0,,75.0,,202.0,,57.0,,16465.0,,266.0,,62.0,,51.0,,15.0,,18.0,,15.0,,16.0,,349.0,,133.0,,154.0,,67.0,,180.0,,89.0,,185.0,,73.0,,108.0,,43.0,,5079.0,,377.0,,1024.0,,182.0,,2071.0,,244.0,,1596.0,,214.0,,3322.0,,308.0,,1912.0,,218.0,,276.0,,81.0,,117.0,,38.0,,"Barre, VT Micropolitan NECTA",71050
15742.0,,242.0,,7622.0,,204.0,,68.0,,66.0,,27.0,,34.0,,25.0,,28.0,,133.0,,58.0,,166.0,,90.0,,227.0,,91.0,,269.0,,103.0,,66.0,,42.0,,2740.0,,246.0,,554.0,,164.0,,975.0,,183.0,,448.0,,118.0,,1126.0,,164.0,,468.0,,123.0,,154.0,,51.0,,176.0,,70.0,,8120.0,,195.0,,50.0,,31.0,,3.0,,5.0,,38.0,,32.0,,271.0,,96.0,,98.0,,58.0,,145.0,,73.0,,193.0,,80.0,,70.0,,45.0,,2553.0,,242.0,,630.0,,147.0,,1030.0,,166.0,,735.0,,154.0,,1472.0,,163.0,,730.0,,132.0,,63.0,,31.0,,39.0,,24.0,,"Bennington, VT Micropolitan NECTA",71350
11682.0,,212.0,,6032.0,,184.0,,36.0,,37.0,,10.0,,19.0,,38.0,,28.0,,148.0,,70.0,,115.0,,52.0,,118.0,,43.0,,211.0,,60.0,,93.0,,46.0,,2424.0,,225.0,,526.0,,108.0,,792.0,,137.0,,678.0,,110.0,,519.0,,111.0,,171.0,,71.0,,84.0,,40.0,,69.0,,49.0,,5650.0,,177.0,,65.0,,39.0,,10.0,,13.0,,42.0,,31.0,,199.0,,69.0,,150.0,,71.0,,256.0,,94.0,,97.0,,37.0,,155.0,,75.0,,1995.0,,185.0,,301.0,,80.0,,678.0,,133.0,,673.0,,123.0,,694.0,,107.0,,280.0,,93.0,,31.0,,27.0,,24.0,,20.0,,"Berlin, NH Micropolitan NECTA",71500
3231935.0,,1773.0,,1535480.0,,1372.0,,17960.0,,893.0,,11344.0,,856.0,,15332.0,,1015.0,,23320.0,,1249.0,,16494.0,,930.0,,20758.0,,962.0,,20052.0,,1247.0,,23173.0,,1080.0,,382954.0,,4219.0,,68445.0,,1645.0,,169382.0,,2934.0,,92013.0,,2070.0,,377478.0,,4003.0,,187911.0,,3096.0,,56017.0,,1535.0,,52847.0,,1456.0,,1696455.0,,1239.0,,22681.0,,920.0,,12632.0,,809.0,,15958.0,,903.0,,24526.0,,1169.0,,15783.0,,862.0,,20310.0,,1104.0,,20509.0,,975.0,,22377.0,,925.0,,404159.0,,4195.0,,80950.0,,1969.0,,188252.0,,2754.0,,144078.0,,2645.0,,407423.0,,3673.0,,236864.0,,2989.0,,45675.0,,1218.0,,34278.0,,1096.0,,"Boston-Cambridge-Nashua, MA-NH Metropolitan NECTA",71650
615290.0,,1388.0,,290577.0,,1233.0,,2609.0,,448.0,,3028.0,,505.0,,4436.0,,584.0,,5240.0,,536.0,,3532.0,,507.0,,4458.0,,522.0,,3488.0,,379.0,,4745.0,,474.0,,67261.0,,1972.0,,12300.0,,691.0,,30796.0,,1072.0,,13636.0,,772.0,,74177.0,,1579.0,,41538.0,,1100.0,,13589.0,,607.0,,5744.0,,459.0,,324713.0,,1143.0,,3238.0,,433.0,,2492.0,,380.0,,4119.0,,458.0,,5299.0,,542.0,,3665.0,,397.0,,4740.0,,491.0,,4874.0,,423.0,,4240.0,,427.0,,76612.0,,1878.0,,15241.0,,725.0,,38132.0,,1291.0,,22919.0,,1011.0,,79487.0,,1804.0,,46638.0,,1158.0,,9493.0,,635.0,,3524.0,,302.0,,"Bridgeport-Stamford-Norwalk, CT Metropolitan NECTA",71950
45035.0,,571.0,,21200.0,,362.0,,58.0,,44.0,,23.0,,24.0,,34.0,,27.0,,323.0,,114.0,,282.0,,109.0,,351.0,,111.0,,261.0,,107.0,,191.0,,83.0,,6049.0,,401.0,,1573.0,,257.0,,3014.0,,296.0,,1518.0,,203.0,,4326.0,,327.0,,1876.0,,247.0,,779.0,,138.0,,542.0,,162.0,,23835.0,,414.0,,117.0,,68.0,,6.0,,8.0,,68.0,,58.0,,240.0,,97.0,,202.0,,79.0,,223.0,,106.0,,198.0,,70.0,,251.0,,86.0,,7089.0,,460.0,,1439.0,,219.0,,3288.0,,367.0,,1946.0,,227.0,,5522.0,,346.0,,2490.0,,250.0,,341.0,,108.0,,415.0,,135.0,,"Brunswick, ME Micropolitan NECTA",72250
136636.0,,394.0,,65598.0,,286.0,,343.0,,102.0,,80.0,,50.0,,250.0,,96.0,,1172.0,,215.0,,631.0,,189.0,,761.0,,188.0,,971.0,,192.0,,977.0,,186.0,,16902.0,,656.0,,3338.0,,338.0,,7053.0,,561.0,,5556.0,,433.0,,17022.0,,680.0,,6631.0,,452.0,,2186.0,,246.0,,1725.0,,223.0,,71038.0,,277.0,,382.0,,110.0,,191.0,,109.0,,187.0,,81.0,,898.0,,186.0,,702.0,,168.0,,431.0,,112.0,,522.0,,133.0,,671.0,,144.0,,16026.0,,655.0,,3809.0,,349.0,,8108.0,,679.0,,7231.0,,505.0,,20217.0,,674.0,,8867.0,,478.0,,1534.0,,228.0,,1262.0,,204.0,,"Burlington-South Burlington, VT Metropolitan NECTA",72400
59919.0,,477.0,,29206.0,,384.0,,58.0,,35.0,,59.0,,42.0,,30.0,,30.0,,360.0,,124.0,,294.0,,95.0,,788.0,,218.0,,769.0,,206.0,,529.0,,157.0,,8774.0,,470.0,,1567.0,,221.0,,4181.0,,358.0,,2489.0,,283.0,,5726.0,,437.0,,2396.0,,283.0,,815.0,,156.0,,371.0,,100.0,,30713.0,,343.0,,100.0,,66.0,,9.0,,14.0,,63.0,,51.0,,312.0,,106.0,,186.0,,87.0,,344.0,,116.0,,317.0,,116.0,,312.0,,111.0,,8153.0,,491.0,,2160.0,,296.0,,4081.0,,406.0,,3336.0,,329.0,,7194.0,,408.0,,3262.0,,321.0,,571.0,,112.0,,313.0,,123.0,,"Concord, NH Micropolitan NECTA",72700
131931.0,,1058.0,,64182.0,,991.0,,463.0,,173.0,,462.0,,185.0,,1485.0,,485.0,,1210.0,,281.0,,686.0,,194.0,,816.0,,228.0,,1208.0,,254.0,,1288.0,,241.0,,16474.0,,869.0,,3346.0,,389.0,,7670.0,,542.0,,4117.0,,472.0,,14982.0,,755.0,,6996.0,,499.0,,1776.0,,277.0,,1203.0,,258.0,,67749.0,,1025.0,,560.0,,174.0,,601.0,,236.0,,871.0,,265.0,,948.0,,252.0,,652.0,,158.0,,732.0,,177.0,,771.0,,245.0,,1052.0,,197.0,,17756.0,,883.0,,3860.0,,444.0,,8320.0,,566.0,,5245.0,,533.0,,15744.0,,743.0,,8951.0,,620.0,,1175.0,,198.0,,511.0,,138.0,,"Danbury, CT Metropolitan NECTA",72850
93318.0,,381.0,,45005.0,,311.0,,291.0,,111.0,,73.0,,62.0,,114.0,,72.0,,883.0,,211.0,,719.0,,201.0,,710.0,,206.0,,809.0,,225.0,,540.0,,190.0,,13783.0,,660.0,,2932.0,,347.0,,6576.0,,645.0,,3834.0,,389.0,,8846.0,,652.0,,3456.0,,379.0,,543.0,,138.0,,896.0,,178.0,,48313.0,,378.0,,257.0,,99.0,,58.0,,48.0,,169.0,,76.0,,851.0,,206.0,,586.0,,192.0,,580.0,,158.0,,666.0,,200.0,,407.0,,142.0,,14019.0,,738.0,,3289.0,,397.0,,6343.0,,547.0,,5763.0,,503.0,,9658.0,,671.0,,4426.0,,370.0,,605.0,,159.0,,636.0,,160.0,,"Dover-Durham, NH-ME Metropolitan NECTA",73050
27627.0,,438.0,,13226.0,,307.0,,112.0,,66.0,,31.0,,30.0,,54.0,,48.0,,110.0,,50.0,,207.0,,89.0,,325.0,,96.0,,160.0,,56.0,,160.0,,77.0,,4514.0,,308.0,,907.0,,161.0,,1935.0,,254.0,,1264.0,,222.0,,2007.0,,241.0,,1032.0,,216.0,,189.0,,71.0,,219.0,,68.0,,14401.0,,314.0,,50.0,,33.0,,26.0,,36.0,,36.0,,53.0,,163.0,,68.0,,139.0,,64.0,,387.0,,116.0,,319.0,,107.0,,121.0,,47.0,,4124.0,,336.0,,1117.0,,202.0,,1682.0,,217.0,,1756.0,,238.0,,2600.0,,274.0,,1611.0,,180.0,,118.0,,46.0,,152.0,,61.0,,"Greenfield Town, MA Micropolitan NECTA",73300
774462.0,,1117.0,,364846.0,,1065.0,,3786.0,,432.0,,2670.0,,408.0,,3770.0,,508.0,,5952.0,,570.0,,5089.0,,485.0,,6237.0,,596.0,,6920.0,,558.0,,5827.0,,384.0,,104176.0,,2012.0,,18820.0,,916.0,,45532.0,,1294.0,,23031.0,,1092.0,,75451.0,,1751.0,,37441.0,,1194.0,,13149.0,,632.0,,6995.0,,442.0,,409616.0,,955.0,,4290.0,,421.0,,2776.0,,359.0,,4419.0,,403.0,,6851.0,,465.0,,5977.0,,524.0,,6696.0,,551.0,,7259.0,,583.0,,5516.0,,560.0,,108658.0,,1646.0,,23662.0,,988.0,,50900.0,,1291.0,,39098.0,,1232.0,,79951.0,,1550.0,,50133.0,,1320.0,,9101.0,,476.0,,4329.0,,467.0,,"Hartford-West Hartford-East Hartford, CT Metropolitan NECTA",73450
33963.0,,455.0,,16417.0,,271.0,,150.0,,109.0,,31.0,,30.0,,83.0,,66.0,,203.0,,77.0,,272.0,,99.0,,246.0,,76.0,,267.0,,96.0,,182.0,,84.0,,5673.0,,404.0,,1025.0,,221.0,,2126.0,,290.0,,1168.0,,191.0,,3069.0,,342.0,,1149.0,,204.0,,434.0,,136.0,,339.0,,99.0,,17546.0,,316.0,,129.0,,65.0,,21.0,,23.0,,30.0,,35.0,,278.0,,115.0,,150.0,,72.0,,465.0,,128.0,,347.0,,116.0,,148.0,,65.0,,5459.0,,306.0,,1048.0,,177.0,,2191.0,,281.0,,1170.0,,212.0,,3795.0,,302.0,,1736.0,,266.0,,319.0,,127.0,,260.0,,101.0,,"Keene, NH Micropolitan NECTA",73750
16922.0,,337.0,,7981.0,,286.0,,76.0,,53.0,,0.0,,21.0,,9.0,,14.0,,161.0,,80.0,,64.0,,43.0,,323.0,,144.0,,156.0,,90.0,,152.0,,77.0,,2635.0,,316.0,,399.0,,96.0,,982.0,,198.0,,779.0,,199.0,,1345.0,,205.0,,552.0,,145.0,,210.0,,107.0,,138.0,,64.0,,8941.0,,232.0,,86.0,,56.0,,12.0,,20.0,,7.0,,13.0,,80.0,,44.0,,152.0,,106.0,,209.0,,83.0,,219.0,,132.0,,60.0,,42.0,,2796.0,,284.0,,814.0,,199.0,,1111.0,,186.0,,914.0,,186.0,,1749.0,,275.0,,620.0,,171.0,,90.0,,65.0,,22.0,,24.0,,"Laconia, NH Micropolitan NECTA",73900
58350.0,,650.0,,27862.0,,387.0,,95.0,,60.0,,28.0,,31.0,,70.0,,48.0,,430.0,,139.0,,287.0,,81.0,,515.0,,115.0,,336.0,,90.0,,308.0,,92.0,,7968.0,,489.0,,922.0,,161.0,,3294.0,,395.0,,1830.0,,259.0,,5704.0,,375.0,,3219.0,,335.0,,1374.0,,188.0,,1482.0,,225.0,,30488.0,,487.0,,85.0,,54.0,,40.0,,35.0,,40.0,,36.0,,309.0,,79.0,,109.0,,52.0,,484.0,,172.0,,414.0,,140.0,,216.0,,89.0,,7785.0,,423.0,,1431.0,,215.0,,3372.0,,333.0,,2501.0,,294.0,,7327.0,,499.0,,4220.0,,337.0,,1138.0,,225.0,,1017.0,,192.0,,"Lebanon, NH-VT Micropolitan NECTA",74350
100951.0,,1074.0,,49289.0,,742.0,,551.0,,199.0,,211.0,,113.0,,439.0,,183.0,,1324.0,,300.0,,870.0,,209.0,,1371.0,,289.0,,1224.0,,263.0,,869.0,,205.0,,17440.0,,802.0,,3537.0,,349.0,,6100.0,,522.0,,4056.0,,453.0,,7579.0,,617.0,,2771.0,,327.0,,503.0,,138.0,,444.0,,131.0,,51662.0,,742.0,,724.0,,177.0,,234.0,,99.0,,434.0,,149.0,,1317.0,,260.0,,922.0,,239.0,,1265.0,,268.0,,699.0,,194.0,,654.0,,189.0,,15168.0,,767.0,,3967.0,,437.0,,6865.0,,554.0,,6518.0,,609.0,,8565.0,,650.0,,3788.0,,399.0,,305.0,,108.0,,237.0,,111.0,,"Leominster-Gardner, MA Metropolitan NECTA",74500
74060.0,,363.0,,35471.0,,262.0,,302.0,,95.0,,134.0,,95.0,,224.0,,76.0,,1275.0,,220.0,,551.0,,158.0,,872.0,,184.0,,665.0,,158.0,,461.0,,102.0,,14164.0,,555.0,,2573.0,,285.0,,4695.0,,413.0,,3078.0,,306.0,,4237.0,,372.0,,1517.0,,242.0,,400.0,,149.0,,323.0,,100.0,,38589.0,,251.0,,218.0,,81.0,,73.0,,43.0,,177.0,,77.0,,1316.0,,233.0,,577.0,,169.0,,751.0,,181.0,,738.0,,190.0,,386.0,,108.0,,14238.0,,503.0,,2462.0,,289.0,,5629.0,,466.0,,4210.0,,374.0,,5171.0,,461.0,,2097.0,,257.0,,364.0,,111.0,,182.0,,69.0,,"Lewiston-Auburn, ME Metropolitan NECTA",74650
135574.0,,949.0,,66325.0,,828.0,,669.0,,162.0,,136.0,,79.0,,427.0,,182.0,,1274.0,,258.0,,1137.0,,213.0,,1221.0,,225.0,,791.0,,180.0,,1160.0,,208.0,,20331.0,,868.0,,3947.0,,372.0,,8469.0,,635.0,,5909.0,,584.0,,14072.0,,708.0,,4542.0,,511.0,,1379.0,,221.0,,861.0,,190.0,,69249.0,,582.0,,729.0,,170.0,,220.0,,92.0,,464.0,,146.0,,1904.0,,285.0,,879.0,,222.0,,1156.0,,259.0,,1046.0,,191.0,,738.0,,166.0,,20951.0,,956.0,,4247.0,,444.0,,8604.0,,558.0,,7239.0,,559.0,,13853.0,,788.0,,5850.0,,540.0,,827.0,,212.0,,542.0,,143.0,,"Manchester, NH Metropolitan NECTA",74950
110432.0,,1063.0,,51831.0,,800.0,,1605.0,,240.0,,1768.0,,275.0,,1243.0,,216.0,,2352.0,,342.0,,1613.0,,287.0,,1947.0,,267.0,,1686.0,,271.0,,1077.0,,200.0,,17345.0,,750.0,,2449.0,,335.0,,5169.0,,495.0,,3312.0,,353.0,,6679.0,,502.0,,2418.0,,317.0,,663.0,,146.0,,505.0,,140.0,,58601.0,,781.0,,1874.0,,243.0,,2151.0,,316.0,,1024.0,,199.0,,2932.0,,353.0,,1527.0,,287.0,,1611.0,,236.0,,1535.0,,259.0,,947.0,,183.0,,17366.0,,629.0,,3456.0,,356.0,,6900.0,,551.0,,5148.0,,391.0,,7736.0,,555.0,,3736.0,,328.0,,315.0,,97.0,,343.0,,120.0,,"New Bedford, MA Metropolitan NECTA",75550
411212.0,,1335.0,,193895.0,,1037.0,,1744.0,,283.0,,1200.0,,229.0,,2649.0,,414.0,,3200.0,,438.0,,2613.0,,360.0,,3784.0,,499.0,,3550.0,,487.0,,3158.0,,418.0,,57667.0,,1706.0,,9896.0,,683.0,,23214.0,,1014.0,,10397.0,,659.0,,38061.0,,1236.0,,19147.0,,855.0,,6982.0,,511.0,,6633.0,,540.0,,217317.0,,976.0,,2129.0,,310.0,,1275.0,,243.0,,1675.0,,326.0,,2918.0,,387.0,,2827.0,,384.0,,3332.0,,409.0,,4035.0,,461.0,,3108.0,,364.0,,61488.0,,1691.0,,11950.0,,750.0,,27382.0,,1128.0,,16560.0,,951.0,,40294.0,,1253.0,,28076.0,,978.0,,6319.0,,489.0,,3949.0,,422.0,,"New Haven, CT Metropolitan NECTA",75700
16114.0,,358.0,,7629.0,,287.0,,60.0,,42.0,,30.0,,44.0,,27.0,,28.0,,166.0,,58.0,,160.0,,82.0,,181.0,,71.0,,114.0,,52.0,,177.0,,74.0,,2749.0,,265.0,,491.0,,123.0,,913.0,,158.0,,365.0,,89.0,,1134.0,,175.0,,535.0,,129.0,,174.0,,65.0,,353.0,,79.0,,8485.0,,291.0,,126.0,,61.0,,21.0,,25.0,,35.0,,36.0,,177.0,,71.0,,73.0,,43.0,,218.0,,85.0,,270.0,,105.0,,134.0,,73.0,,2515.0,,272.0,,648.0,,151.0,,948.0,,176.0,,635.0,,140.0,,1391.0,,168.0,,935.0,,162.0,,47.0,,36.0,,312.0,,82.0,,"North Adams, MA-VT Micropolitan NECTA",76150
198505.0,,570.0,,96450.0,,438.0,,876.0,,206.0,,209.0,,100.0,,473.0,,149.0,,1455.0,,256.0,,1604.0,,296.0,,1839.0,,282.0,,2193.0,,337.0,,1549.0,,248.0,,30948.0,,1057.0,,5886.0,,466.0,,13423.0,,687.0,,6628.0,,512.0,,16272.0,,731.0,,8651.0,,528.0,,2397.0,,252.0,,2047.0,,257.0,,102055.0,,377.0,,835.0,,207.0,,288.0,,135.0,,505.0,,145.0,,1328.0,,213.0,,1174.0,,236.0,,2236.0,,294.0,,1695.0,,258.0,,1697.0,,284.0,,30950.0,,806.0,,6462.0,,331.0,,14343.0,,772.0,,9793.0,,597.0,,17176.0,,690.0,,11284.0,,539.0,,1389.0,,242.0,,900.0,,167.0,,"Norwich-New London-Westerly, CT-RI Metropolitan NECTA",76450
62304.0,,476.0,,29137.0,,410.0,,381.0,,126.0,,79.0,,53.0,,140.0,,61.0,,367.0,,115.0,,173.0,,90.0,,452.0,,127.0,,744.0,,210.0,,452.0,,136.0,,10654.0,,546.0,,1917.0,,254.0,,3414.0,,414.0,,1985.0,,258.0,,4871.0,,463.0,,2321.0,,305.0,,732.0,,168.0,,455.0,,126.0,,33167.0,,388.0,,214.0,,116.0,,172.0,,100.0,,172.0,,75.0,,376.0,,119.0,,230.0,,100.0,,658.0,,149.0,,596.0,,163.0,,455.0,,120.0,,10604.0,,654.0,,2535.0,,320.0,,4464.0,,368.0,,3614.0,,391.0,,5298.0,,427.0,,3130.0,,331.0,,540.0,,160.0,,109.0,,53.0,,"Pittsfield, MA Metropolitan NECTA",76600
250349.0,,850.0,,119540.0,,641.0,,469.0,,138.0,,320.0,,129.0,,407.0,,133.0,,1829.0,,273.0,,1192.0,,268.0,,1669.0,,294.0,,1765.0,,266.0,,1358.0,,250.0,,33374.0,,1014.0,,6546.0,,544.0,,16623.0,,856.0,,10640.0,,655.0,,27794.0,,1108.0,,9340.0,,634.0,,4171.0,,454.0,,2043.0,,288.0,,130809.0,,572.0,,855.0,,185.0,,363.0,,122.0,,484.0,,146.0,,1676.0,,236.0,,1140.0,,239.0,,1484.0,,279.0,,1235.0,,236.0,,969.0,,227.0,,34465.0,,943.0,,7663.0,,446.0,,16435.0,,825.0,,13357.0,,785.0,,32137.0,,1090.0,,14175.0,,613.0,,3057.0,,365.0,,1314.0,,189.0,,"Portland-South Portland, ME Metropolitan NECTA",76750
89958.0,,752.0,,42936.0,,646.0,,148.0,,71.0,,20.0,,30.0,,42.0,,45.0,,369.0,,132.0,,334.0,,121.0,,307.0,,93.0,,445.0,,166.0,,293.0,,98.0,,9422.0,,579.0,,2366.0,,305.0,,5787.0,,534.0,,3328.0,,395.0,,12514.0,,679.0,,5168.0,,393.0,,1479.0,,232.0,,914.0,,179.0,,47022.0,,619.0,,122.0,,58.0,,16.0,,25.0,,60.0,,54.0,,442.0,,145.0,,129.0,,85.0,,274.0,,106.0,,651.0,,221.0,,376.0,,115.0,,10946.0,,605.0,,2778.0,,291.0,,5714.0,,477.0,,4699.0,,402.0,,12633.0,,662.0,,6580.0,,550.0,,820.0,,164.0,,782.0,,180.0,,"Portsmouth, NH-ME Metropolitan NECTA",76900
879126.0,,1331.0,,414710.0,,1197.0,,7153.0,,512.0,,5401.0,,565.0,,5531.0,,577.0,,10959.0,,743.0,,8258.0,,744.0,,10986.0,,693.0,,9672.0,,715.0,,7191.0,,518.0,,117750.0,,2272.0,,21604.0,,922.0,,50612.0,,1760.0,,30743.0,,1160.0,,79621.0,,1796.0,,31378.0,,1034.0,,10545.0,,621.0,,7306.0,,516.0,,464416.0,,1073.0,,8557.0,,631.0,,6812.0,,678.0,,5537.0,,514.0,,11261.0,,622.0,,9531.0,,690.0,,10193.0,,638.0,,10618.0,,678.0,,6784.0,,543.0,,125441.0,,2179.0,,27974.0,,974.0,,61677.0,,1811.0,,43177.0,,1246.0,,82250.0,,1933.0,,43025.0,,1161.0,,7087.0,,457.0,,4492.0,,367.0,,"Providence-Warwick, RI-MA Metropolitan NECTA",77200
29883.0,,351.0,,14362.0,,205.0,,131.0,,54.0,,27.0,,25.0,,47.0,,38.0,,299.0,,88.0,,258.0,,109.0,,231.0,,83.0,,375.0,,136.0,,219.0,,87.0,,5739.0,,350.0,,713.0,,128.0,,1801.0,,238.0,,888.0,,157.0,,2293.0,,248.0,,847.0,,132.0,,311.0,,79.0,,183.0,,65.0,,15521.0,,280.0,,51.0,,30.0,,18.0,,20.0,,16.0,,15.0,,356.0,,84.0,,180.0,,91.0,,285.0,,107.0,,330.0,,131.0,,134.0,,61.0,,4695.0,,327.0,,1029.0,,172.0,,2208.0,,238.0,,1621.0,,232.0,,3038.0,,261.0,,1387.0,,219.0,,117.0,,57.0,,56.0,,32.0,,"Rutland, VT Micropolitan NECTA",77650
16173.0,,430.0,,7289.0,,282.0,,59.0,,37.0,,53.0,,53.0,,48.0,,32.0,,248.0,,101.0,,206.0,,86.0,,93.0,,54.0,,220.0,,107.0,,116.0,,63.0,,2884.0,,216.0,,533.0,,147.0,,786.0,,148.0,,665.0,,176.0,,1027.0,,188.0,,219.0,,76.0,,119.0,,76.0,,13.0,,21.0,,8884.0,,315.0,,131.0,,55.0,,12.0,,16.0,,19.0,,26.0,,359.0,,117.0,,149.0,,67.0,,235.0,,113.0,,138.0,,65.0,,95.0,,47.0,,3154.0,,319.0,,663.0,,151.0,,1285.0,,254.0,,1051.0,,200.0,,1153.0,,213.0,,412.0,,108.0,,14.0,,22.0,,14.0,,18.0,,"Sanford, ME Micropolitan NECTA",77950
480603.0,,925.0,,227854.0,,853.0,,3258.0,,428.0,,1994.0,,280.0,,1881.0,,312.0,,4349.0,,444.0,,4203.0,,488.0,,5827.0,,513.0,,5888.0,,603.0,,4779.0,,451.0,,73284.0,,1576.0,,14004.0,,807.0,,28262.0,,1105.0,,17316.0,,819.0,,35704.0,,1140.0,,17349.0,,818.0,,5185.0,,401.0,,4571.0,,367.0,,252749.0,,685.0,,3666.0,,421.0,,2725.0,,364.0,,2149.0,,367.0,,4529.0,,489.0,,4744.0,,429.0,,5137.0,,428.0,,4829.0,,495.0,,3897.0,,432.0,,72536.0,,1449.0,,15085.0,,658.0,,31204.0,,1079.0,,25828.0,,965.0,,43748.0,,1179.0,,25495.0,,874.0,,3786.0,,400.0,,3391.0,,321.0,,"Springfield, MA-CT Metropolitan NECTA",78100
35365.0,,490.0,,16564.0,,407.0,,329.0,,116.0,,19.0,,23.0,,302.0,,128.0,,302.0,,116.0,,283.0,,126.0,,427.0,,132.0,,248.0,,109.0,,398.0,,117.0,,6357.0,,455.0,,1126.0,,228.0,,2223.0,,272.0,,1175.0,,180.0,,2280.0,,340.0,,780.0,,150.0,,229.0,,73.0,,86.0,,43.0,,18801.0,,437.0,,184.0,,104.0,,125.0,,50.0,,176.0,,87.0,,553.0,,134.0,,229.0,,101.0,,446.0,,154.0,,344.0,,120.0,,348.0,,90.0,,6519.0,,359.0,,1624.0,,210.0,,2544.0,,299.0,,1787.0,,259.0,,2459.0,,284.0,,1193.0,,189.0,,218.0,,130.0,,52.0,,33.0,,"Torrington, CT Micropolitan NECTA",78400
12415.0,,62.0,,6067.0,,23.0,,8.0,,13.0,,0.0,,19.0,,30.0,,46.0,,10.0,,13.0,,0.0,,19.0,,150.0,,133.0,,190.0,,206.0,,155.0,,178.0,,1378.0,,329.0,,289.0,,235.0,,1138.0,,290.0,,429.0,,160.0,,1440.0,,290.0,,513.0,,140.0,,192.0,,100.0,,145.0,,57.0,,6348.0,,49.0,,23.0,,38.0,,0.0,,19.0,,25.0,,44.0,,24.0,,37.0,,50.0,,51.0,,75.0,,57.0,,17.0,,24.0,,42.0,,43.0,,1374.0,,252.0,,200.0,,136.0,,1020.0,,205.0,,708.0,,184.0,,1679.0,,240.0,,910.0,,207.0,,77.0,,64.0,,124.0,,64.0,,"Vineyard Haven, MA Micropolitan NECTA",78500
146903.0,,1261.0,,68591.0,,990.0,,1088.0,,243.0,,829.0,,222.0,,678.0,,146.0,,1738.0,,270.0,,1362.0,,299.0,,1696.0,,385.0,,1558.0,,324.0,,1635.0,,266.0,,24392.0,,933.0,,4174.0,,407.0,,8180.0,,646.0,,5089.0,,386.0,,9727.0,,589.0,,4715.0,,442.0,,1175.0,,207.0,,555.0,,189.0,,78312.0,,848.0,,694.0,,142.0,,815.0,,199.0,,878.0,,188.0,,2271.0,,308.0,,1155.0,,220.0,,2010.0,,319.0,,1723.0,,263.0,,1563.0,,272.0,,24628.0,,999.0,,4717.0,,461.0,,10348.0,,629.0,,8101.0,,508.0,,11054.0,,702.0,,6819.0,,571.0,,1116.0,,239.0,,420.0,,136.0,,"Waterbury, CT Metropolitan NECTA",78700
31785.0,,529.0,,15244.0,,327.0,,124.0,,61.0,,46.0,,61.0,,26.0,,29.0,,324.0,,118.0,,176.0,,79.0,,276.0,,104.0,,359.0,,160.0,,287.0,,121.0,,6230.0,,423.0,,807.0,,192.0,,2279.0,,357.0,,1271.0,,243.0,,1723.0,,250.0,,686.0,,168.0,,391.0,,143.0,,239.0,,88.0,,16541.0,,425.0,,140.0,,64.0,,43.0,,32.0,,33.0,,20.0,,443.0,,174.0,,174.0,,80.0,,295.0,,101.0,,353.0,,147.0,,95.0,,64.0,,6061.0,,422.0,,994.0,,219.0,,2158.0,,330.0,,2097.0,,283.0,,2179.0,,293.0,,1134.0,,255.0,,174.0,,97.0,,168.0,,97.0,,"Waterville, ME Micropolitan NECTA",78850
433568.0,,1232.0,,208284.0,,1008.0,,2241.0,,309.0,,846.0,,203.0,,1363.0,,269.0,,3783.0,,489.0,,2248.0,,399.0,,4681.0,,464.0,,4453.0,,485.0,,3467.0,,327.0,,63605.0,,1629.0,,11648.0,,792.0,,23731.0,,1097.0,,15642.0,,749.0,,42586.0,,1221.0,,19172.0,,900.0,,4583.0,,361.0,,4235.0,,380.0,,225284.0,,810.0,,2447.0,,340.0,,909.0,,227.0,,1648.0,,300.0,,4161.0,,421.0,,2885.0,,354.0,,4427.0,,456.0,,3592.0,,454.0,,2826.0,,297.0,,61776.0,,1506.0,,13708.0,,777.0,,28304.0,,986.0,,22650.0,,1022.0,,45996.0,,1413.0,,24316.0,,1088.0,,3119.0,,289.0,,2520.0,,353.0,,"Worcester, MA-CT Metropolitan NECTA",79600
