B01001_001E,B01001_001EA,B01001_001M,B01001_001MA,B01001_002E,B01001_002EA,B01001_002M,B01001_002MA,B01001_003E,B01001_003EA,B01001_003M,B01001_003MA,B01001_004E,B01001_004EA,B01001_004M,B01001_004MA,B01001_005E,B01001_005EA,B01001_005M,B01001_005MA,B01001_006E,B01001_006EA,B01001_006M,B01001_006MA,B01001_007E,B01001_007EA,B01001_007M,B01001_007MA,B01001_008E,B01001_008EA,B01001_008M,B01001_008MA,B01001_009E,B01001_009EA,B01001_009M,B01001_009MA,B01001_010E,B01001_010EA,B01001_010M,B01001_010MA,B01001_011E,B01001_011EA,B01001_011M,B01001_011MA,B01001_012E,B01001_012EA,B01001_012M,B01001_012MA,B01001_013E,B01001_013EA,B01001_013M,B01001_013MA,B01001_014E,B01001_014EA,B01001_014M,B01001_014MA,B01001_015E,B01001_015EA,B01001_015M,B01001_015MA,B01001_016E,B01001_016EA,B01001_016M,B01001_016MA,B01001_017E,B01001_017EA,B01001_017M,B01001_017MA,B01001_018E,B01001_018EA,B01001_018M,B01001_018MA,B01001_019E,B01001_019EA,B01001_019M,B01001_019MA,B01001_020E,B01001_020EA,B01001_020M,B01001_020MA,B01001_021E,B01001_021EA,B01001_021M,B01001_021MA,B01001_022E,B01001_022EA,B01001_022M,B01001_022MA,B01001_023E,B01001_023EA,B01001_023M,B01001_023MA,B01001_024E,B01001_024EA,B01001_024M,B01001_024MA,B01001_025E,B01001_025EA,B01001_025M,B01001_025MA,B01001_026E,B01001_026EA,B01001_026M,B01001_026MA,B01001_027E,B01001_027EA,B01001_027M,B01001_027MA,B01001_028E,B01001_028EA,B01001_028M,B01001_028MA,B01001_029E,B01001_029EA,B01001_029M,B01001_029MA,B01001_030E,B01001_030EA,B01001_030M,B01001_030MA,B01001_031E,B01001_031EA,B01001_031M,B01001_031MA,B01001_032E,B01001_032EA,B01001_032M,B01001_032MA,B01001_033E,B01001_033EA,B01001_033M,B01001_033MA,B01001_034E,B01001_034EA,B01001_034M,B01001_034MA,B01001_035E,B01001_035EA,B01001_035M,B01001_035MA,B01001_036E,B01001_036EA,B01001_036M,B01001_036MA,B01001_037E,B01001_037EA,B01001_037M,B01001_037MA,B01001_038E,B01001_038EA,B01001_038M,B01001_038MA,B01001_039E,B01001_039EA,B01001_039M,B01001_039MA,B01001_040E,B01001_040EA,B01001_040M,B01001_040MA,B01001_041E,B01001_041EA,B01001_041M,B01001_041MA,B01001_042E,B01001_042EA,B01001_042M,B01001_042MA,B01001_043E,B01001_043EA,B01001_043M,B01001_043MA,B01001_044E,B01001_044EA,B01001_044M,B01001_044MA,B01001_045E,B01001_045EA,B01001_045M,B01001_045MA,B01001_046E,B01001_046EA,B01001_046M,B01001_046MA,B01001_047E,B01001_047EA,B01001_047M,B01001_047MA,B01001_048E,B01001_048EA,B01001_048M,B01001_048MA,B01001_049E,B01001_049EA,B01001_049M,B01001_049MA,NAME,state
4799277.0,,-555555555.0,*****,2328592.0,,1001.0,,154615.0,,590.0,,156368.0,,1959.0,,163186.0,,1950.0,,99840.0,,515.0,,69792.0,,630.0,,37802.0,,1422.0,,38413.0,,1342.0,,95880.0,,1685.0,,154319.0,,977.0,,148033.0,,702.0,,144615.0,,1620.0,,92338.0,,1604.0,,97736.0,,507.0,,98827.0,,413.0,,91755.0,,1464.0,,34393.0,,1142.0,,46646.0,,1163.0,,28825.0,,920.0,,36232.0,,1062.0,,49023.0,,1051.0,,35286.0,,928.0,,22387.0,,805.0,,17156.0,,660.0,,2470685.0,,1001.0,,147310.0,,539.0,,150088.0,,2253.0,,156845.0,,2115.0,,95115.0,,522.0,,67540.0,,650.0,,36964.0,,1336.0,,36806.0,,1150.0,,99375.0,,1664.0,,157021.0,,566.0,,153223.0,,563.0,,155278.0,,1991.0,,159233.0,,1925.0,,171517.0,,623.0,,179034.0,,421.0,,165120.0,,1669.0,,62538.0,,1368.0,,87036.0,,1517.0,,50822.0,,1215.0,,67118.0,,1349.0,,91592.0,,1509.0,,73363.0,,1342.0,,53771.0,,1240.0,,53976.0,,1145.0,,Alabama,01
720316.0,,-555555555.0,*****,375798.0,,402.0,,28278.0,,148.0,,26035.0,,744.0,,26695.0,,762.0,,16326.0,,204.0,,11126.0,,306.0,,6701.0,,454.0,,6529.0,,514.0,,18675.0,,656.0,,30202.0,,290.0,,26033.0,,226.0,,23315.0,,2112.0,,156249.0,,2231.0,,163875.0,,558.0,,167527.0,,481.0,,151840.0,,1732.0,,57979.0,,1547.0,,78327.0,,1499.0,,46066.0,,1315.0,,58362.0,,1300.0,,73629.0,,1352.0,,52940.0,,1067.0,,34697.0,,1068.0,,24238.0,,779.0,,344518.0,,402.0,,26084.0,,190.0,,24339.0,,831.0,,25126.0,,827.0,,14987.0,,191.0,,9173.0,,219.0,,5283.0,,471.0,,5145.0,,516.0,,15513.0,,624.0,,26934.0,,240.0,,23855.0,,246.0,,21790.0,,721.0,,22599.0,,700.0,,24728.0,,179.0,,26694.0,,213.0,,24350.0,,651.0,,8148.0,,522.0,,9698.0,,535.0,,5125.0,,363.0,,5536.0,,342.0,,7680.0,,409.0,,4612.0,,284.0,,3893.0,,281.0,,3226.0,,282.0,,Alaska,02
6479703.0,,-555555555.0,*****,3221367.0,,667.0,,227775.0,,260.0,,228431.0,,2700.0,,233380.0,,2686.0,,138498.0,,215.0,,96305.0,,432.0,,50715.0,,1650.0,,49318.0,,1797.0,,139723.0,,2614.0,,226271.0,,475.0,,216784.0,,377.0,,205791.0,,730.0,,24658.0,,672.0,,26772.0,,252.0,,28656.0,,260.0,,27285.0,,633.0,,8731.0,,613.0,,10836.0,,464.0,,5967.0,,350.0,,6172.0,,409.0,,7914.0,,428.0,,4411.0,,308.0,,2785.0,,252.0,,1696.0,,256.0,,3258336.0,,667.0,,218781.0,,242.0,,224107.0,,3029.0,,218653.0,,3024.0,,131420.0,,242.0,,89625.0,,592.0,,46864.0,,1607.0,,47274.0,,1704.0,,127640.0,,2071.0,,213941.0,,339.0,,208775.0,,259.0,,201383.0,,2430.0,,207220.0,,2404.0,,210034.0,,273.0,,215026.0,,249.0,,200594.0,,2337.0,,79974.0,,1617.0,,111047.0,,1866.0,,68385.0,,1426.0,,88873.0,,1574.0,,122314.0,,1895.0,,90133.0,,1357.0,,68362.0,,1450.0,,67911.0,,1462.0,,Arizona,04
2933369.0,,-555555555.0,*****,1439862.0,,1034.0,,99922.0,,652.0,,102542.0,,1750.0,,100255.0,,1702.0,,60407.0,,539.0,,42591.0,,682.0,,22771.0,,1106.0,,22640.0,,1136.0,,57954.0,,1433.0,,96166.0,,695.0,,94066.0,,491.0,,89944.0,,2466.0,,212757.0,,2509.0,,208717.0,,326.0,,206028.0,,406.0,,183764.0,,1883.0,,70659.0,,1602.0,,100707.0,,1877.0,,61832.0,,1911.0,,78332.0,,1735.0,,111080.0,,1749.0,,79695.0,,1256.0,,54557.0,,1139.0,,40248.0,,1226.0,,1493507.0,,1034.0,,95435.0,,553.0,,97704.0,,1760.0,,96095.0,,1693.0,,57604.0,,547.0,,40416.0,,570.0,,22903.0,,1168.0,,21021.0,,845.0,,56555.0,,1242.0,,96078.0,,545.0,,93328.0,,562.0,,89993.0,,1617.0,,94266.0,,1538.0,,100881.0,,568.0,,102460.0,,459.0,,97223.0,,1474.0,,36230.0,,1201.0,,52502.0,,1309.0,,31617.0,,914.0,,40382.0,,1134.0,,57448.0,,1306.0,,43743.0,,1052.0,,35017.0,,823.0,,34606.0,,986.0,,Arkansas,05
37659181.0,,-555555555.0,*****,18726468.0,,996.0,,1291918.0,,584.0,,1284613.0,,5489.0,,1313817.0,,5560.0,,838167.0,,542.0,,578682.0,,636.0,,312747.0,,3597.0,,304250.0,,4919.0,,860413.0,,5362.0,,1433388.0,,600.0,,1342610.0,,685.0,,1283483.0,,6731.0,,1314541.0,,6659.0,,1322759.0,,648.0,,1280808.0,,644.0,,1102599.0,,4553.0,,395589.0,,3826.0,,521566.0,,3817.0,,298756.0,,2837.0,,358892.0,,3245.0,,468950.0,,3478.0,,345431.0,,2607.0,,251334.0,,2635.0,,221155.0,,2401.0,,18932713.0,,996.0,,1235834.0,,625.0,,1233315.0,,6491.0,,1250917.0,,6456.0,,793637.0,,473.0,,539632.0,,593.0,,293047.0,,4142.0,,281499.0,,4000.0,,791683.0,,4534.0,,1346606.0,,555.0,,1297554.0,,556.0,,1270765.0,,5517.0,,1303584.0,,5543.0,,1322409.0,,560.0,,1307798.0,,495.0,,1165177.0,,5080.0,,423252.0,,3580.0,,573657.0,,4474.0,,335964.0,,3689.0,,409918.0,,3420.0,,553738.0,,4637.0,,432600.0,,3424.0,,362033.0,,3472.0,,408094.0,,2970.0,,California,06
5119329.0,,-555555555.0,*****,2568343.0,,916.0,,174346.0,,406.0,,178433.0,,2225.0,,173710.0,,2216.0,,102618.0,,393.0,,73652.0,,631.0,,37633.0,,1501.0,,40486.0,,1103.0,,110245.0,,1762.0,,195669.0,,624.0,,189853.0,,657.0,,180960.0,,2031.0,,180945.0,,2117.0,,179342.0,,475.0,,183945.0,,341.0,,164622.0,,1607.0,,61366.0,,1544.0,,78981.0,,1602.0,,44704.0,,1150.0,,51406.0,,1055.0,,64904.0,,1311.0,,45393.0,,1052.0,,30859.0,,974.0,,24271.0,,796.0,,2550986.0,,916.0,,165456.0,,436.0,,172721.0,,1895.0,,164118.0,,1868.0,,96663.0,,372.0,,67981.0,,534.0,,34755.0,,1159.0,,33112.0,,1232.0,,104617.0,,1346.0,,182432.0,,488.0,,178667.0,,502.0,,170862.0,,2126.0,,172684.0,,2180.0,,179676.0,,394.0,,187433.0,,373.0,,172423.0,,1576.0,,60160.0,,1116.0,,83513.0,,1341.0,,46949.0,,1065.0,,58255.0,,1332.0,,71006.0,,1402.0,,55509.0,,1046.0,,43522.0,,1015.0,,48472.0,,1189.0,,Colorado,08
3583561.0,,-555555555.0,*****,1745364.0,,380.0,,100870.0,,258.0,,111910.0,,1757.0,,121798.0,,1733.0,,76681.0,,200.0,,54127.0,,302.0,,26793.0,,949.0,,25407.0,,1089.0,,66400.0,,1315.0,,110066.0,,296.0,,104599.0,,355.0,,103319.0,,1685.0,,125646.0,,1624.0,,137956.0,,247.0,,138970.0,,237.0,,119705.0,,1470.0,,42487.0,,954.0,,58233.0,,1388.0,,33240.0,,961.0,,40317.0,,1177.0,,51175.0,,1255.0,,38045.0,,868.0,,30225.0,,791.0,,27395.0,,816.0,,1838197.0,,380.0,,96525.0,,217.0,,108229.0,,1535.0,,114944.0,,1556.0,,73088.0,,196.0,,51920.0,,278.0,,25944.0,,1032.0,,23304.0,,1052.0,,61860.0,,1259.0,,107103.0,,176.0,,106490.0,,219.0,,110457.0,,1583.0,,130324.0,,1584.0,,145535.0,,230.0,,146049.0,,196.0,,126505.0,,1305.0,,45613.0,,1188.0,,64420.0,,1322.0,,36831.0,,1169.0,,46935.0,,1187.0,,60924.0,,1065.0,,51099.0,,1128.0,,44891.0,,1181.0,,59207.0,,1245.0,,Connecticut,09
908446.0,,-555555555.0,*****,439985.0,,122.0,,28515.0,,110.0,,29093.0,,841.0,,28757.0,,838.0,,18066.0,,67.0,,13430.0,,206.0,,7053.0,,646.0,,6864.0,,535.0,,18601.0,,711.0,,29468.0,,118.0,,27372.0,,95.0,,26500.0,,887.0,,28771.0,,900.0,,31878.0,,125.0,,32089.0,,99.0,,27723.0,,814.0,,10589.0,,677.0,,15622.0,,723.0,,8316.0,,435.0,,12137.0,,542.0,,15437.0,,596.0,,10659.0,,424.0,,7167.0,,371.0,,5878.0,,378.0,,468461.0,,122.0,,27485.0,,103.0,,28223.0,,944.0,,27643.0,,940.0,,17155.0,,59.0,,13615.0,,69.0,,7696.0,,653.0,,6584.0,,528.0,,17938.0,,657.0,,29410.0,,72.0,,28435.0,,96.0,,28834.0,,865.0,,29566.0,,865.0,,34076.0,,90.0,,34728.0,,84.0,,32182.0,,794.0,,12224.0,,660.0,,16615.0,,687.0,,10746.0,,546.0,,13153.0,,521.0,,17543.0,,566.0,,13489.0,,486.0,,10041.0,,487.0,,11080.0,,515.0,,Delaware,10
619371.0,,-555555555.0,*****,293104.0,,112.0,,18640.0,,70.0,,14041.0,,669.0,,12415.0,,668.0,,8092.0,,68.0,,10829.0,,518.0,,6216.0,,457.0,,5297.0,,600.0,,15693.0,,825.0,,33313.0,,54.0,,29258.0,,83.0,,22119.0,,775.0,,20397.0,,784.0,,19470.0,,73.0,,18444.0,,7.0,,16509.0,,572.0,,5944.0,,424.0,,8052.0,,533.0,,4370.0,,359.0,,5577.0,,409.0,,6959.0,,371.0,,5051.0,,347.0,,3524.0,,299.0,,2894.0,,297.0,,326267.0,,112.0,,17852.0,,49.0,,14059.0,,512.0,,11984.0,,507.0,,8208.0,,65.0,,13245.0,,683.0,,6487.0,,596.0,,6372.0,,669.0,,19634.0,,933.0,,39277.0,,110.0,,31379.0,,46.0,,23280.0,,677.0,,18813.0,,680.0,,18949.0,,28.0,,19069.0,,65.0,,18433.0,,647.0,,7470.0,,439.0,,9768.0,,562.0,,5333.0,,390.0,,7159.0,,418.0,,9000.0,,475.0,,7494.0,,432.0,,5732.0,,411.0,,7270.0,,439.0,,District of Columbia,11
19091156.0,,-555555555.0,*****,9332589.0,,1229.0,,550044.0,,613.0,,550334.0,,4812.0,,583817.0,,4833.0,,364822.0,,550.0,,254591.0,,1090.0,,145158.0,,3042.0,,137550.0,,3376.0,,368013.0,,3792.0,,611253.0,,936.0,,572155.0,,848.0,,575079.0,,5144.0,,627613.0,,5054.0,,677012.0,,828.0,,664302.0,,816.0,,591116.0,,4280.0,,224081.0,,2732.0,,320188.0,,3706.0,,205015.0,,2568.0,,271268.0,,3296.0,,369929.0,,3162.0,,286557.0,,2892.0,,212419.0,,2459.0,,170273.0,,2702.0,,9758567.0,,1229.0,,526260.0,,583.0,,534664.0,,4880.0,,551813.0,,4809.0,,345041.0,,630.0,,238073.0,,746.0,,134965.0,,2871.0,,131442.0,,3127.0,,357066.0,,3498.0,,594905.0,,630.0,,571085.0,,685.0,,580689.0,,4963.0,,638661.0,,5051.0,,694574.0,,697.0,,702683.0,,605.0,,657183.0,,3552.0,,252430.0,,3218.0,,362569.0,,3583.0,,231613.0,,2790.0,,306116.0,,3338.0,,432758.0,,3895.0,,341719.0,,3489.0,,276450.0,,3523.0,,295808.0,,3453.0,,Florida,12
9810417.0,,-555555555.0,*****,4793940.0,,1849.0,,345538.0,,954.0,,358483.0,,3306.0,,354621.0,,3414.0,,212773.0,,927.0,,152692.0,,1179.0,,77452.0,,2146.0,,72295.0,,2448.0,,208654.0,,3023.0,,334764.0,,1345.0,,328955.0,,1058.0,,329325.0,,3077.0,,352314.0,,3178.0,,349089.0,,891.0,,328923.0,,772.0,,280859.0,,2542.0,,100035.0,,2225.0,,141433.0,,2112.0,,80493.0,,1455.0,,97830.0,,1548.0,,121063.0,,1722.0,,81512.0,,1242.0,,50039.0,,1451.0,,34798.0,,1099.0,,5016477.0,,1850.0,,331840.0,,906.0,,341276.0,,3563.0,,341003.0,,3536.0,,202752.0,,988.0,,143483.0,,1264.0,,75805.0,,2107.0,,70671.0,,2177.0,,197959.0,,2655.0,,339102.0,,993.0,,340961.0,,871.0,,348903.0,,2987.0,,362189.0,,2961.0,,363819.0,,762.0,,350136.0,,808.0,,311283.0,,2971.0,,112634.0,,2241.0,,158379.0,,2243.0,,91512.0,,1809.0,,112395.0,,1781.0,,147127.0,,2284.0,,107590.0,,1507.0,,82492.0,,1538.0,,83166.0,,1805.0,,Georgia,13
1376298.0,,-555555555.0,*****,691426.0,,253.0,,45823.0,,149.0,,42663.0,,954.0,,42463.0,,969.0,,25516.0,,87.0,,17427.0,,169.0,,11076.0,,610.0,,11090.0,,644.0,,32768.0,,802.0,,54048.0,,246.0,,47500.0,,149.0,,43580.0,,1271.0,,45273.0,,1284.0,,46394.0,,163.0,,47789.0,,116.0,,45022.0,,1001.0,,19824.0,,937.0,,22850.0,,747.0,,13903.0,,694.0,,16833.0,,687.0,,20973.0,,735.0,,14916.0,,489.0,,11486.0,,586.0,,12209.0,,538.0,,684872.0,,253.0,,43400.0,,108.0,,39045.0,,942.0,,41379.0,,933.0,,24615.0,,139.0,,15797.0,,147.0,,8203.0,,551.0,,8795.0,,620.0,,28021.0,,789.0,,47588.0,,119.0,,44387.0,,105.0,,41681.0,,1079.0,,44545.0,,1077.0,,45999.0,,136.0,,48243.0,,165.0,,46783.0,,981.0,,18815.0,,732.0,,23977.0,,1003.0,,14381.0,,678.0,,17811.0,,821.0,,23890.0,,714.0,,18984.0,,668.0,,17751.0,,680.0,,20782.0,,615.0,,Hawaii,15
1583364.0,,-555555555.0,*****,793708.0,,679.0,,60389.0,,291.0,,60524.0,,1562.0,,62489.0,,1536.0,,36093.0,,367.0,,22531.0,,496.0,,10936.0,,854.0,,11604.0,,815.0,,33957.0,,1135.0,,54230.0,,475.0,,53140.0,,423.0,,49151.0,,1218.0,,48959.0,,1298.0,,50119.0,,455.0,,51949.0,,283.0,,48347.0,,1081.0,,18564.0,,804.0,,25873.0,,923.0,,14888.0,,726.0,,18468.0,,777.0,,24255.0,,748.0,,16541.0,,534.0,,11440.0,,514.0,,9261.0,,457.0,,789656.0,,679.0,,57366.0,,352.0,,59265.0,,1259.0,,57821.0,,1296.0,,33071.0,,365.0,,22607.0,,471.0,,11272.0,,828.0,,11110.0,,692.0,,31383.0,,1048.0,,51676.0,,397.0,,51256.0,,329.0,,46606.0,,1022.0,,48695.0,,1065.0,,50215.0,,374.0,,53251.0,,372.0,,49692.0,,971.0,,19479.0,,830.0,,25210.0,,887.0,,14643.0,,583.0,,19391.0,,789.0,,25562.0,,831.0,,19342.0,,696.0,,14909.0,,663.0,,15834.0,,715.0,,Idaho,16
12848554.0,,-555555555.0,*****,6304099.0,,1136.0,,418842.0,,427.0,,432032.0,,3142.0,,447376.0,,3193.0,,277760.0,,496.0,,188637.0,,907.0,,95367.0,,1947.0,,93192.0,,2025.0,,263530.0,,2635.0,,452733.0,,723.0,,439384.0,,607.0,,419913.0,,2979.0,,432115.0,,3075.0,,450652.0,,576.0,,456290.0,,556.0,,399185.0,,2895.0,,144408.0,,2551.0,,190612.0,,2849.0,,106683.0,,1959.0,,131956.0,,1756.0,,170904.0,,1853.0,,124813.0,,1599.0,,92619.0,,1411.0,,75096.0,,1341.0,,6544455.0,,1136.0,,401929.0,,465.0,,419749.0,,3380.0,,424440.0,,3306.0,,264288.0,,362.0,,176076.0,,594.0,,89524.0,,2259.0,,91321.0,,2128.0,,254752.0,,2662.0,,447620.0,,445.0,,438391.0,,417.0,,420741.0,,3226.0,,438329.0,,3148.0,,461367.0,,478.0,,474178.0,,467.0,,426478.0,,2394.0,,155185.0,,2355.0,,205300.0,,2305.0,,120570.0,,1878.0,,150389.0,,2258.0,,210037.0,,2073.0,,167084.0,,1810.0,,140089.0,,1842.0,,166618.0,,2054.0,,Illinois,17
6514861.0,,-555555555.0,*****,3206295.0,,1134.0,,218310.0,,542.0,,227678.0,,2153.0,,230367.0,,2193.0,,140677.0,,504.0,,99649.0,,647.0,,51490.0,,1745.0,,49762.0,,1702.0,,133856.0,,2169.0,,209180.0,,521.0,,208810.0,,589.0,,204725.0,,2077.0,,214540.0,,1993.0,,226802.0,,620.0,,233369.0,,617.0,,211142.0,,1773.0,,75093.0,,1344.0,,99552.0,,1737.0,,58341.0,,1352.0,,70652.0,,1304.0,,91488.0,,1303.0,,65707.0,,986.0,,48485.0,,1081.0,,36620.0,,935.0,,3308566.0,,1134.0,,209142.0,,539.0,,217775.0,,2616.0,,219481.0,,2657.0,,133710.0,,470.0,,94356.0,,536.0,,51445.0,,1564.0,,49644.0,,1452.0,,128641.0,,1934.0,,207078.0,,525.0,,206464.0,,522.0,,201243.0,,2482.0,,216098.0,,2496.0,,230627.0,,554.0,,238632.0,,478.0,,219629.0,,1855.0,,81012.0,,1497.0,,108152.0,,1659.0,,63917.0,,1436.0,,78965.0,,1209.0,,110219.0,,1401.0,,87211.0,,1459.0,,74159.0,,1338.0,,80966.0,,1429.0,,Indiana,18
3062553.0,,-555555555.0,*****,1516152.0,,1024.0,,100673.0,,481.0,,102258.0,,1481.0,,104549.0,,1463.0,,62964.0,,371.0,,47437.0,,493.0,,25138.0,,1089.0,,23281.0,,955.0,,63362.0,,1359.0,,100159.0,,493.0,,97237.0,,415.0,,89454.0,,1515.0,,94466.0,,1582.0,,103986.0,,493.0,,111046.0,,376.0,,102614.0,,1278.0,,38284.0,,1002.0,,50697.0,,962.0,,27901.0,,703.0,,33805.0,,934.0,,48366.0,,899.0,,36562.0,,834.0,,27903.0,,720.0,,24010.0,,752.0,,1546401.0,,1024.0,,96937.0,,473.0,,99875.0,,1350.0,,97448.0,,1252.0,,60318.0,,400.0,,45394.0,,465.0,,24797.0,,987.0,,21529.0,,1002.0,,59874.0,,1187.0,,95147.0,,345.0,,93912.0,,410.0,,87946.0,,1235.0,,91363.0,,1254.0,,103623.0,,421.0,,111385.0,,354.0,,103737.0,,1221.0,,39624.0,,940.0,,50315.0,,994.0,,30533.0,,649.0,,37289.0,,803.0,,54905.0,,845.0,,47913.0,,864.0,,40956.0,,960.0,,51581.0,,925.0,,Iowa,19
2868107.0,,-555555555.0,*****,1425049.0,,784.0,,103053.0,,369.0,,104141.0,,1495.0,,102544.0,,1553.0,,61040.0,,451.0,,43652.0,,598.0,,23022.0,,1185.0,,22329.0,,1055.0,,63994.0,,1678.0,,100009.0,,543.0,,94803.0,,518.0,,85362.0,,1227.0,,89338.0,,1314.0,,95312.0,,382.0,,100224.0,,414.0,,92314.0,,1216.0,,32543.0,,904.0,,43719.0,,1051.0,,24069.0,,791.0,,30259.0,,796.0,,39880.0,,845.0,,29380.0,,786.0,,23459.0,,656.0,,20603.0,,644.0,,1443058.0,,783.0,,99708.0,,419.0,,98836.0,,1294.0,,97823.0,,1350.0,,57617.0,,407.0,,41057.0,,557.0,,20074.0,,1104.0,,21219.0,,962.0,,57988.0,,1341.0,,95854.0,,507.0,,90790.0,,413.0,,84852.0,,1352.0,,86624.0,,1408.0,,95980.0,,414.0,,102421.0,,369.0,,93730.0,,1313.0,,34211.0,,942.0,,45672.0,,1014.0,,26550.0,,853.0,,32725.0,,778.0,,46308.0,,897.0,,38617.0,,893.0,,33805.0,,953.0,,40597.0,,870.0,,Kansas,20
4361333.0,,-555555555.0,*****,2145986.0,,1018.0,,143001.0,,590.0,,143506.0,,2010.0,,148749.0,,1972.0,,88886.0,,552.0,,60943.0,,589.0,,33401.0,,1331.0,,32452.0,,1201.0,,88194.0,,1444.0,,141171.0,,614.0,,142138.0,,569.0,,140053.0,,2003.0,,147335.0,,1992.0,,155020.0,,545.0,,156050.0,,518.0,,142776.0,,1757.0,,51992.0,,1201.0,,72309.0,,1515.0,,41849.0,,977.0,,50613.0,,988.0,,66907.0,,1209.0,,46041.0,,901.0,,30509.0,,874.0,,22091.0,,713.0,,2215347.0,,1018.0,,135865.0,,629.0,,139071.0,,1838.0,,138610.0,,1759.0,,82942.0,,493.0,,57934.0,,660.0,,32044.0,,1132.0,,32173.0,,1162.0,,82983.0,,1484.0,,139485.0,,589.0,,141475.0,,519.0,,137896.0,,1606.0,,147258.0,,1703.0,,158575.0,,556.0,,163418.0,,445.0,,152195.0,,1350.0,,56117.0,,1301.0,,77441.0,,1307.0,,45313.0,,1077.0,,58211.0,,1054.0,,78247.0,,1102.0,,60320.0,,1118.0,,47565.0,,963.0,,50209.0,,1065.0,,Kentucky,21
4567968.0,,-555555555.0,*****,2234939.0,,767.0,,158537.0,,492.0,,157860.0,,2117.0,,157784.0,,2183.0,,94957.0,,412.0,,65536.0,,665.0,,37280.0,,1450.0,,35551.0,,1523.0,,100164.0,,1844.0,,165886.0,,664.0,,153245.0,,756.0,,140586.0,,1961.0,,140069.0,,1981.0,,153713.0,,662.0,,159977.0,,480.0,,143809.0,,1847.0,,51985.0,,1222.0,,70518.0,,1540.0,,40864.0,,1106.0,,47508.0,,1265.0,,62594.0,,1284.0,,44393.0,,869.0,,29802.0,,905.0,,22321.0,,704.0,,2333029.0,,767.0,,153538.0,,534.0,,152764.0,,2274.0,,149306.0,,2280.0,,91072.0,,410.0,,63570.0,,588.0,,36240.0,,1579.0,,35314.0,,1353.0,,100682.0,,1598.0,,167250.0,,544.0,,152727.0,,662.0,,138320.0,,2119.0,,147117.0,,2180.0,,160453.0,,431.0,,167669.0,,416.0,,155693.0,,1827.0,,55431.0,,1464.0,,75862.0,,1452.0,,43997.0,,1066.0,,54628.0,,1255.0,,77608.0,,1414.0,,59327.0,,1196.0,,48275.0,,897.0,,46186.0,,996.0,,Louisiana,22
1328320.0,,-555555555.0,*****,649600.0,,464.0,,34495.0,,249.0,,38189.0,,903.0,,39426.0,,885.0,,25859.0,,218.0,,18764.0,,297.0,,9140.0,,601.0,,8648.0,,599.0,,22859.0,,671.0,,36587.0,,220.0,,35846.0,,272.0,,37772.0,,834.0,,44069.0,,797.0,,50361.0,,206.0,,54280.0,,264.0,,50478.0,,911.0,,18456.0,,611.0,,27005.0,,704.0,,15428.0,,560.0,,17622.0,,572.0,,24419.0,,650.0,,17286.0,,546.0,,12699.0,,557.0,,9912.0,,448.0,,678720.0,,464.0,,32681.0,,210.0,,35535.0,,893.0,,38481.0,,909.0,,24439.0,,207.0,,17456.0,,226.0,,8883.0,,567.0,,8447.0,,632.0,,21737.0,,711.0,,37180.0,,220.0,,36879.0,,244.0,,39193.0,,978.0,,45287.0,,990.0,,52654.0,,227.0,,56454.0,,149.0,,53112.0,,850.0,,20233.0,,635.0,,27814.0,,857.0,,15955.0,,539.0,,20032.0,,524.0,,26402.0,,561.0,,21703.0,,673.0,,18613.0,,713.0,,19550.0,,549.0,,Maine,23
5834299.0,,-555555555.0,*****,2824531.0,,600.0,,186729.0,,352.0,,187504.0,,2277.0,,192296.0,,2226.0,,121112.0,,279.0,,84316.0,,465.0,,41553.0,,1601.0,,42760.0,,1387.0,,119053.0,,1635.0,,199163.0,,498.0,,187216.0,,509.0,,177732.0,,2320.0,,201165.0,,2340.0,,216278.0,,336.0,,213767.0,,307.0,,183913.0,,1700.0,,66639.0,,1386.0,,88827.0,,1717.0,,49461.0,,1163.0,,61901.0,,1231.0,,77104.0,,1121.0,,54401.0,,1152.0,,38889.0,,1023.0,,32752.0,,947.0,,3009768.0,,600.0,,179625.0,,386.0,,180025.0,,2108.0,,186074.0,,2067.0,,115428.0,,259.0,,80257.0,,593.0,,38335.0,,1412.0,,41408.0,,1399.0,,114997.0,,1809.0,,202198.0,,314.0,,195269.0,,389.0,,193275.0,,1930.0,,213730.0,,2031.0,,234163.0,,357.0,,232123.0,,350.0,,202016.0,,1747.0,,76700.0,,1409.0,,99981.0,,1714.0,,58963.0,,1444.0,,70366.0,,1332.0,,93419.0,,1332.0,,73127.0,,1239.0,,59815.0,,1188.0,,68474.0,,1200.0,,Maryland,24
6605058.0,,-555555555.0,*****,3197502.0,,487.0,,187409.0,,289.0,,195828.0,,2074.0,,205282.0,,2096.0,,131389.0,,180.0,,103627.0,,376.0,,52567.0,,1494.0,,50632.0,,1659.0,,135130.0,,1778.0,,225541.0,,323.0,,205255.0,,308.0,,197281.0,,2262.0,,227349.0,,2203.0,,246423.0,,233.0,,244143.0,,229.0,,215688.0,,2195.0,,76712.0,,1456.0,,104561.0,,1870.0,,59822.0,,1071.0,,72546.0,,1333.0,,91040.0,,1412.0,,70241.0,,1272.0,,53316.0,,1181.0,,45720.0,,1105.0,,3407556.0,,487.0,,178887.0,,258.0,,190482.0,,2177.0,,194080.0,,2181.0,,124693.0,,214.0,,104805.0,,427.0,,55547.0,,1453.0,,52519.0,,1569.0,,131467.0,,1631.0,,229451.0,,283.0,,211973.0,,286.0,,205929.0,,2128.0,,238958.0,,2142.0,,258492.0,,228.0,,257286.0,,221.0,,230654.0,,2089.0,,85225.0,,1487.0,,116013.0,,1687.0,,66479.0,,1433.0,,82224.0,,1284.0,,113780.0,,1476.0,,93794.0,,1378.0,,82549.0,,1444.0,,102269.0,,1488.0,,Massachusetts,25
9886095.0,,-555555555.0,*****,4851302.0,,747.0,,299425.0,,370.0,,323598.0,,2693.0,,338970.0,,2648.0,,217547.0,,409.0,,151162.0,,582.0,,79893.0,,1851.0,,75445.0,,1917.0,,195896.0,,2513.0,,296367.0,,475.0,,288784.0,,506.0,,293156.0,,2471.0,,326256.0,,2456.0,,355392.0,,492.0,,372013.0,,418.0,,341244.0,,2174.0,,122226.0,,1864.0,,163546.0,,1837.0,,93415.0,,1271.0,,115753.0,,1461.0,,149963.0,,1635.0,,107074.0,,1252.0,,80018.0,,1228.0,,64159.0,,979.0,,5034793.0,,747.0,,285833.0,,329.0,,304973.0,,2562.0,,327508.0,,2668.0,,205901.0,,343.0,,144076.0,,514.0,,78239.0,,1841.0,,72207.0,,1942.0,,190836.0,,2275.0,,293737.0,,401.0,,292711.0,,410.0,,296397.0,,2462.0,,333818.0,,2517.0,,363451.0,,409.0,,385426.0,,381.0,,359649.0,,2480.0,,129153.0,,1925.0,,176027.0,,2085.0,,100230.0,,1479.0,,130172.0,,1535.0,,173549.0,,1732.0,,139222.0,,1656.0,,120140.0,,1551.0,,131538.0,,1337.0,,Michigan,26
5347740.0,,-555555555.0,*****,2655658.0,,722.0,,179540.0,,444.0,,181328.0,,1635.0,,182348.0,,1649.0,,111970.0,,423.0,,75684.0,,540.0,,37108.0,,1172.0,,37236.0,,1166.0,,107424.0,,1517.0,,186156.0,,518.0,,181538.0,,507.0,,163811.0,,1879.0,,176767.0,,1862.0,,195254.0,,462.0,,202466.0,,359.0,,178526.0,,1462.0,,63341.0,,1200.0,,83640.0,,1481.0,,46245.0,,918.0,,57044.0,,968.0,,75323.0,,1011.0,,56643.0,,775.0,,41519.0,,835.0,,34747.0,,811.0,,2692082.0,,724.0,,171876.0,,339.0,,174865.0,,1611.0,,172938.0,,1629.0,,105515.0,,413.0,,73285.0,,508.0,,35569.0,,1139.0,,35954.0,,1305.0,,102769.0,,1609.0,,182595.0,,418.0,,175874.0,,436.0,,159039.0,,1659.0,,176186.0,,1699.0,,194316.0,,412.0,,203227.0,,373.0,,181317.0,,1479.0,,64578.0,,1061.0,,84833.0,,1345.0,,49937.0,,1091.0,,61841.0,,1036.0,,84641.0,,1058.0,,70696.0,,1169.0,,59087.0,,1214.0,,71144.0,,1209.0,,Minnesota,27
2976872.0,,-555555555.0,*****,1445356.0,,982.0,,105199.0,,655.0,,105091.0,,1895.0,,107668.0,,1859.0,,63841.0,,553.0,,46393.0,,787.0,,26529.0,,1218.0,,23268.0,,1229.0,,60191.0,,1514.0,,96390.0,,811.0,,94120.0,,685.0,,88715.0,,1876.0,,93842.0,,1749.0,,97483.0,,706.0,,99585.0,,479.0,,91478.0,,1392.0,,33326.0,,1062.0,,45590.0,,1185.0,,26310.0,,871.0,,33322.0,,958.0,,43826.0,,1112.0,,30727.0,,817.0,,18734.0,,751.0,,13728.0,,701.0,,1531516.0,,982.0,,100386.0,,670.0,,101328.0,,1595.0,,102181.0,,1486.0,,62802.0,,569.0,,45177.0,,699.0,,23953.0,,941.0,,24297.0,,1194.0,,60458.0,,1424.0,,98651.0,,512.0,,97307.0,,568.0,,94089.0,,1889.0,,97865.0,,1933.0,,103042.0,,419.0,,107370.0,,385.0,,98664.0,,1532.0,,36163.0,,1284.0,,51597.0,,1188.0,,29844.0,,834.0,,38015.0,,1037.0,,52676.0,,1103.0,,40580.0,,977.0,,33270.0,,904.0,,31801.0,,986.0,,Mississippi,28
6007182.0,,-555555555.0,*****,2941951.0,,986.0,,195979.0,,499.0,,198915.0,,2336.0,,203152.0,,2331.0,,124340.0,,472.0,,87387.0,,697.0,,46403.0,,1557.0,,43275.0,,1502.0,,121674.0,,1857.0,,200286.0,,646.0,,191470.0,,556.0,,181983.0,,2263.0,,185976.0,,2132.0,,209386.0,,582.0,,219662.0,,543.0,,191421.0,,1723.0,,72252.0,,1441.0,,95293.0,,1306.0,,55287.0,,1196.0,,71261.0,,1233.0,,92595.0,,1479.0,,67923.0,,1059.0,,47483.0,,1051.0,,38548.0,,857.0,,3065231.0,,986.0,,187032.0,,526.0,,192455.0,,2533.0,,192781.0,,2506.0,,118390.0,,493.0,,83838.0,,654.0,,45009.0,,1474.0,,42888.0,,1480.0,,121056.0,,1866.0,,200458.0,,485.0,,191965.0,,523.0,,181102.0,,1730.0,,192133.0,,1887.0,,213562.0,,533.0,,226481.0,,409.0,,206941.0,,2001.0,,75351.0,,1386.0,,104848.0,,1598.0,,61527.0,,1426.0,,79567.0,,1292.0,,109727.0,,1582.0,,86424.0,,1433.0,,72483.0,,1563.0,,79213.0,,1422.0,,Missouri,29
998554.0,,-555555555.0,*****,501549.0,,617.0,,31337.0,,335.0,,32533.0,,843.0,,30932.0,,820.0,,20094.0,,278.0,,14514.0,,360.0,,7617.0,,613.0,,8037.0,,628.0,,20521.0,,792.0,,32432.0,,370.0,,31695.0,,365.0,,28437.0,,801.0,,28855.0,,874.0,,33217.0,,297.0,,38072.0,,325.0,,38329.0,,717.0,,14659.0,,727.0,,18839.0,,635.0,,10929.0,,534.0,,14036.0,,643.0,,17701.0,,620.0,,12862.0,,466.0,,9244.0,,458.0,,6657.0,,407.0,,497005.0,,617.0,,29703.0,,331.0,,30791.0,,825.0,,29499.0,,803.0,,18406.0,,249.0,,13179.0,,335.0,,7829.0,,593.0,,6599.0,,440.0,,19016.0,,687.0,,30411.0,,244.0,,29366.0,,323.0,,27296.0,,907.0,,28864.0,,923.0,,33593.0,,261.0,,39045.0,,252.0,,38928.0,,736.0,,14704.0,,612.0,,18244.0,,635.0,,11250.0,,494.0,,13603.0,,526.0,,17907.0,,503.0,,14050.0,,578.0,,11288.0,,475.0,,13434.0,,501.0,,Montana,30
1841625.0,,-555555555.0,*****,913478.0,,621.0,,66678.0,,312.0,,66812.0,,1159.0,,63277.0,,1140.0,,38193.0,,263.0,,27492.0,,322.0,,13439.0,,649.0,,14496.0,,820.0,,39879.0,,885.0,,64837.0,,426.0,,61256.0,,300.0,,55357.0,,1033.0,,56852.0,,1020.0,,60990.0,,275.0,,65360.0,,286.0,,58146.0,,820.0,,22809.0,,611.0,,27765.0,,642.0,,16215.0,,547.0,,19438.0,,666.0,,25190.0,,618.0,,20313.0,,575.0,,15828.0,,548.0,,12856.0,,497.0,,928147.0,,621.0,,63787.0,,314.0,,63416.0,,1068.0,,61618.0,,1096.0,,36335.0,,220.0,,26719.0,,358.0,,13626.0,,877.0,,13142.0,,694.0,,37017.0,,984.0,,62295.0,,338.0,,59443.0,,282.0,,54178.0,,912.0,,55254.0,,927.0,,61292.0,,328.0,,65408.0,,235.0,,60465.0,,856.0,,22464.0,,719.0,,28943.0,,744.0,,16473.0,,554.0,,21098.0,,655.0,,29928.0,,528.0,,26579.0,,607.0,,22322.0,,609.0,,26345.0,,657.0,,Nebraska,31
2730066.0,,-555555555.0,*****,1377138.0,,498.0,,93914.0,,230.0,,95456.0,,1738.0,,92541.0,,1699.0,,56790.0,,156.0,,35155.0,,279.0,,18816.0,,916.0,,19744.0,,881.0,,55397.0,,1075.0,,100660.0,,237.0,,99189.0,,352.0,,97469.0,,1789.0,,98218.0,,1781.0,,98377.0,,243.0,,93806.0,,268.0,,82521.0,,1468.0,,31310.0,,1133.0,,44788.0,,1189.0,,26808.0,,974.0,,32598.0,,898.0,,44228.0,,1191.0,,28669.0,,839.0,,18010.0,,682.0,,12674.0,,613.0,,1352928.0,,498.0,,89624.0,,207.0,,90858.0,,1651.0,,88513.0,,1667.0,,54374.0,,221.0,,32375.0,,276.0,,17774.0,,1009.0,,18616.0,,1079.0,,53160.0,,1331.0,,95727.0,,205.0,,94337.0,,230.0,,91856.0,,1469.0,,94284.0,,1441.0,,92753.0,,209.0,,91610.0,,283.0,,85933.0,,1529.0,,33289.0,,1405.0,,45770.0,,1390.0,,28024.0,,1022.0,,36019.0,,1111.0,,44003.0,,955.0,,30340.0,,886.0,,22439.0,,776.0,,21250.0,,991.0,,Nevada,32
1319171.0,,-555555555.0,*****,651106.0,,466.0,,34939.0,,245.0,,38166.0,,973.0,,43166.0,,966.0,,27558.0,,165.0,,19786.0,,240.0,,10140.0,,720.0,,9451.0,,731.0,,23912.0,,789.0,,38111.0,,259.0,,36057.0,,243.0,,37698.0,,1111.0,,47303.0,,1079.0,,54084.0,,267.0,,56134.0,,255.0,,49160.0,,927.0,,18028.0,,729.0,,24054.0,,802.0,,13949.0,,606.0,,15946.0,,565.0,,20248.0,,605.0,,14563.0,,520.0,,10307.0,,425.0,,8346.0,,496.0,,668065.0,,466.0,,33177.0,,206.0,,38348.0,,1074.0,,39300.0,,1094.0,,26206.0,,204.0,,20208.0,,359.0,,10157.0,,767.0,,9217.0,,741.0,,22249.0,,836.0,,36331.0,,253.0,,36523.0,,230.0,,40973.0,,1034.0,,46484.0,,1101.0,,55031.0,,241.0,,56951.0,,216.0,,50223.0,,907.0,,18318.0,,667.0,,24646.0,,848.0,,14242.0,,575.0,,17286.0,,646.0,,22404.0,,583.0,,17761.0,,649.0,,15351.0,,677.0,,16679.0,,685.0,,New Hampshire,33
8832406.0,,-555555555.0,*****,4304817.0,,501.0,,274712.0,,238.0,,283917.0,,2472.0,,301103.0,,2437.0,,187123.0,,219.0,,118737.0,,241.0,,60087.0,,1466.0,,57195.0,,1607.0,,166378.0,,1881.0,,282812.0,,299.0,,280393.0,,303.0,,284086.0,,2469.0,,313609.0,,2540.0,,336487.0,,226.0,,331299.0,,238.0,,284000.0,,2035.0,,100462.0,,1663.0,,130815.0,,2028.0,,78646.0,,1300.0,,92897.0,,1556.0,,121585.0,,1687.0,,90218.0,,1382.0,,70079.0,,1443.0,,58177.0,,1155.0,,4527589.0,,501.0,,263195.0,,249.0,,276457.0,,2456.0,,283027.0,,2453.0,,177706.0,,201.0,,109827.0,,257.0,,56560.0,,1611.0,,53092.0,,1501.0,,155544.0,,2044.0,,275872.0,,216.0,,283715.0,,240.0,,294174.0,,2462.0,,324660.0,,2485.0,,352726.0,,265.0,,348471.0,,210.0,,301386.0,,2207.0,,110399.0,,1816.0,,151148.0,,2092.0,,90146.0,,1373.0,,108523.0,,1931.0,,152569.0,,1904.0,,123295.0,,1782.0,,109210.0,,1668.0,,125887.0,,1625.0,,New Jersey,34
2069706.0,,-555555555.0,*****,1024290.0,,716.0,,72610.0,,360.0,,73240.0,,1296.0,,72570.0,,1275.0,,43819.0,,448.0,,31039.0,,413.0,,15814.0,,882.0,,15814.0,,893.0,,45006.0,,1111.0,,71942.0,,390.0,,66658.0,,505.0,,62480.0,,1282.0,,60688.0,,1322.0,,67243.0,,435.0,,70867.0,,290.0,,64947.0,,1203.0,,26275.0,,1042.0,,34283.0,,1168.0,,19987.0,,886.0,,24213.0,,916.0,,33169.0,,881.0,,23233.0,,672.0,,16586.0,,578.0,,11807.0,,607.0,,1045416.0,,716.0,,68923.0,,345.0,,70505.0,,1390.0,,70156.0,,1301.0,,42080.0,,405.0,,29481.0,,444.0,,15795.0,,771.0,,14480.0,,838.0,,41145.0,,964.0,,68286.0,,441.0,,63938.0,,422.0,,62748.0,,1475.0,,61356.0,,1418.0,,69287.0,,338.0,,74978.0,,272.0,,72027.0,,1267.0,,27892.0,,999.0,,36215.0,,1158.0,,20822.0,,852.0,,28642.0,,802.0,,36589.0,,826.0,,28077.0,,851.0,,20420.0,,787.0,,21574.0,,739.0,,New Mexico,35
19487053.0,,-555555555.0,*****,9442496.0,,921.0,,595835.0,,579.0,,587047.0,,3490.0,,617327.0,,3489.0,,394682.0,,423.0,,287617.0,,805.0,,157055.0,,2385.0,,146860.0,,2590.0,,413775.0,,3085.0,,696848.0,,685.0,,646418.0,,568.0,,608396.0,,4159.0,,655689.0,,4192.0,,695717.0,,582.0,,691182.0,,528.0,,607896.0,,3544.0,,219758.0,,2954.0,,295964.0,,2996.0,,166802.0,,2196.0,,205967.0,,2233.0,,270490.0,,2275.0,,201201.0,,1813.0,,151731.0,,1727.0,,128239.0,,1766.0,,10044557.0,,921.0,,568742.0,,596.0,,567943.0,,3557.0,,583433.0,,3579.0,,376010.0,,431.0,,276396.0,,871.0,,149854.0,,2489.0,,143002.0,,2417.0,,410415.0,,2947.0,,709511.0,,434.0,,663679.0,,606.0,,626579.0,,4646.0,,686239.0,,4611.0,,733295.0,,534.0,,736209.0,,461.0,,660261.0,,3473.0,,245526.0,,2841.0,,336510.0,,3237.0,,197825.0,,2788.0,,245996.0,,2656.0,,339636.0,,3151.0,,273229.0,,2651.0,,239472.0,,2459.0,,274795.0,,2689.0,,New York,36
9651380.0,,-555555555.0,*****,4702565.0,,1112.0,,318194.0,,685.0,,325928.0,,2820.0,,327775.0,,2905.0,,194651.0,,754.0,,143403.0,,867.0,,78830.0,,2255.0,,74747.0,,1924.0,,197159.0,,2730.0,,310448.0,,904.0,,308038.0,,882.0,,316036.0,,2897.0,,333906.0,,2921.0,,337091.0,,846.0,,327347.0,,809.0,,292855.0,,2887.0,,108688.0,,2058.0,,153782.0,,2361.0,,89043.0,,1578.0,,112974.0,,1835.0,,140536.0,,1778.0,,100260.0,,1676.0,,64636.0,,1496.0,,46238.0,,1223.0,,4948815.0,,1112.0,,305513.0,,694.0,,313527.0,,2806.0,,311941.0,,2818.0,,184069.0,,712.0,,134988.0,,914.0,,72536.0,,2180.0,,70435.0,,1806.0,,189662.0,,2740.0,,315667.0,,782.0,,319159.0,,810.0,,324844.0,,3275.0,,347266.0,,3398.0,,351668.0,,774.0,,349192.0,,640.0,,325261.0,,2829.0,,120881.0,,1854.0,,170733.0,,2384.0,,101473.0,,1925.0,,127556.0,,1859.0,,170934.0,,2043.0,,132883.0,,1742.0,,102947.0,,1693.0,,105680.0,,1563.0,,North Carolina,37
689781.0,,-555555555.0,*****,349947.0,,507.0,,23224.0,,219.0,,21559.0,,627.0,,20932.0,,617.0,,13240.0,,200.0,,11685.0,,253.0,,7396.0,,645.0,,6752.0,,649.0,,19853.0,,903.0,,27026.0,,308.0,,23445.0,,304.0,,19799.0,,676.0,,20170.0,,580.0,,22351.0,,178.0,,25417.0,,202.0,,23710.0,,521.0,,8900.0,,412.0,,11011.0,,537.0,,6051.0,,312.0,,7371.0,,344.0,,10131.0,,379.0,,7813.0,,295.0,,6488.0,,310.0,,5623.0,,301.0,,339834.0,,507.0,,22051.0,,225.0,,21156.0,,647.0,,19513.0,,627.0,,12193.0,,177.0,,10813.0,,251.0,,5670.0,,501.0,,5952.0,,583.0,,17363.0,,706.0,,23245.0,,243.0,,20962.0,,247.0,,17904.0,,640.0,,18843.0,,660.0,,21896.0,,233.0,,24905.0,,174.0,,22651.0,,517.0,,8340.0,,406.0,,10604.0,,415.0,,6342.0,,363.0,,7404.0,,328.0,,11404.0,,378.0,,10086.0,,475.0,,9286.0,,458.0,,11251.0,,454.0,,North Dakota,38
11549590.0,,-555555555.0,*****,5642666.0,,963.0,,361311.0,,610.0,,382573.0,,3009.0,,390655.0,,3042.0,,244436.0,,540.0,,169650.0,,651.0,,85820.0,,1911.0,,82137.0,,1796.0,,222909.0,,2224.0,,361410.0,,754.0,,350074.0,,667.0,,343651.0,,2735.0,,379399.0,,2700.0,,405691.0,,619.0,,429137.0,,535.0,,391606.0,,2269.0,,142213.0,,2085.0,,189994.0,,1985.0,,105199.0,,1524.0,,131775.0,,1699.0,,174404.0,,1797.0,,128830.0,,1466.0,,95038.0,,1339.0,,74754.0,,1383.0,,5906924.0,,963.0,,345128.0,,675.0,,362828.0,,3257.0,,376181.0,,3293.0,,232704.0,,488.0,,161227.0,,566.0,,84600.0,,2013.0,,80887.0,,1938.0,,220024.0,,2529.0,,362587.0,,601.0,,353702.0,,550.0,,348731.0,,2876.0,,385131.0,,2841.0,,417455.0,,553.0,,447499.0,,478.0,,411151.0,,2856.0,,153132.0,,2361.0,,207311.0,,2684.0,,116922.0,,1497.0,,149937.0,,1708.0,,211925.0,,1945.0,,171014.0,,1969.0,,145344.0,,1948.0,,161504.0,,2013.0,,Ohio,39
3785742.0,,-555555555.0,*****,1873875.0,,782.0,,134218.0,,474.0,,134503.0,,1630.0,,131805.0,,1608.0,,78468.0,,348.0,,56439.0,,512.0,,29817.0,,1182.0,,29871.0,,1158.0,,82903.0,,1425.0,,133819.0,,554.0,,126867.0,,488.0,,117400.0,,1474.0,,116359.0,,1442.0,,123871.0,,459.0,,130057.0,,413.0,,117766.0,,1367.0,,42127.0,,981.0,,58608.0,,1165.0,,33545.0,,873.0,,43554.0,,941.0,,59720.0,,1020.0,,41782.0,,770.0,,28890.0,,687.0,,21486.0,,798.0,,1911867.0,,782.0,,129941.0,,477.0,,127710.0,,1486.0,,125118.0,,1552.0,,73596.0,,360.0,,52340.0,,484.0,,28032.0,,1093.0,,27477.0,,961.0,,79206.0,,1318.0,,130014.0,,449.0,,122119.0,,426.0,,116634.0,,1655.0,,114287.0,,1718.0,,125511.0,,356.0,,133809.0,,335.0,,125479.0,,1459.0,,45374.0,,1150.0,,62583.0,,1200.0,,38045.0,,845.0,,48728.0,,1012.0,,68567.0,,1080.0,,53399.0,,1057.0,,41785.0,,1151.0,,42113.0,,1142.0,,Oklahoma,40
3868721.0,,-555555555.0,*****,1914014.0,,621.0,,119716.0,,372.0,,122392.0,,1930.0,,123243.0,,1962.0,,75923.0,,372.0,,53143.0,,555.0,,26678.0,,1021.0,,27787.0,,1242.0,,76817.0,,1559.0,,132863.0,,575.0,,134137.0,,543.0,,124540.0,,1990.0,,131505.0,,1915.0,,127395.0,,429.0,,133699.0,,434.0,,131596.0,,1698.0,,52179.0,,1332.0,,69180.0,,1509.0,,40185.0,,1114.0,,48188.0,,1123.0,,61621.0,,1248.0,,42677.0,,1099.0,,31099.0,,992.0,,27451.0,,934.0,,1954707.0,,621.0,,113999.0,,389.0,,117437.0,,1883.0,,117392.0,,1869.0,,72186.0,,354.0,,49701.0,,528.0,,26895.0,,1069.0,,27049.0,,1236.0,,74530.0,,1522.0,,130287.0,,400.0,,131443.0,,462.0,,123164.0,,1971.0,,125309.0,,1946.0,,128652.0,,420.0,,139453.0,,391.0,,141831.0,,1601.0,,53244.0,,1385.0,,73283.0,,1434.0,,40922.0,,1131.0,,52681.0,,1129.0,,69300.0,,1346.0,,51419.0,,1098.0,,43441.0,,1098.0,,51089.0,,1298.0,,Oregon,41
12731381.0,,-555555555.0,*****,6211805.0,,833.0,,370033.0,,416.0,,385870.0,,2906.0,,398535.0,,2874.0,,259027.0,,367.0,,194025.0,,866.0,,99130.0,,1767.0,,94316.0,,2069.0,,249578.0,,2425.0,,403491.0,,539.0,,376084.0,,554.0,,372623.0,,3339.0,,414492.0,,3249.0,,455464.0,,518.0,,480107.0,,429.0,,441054.0,,2557.0,,158624.0,,1888.0,,212384.0,,2593.0,,122986.0,,1512.0,,152348.0,,1914.0,,198662.0,,1799.0,,153725.0,,1865.0,,119042.0,,1823.0,,100205.0,,1578.0,,6519576.0,,833.0,,352945.0,,393.0,,370107.0,,3032.0,,380192.0,,3035.0,,243671.0,,365.0,,190632.0,,792.0,,98864.0,,2016.0,,92623.0,,2273.0,,239071.0,,2824.0,,396740.0,,438.0,,374628.0,,437.0,,375392.0,,3238.0,,420548.0,,3170.0,,469647.0,,453.0,,497380.0,,371.0,,460137.0,,2875.0,,167664.0,,2109.0,,231502.0,,2580.0,,137185.0,,1957.0,,173560.0,,1838.0,,240329.0,,1981.0,,208507.0,,2201.0,,186286.0,,1962.0,,211966.0,,1998.0,,Pennsylvania,42
1051695.0,,-555555555.0,*****,508455.0,,316.0,,28627.0,,194.0,,30381.0,,944.0,,32769.0,,932.0,,20773.0,,156.0,,18203.0,,267.0,,9613.0,,651.0,,9337.0,,722.0,,22512.0,,904.0,,33927.0,,192.0,,31067.0,,246.0,,30612.0,,929.0,,34429.0,,926.0,,38077.0,,213.0,,38860.0,,194.0,,35233.0,,855.0,,12485.0,,579.0,,16906.0,,694.0,,10418.0,,563.0,,11027.0,,515.0,,14832.0,,602.0,,10884.0,,510.0,,9500.0,,528.0,,7983.0,,458.0,,543240.0,,316.0,,27311.0,,220.0,,28118.0,,870.0,,31851.0,,861.0,,19916.0,,164.0,,19132.0,,212.0,,9494.0,,752.0,,9275.0,,743.0,,22142.0,,906.0,,33037.0,,216.0,,31618.0,,196.0,,31522.0,,929.0,,36739.0,,986.0,,40475.0,,197.0,,42013.0,,214.0,,37566.0,,811.0,,14150.0,,631.0,,17967.0,,790.0,,10470.0,,611.0,,13085.0,,685.0,,18621.0,,671.0,,15440.0,,660.0,,13980.0,,584.0,,19318.0,,680.0,,Rhode Island,44
4679602.0,,-555555555.0,*****,2276305.0,,685.0,,151311.0,,410.0,,154771.0,,2337.0,,150347.0,,2311.0,,93069.0,,385.0,,72880.0,,715.0,,40393.0,,1305.0,,36828.0,,1276.0,,97002.0,,1763.0,,152212.0,,609.0,,144792.0,,618.0,,143247.0,,1902.0,,151425.0,,1822.0,,157846.0,,439.0,,158256.0,,479.0,,145827.0,,1897.0,,55985.0,,1533.0,,79867.0,,1530.0,,47897.0,,1241.0,,59974.0,,1282.0,,76483.0,,1208.0,,50391.0,,948.0,,33287.0,,1058.0,,22215.0,,923.0,,2403297.0,,685.0,,146931.0,,448.0,,147340.0,,1992.0,,147096.0,,1973.0,,88212.0,,459.0,,67379.0,,515.0,,37103.0,,1427.0,,35480.0,,1428.0,,95431.0,,1806.0,,152955.0,,441.0,,148672.0,,486.0,,147936.0,,2213.0,,156733.0,,2090.0,,167814.0,,400.0,,171175.0,,436.0,,163234.0,,1861.0,,63936.0,,1526.0,,89902.0,,1697.0,,53181.0,,1326.0,,68199.0,,1308.0,,89314.0,,1470.0,,66796.0,,1264.0,,48936.0,,1191.0,,49542.0,,1301.0,,South Carolina,45
825198.0,,-555555555.0,*****,414382.0,,516.0,,30434.0,,248.0,,29200.0,,810.0,,28462.0,,860.0,,17178.0,,243.0,,12450.0,,315.0,,6702.0,,552.0,,6435.0,,482.0,,17714.0,,725.0,,28992.0,,312.0,,26514.0,,323.0,,24353.0,,745.0,,23840.0,,697.0,,27644.0,,263.0,,29818.0,,236.0,,27893.0,,795.0,,10254.0,,591.0,,13618.0,,550.0,,7662.0,,450.0,,8751.0,,447.0,,12673.0,,500.0,,9301.0,,473.0,,7784.0,,391.0,,6710.0,,376.0,,410816.0,,515.0,,28501.0,,262.0,,27831.0,,687.0,,26242.0,,662.0,,16333.0,,238.0,,11890.0,,304.0,,6189.0,,491.0,,5934.0,,457.0,,15815.0,,663.0,,26729.0,,220.0,,25119.0,,237.0,,22501.0,,716.0,,23273.0,,697.0,,27084.0,,270.0,,29663.0,,247.0,,28092.0,,711.0,,9849.0,,529.0,,13176.0,,507.0,,7307.0,,377.0,,9412.0,,450.0,,14157.0,,484.0,,12203.0,,490.0,,10622.0,,490.0,,12894.0,,550.0,,South Dakota,46
6402387.0,,-555555555.0,*****,3120796.0,,1183.0,,205978.0,,694.0,,208194.0,,2297.0,,218263.0,,2261.0,,130501.0,,649.0,,88658.0,,603.0,,47131.0,,1728.0,,45759.0,,1495.0,,128374.0,,2082.0,,207432.0,,733.0,,204504.0,,687.0,,204910.0,,2470.0,,217042.0,,2495.0,,223430.0,,681.0,,222216.0,,588.0,,203164.0,,2114.0,,77008.0,,1539.0,,104390.0,,1943.0,,60439.0,,1267.0,,78211.0,,1651.0,,101163.0,,1667.0,,69158.0,,1194.0,,43998.0,,1128.0,,30873.0,,1006.0,,3281591.0,,1183.0,,197453.0,,640.0,,203578.0,,2503.0,,205241.0,,2376.0,,123545.0,,489.0,,85497.0,,647.0,,46628.0,,1693.0,,45766.0,,1607.0,,129103.0,,1943.0,,210787.0,,653.0,,209364.0,,697.0,,210799.0,,2431.0,,218786.0,,2225.0,,232596.0,,549.0,,237287.0,,525.0,,219879.0,,2206.0,,83842.0,,1580.0,,117346.0,,1741.0,,68433.0,,1481.0,,87496.0,,1554.0,,116768.0,,1513.0,,91743.0,,1368.0,,68954.0,,1530.0,,70700.0,,1432.0,,Tennessee,47
25639373.0,,-555555555.0,*****,12729156.0,,1837.0,,987673.0,,1045.0,,996977.0,,5258.0,,975394.0,,5303.0,,580085.0,,871.0,,390682.0,,1455.0,,206655.0,,3778.0,,202940.0,,2901.0,,559310.0,,3935.0,,951439.0,,1237.0,,914165.0,,1246.0,,885673.0,,5319.0,,864764.0,,5362.0,,863798.0,,1055.0,,840296.0,,1015.0,,717239.0,,4099.0,,256011.0,,3153.0,,336267.0,,3729.0,,196700.0,,2933.0,,237064.0,,2731.0,,299924.0,,2738.0,,215305.0,,2456.0,,145001.0,,1925.0,,105794.0,,2130.0,,12910217.0,,1837.0,,947300.0,,1058.0,,957770.0,,5875.0,,930681.0,,5973.0,,549028.0,,864.0,,364752.0,,1274.0,,192532.0,,3629.0,,182951.0,,2802.0,,534336.0,,3995.0,,921250.0,,1089.0,,903449.0,,988.0,,885872.0,,5062.0,,874671.0,,5327.0,,871637.0,,848.0,,859365.0,,801.0,,752359.0,,3974.0,,272521.0,,3368.0,,373185.0,,3718.0,,210043.0,,2796.0,,271350.0,,2721.0,,353509.0,,2994.0,,274569.0,,2472.0,,213184.0,,2618.0,,213903.0,,2228.0,,Texas,48
2813673.0,,-555555555.0,*****,1414267.0,,647.0,,133051.0,,330.0,,129446.0,,1752.0,,121418.0,,1772.0,,68067.0,,252.0,,43972.0,,416.0,,18813.0,,1007.0,,23964.0,,1176.0,,75834.0,,1347.0,,113048.0,,358.0,,113093.0,,311.0,,95180.0,,1185.0,,82408.0,,1223.0,,76623.0,,322.0,,76292.0,,258.0,,68849.0,,921.0,,23353.0,,680.0,,31911.0,,796.0,,17413.0,,540.0,,22910.0,,765.0,,29507.0,,775.0,,22306.0,,609.0,,14947.0,,514.0,,11862.0,,598.0,,1399406.0,,647.0,,126291.0,,334.0,,121450.0,,1671.0,,115997.0,,1673.0,,63780.0,,237.0,,44781.0,,319.0,,25670.0,,1208.0,,24330.0,,1250.0,,66207.0,,1632.0,,108775.0,,353.0,,107880.0,,377.0,,92735.0,,1564.0,,77637.0,,1554.0,,75574.0,,302.0,,77571.0,,305.0,,70385.0,,1041.0,,24474.0,,705.0,,33401.0,,879.0,,19960.0,,763.0,,24339.0,,679.0,,32826.0,,705.0,,25984.0,,748.0,,19813.0,,697.0,,19546.0,,659.0,,Utah,49
625904.0,,-555555555.0,*****,308544.0,,276.0,,16136.0,,166.0,,17829.0,,560.0,,18887.0,,563.0,,12360.0,,127.0,,11072.0,,158.0,,6015.0,,512.0,,5055.0,,395.0,,12004.0,,505.0,,17787.0,,172.0,,17071.0,,147.0,,17149.0,,560.0,,20869.0,,550.0,,22959.0,,158.0,,25369.0,,162.0,,24604.0,,585.0,,8878.0,,495.0,,11957.0,,499.0,,6951.0,,364.0,,8247.0,,400.0,,10507.0,,336.0,,7520.0,,345.0,,5039.0,,309.0,,4279.0,,300.0,,317360.0,,276.0,,15101.0,,134.0,,16384.0,,559.0,,18104.0,,547.0,,11841.0,,119.0,,10385.0,,138.0,,5038.0,,397.0,,4789.0,,352.0,,11503.0,,484.0,,17634.0,,174.0,,17769.0,,175.0,,17282.0,,593.0,,21317.0,,575.0,,24240.0,,181.0,,26555.0,,157.0,,25209.0,,564.0,,9215.0,,398.0,,12459.0,,534.0,,6918.0,,295.0,,9062.0,,405.0,,11399.0,,388.0,,8895.0,,368.0,,8108.0,,373.0,,8153.0,,358.0,,Vermont,50
8100653.0,,-555555555.0,*****,3977926.0,,1512.0,,259720.0,,791.0,,262919.0,,2960.0,,263384.0,,2797.0,,161240.0,,724.0,,120602.0,,1411.0,,64033.0,,1574.0,,62761.0,,1774.0,,172680.0,,1966.0,,287689.0,,1139.0,,272134.0,,1005.0,,262348.0,,2976.0,,283934.0,,3018.0,,296475.0,,825.0,,292007.0,,789.0,,250330.0,,2203.0,,93653.0,,1685.0,,127525.0,,2147.0,,72551.0,,1346.0,,89489.0,,1484.0,,112222.0,,1618.0,,78434.0,,1101.0,,52498.0,,1159.0,,39298.0,,961.0,,4122727.0,,1512.0,,250068.0,,850.0,,254499.0,,2347.0,,250965.0,,2553.0,,153219.0,,692.0,,114816.0,,1185.0,,59805.0,,1969.0,,59568.0,,1525.0,,162436.0,,2008.0,,282182.0,,844.0,,272943.0,,851.0,,268095.0,,2599.0,,289384.0,,2638.0,,308682.0,,759.0,,305785.0,,595.0,,271777.0,,2253.0,,101609.0,,1783.0,,138100.0,,2352.0,,77164.0,,1402.0,,100842.0,,1309.0,,133996.0,,1826.0,,101152.0,,1709.0,,78970.0,,1203.0,,86670.0,,1567.0,,Virginia,51
6819579.0,,-555555555.0,*****,3401539.0,,664.0,,226020.0,,460.0,,223893.0,,2578.0,,223044.0,,2656.0,,138386.0,,309.0,,93240.0,,471.0,,52775.0,,1620.0,,50594.0,,1665.0,,144949.0,,2278.0,,250681.0,,502.0,,239301.0,,521.0,,226614.0,,2603.0,,235441.0,,2700.0,,239458.0,,420.0,,245956.0,,312.0,,223170.0,,2070.0,,82938.0,,1607.0,,113702.0,,1943.0,,63210.0,,1498.0,,77208.0,,1359.0,,96381.0,,1370.0,,66994.0,,1236.0,,46717.0,,1155.0,,40867.0,,939.0,,3418040.0,,664.0,,215514.0,,359.0,,211200.0,,2459.0,,215410.0,,2361.0,,131433.0,,386.0,,88931.0,,665.0,,47818.0,,1567.0,,45342.0,,1593.0,,135890.0,,1953.0,,237404.0,,381.0,,230750.0,,389.0,,220506.0,,2532.0,,229040.0,,2390.0,,238015.0,,327.0,,248952.0,,325.0,,235295.0,,2077.0,,89162.0,,1588.0,,117436.0,,1815.0,,68440.0,,1228.0,,81912.0,,1413.0,,105880.0,,1495.0,,79763.0,,1319.0,,66567.0,,1135.0,,77380.0,,1476.0,,Washington,53
1853619.0,,-555555555.0,*****,913201.0,,672.0,,53223.0,,357.0,,53409.0,,1232.0,,55580.0,,1238.0,,34461.0,,241.0,,25819.0,,457.0,,13363.0,,924.0,,13356.0,,845.0,,35512.0,,1114.0,,54098.0,,393.0,,56999.0,,441.0,,56550.0,,1145.0,,62209.0,,1117.0,,64220.0,,361.0,,68590.0,,364.0,,68186.0,,1005.0,,27886.0,,783.0,,35733.0,,996.0,,20464.0,,760.0,,25892.0,,885.0,,34647.0,,789.0,,24881.0,,714.0,,16725.0,,656.0,,11398.0,,525.0,,940418.0,,672.0,,50384.0,,395.0,,51343.0,,1152.0,,54106.0,,1087.0,,32657.0,,305.0,,24205.0,,432.0,,13558.0,,760.0,,12908.0,,690.0,,33143.0,,844.0,,52852.0,,416.0,,55537.0,,315.0,,55479.0,,1040.0,,61231.0,,991.0,,64413.0,,263.0,,71215.0,,313.0,,71847.0,,1143.0,,28119.0,,896.0,,36459.0,,945.0,,22395.0,,776.0,,26950.0,,848.0,,39272.0,,839.0,,31701.0,,740.0,,24785.0,,751.0,,25859.0,,678.0,,West Virginia,54
5706871.0,,-555555555.0,*****,2832906.0,,797.0,,180000.0,,477.0,,186685.0,,1701.0,,192658.0,,1704.0,,118810.0,,382.0,,83842.0,,383.0,,44248.0,,1507.0,,40301.0,,1395.0,,114090.0,,1836.0,,185934.0,,471.0,,182484.0,,428.0,,172768.0,,1874.0,,187908.0,,1836.0,,210560.0,,403.0,,219072.0,,365.0,,197885.0,,1560.0,,70587.0,,1170.0,,93670.0,,1397.0,,52083.0,,934.0,,63420.0,,990.0,,85776.0,,1040.0,,62534.0,,945.0,,47965.0,,982.0,,39626.0,,848.0,,2873965.0,,797.0,,171295.0,,381.0,,180438.0,,1886.0,,182740.0,,1849.0,,112518.0,,417.0,,80133.0,,400.0,,41056.0,,1342.0,,39406.0,,1384.0,,110836.0,,1634.0,,180255.0,,389.0,,176150.0,,456.0,,168715.0,,1762.0,,184475.0,,1808.0,,210405.0,,335.0,,219678.0,,345.0,,199327.0,,1507.0,,70179.0,,1453.0,,95510.0,,1279.0,,53640.0,,1022.0,,70846.0,,1061.0,,95787.0,,1313.0,,80078.0,,1189.0,,70283.0,,1239.0,,80215.0,,1270.0,,Wisconsin,55
570134.0,,-555555555.0,*****,291223.0,,592.0,,20403.0,,399.0,,19513.0,,669.0,,19367.0,,724.0,,11422.0,,264.0,,8759.0,,363.0,,4785.0,,512.0,,4016.0,,424.0,,12661.0,,626.0,,21461.0,,345.0,,19826.0,,394.0,,18059.0,,681.0,,17761.0,,857.0,,18723.0,,294.0,,21725.0,,321.0,,21949.0,,572.0,,7580.0,,461.0,,9453.0,,477.0,,5736.0,,417.0,,6610.0,,448.0,,8127.0,,440.0,,5846.0,,349.0,,4256.0,,317.0,,3185.0,,309.0,,278911.0,,592.0,,19006.0,,305.0,,18647.0,,759.0,,17453.0,,703.0,,10611.0,,246.0,,7376.0,,284.0,,4121.0,,427.0,,3954.0,,465.0,,11511.0,,595.0,,19571.0,,301.0,,18050.0,,279.0,,16544.0,,586.0,,16222.0,,588.0,,18516.0,,241.0,,21409.0,,237.0,,20777.0,,644.0,,6938.0,,439.0,,9564.0,,538.0,,5330.0,,392.0,,6733.0,,432.0,,8771.0,,391.0,,6764.0,,419.0,,5185.0,,341.0,,5858.0,,348.0,,Wyoming,56
3682966.0,,-555555555.0,*****,1763291.0,,58.0,,109601.0,,-555555555.0,*****,118964.0,,1963.0,,132844.0,,1962.0,,84173.0,,56.0,,56765.0,,194.0,,30317.0,,1103.0,,28978.0,,1017.0,,73299.0,,1273.0,,115356.0,,-555555555.0,*****,116178.0,,-555555555.0,*****,111724.0,,1686.0,,115279.0,,1686.0,,114161.0,,-555555555.0,*****,109871.0,,-555555555.0,*****,100144.0,,1170.0,,40094.0,,1222.0,,59935.0,,1241.0,,35685.0,,964.0,,48003.0,,978.0,,63566.0,,989.0,,44283.0,,987.0,,29064.0,,808.0,,25007.0,,669.0,,1919675.0,,58.0,,104653.0,,-555555555.0,*****,108884.0,,1640.0,,129415.0,,1640.0,,80045.0,,60.0,,54764.0,,191.0,,29371.0,,1254.0,,29256.0,,1036.0,,72705.0,,1475.0,,121646.0,,-555555555.0,*****,126032.0,,-555555555.0,*****,121113.0,,2009.0,,126693.0,,2009.0,,130076.0,,-555555555.0,*****,127694.0,,-555555555.0,*****,118855.0,,1531.0,,48004.0,,1137.0,,71413.0,,1343.0,,43016.0,,970.0,,55995.0,,1103.0,,78829.0,,1129.0,,58381.0,,991.0,,40425.0,,1064.0,,42410.0,,1115.0,,Puerto Rico,72
