B15002_001E,B15002_001EA,B15002_001M,B15002_001MA,B15002_002E,B15002_002EA,B15002_002M,B15002_002MA,B15002_003E,B15002_003EA,B15002_003M,B15002_003MA,B15002_004E,B15002_004EA,B15002_004M,B15002_004MA,B15002_005E,B15002_005EA,B15002_005M,B15002_005MA,B15002_006E,B15002_006EA,B15002_006M,B15002_006MA,B15002_007E,B15002_007EA,B15002_007M,B15002_007MA,B15002_008E,B15002_008EA,B15002_008M,B15002_008MA,B15002_009E,B15002_009EA,B15002_009M,B15002_009MA,B15002_010E,B15002_010EA,B15002_010M,B15002_010MA,B15002_011E,B15002_011EA,B15002_011M,B15002_011MA,B15002_012E,B15002_012EA,B15002_012M,B15002_012MA,B15002_013E,B15002_013EA,B15002_013M,B15002_013MA,B15002_014E,B15002_014EA,B15002_014M,B15002_014MA,B15002_015E,B15002_015EA,B15002_015M,B15002_015MA,B15002_016E,B15002_016EA,B15002_016M,B15002_016MA,B15002_017E,B15002_017EA,B15002_017M,B15002_017MA,B15002_018E,B15002_018EA,B15002_018M,B15002_018MA,B15002_019E,B15002_019EA,B15002_019M,B15002_019MA,B15002_020E,B15002_020EA,B15002_020M,B15002_020MA,B15002_021E,B15002_021EA,B15002_021M,B15002_021MA,B15002_022E,B15002_022EA,B15002_022M,B15002_022MA,B15002_023E,B15002_023EA,B15002_023M,B15002_023MA,B15002_024E,B15002_024EA,B15002_024M,B15002_024MA,B15002_025E,B15002_025EA,B15002_025M,B15002_025MA,B15002_026E,B15002_026EA,B15002_026M,B15002_026MA,B15002_027E,B15002_027EA,B15002_027M,B15002_027MA,B15002_028E,B15002_028EA,B15002_028M,B15002_028MA,B15002_029E,B15002_029EA,B15002_029M,B15002_029MA,B15002_030E,B15002_030EA,B15002_030M,B15002_030MA,B15002_031E,B15002_031EA,B15002_031M,B15002_031MA,B15002_032E,B15002_032EA,B15002_032M,B15002_032MA,B15002_033E,B15002_033EA,B15002_033M,B15002_033MA,B15002_034E,B15002_034EA,B15002_034M,B15002_034MA,B15002_035E,B15002_035EA,B15002_035M,B15002_035MA,NAME,alaska native regional corporation,state
2145.0,,217.0,,1080.0,,144.0,,20.0,,18.0,,12.0,,9.0,,0.0,,9.0,,49.0,,29.0,,2.0,,3.0,,28.0,,23.0,,35.0,,27.0,,14.0,,17.0,,279.0,,70.0,,92.0,,53.0,,230.0,,84.0,,58.0,,33.0,,163.0,,52.0,,74.0,,37.0,,13.0,,12.0,,11.0,,14.0,,1065.0,,122.0,,11.0,,13.0,,0.0,,9.0,,4.0,,6.0,,5.0,,6.0,,1.0,,2.0,,32.0,,21.0,,41.0,,34.0,,0.0,,9.0,,295.0,,75.0,,101.0,,40.0,,162.0,,44.0,,69.0,,40.0,,217.0,,55.0,,79.0,,38.0,,38.0,,39.0,,10.0,,10.0,,"Ahtna Alaska Native Regional Corporation, Alaska",00590,02
6523.0,,145.0,,4558.0,,206.0,,46.0,,34.0,,118.0,,63.0,,159.0,,70.0,,122.0,,42.0,,89.0,,52.0,,140.0,,59.0,,135.0,,48.0,,89.0,,62.0,,1809.0,,152.0,,129.0,,49.0,,1002.0,,145.0,,197.0,,97.0,,412.0,,78.0,,102.0,,37.0,,2.0,,4.0,,7.0,,6.0,,1965.0,,139.0,,21.0,,20.0,,33.0,,25.0,,91.0,,48.0,,65.0,,30.0,,41.0,,35.0,,21.0,,12.0,,45.0,,24.0,,16.0,,14.0,,701.0,,96.0,,118.0,,37.0,,368.0,,59.0,,134.0,,40.0,,233.0,,59.0,,73.0,,28.0,,3.0,,4.0,,2.0,,3.0,,"Aleut Alaska Native Regional Corporation, Alaska",01570,02
6073.0,,96.0,,4052.0,,106.0,,12.0,,13.0,,20.0,,14.0,,27.0,,33.0,,52.0,,27.0,,52.0,,30.0,,124.0,,63.0,,103.0,,43.0,,40.0,,36.0,,1470.0,,166.0,,296.0,,100.0,,948.0,,179.0,,402.0,,116.0,,401.0,,139.0,,76.0,,41.0,,5.0,,8.0,,24.0,,40.0,,2021.0,,72.0,,6.0,,5.0,,33.0,,16.0,,59.0,,31.0,,69.0,,35.0,,42.0,,28.0,,106.0,,43.0,,97.0,,44.0,,10.0,,7.0,,560.0,,88.0,,174.0,,73.0,,397.0,,107.0,,95.0,,46.0,,217.0,,76.0,,128.0,,61.0,,14.0,,20.0,,14.0,,17.0,,"Arctic Slope Alaska Native Regional Corporation, Alaska",03950,02
5258.0,,46.0,,2874.0,,44.0,,0.0,,13.0,,16.0,,14.0,,48.0,,24.0,,96.0,,24.0,,33.0,,12.0,,111.0,,38.0,,136.0,,39.0,,27.0,,18.0,,1241.0,,107.0,,264.0,,59.0,,354.0,,58.0,,83.0,,31.0,,322.0,,65.0,,97.0,,41.0,,28.0,,22.0,,18.0,,14.0,,2384.0,,29.0,,6.0,,6.0,,46.0,,22.0,,40.0,,13.0,,112.0,,26.0,,17.0,,9.0,,63.0,,24.0,,76.0,,30.0,,8.0,,6.0,,861.0,,71.0,,226.0,,54.0,,355.0,,54.0,,141.0,,46.0,,335.0,,73.0,,91.0,,32.0,,6.0,,8.0,,1.0,,3.0,,"Bering Straits Alaska Native Regional Corporation, Alaska",06370,02
4065.0,,120.0,,2126.0,,82.0,,18.0,,10.0,,70.0,,18.0,,21.0,,13.0,,68.0,,24.0,,14.0,,11.0,,45.0,,15.0,,76.0,,22.0,,15.0,,11.0,,815.0,,67.0,,197.0,,33.0,,415.0,,54.0,,74.0,,28.0,,196.0,,42.0,,75.0,,29.0,,22.0,,19.0,,5.0,,6.0,,1939.0,,61.0,,16.0,,10.0,,46.0,,20.0,,32.0,,14.0,,61.0,,18.0,,28.0,,14.0,,46.0,,16.0,,33.0,,12.0,,10.0,,7.0,,476.0,,56.0,,215.0,,39.0,,439.0,,58.0,,131.0,,33.0,,242.0,,39.0,,131.0,,37.0,,33.0,,23.0,,0.0,,13.0,,"Bristol Bay Alaska Native Regional Corporation, Alaska",09040,02
12487.0,,66.0,,6595.0,,86.0,,40.0,,21.0,,252.0,,35.0,,106.0,,31.0,,233.0,,45.0,,138.0,,33.0,,197.0,,34.0,,309.0,,50.0,,73.0,,20.0,,3075.0,,145.0,,556.0,,86.0,,932.0,,111.0,,208.0,,78.0,,352.0,,97.0,,82.0,,36.0,,28.0,,26.0,,14.0,,21.0,,5892.0,,58.0,,70.0,,19.0,,187.0,,40.0,,147.0,,25.0,,251.0,,56.0,,147.0,,50.0,,171.0,,34.0,,313.0,,80.0,,25.0,,11.0,,2202.0,,141.0,,546.0,,88.0,,897.0,,114.0,,172.0,,56.0,,485.0,,115.0,,204.0,,58.0,,40.0,,42.0,,35.0,,37.0,,"Calista Alaska Native Regional Corporation, Alaska",09800,02
8499.0,,410.0,,4837.0,,296.0,,8.0,,19.0,,39.0,,54.0,,12.0,,11.0,,96.0,,80.0,,75.0,,72.0,,78.0,,51.0,,137.0,,76.0,,37.0,,59.0,,1635.0,,261.0,,302.0,,127.0,,1062.0,,191.0,,375.0,,151.0,,670.0,,201.0,,279.0,,115.0,,12.0,,18.0,,20.0,,22.0,,3662.0,,251.0,,33.0,,38.0,,78.0,,43.0,,1.0,,2.0,,19.0,,23.0,,0.0,,15.0,,103.0,,76.0,,50.0,,44.0,,0.0,,15.0,,956.0,,196.0,,325.0,,103.0,,824.0,,170.0,,294.0,,102.0,,667.0,,197.0,,265.0,,114.0,,34.0,,46.0,,13.0,,20.0,,"Chugach Alaska Native Regional Corporation, Alaska",14410,02
277773.0,,395.0,,140277.0,,287.0,,803.0,,161.0,,255.0,,107.0,,569.0,,192.0,,1466.0,,299.0,,1079.0,,220.0,,1922.0,,321.0,,2247.0,,328.0,,2116.0,,347.0,,39947.0,,1072.0,,10484.0,,575.0,,30470.0,,1149.0,,10428.0,,670.0,,24357.0,,1011.0,,9443.0,,606.0,,2988.0,,384.0,,1703.0,,298.0,,137496.0,,222.0,,1070.0,,231.0,,900.0,,221.0,,865.0,,219.0,,1189.0,,229.0,,1071.0,,235.0,,1535.0,,248.0,,2111.0,,337.0,,1523.0,,283.0,,31892.0,,1086.0,,10565.0,,598.0,,29297.0,,996.0,,12628.0,,761.0,,28708.0,,1118.0,,10762.0,,590.0,,2105.0,,306.0,,1275.0,,200.0,,"Cook Inlet Alaska Native Regional Corporation, Alaska",17140,02
69234.0,,217.0,,36600.0,,174.0,,230.0,,94.0,,127.0,,65.0,,261.0,,155.0,,372.0,,120.0,,377.0,,139.0,,543.0,,134.0,,517.0,,167.0,,393.0,,182.0,,10683.0,,736.0,,2411.0,,326.0,,8275.0,,689.0,,3307.0,,428.0,,5206.0,,548.0,,2594.0,,341.0,,478.0,,161.0,,826.0,,218.0,,32634.0,,168.0,,182.0,,95.0,,135.0,,41.0,,204.0,,153.0,,412.0,,182.0,,283.0,,115.0,,359.0,,121.0,,569.0,,150.0,,321.0,,109.0,,7535.0,,617.0,,2199.0,,301.0,,7187.0,,648.0,,3231.0,,377.0,,6051.0,,549.0,,2950.0,,385.0,,415.0,,154.0,,601.0,,201.0,,"Doyon Alaska Native Regional Corporation, Alaska",20010,02
8364.0,,147.0,,4427.0,,115.0,,72.0,,52.0,,31.0,,34.0,,7.0,,14.0,,84.0,,53.0,,50.0,,42.0,,46.0,,30.0,,94.0,,53.0,,62.0,,71.0,,1443.0,,208.0,,502.0,,171.0,,1157.0,,211.0,,251.0,,96.0,,426.0,,125.0,,102.0,,50.0,,66.0,,48.0,,34.0,,25.0,,3937.0,,89.0,,33.0,,34.0,,37.0,,35.0,,65.0,,51.0,,121.0,,56.0,,46.0,,51.0,,53.0,,54.0,,49.0,,36.0,,16.0,,17.0,,754.0,,121.0,,418.0,,119.0,,774.0,,197.0,,529.0,,175.0,,759.0,,163.0,,227.0,,86.0,,56.0,,42.0,,0.0,,15.0,,"Koniag Alaska Native Regional Corporation, Alaska",41640,02
3918.0,,40.0,,2143.0,,36.0,,5.0,,7.0,,40.0,,14.0,,16.0,,9.0,,87.0,,23.0,,49.0,,18.0,,121.0,,32.0,,114.0,,30.0,,31.0,,32.0,,1010.0,,96.0,,131.0,,54.0,,246.0,,49.0,,49.0,,25.0,,154.0,,30.0,,61.0,,20.0,,19.0,,13.0,,10.0,,13.0,,1775.0,,26.0,,9.0,,6.0,,25.0,,11.0,,38.0,,13.0,,101.0,,36.0,,37.0,,16.0,,77.0,,28.0,,81.0,,23.0,,5.0,,5.0,,640.0,,64.0,,195.0,,37.0,,312.0,,52.0,,67.0,,25.0,,79.0,,27.0,,69.0,,27.0,,28.0,,19.0,,12.0,,10.0,,"NANA Alaska Native Regional Corporation, Alaska",52120,02
48977.0,,252.0,,25334.0,,213.0,,21.0,,22.0,,37.0,,22.0,,91.0,,53.0,,242.0,,83.0,,168.0,,68.0,,352.0,,112.0,,452.0,,95.0,,273.0,,85.0,,8017.0,,414.0,,1788.0,,224.0,,5131.0,,417.0,,1343.0,,196.0,,4706.0,,402.0,,1855.0,,222.0,,531.0,,114.0,,327.0,,106.0,,23643.0,,191.0,,64.0,,39.0,,16.0,,16.0,,87.0,,51.0,,167.0,,49.0,,150.0,,79.0,,308.0,,97.0,,401.0,,100.0,,170.0,,66.0,,5312.0,,346.0,,2107.0,,291.0,,5073.0,,403.0,,2047.0,,201.0,,5039.0,,385.0,,2138.0,,258.0,,463.0,,114.0,,101.0,,42.0,,"Sealaska Alaska Native Regional Corporation, Alaska",67940,02
