B01003_001E,B01003_001EA,B01003_001M,B01003_001MA,NAME,combined statistical area
2960709.0,,-555555555.0,*****,"Portland-Vancouver-Salem, OR-WA CSA",440
206898.0,,-555555555.0,*****,"Pueblo-Ca?on City, CO CSA",444
83148.0,,-555555555.0,*****,"Pullman-Moscow, WA-ID CSA",446
116355.0,,-555555555.0,*****,"Quincy-Hannibal, IL-MO CSA",448
1960323.0,,-555555555.0,*****,"Raleigh-Durham-Chapel Hill, NC CSA",450
161277.0,,-555555555.0,*****,"Rapid City-Spearfish, SD CSA",452
241207.0,,-555555555.0,*****,"Redding-Red Bluff, CA CSA",454
582980.0,,-555555555.0,*****,"Reno-Carson City-Fernley, NV CSA",456
92669.0,,-555555555.0,*****,"Richmond-Connersville, IN CSA",458
247893.0,,-555555555.0,*****,"Rochester-Austin, MN CSA",462
1176357.0,,-555555555.0,*****,"Rochester-Batavia-Seneca Falls, NY CSA",464
447859.0,,-555555555.0,*****,"Rockford-Freeport-Rochelle, IL CSA",466
308881.0,,-555555555.0,*****,"Rocky Mount-Wilson-Roanoke Rapids, NC CSA",468
121817.0,,-555555555.0,*****,"Rome-Summerville, GA CSA",470
2440271.0,,-555555555.0,*****,"Sacramento-Roseville, CA CSA",472
389995.0,,-555555555.0,*****,"Saginaw-Midland-Bay City, MI CSA",474
2896799.0,,-555555555.0,*****,"St. Louis-St. Charles-Farmington, MO-IL CSA",476
2314379.0,,-555555555.0,*****,"Salt Lake City-Provo-Orem, UT CSA",482
8271601.0,,-555555555.0,*****,"San Jose-San Francisco-Oakland, CA CSA",488
2636481.0,,-555555555.0,*****,"San Juan-Carolina, PR CSA",490
506847.0,,-555555555.0,*****,"Savannah-Hinesville-Statesboro, GA CSA",496
4345908.0,,-555555555.0,*****,"Seattle-Tacoma, WA CSA",500
182479.0,,-555555555.0,*****,"Sioux City-Vermillion, IA-SD-NE CSA",512
720915.0,,-555555555.0,*****,"South Bend-Elkhart-Mishawaka, IN-MI CSA",515
671086.0,,-555555555.0,*****,"Spokane-Spokane Valley-Coeur d'Alene, WA-ID CSA",518
525279.0,,-555555555.0,*****,"Springfield-Branson, MO CSA",520
695819.0,,-555555555.0,*****,"Springfield-Greenfield Town, MA CSA",521
316496.0,,-555555555.0,*****,"Springfield-Jacksonville-Lincoln, IL CSA",522
235996.0,,-555555555.0,*****,"State College-DuBois, PA CSA",524
36856.0,,-555555555.0,*****,"Steamboat Springs-Craig, CO CSA",525
741605.0,,-555555555.0,*****,"Syracuse-Auburn, NY CSA",532
398453.0,,-555555555.0,*****,"Tallahassee-Bainbridge, FL-GA CSA",533
650809.0,,-555555555.0,*****,"Toledo-Port Clinton, OH CSA",534
1034013.0,,-555555555.0,*****,"Tucson-Nogales, AZ CSA",536
1115276.0,,-555555555.0,*****,"Tulsa-Muskogee-Bartlesville, OK CSA",538
263092.0,,-555555555.0,*****,"Tyler-Jacksonville, TX CSA",540
116852.0,,-555555555.0,*****,"Victoria-Port Lavaca, TX CSA",544
1790718.0,,-555555555.0,*****,"Virginia Beach-Norfolk, VA-NC CSA",545
598450.0,,-555555555.0,*****,"Visalia-Porterville-Hanford, CA CSA",546
9205556.0,,-555555555.0,*****,"Washington-Baltimore-Arlington, DC-MD-VA-WV-PA CSA",548
307752.0,,-555555555.0,*****,"Wausau-Stevens Point-Wisconsin Rapids, WI CSA",554
669252.0,,-555555555.0,*****,"Wichita-Arkansas City-Winfield, KS CSA",556
156105.0,,-555555555.0,*****,"Williamsport-Lock Haven, PA CSA",558
668962.0,,-555555555.0,*****,"Youngstown-Warren, OH-PA CSA",566
1169917.0,,-555555555.0,*****,"Albany-Schenectady, NY CSA",104
1153227.0,,-555555555.0,*****,"Albuquerque-Santa Fe-Las Vegas, NM CSA",106
276569.0,,87.0,,"Amarillo-Borger, TX CSA",108
395161.0,,-555555555.0,*****,"Appleton-Oshkosh-Neenah, WI CSA",118
462071.0,,-555555555.0,*****,"Asheville-Brevard, NC CSA",120
6008883.0,,-555555555.0,*****,"Atlanta--Athens-Clarke County--Sandy Springs, GA CSA",122
181459.0,,-555555555.0,*****,"Bend-Redmond-Prineville, OR CSA",140
1305724.0,,-555555555.0,*****,"Birmingham-Hoover-Talladega, AL CSA",142
207154.0,,-555555555.0,*****,"Bloomington-Bedford, IN CSA",144
226438.0,,-555555555.0,*****,"Bloomington-Pontiac, IL CSA",145
264487.0,,-555555555.0,*****,"Bloomsburg-Berwick-Sunbury, PA CSA",146
709021.0,,-555555555.0,*****,"Boise City-Mountain Home-Ontario, ID-OR CSA",147
7951038.0,,-555555555.0,*****,"Boston-Worcester-Providence, MA-RI-NH-CT CSA",148
213002.0,,-555555555.0,*****,"Bowling Green-Glasgow, KY CSA",150
432749.0,,-555555555.0,*****,"Brownsville-Harlingen-Raymondville, TX CSA",154
1214430.0,,-555555555.0,*****,"Buffalo-Cheektowaga, NY CSA",160
962177.0,,-555555555.0,*****,"Cape Coral-Fort Myers-Naples, FL CSA",162
135926.0,,-555555555.0,*****,"Cape Girardeau-Sikeston, MO-IL CSA",164
415901.0,,-555555555.0,*****,"Cedar Rapids-Iowa City, IA CSA",168
706323.0,,-555555555.0,*****,"Charleston-Huntington-Ashland, WV-OH-KY CSA",170
2419520.0,,-555555555.0,*****,"Charlotte-Concord, NC-SC CSA",172
929629.0,,-555555555.0,*****,"Chattanooga-Cleveland-Dalton, TN-GA-AL CSA",174
9866610.0,,-555555555.0,*****,"Chicago-Naperville, IL-IN-WI CSA",176
2182405.0,,-555555555.0,*****,"Cincinnati-Wilmington-Maysville, OH-KY-IN CSA",178
3509368.0,,-555555555.0,*****,"Cleveland-Akron-Canton, OH CSA",184
62829.0,,-555555555.0,*****,"Cleveland-Indianola, MS CSA",185
69286.0,,-555555555.0,*****,"Clovis-Portales, NM CSA",188
216613.0,,-555555555.0,*****,"Columbia-Moberly-Mexico, MO CSA",190
906144.0,,-555555555.0,*****,"Columbia-Orangeburg-Newberry, SC CSA",192
482176.0,,-555555555.0,*****,"Columbus-Auburn-Opelika, GA-AL CSA",194
2331679.0,,-555555555.0,*****,"Columbus-Marion-Zanesville, OH CSA",198
506887.0,,199.0,,"Corpus Christi-Kingsville-Alice, TX CSA",204
6968519.0,,-555555555.0,*****,"Dallas-Fort Worth, TX-OK CSA",206
472836.0,,-555555555.0,*****,"Davenport-Moline, IA-IL CSA",209
1081489.0,,-555555555.0,*****,"Dayton-Springfield-Sidney, OH CSA",212
3161317.0,,-555555555.0,*****,"Denver-Aurora, CO CSA",216
88401.0,,-555555555.0,*****,"DeRidder-Fort Polk South, LA CSA",217
734683.0,,-555555555.0,*****,"Des Moines-Ames-West Des Moines, IA CSA",218
5316748.0,,-555555555.0,*****,"Detroit-Warren-Ann Arbor, MI CSA",220
93685.0,,-555555555.0,*****,"Dixon-Sterling, IL CSA",221
246995.0,,-555555555.0,*****,"Dothan-Enterprise-Ozark, AL CSA",222
206335.0,,-555555555.0,*****,"Eau Claire-Menomonie, WI CSA",232
126011.0,,-555555555.0,*****,"Edwards-Glenwood Springs, CO CSA",233
187827.0,,-555555555.0,*****,"Elmira-Corning, NY CSA",236
1027584.0,,-555555555.0,*****,"El Paso-Las Cruces, TX-NM CSA",238
368691.0,,-555555555.0,*****,"Erie-Meadville, PA CSA",240
236552.0,,-555555555.0,*****,"Fargo-Wahpeton, ND-MN CSA",244
541611.0,,-555555555.0,*****,"Fayetteville-Lumberton-Laurinburg, NC CSA",246
131615.0,,-555555555.0,*****,"Findlay-Tiffin, OH CSA",248
614725.0,,-555555555.0,*****,"Fort Wayne-Huntington-Auburn, IN CSA",258
1091040.0,,-555555555.0,*****,"Fresno-Madera, CA CSA",260
334333.0,,-555555555.0,*****,"Gainesville-Lake City, FL CSA",264
1388727.0,,-555555555.0,*****,"Grand Rapids-Wyoming-Muskegon, MI CSA",266
354774.0,,-555555555.0,*****,"Green Bay-Shawano, WI CSA",267
1600550.0,,-555555555.0,*****,"Greensboro--Winston-Salem--High Point, NC CSA",268
1374626.0,,-555555555.0,*****,"Greenville-Spartanburg-Anderson, SC CSA",273
218060.0,,-555555555.0,*****,"Greenville-Washington, NC CSA",274
1224538.0,,-555555555.0,*****,"Harrisburg-York-Lebanon, PA CSA",276
245625.0,,-555555555.0,*****,"Harrisonburg-Staunton-Waynesboro, VA CSA",277
1487973.0,,-555555555.0,*****,"Hartford-West Hartford, CT CSA",278
409464.0,,-555555555.0,*****,"Hickory-Lenoir, NC CSA",280
129729.0,,-555555555.0,*****,"Hot Springs-Malvern, AR CSA",284
6257797.0,,-555555555.0,*****,"Houston-The Woodlands, TX CSA",288
671924.0,,-555555555.0,*****,"Huntsville-Decatur-Albertville, AL CSA",290
230870.0,,-555555555.0,*****,"Idaho Falls-Rexburg-Blackfoot, ID CSA",292
2291822.0,,-555555555.0,*****,"Indianapolis-Carmel-Muncie, IN CSA",294
151541.0,,-555555555.0,*****,"Ithaca-Cortland, NY CSA",296
664693.0,,-555555555.0,*****,"Jackson-Vicksburg-Brookhaven, MS CSA",298
1488092.0,,-555555555.0,*****,"Jacksonville-St. Marys-Palatka, FL-GA CSA",300
508540.0,,-555555555.0,*****,"Johnson City-Kingsport-Bristol, TN-VA CSA",304
219789.0,,-555555555.0,*****,"Johnstown-Somerset, PA CSA",306
165381.0,,-555555555.0,*****,"Jonesboro-Paragould, AR CSA",308
207384.0,,-555555555.0,*****,"Joplin-Miami, MO-OK CSA",309
525305.0,,-555555555.0,*****,"Kalamazoo-Battle Creek-Portage, MI CSA",310
2361249.0,,-555555555.0,*****,"Kansas City-Overland Park-Kansas City, MO-KS CSA",312
1084639.0,,-555555555.0,*****,"Knoxville-Morristown-Sevierville, TN CSA",314
535163.0,,-555555555.0,*****,"Lansing-East Lansing-Owosso, MI CSA",330
119419.0,,-555555555.0,*****,"Kokomo-Peru, IN CSA",316
608682.0,,-555555555.0,*****,"Lafayette-Opelousas-Morgan City, LA CSA",318
237646.0,,-555555555.0,*****,"Lafayette-West Lafayette-Frankfort, IN CSA",320
2221973.0,,-555555555.0,*****,"Las Vegas-Henderson, NV-AZ CSA",332
695465.0,,-555555555.0,*****,"Lexington-Fayette--Richmond--Frankfort, KY CSA",336
221297.0,,-555555555.0,*****,"Lima-Van Wert-Celina, OH CSA",338
328752.0,,-555555555.0,*****,"Lincoln-Beatrice, NE CSA",339
885792.0,,-555555555.0,*****,"Little Rock-North Little Rock, AR CSA",340
281873.0,,-555555555.0,*****,"Longview-Marshall, TX CSA",346
18059712.0,,-555555555.0,*****,"Los Angeles-Long Beach, CA CSA",348
1470622.0,,-555555555.0,*****,"Louisville/Jefferson County--Elizabethtown--Madison, KY-IN CSA",350
317645.0,,-555555555.0,*****,"Lubbock-Levelland, TX CSA",352
414663.0,,-555555555.0,*****,"Macon-Warner Robins, GA CSA",356
836717.0,,-555555555.0,*****,"Madison-Janesville-Beloit, WI CSA",357
130835.0,,-555555555.0,*****,"Manhattan-Junction City, KS CSA",358
122996.0,,-555555555.0,*****,"Mankato-New Ulm-North Mankato, MN CSA",359
219969.0,,-555555555.0,*****,"Mansfield-Ashland-Bucyrus, OH CSA",360
72995.0,,-555555555.0,*****,"Martin-Union City, TN-KY CSA",362
240667.0,,-555555555.0,*****,"Mayag?ez-San Germ?n, PR CSA",364
851997.0,,-555555555.0,*****,"McAllen-Edinburg, TX CSA",365
287900.0,,-555555555.0,*****,"Medford-Grants Pass, OR CSA",366
1359845.0,,-555555555.0,*****,"Memphis-Forrest City, TN-MS-AR CSA",368
6280984.0,,-555555555.0,*****,"Miami-Fort Lauderdale-Port St. Lucie, FL CSA",370
288787.0,,-555555555.0,*****,"Midland-Odessa, TX CSA",372
2030868.0,,-555555555.0,*****,"Milwaukee-Racine-Waukesha, WI CSA",376
3728165.0,,-555555555.0,*****,"Minneapolis-St. Paul, MN-WI CSA",378
600302.0,,-555555555.0,*****,"Mobile-Daphne-Fairhope, AL CSA",380
777028.0,,-555555555.0,*****,"Modesto-Merced, CA CSA",382
251746.0,,-555555555.0,*****,"Monroe-Ruston-Bastrop, LA CSA",384
188815.0,,-555555555.0,*****,"Morgantown-Fairmont, WV CSA",390
109004.0,,-555555555.0,*****,"Moses Lake-Othello, WA CSA",393
112548.0,,-555555555.0,*****,"Mount Pleasant-Alma, MI CSA",394
447292.0,,-555555555.0,*****,"Myrtle Beach-Conway, SC-NC CSA",396
1820687.0,,-555555555.0,*****,"Nashville-Davidson--Murfreesboro, TN CSA",400
194548.0,,-555555555.0,*****,"New Bern-Morehead City, NC CSA",404
1434408.0,,-555555555.0,*****,"New Orleans-Metairie-Hammond, LA-MS CSA",406
23237211.0,,-555555555.0,*****,"New York-Newark, NY-NJ-CT-PA CSA",408
908508.0,,-555555555.0,*****,"North Port-Sarasota, FL CSA",412
1347974.0,,-555555555.0,*****,"Oklahoma City-Shawnee, OK CSA",416
913030.0,,-555555555.0,*****,"Omaha-Council Bluffs-Fremont, NE-IA CSA",420
2875341.0,,-555555555.0,*****,"Orlando-Deltona-Daytona Beach, FL CSA",422
135970.0,,-555555555.0,*****,"Paducah-Mayfield, KY-IL CSA",424
154175.0,,-555555555.0,*****,"Parkersburg-Marietta-Vienna, WV-OH CSA",425
416992.0,,-555555555.0,*****,"Peoria-Canton, IL CSA",426
7098860.0,,-555555555.0,*****,"Philadelphia-Reading-Camden, PA-NJ-DE-MD CSA",428
2660901.0,,-555555555.0,*****,"Pittsburgh-New Castle-Weirton, PA-OH-WV CSA",430
427134.0,,-555555555.0,*****,"Ponce-Coamo-Santa Isabel, PR CSA",434
624094.0,,-555555555.0,*****,"Portland-Lewiston-South Portland, ME CSA",438
