B05002_001E,B05002_001EA,B05002_001M,B05002_001MA,B05002_002E,B05002_002EA,B05002_002M,B05002_002MA,B05002_013E,B05002_013EA,B05002_013M,B05002_013MA,NAME,division
14513709.0,,-555555555.0,*****,12754422.0,,9731.0,,1759287.0,,9731.0,,New England Division,1
41050840.0,,-555555555.0,*****,34107488.0,,22405.0,,6943352.0,,22405.0,,Middle Atlantic Division,2
46505971.0,,-555555555.0,*****,43091118.0,,17408.0,,3414853.0,,17412.0,,East North Central Division,3
20642186.0,,-555555555.0,*****,19530169.0,,7546.0,,1112017.0,,7563.0,,West North Central Division,4
60548943.0,,-555555555.0,*****,53022800.0,,25480.0,,7526143.0,,25483.0,,South Atlantic Division,5
18539869.0,,-555555555.0,*****,17864975.0,,7278.0,,674894.0,,7280.0,,East South Central Division,6
36926452.0,,-555555555.0,*****,32220099.0,,17552.0,,4706353.0,,17553.0,,West South Central Division,7
22364529.0,,-555555555.0,*****,19910231.0,,13565.0,,2454298.0,,13566.0,,Mountain Division,8
50444095.0,,-555555555.0,*****,38693394.0,,35656.0,,11750701.0,,35658.0,,Pacific Division,9
