B05002_001E,B05002_001EA,B05002_001M,B05002_001MA,B05002_002E,B05002_002EA,B05002_002M,B05002_002MA,B05002_013E,B05002_013EA,B05002_013M,B05002_013MA,NAME,region
55110021.0,,-555555555.0,*****,46662282.0,,27415.0,,8447739.0,,27415.0,,Northeast Region,1
66740270.0,,-555555555.0,*****,62322811.0,,24250.0,,4417459.0,,24270.0,,Midwest Region,2
113465305.0,,-555555555.0,*****,101052778.0,,38547.0,,12412527.0,,38547.0,,South Region,3
71288176.0,,-555555555.0,*****,57297063.0,,46405.0,,13991113.0,,46418.0,,West Region,4
