B23025_001E,B23025_001EA,B23025_001M,B23025_001MA,B23025_002E,B23025_002EA,B23025_002M,B23025_002MA,B23025_003E,B23025_003EA,B23025_003M,B23025_003MA,B23025_004E,B23025_004EA,B23025_004M,B23025_004MA,B23025_005E,B23025_005EA,B23025_005M,B23025_005MA,B23025_006E,B23025_006EA,B23025_006M,B23025_006MA,B23025_007E,B23025_007EA,B23025_007M,B23025_007MA,NAME,division
11625012.0,,1990.0,,7880813.0,,10040.0,,7857193.0,,10050.0,,7236547.0,,12606.0,,620646.0,,5759.0,,23620.0,,891.0,,3744199.0,,9579.0,,New England Division,1
32639361.0,,3759.0,,20971764.0,,21342.0,,20926399.0,,21285.0,,19211558.0,,22445.0,,1714841.0,,9580.0,,45365.0,,1499.0,,11667597.0,,21436.0,,Middle Atlantic Division,2
36503064.0,,4761.0,,23853755.0,,24405.0,,23805656.0,,24247.0,,21521417.0,,30597.0,,2284239.0,,12603.0,,48099.0,,1617.0,,12649309.0,,23810.0,,East North Central Division,3
16008804.0,,2943.0,,10965498.0,,11795.0,,10906425.0,,11586.0,,10186119.0,,14808.0,,720306.0,,7143.0,,59073.0,,1436.0,,5043306.0,,11132.0,,West North Central Division,4
47167907.0,,5899.0,,30147229.0,,31328.0,,29749123.0,,29811.0,,27024952.0,,33503.0,,2724171.0,,13293.0,,398106.0,,5720.0,,17020678.0,,29993.0,,South Atlantic Division,5
14427456.0,,3404.0,,8806772.0,,13793.0,,8741852.0,,13817.0,,7921877.0,,15448.0,,819975.0,,7590.0,,64920.0,,1817.0,,5620684.0,,12726.0,,East South Central Division,6
27415887.0,,4394.0,,17645500.0,,19131.0,,17494313.0,,19093.0,,16200869.0,,21086.0,,1293444.0,,8301.0,,151187.0,,2810.0,,9770387.0,,19046.0,,West South Central Division,7
16794931.0,,3486.0,,11041682.0,,15030.0,,10954380.0,,14978.0,,10064401.0,,15506.0,,889979.0,,8273.0,,87302.0,,1799.0,,5753249.0,,14852.0,,Mountain Division,8
38720327.0,,4979.0,,25143681.0,,20422.0,,24885174.0,,19813.0,,22464759.0,,19244.0,,2420415.0,,12682.0,,258507.0,,3410.0,,13576646.0,,19966.0,,Pacific Division,9
