B01001_001E,B01001_001EA,B01001_001M,B01001_001MA,B01001_002E,B01001_002EA,B01001_002M,B01001_002MA,B01001_003E,B01001_003EA,B01001_003M,B01001_003MA,B01001_004E,B01001_004EA,B01001_004M,B01001_004MA,B01001_005E,B01001_005EA,B01001_005M,B01001_005MA,B01001_006E,B01001_006EA,B01001_006M,B01001_006MA,B01001_007E,B01001_007EA,B01001_007M,B01001_007MA,B01001_008E,B01001_008EA,B01001_008M,B01001_008MA,B01001_009E,B01001_009EA,B01001_009M,B01001_009MA,B01001_010E,B01001_010EA,B01001_010M,B01001_010MA,B01001_011E,B01001_011EA,B01001_011M,B01001_011MA,B01001_012E,B01001_012EA,B01001_012M,B01001_012MA,B01001_013E,B01001_013EA,B01001_013M,B01001_013MA,B01001_014E,B01001_014EA,B01001_014M,B01001_014MA,B01001_015E,B01001_015EA,B01001_015M,B01001_015MA,B01001_016E,B01001_016EA,B01001_016M,B01001_016MA,B01001_017E,B01001_017EA,B01001_017M,B01001_017MA,B01001_018E,B01001_018EA,B01001_018M,B01001_018MA,B01001_019E,B01001_019EA,B01001_019M,B01001_019MA,B01001_020E,B01001_020EA,B01001_020M,B01001_020MA,B01001_021E,B01001_021EA,B01001_021M,B01001_021MA,B01001_022E,B01001_022EA,B01001_022M,B01001_022MA,B01001_023E,B01001_023EA,B01001_023M,B01001_023MA,B01001_024E,B01001_024EA,B01001_024M,B01001_024MA,B01001_025E,B01001_025EA,B01001_025M,B01001_025MA,B01001_026E,B01001_026EA,B01001_026M,B01001_026MA,B01001_027E,B01001_027EA,B01001_027M,B01001_027MA,B01001_028E,B01001_028EA,B01001_028M,B01001_028MA,B01001_029E,B01001_029EA,B01001_029M,B01001_029MA,B01001_030E,B01001_030EA,B01001_030M,B01001_030MA,B01001_031E,B01001_031EA,B01001_031M,B01001_031MA,B01001_032E,B01001_032EA,B01001_032M,B01001_032MA,B01001_033E,B01001_033EA,B01001_033M,B01001_033MA,B01001_034E,B01001_034EA,B01001_034M,B01001_034MA,B01001_035E,B01001_035EA,B01001_035M,B01001_035MA,B01001_036E,B01001_036EA,B01001_036M,B01001_036MA,B01001_037E,B01001_037EA,B01001_037M,B01001_037MA,B01001_038E,B01001_038EA,B01001_038M,B01001_038MA,B01001_039E,B01001_039EA,B01001_039M,B01001_039MA,B01001_040E,B01001_040EA,B01001_040M,B01001_040MA,B01001_041E,B01001_041EA,B01001_041M,B01001_041MA,B01001_042E,B01001_042EA,B01001_042M,B01001_042MA,B01001_043E,B01001_043EA,B01001_043M,B01001_043MA,B01001_044E,B01001_044EA,B01001_044M,B01001_044MA,B01001_045E,B01001_045EA,B01001_045M,B01001_045MA,B01001_046E,B01001_046EA,B01001_046M,B01001_046MA,B01001_047E,B01001_047EA,B01001_047M,B01001_047MA,B01001_048E,B01001_048EA,B01001_048M,B01001_048MA,B01001_049E,B01001_049EA,B01001_049M,B01001_049MA,NAME,alaska native regional corporation,state
3299.0,,253.0,,1673.0,,192.0,,86.0,,42.0,,103.0,,59.0,,129.0,,53.0,,54.0,,27.0,,71.0,,52.0,,9.0,,13.0,,10.0,,11.0,,89.0,,70.0,,90.0,,57.0,,41.0,,33.0,,115.0,,45.0,,44.0,,39.0,,146.0,,52.0,,168.0,,60.0,,167.0,,66.0,,22.0,,14.0,,133.0,,64.0,,9.0,,8.0,,20.0,,14.0,,104.0,,54.0,,36.0,,25.0,,6.0,,6.0,,21.0,,18.0,,1626.0,,169.0,,104.0,,56.0,,125.0,,51.0,,137.0,,60.0,,72.0,,37.0,,23.0,,27.0,,14.0,,11.0,,11.0,,12.0,,49.0,,40.0,,53.0,,32.0,,61.0,,30.0,,57.0,,32.0,,152.0,,47.0,,173.0,,55.0,,179.0,,54.0,,160.0,,77.0,,34.0,,19.0,,68.0,,52.0,,2.0,,6.0,,13.0,,11.0,,87.0,,48.0,,8.0,,13.0,,29.0,,30.0,,15.0,,11.0,,"Ahtna Alaska Native Regional Corporation, Alaska",00590,02
8572.0,,78.0,,5856.0,,240.0,,156.0,,43.0,,153.0,,34.0,,133.0,,34.0,,96.0,,26.0,,82.0,,41.0,,109.0,,83.0,,134.0,,85.0,,331.0,,117.0,,541.0,,173.0,,645.0,,156.0,,591.0,,144.0,,604.0,,119.0,,747.0,,175.0,,489.0,,111.0,,521.0,,153.0,,141.0,,82.0,,93.0,,41.0,,77.0,,38.0,,121.0,,104.0,,49.0,,26.0,,24.0,,34.0,,16.0,,9.0,,3.0,,4.0,,2716.0,,240.0,,97.0,,33.0,,147.0,,44.0,,156.0,,32.0,,108.0,,23.0,,36.0,,22.0,,10.0,,6.0,,9.0,,12.0,,114.0,,50.0,,192.0,,44.0,,153.0,,45.0,,178.0,,77.0,,278.0,,79.0,,397.0,,136.0,,330.0,,150.0,,266.0,,93.0,,66.0,,44.0,,73.0,,38.0,,28.0,,20.0,,26.0,,34.0,,25.0,,18.0,,12.0,,9.0,,11.0,,10.0,,4.0,,5.0,,"Aleut Alaska Native Regional Corporation, Alaska",01570,02
9088.0,,78.0,,5368.0,,260.0,,401.0,,96.0,,379.0,,117.0,,429.0,,143.0,,420.0,,174.0,,216.0,,97.0,,107.0,,51.0,,27.0,,13.0,,301.0,,137.0,,350.0,,108.0,,312.0,,85.0,,311.0,,125.0,,426.0,,185.0,,339.0,,79.0,,507.0,,195.0,,477.0,,172.0,,40.0,,18.0,,132.0,,43.0,,43.0,,21.0,,62.0,,66.0,,40.0,,19.0,,19.0,,13.0,,23.0,,15.0,,7.0,,8.0,,3720.0,,260.0,,328.0,,13.0,,389.0,,96.0,,343.0,,130.0,,218.0,,84.0,,116.0,,2.0,,127.0,,43.0,,43.0,,23.0,,153.0,,48.0,,260.0,,46.0,,240.0,,66.0,,166.0,,41.0,,185.0,,52.0,,322.0,,80.0,,273.0,,67.0,,229.0,,77.0,,28.0,,17.0,,103.0,,70.0,,25.0,,14.0,,39.0,,20.0,,41.0,,19.0,,23.0,,13.0,,43.0,,55.0,,26.0,,14.0,,"Arctic Slope Alaska Native Regional Corporation, Alaska",03950,02
9443.0,,-555555555.0,*****,5058.0,,59.0,,538.0,,42.0,,482.0,,62.0,,364.0,,60.0,,296.0,,54.0,,173.0,,11.0,,97.0,,26.0,,98.0,,53.0,,200.0,,37.0,,369.0,,47.0,,317.0,,45.0,,273.0,,53.0,,315.0,,50.0,,330.0,,78.0,,383.0,,46.0,,318.0,,60.0,,105.0,,47.0,,132.0,,58.0,,47.0,,22.0,,76.0,,36.0,,64.0,,32.0,,52.0,,21.0,,17.0,,17.0,,12.0,,10.0,,4385.0,,59.0,,503.0,,42.0,,379.0,,49.0,,409.0,,48.0,,257.0,,25.0,,164.0,,78.0,,68.0,,25.0,,53.0,,23.0,,230.0,,51.0,,326.0,,27.0,,277.0,,55.0,,264.0,,66.0,,277.0,,65.0,,249.0,,38.0,,269.0,,49.0,,193.0,,48.0,,104.0,,44.0,,77.0,,34.0,,90.0,,48.0,,47.0,,28.0,,38.0,,16.0,,52.0,,14.0,,43.0,,20.0,,16.0,,11.0,,"Bering Straits Alaska Native Regional Corporation, Alaska",06370,02
7195.0,,131.0,,3756.0,,100.0,,301.0,,51.0,,208.0,,38.0,,400.0,,48.0,,272.0,,42.0,,128.0,,18.0,,109.0,,36.0,,57.0,,23.0,,102.0,,30.0,,239.0,,43.0,,215.0,,34.0,,143.0,,30.0,,273.0,,43.0,,289.0,,39.0,,334.0,,40.0,,267.0,,42.0,,66.0,,27.0,,98.0,,24.0,,55.0,,22.0,,62.0,,21.0,,55.0,,23.0,,35.0,,14.0,,31.0,,9.0,,17.0,,8.0,,3439.0,,100.0,,304.0,,31.0,,309.0,,47.0,,267.0,,46.0,,202.0,,17.0,,126.0,,13.0,,32.0,,17.0,,71.0,,29.0,,170.0,,39.0,,189.0,,23.0,,189.0,,25.0,,161.0,,37.0,,178.0,,43.0,,282.0,,32.0,,304.0,,31.0,,272.0,,45.0,,62.0,,42.0,,75.0,,24.0,,53.0,,15.0,,36.0,,20.0,,63.0,,23.0,,37.0,,15.0,,32.0,,17.0,,25.0,,16.0,,"Bristol Bay Alaska Native Regional Corporation, Alaska",09040,02
24446.0,,78.0,,12737.0,,82.0,,1364.0,,35.0,,1273.0,,96.0,,1344.0,,101.0,,789.0,,31.0,,498.0,,18.0,,239.0,,51.0,,235.0,,38.0,,612.0,,57.0,,868.0,,45.0,,677.0,,46.0,,748.0,,98.0,,840.0,,97.0,,778.0,,44.0,,773.0,,41.0,,692.0,,84.0,,167.0,,38.0,,185.0,,40.0,,119.0,,30.0,,130.0,,26.0,,178.0,,25.0,,77.0,,21.0,,106.0,,29.0,,45.0,,18.0,,11709.0,,82.0,,1306.0,,51.0,,1149.0,,102.0,,1262.0,,89.0,,818.0,,38.0,,503.0,,56.0,,244.0,,46.0,,179.0,,42.0,,544.0,,55.0,,821.0,,90.0,,685.0,,59.0,,674.0,,100.0,,677.0,,93.0,,621.0,,18.0,,632.0,,27.0,,557.0,,64.0,,108.0,,33.0,,224.0,,51.0,,86.0,,24.0,,145.0,,27.0,,174.0,,25.0,,178.0,,28.0,,66.0,,26.0,,56.0,,27.0,,"Calista Alaska Native Regional Corporation, Alaska",09800,02
12500.0,,627.0,,6990.0,,415.0,,352.0,,78.0,,513.0,,143.0,,336.0,,117.0,,389.0,,97.0,,155.0,,81.0,,122.0,,52.0,,100.0,,77.0,,282.0,,124.0,,568.0,,121.0,,322.0,,106.0,,420.0,,135.0,,729.0,,246.0,,624.0,,135.0,,560.0,,118.0,,635.0,,146.0,,166.0,,84.0,,152.0,,85.0,,106.0,,67.0,,176.0,,104.0,,162.0,,95.0,,22.0,,22.0,,46.0,,42.0,,53.0,,51.0,,5510.0,,409.0,,477.0,,117.0,,321.0,,97.0,,472.0,,153.0,,188.0,,77.0,,118.0,,67.0,,26.0,,26.0,,29.0,,30.0,,314.0,,116.0,,277.0,,134.0,,408.0,,102.0,,302.0,,100.0,,371.0,,106.0,,359.0,,86.0,,663.0,,145.0,,529.0,,161.0,,151.0,,82.0,,79.0,,57.0,,26.0,,20.0,,63.0,,39.0,,73.0,,80.0,,154.0,,71.0,,53.0,,39.0,,57.0,,46.0,,"Chugach Alaska Native Regional Corporation, Alaska",14410,02
423327.0,,602.0,,215733.0,,392.0,,16025.0,,98.0,,15058.0,,594.0,,16243.0,,594.0,,10126.0,,92.0,,6199.0,,162.0,,3665.0,,373.0,,3641.0,,435.0,,9927.0,,496.0,,16305.0,,132.0,,14214.0,,115.0,,14296.0,,542.0,,14746.0,,572.0,,17025.0,,139.0,,17181.0,,125.0,,15295.0,,488.0,,4661.0,,375.0,,5692.0,,370.0,,3107.0,,257.0,,3271.0,,256.0,,3949.0,,282.0,,2595.0,,226.0,,1656.0,,194.0,,856.0,,187.0,,207594.0,,403.0,,14891.0,,134.0,,14377.0,,549.0,,15279.0,,555.0,,9664.0,,103.0,,5733.0,,130.0,,2769.0,,302.0,,2879.0,,372.0,,9142.0,,385.0,,15647.0,,119.0,,13832.0,,128.0,,14345.0,,631.0,,14347.0,,656.0,,16704.0,,160.0,,16734.0,,135.0,,14005.0,,443.0,,4509.0,,355.0,,5437.0,,396.0,,2863.0,,249.0,,3271.0,,249.0,,4218.0,,314.0,,2862.0,,251.0,,2336.0,,236.0,,1750.0,,246.0,,"Cook Inlet Alaska Native Regional Corporation, Alaska",17140,02
110262.0,,276.0,,58438.0,,221.0,,4488.0,,54.0,,3983.0,,302.0,,3833.0,,309.0,,2408.0,,83.0,,1910.0,,163.0,,1165.0,,263.0,,1424.0,,283.0,,3761.0,,350.0,,5255.0,,99.0,,4052.0,,131.0,,3510.0,,350.0,,4089.0,,369.0,,3979.0,,103.0,,4168.0,,126.0,,3966.0,,268.0,,1201.0,,229.0,,1473.0,,225.0,,592.0,,154.0,,1004.0,,157.0,,1050.0,,171.0,,664.0,,119.0,,317.0,,93.0,,146.0,,94.0,,51824.0,,211.0,,4236.0,,93.0,,3935.0,,296.0,,3422.0,,283.0,,2259.0,,91.0,,1662.0,,102.0,,819.0,,209.0,,1033.0,,217.0,,2884.0,,295.0,,4184.0,,102.0,,3587.0,,131.0,,3495.0,,318.0,,3423.0,,326.0,,3847.0,,146.0,,3891.0,,138.0,,3460.0,,280.0,,1013.0,,205.0,,1135.0,,259.0,,569.0,,134.0,,850.0,,174.0,,811.0,,171.0,,505.0,,120.0,,455.0,,118.0,,349.0,,97.0,,"Doyon Alaska Native Regional Corporation, Alaska",20010,02
13488.0,,78.0,,7151.0,,135.0,,649.0,,82.0,,590.0,,140.0,,569.0,,122.0,,275.0,,77.0,,296.0,,96.0,,163.0,,93.0,,122.0,,61.0,,346.0,,124.0,,476.0,,65.0,,427.0,,62.0,,487.0,,107.0,,541.0,,156.0,,516.0,,80.0,,541.0,,76.0,,482.0,,97.0,,91.0,,82.0,,132.0,,83.0,,122.0,,70.0,,47.0,,29.0,,126.0,,57.0,,60.0,,49.0,,23.0,,26.0,,70.0,,58.0,,6337.0,,135.0,,514.0,,73.0,,324.0,,87.0,,576.0,,85.0,,410.0,,76.0,,127.0,,60.0,,181.0,,61.0,,35.0,,23.0,,313.0,,91.0,,412.0,,81.0,,412.0,,75.0,,472.0,,121.0,,483.0,,130.0,,450.0,,68.0,,476.0,,55.0,,442.0,,94.0,,118.0,,57.0,,177.0,,77.0,,37.0,,28.0,,71.0,,46.0,,172.0,,68.0,,34.0,,29.0,,27.0,,32.0,,74.0,,49.0,,"Koniag Alaska Native Regional Corporation, Alaska",41640,02
7532.0,,-555555555.0,*****,4048.0,,24.0,,452.0,,22.0,,347.0,,43.0,,340.0,,34.0,,244.0,,18.0,,177.0,,8.0,,102.0,,31.0,,90.0,,30.0,,196.0,,33.0,,263.0,,16.0,,213.0,,22.0,,230.0,,34.0,,291.0,,41.0,,252.0,,21.0,,278.0,,24.0,,263.0,,39.0,,59.0,,21.0,,45.0,,17.0,,28.0,,17.0,,50.0,,20.0,,58.0,,14.0,,28.0,,12.0,,25.0,,13.0,,17.0,,11.0,,3484.0,,24.0,,365.0,,9.0,,340.0,,41.0,,359.0,,37.0,,209.0,,2.0,,140.0,,2.0,,65.0,,18.0,,56.0,,18.0,,177.0,,27.0,,256.0,,17.0,,199.0,,19.0,,179.0,,28.0,,237.0,,30.0,,203.0,,20.0,,181.0,,16.0,,161.0,,28.0,,63.0,,25.0,,51.0,,20.0,,13.0,,14.0,,55.0,,21.0,,49.0,,14.0,,45.0,,14.0,,64.0,,17.0,,17.0,,9.0,,"NANA Alaska Native Regional Corporation, Alaska",52120,02
70063.0,,301.0,,35936.0,,314.0,,2253.0,,148.0,,2235.0,,220.0,,2342.0,,236.0,,1542.0,,116.0,,1092.0,,162.0,,608.0,,186.0,,437.0,,133.0,,1230.0,,222.0,,2260.0,,204.0,,2181.0,,151.0,,2073.0,,246.0,,2722.0,,247.0,,3034.0,,170.0,,3206.0,,118.0,,3442.0,,231.0,,963.0,,152.0,,1138.0,,152.0,,601.0,,118.0,,767.0,,123.0,,800.0,,137.0,,515.0,,104.0,,320.0,,107.0,,175.0,,68.0,,34127.0,,293.0,,2038.0,,151.0,,2182.0,,229.0,,2216.0,,212.0,,1474.0,,125.0,,914.0,,181.0,,419.0,,127.0,,395.0,,123.0,,1087.0,,218.0,,2308.0,,165.0,,2021.0,,153.0,,2100.0,,213.0,,2879.0,,251.0,,2721.0,,120.0,,3141.0,,141.0,,2753.0,,223.0,,976.0,,173.0,,1048.0,,184.0,,585.0,,104.0,,575.0,,95.0,,853.0,,116.0,,566.0,,113.0,,446.0,,107.0,,430.0,,106.0,,"Sealaska Alaska Native Regional Corporation, Alaska",67940,02
