B01003_001E,B01003_001EA,B01003_001M,B01003_001MA,NAME,region
55110021.0,,-555555555.0,*****,Northeast Region,1
66740270.0,,-555555555.0,*****,Midwest Region,2
113465305.0,,-555555555.0,*****,South Region,3
71288176.0,,-555555555.0,*****,West Region,4
