geoid,name,universe,universe_annotation,universe_moe,universe_moe_annotation,in_labor_force,in_labor_force_annotation,in_labor_force_moe,in_labor_force_moe_annotation,civilian,civilian_annotation,civilian_moe,civilian_moe_annotation,civilian_employed,civilian_employed_annotation,civilian_employed_moe,civilian_employed_moe_annotation,civilian_unemployed,civilian_unemployed_annotation,civilian_unemployed_moe,civilian_unemployed_moe_annotation,armed_forces,armed_forces_annotation,armed_forces_moe,armed_forces_moe_annotation,not_in_labor_force,not_in_labor_force_annotation,not_in_labor_force_moe,not_in_labor_force_moe_annotation,region
1,Northeast Region,45382533.0,,4532.0,,29350988.0,,26603.0,,29295556.0,,26339.0,,26928018.0,,29909.0,,2367538.0,,11324.0,,55432.0,,1339.0,,16031545.0,,26242.0,,1
2,Midwest Region,53569521.0,,5969.0,,34893779.0,,30239.0,,34804952.0,,29816.0,,32145170.0,,38105.0,,2659782.0,,13744.0,,88827.0,,1920.0,,18675742.0,,28447.0,,2
3,South Region,93694217.0,,9030.0,,58312304.0,,56944.0,,57763087.0,,52803.0,,52960064.0,,58916.0,,4803023.0,,15105.0,,549217.0,,6488.0,,35381913.0,,53356.0,,3
4,West Region,58575038.0,,6134.0,,37356217.0,,26269.0,,37034229.0,,25673.0,,33714527.0,,27873.0,,3319702.0,,13804.0,,321988.0,,4245.0,,21218821.0,,25625.0,,4
