geoid,name,universe,universe_annotation,universe_moe,universe_moe_annotation,male_total,male_total_annotation,male_total_moe,male_total_moe_annotation,male_private_for_profit_wage_and_salary,male_private_for_profit_wage_and_salary_annotation,male_private_for_profit_wage_and_salary_moe,male_private_for_profit_wage_and_salary_moe_annotation,male_employee_of_private_company,male_employee_of_private_company_annotation,male_employee_of_private_company_moe,male_employee_of_private_company_moe_annotation,male_selfemployed_in_own_incorporated_business,male_selfemployed_in_own_incorporated_business_annotation,male_selfemployed_in_own_incorporated_business_moe,male_selfemployed_in_own_incorporated_business_moe_annotation,male_private_not_for_profit_wage_and_salary,male_private_not_for_profit_wage_and_salary_annotation,male_private_not_for_profit_wage_and_salary_moe,male_private_not_for_profit_wage_and_salary_moe_annotation,male_local_government,male_local_government_annotation,male_local_government_moe,male_local_government_moe_annotation,male_state_government,male_state_government_annotation,male_state_government_moe,male_state_government_moe_annotation,male_federal_government,male_federal_government_annotation,male_federal_government_moe,male_federal_government_moe_annotation,male_selfemployed_in_own_not_incorporated_business,male_selfemployed_in_own_not_incorporated_business_annotation,male_selfemployed_in_own_not_incorporated_business_moe,male_selfemployed_in_own_not_incorporated_business_moe_annotation,male_unpaid_family_workers,male_unpaid_family_workers_annotation,male_unpaid_family_workers_moe,male_unpaid_family_workers_moe_annotation,female_total,female_total_annotation,female_total_moe,female_total_moe_annotation,female_private_for_profit_wage_and_salary,female_private_for_profit_wage_and_salary_annotation,female_private_for_profit_wage_and_salary_moe,female_private_for_profit_wage_and_salary_moe_annotation,female_employee_of_private_company,female_employee_of_private_company_annotation,female_employee_of_private_company_moe,female_employee_of_private_company_moe_annotation,female_selfemployed_in_own_incorporated_business,female_selfemployed_in_own_incorporated_business_annotation,female_selfemployed_in_own_incorporated_business_moe,female_selfemployed_in_own_incorporated_business_moe_annotation,female_private_not_for_profit_wage_and_salary,female_private_not_for_profit_wage_and_salary_annotation,female_private_not_for_profit_wage_and_salary_moe,female_private_not_for_profit_wage_and_salary_moe_annotation,female_local_government,female_local_government_annotation,female_local_government_moe,female_local_government_moe_annotation,female_state_government,female_state_government_annotation,female_state_government_moe,female_state_government_moe_annotation,female_federal_government,female_federal_government_annotation,female_federal_government_moe,female_federal_government_moe_annotation,female_selfemployed_in_own_not_incorporated_business,female_selfemployed_in_own_not_incorporated_business_annotation,female_selfemployed_in_own_not_incorporated_business_moe,female_selfemployed_in_own_not_incorporated_business_moe_annotation,female_unpaid_family_workers,female_unpaid_family_workers_annotation,female_unpaid_family_workers_moe,female_unpaid_family_workers_moe_annotation,alaska native regional corporation,state
0200590,"Ahtna Alaska Native Regional Corporation, Alaska",1105.0,,138.0,,614.0,,127.0,,222.0,,49.0,,194.0,,50.0,,28.0,,14.0,,83.0,,36.0,,68.0,,43.0,,99.0,,66.0,,52.0,,25.0,,83.0,,38.0,,7.0,,10.0,,491.0,,88.0,,177.0,,53.0,,156.0,,49.0,,21.0,,19.0,,107.0,,49.0,,75.0,,30.0,,40.0,,19.0,,37.0,,20.0,,49.0,,32.0,,6.0,,5.0,,00590,02
0201570,"Aleut Alaska Native Regional Corporation, Alaska",6306.0,,172.0,,4383.0,,195.0,,3466.0,,273.0,,3429.0,,276.0,,37.0,,14.0,,90.0,,20.0,,432.0,,80.0,,67.0,,20.0,,118.0,,78.0,,208.0,,66.0,,2.0,,2.0,,1923.0,,121.0,,1276.0,,136.0,,1255.0,,140.0,,21.0,,13.0,,97.0,,22.0,,338.0,,43.0,,78.0,,18.0,,70.0,,27.0,,62.0,,15.0,,2.0,,2.0,,01570,02
0203950,"Arctic Slope Alaska Native Regional Corporation, Alaska",5499.0,,210.0,,3860.0,,205.0,,2954.0,,291.0,,2947.0,,290.0,,7.0,,14.0,,190.0,,74.0,,577.0,,159.0,,80.0,,48.0,,27.0,,22.0,,31.0,,26.0,,1.0,,8.0,,1639.0,,143.0,,765.0,,135.0,,763.0,,135.0,,2.0,,9.0,,150.0,,66.0,,573.0,,110.0,,63.0,,39.0,,68.0,,32.0,,20.0,,19.0,,0.0,,12.0,,03950,02
0206370,"Bering Straits Alaska Native Regional Corporation, Alaska",3654.0,,101.0,,1918.0,,82.0,,709.0,,80.0,,690.0,,80.0,,19.0,,11.0,,280.0,,51.0,,471.0,,55.0,,238.0,,40.0,,89.0,,26.0,,127.0,,34.0,,4.0,,4.0,,1736.0,,69.0,,486.0,,62.0,,484.0,,60.0,,2.0,,4.0,,375.0,,55.0,,436.0,,53.0,,283.0,,53.0,,92.0,,25.0,,62.0,,23.0,,2.0,,3.0,,06370,02
0209040,"Bristol Bay Alaska Native Regional Corporation, Alaska",2957.0,,130.0,,1532.0,,95.0,,691.0,,88.0,,650.0,,88.0,,41.0,,15.0,,157.0,,33.0,,361.0,,39.0,,159.0,,37.0,,63.0,,21.0,,101.0,,30.0,,0.0,,12.0,,1425.0,,88.0,,374.0,,79.0,,358.0,,79.0,,16.0,,13.0,,349.0,,47.0,,288.0,,36.0,,284.0,,42.0,,76.0,,18.0,,54.0,,22.0,,0.0,,12.0,,09040,02
0209800,"Calista Alaska Native Regional Corporation, Alaska",8299.0,,221.0,,4199.0,,166.0,,1380.0,,143.0,,1340.0,,144.0,,40.0,,33.0,,837.0,,127.0,,1093.0,,104.0,,646.0,,98.0,,139.0,,40.0,,98.0,,51.0,,6.0,,7.0,,4100.0,,155.0,,938.0,,124.0,,920.0,,126.0,,18.0,,19.0,,1100.0,,145.0,,870.0,,77.0,,1048.0,,122.0,,109.0,,31.0,,35.0,,19.0,,0.0,,16.0,,09800,02
0214410,"Chugach Alaska Native Regional Corporation, Alaska",6102.0,,607.0,,3527.0,,504.0,,2151.0,,368.0,,1933.0,,350.0,,218.0,,170.0,,299.0,,109.0,,288.0,,105.0,,203.0,,105.0,,127.0,,74.0,,459.0,,174.0,,0.0,,14.0,,2575.0,,260.0,,1158.0,,231.0,,1117.0,,235.0,,41.0,,37.0,,288.0,,94.0,,732.0,,189.0,,214.0,,112.0,,84.0,,66.0,,82.0,,51.0,,17.0,,21.0,,14410,02
0217140,"Cook Inlet Alaska Native Regional Corporation, Alaska",216337.0,,2016.0,,115543.0,,1166.0,,78599.0,,1530.0,,73868.0,,1471.0,,4731.0,,558.0,,7193.0,,626.0,,6038.0,,498.0,,6630.0,,561.0,,9238.0,,718.0,,7696.0,,674.0,,149.0,,67.0,,100794.0,,1486.0,,57504.0,,1360.0,,54956.0,,1342.0,,2548.0,,359.0,,13876.0,,699.0,,8703.0,,582.0,,8584.0,,638.0,,5443.0,,476.0,,6451.0,,500.0,,233.0,,97.0,,17140,02
0220010,"Doyon Alaska Native Regional Corporation, Alaska",52844.0,,1150.0,,28282.0,,843.0,,17069.0,,943.0,,15925.0,,881.0,,1144.0,,321.0,,1884.0,,405.0,,1611.0,,204.0,,2779.0,,360.0,,3573.0,,539.0,,1277.0,,240.0,,89.0,,110.0,,24562.0,,652.0,,12064.0,,693.0,,11650.0,,684.0,,414.0,,124.0,,3058.0,,346.0,,2722.0,,341.0,,3290.0,,415.0,,2345.0,,388.0,,1045.0,,244.0,,38.0,,35.0,,20010,02
0241640,"Koniag Alaska Native Regional Corporation, Alaska",7032.0,,299.0,,3718.0,,220.0,,2360.0,,256.0,,2028.0,,232.0,,332.0,,146.0,,203.0,,74.0,,307.0,,111.0,,205.0,,105.0,,291.0,,107.0,,343.0,,114.0,,9.0,,14.0,,3314.0,,185.0,,1686.0,,181.0,,1605.0,,168.0,,81.0,,51.0,,319.0,,104.0,,462.0,,135.0,,217.0,,88.0,,296.0,,120.0,,320.0,,116.0,,14.0,,18.0,,41640,02
0252120,"NANA Alaska Native Regional Corporation, Alaska",2593.0,,112.0,,1443.0,,85.0,,618.0,,90.0,,616.0,,90.0,,2.0,,3.0,,240.0,,38.0,,378.0,,48.0,,123.0,,33.0,,51.0,,21.0,,33.0,,18.0,,0.0,,12.0,,1150.0,,56.0,,330.0,,45.0,,328.0,,46.0,,2.0,,4.0,,212.0,,35.0,,333.0,,39.0,,166.0,,31.0,,83.0,,23.0,,21.0,,13.0,,5.0,,5.0,,52120,02
0267940,"Sealaska Alaska Native Regional Corporation, Alaska",37707.0,,636.0,,20078.0,,429.0,,10312.0,,483.0,,9343.0,,479.0,,969.0,,157.0,,1489.0,,203.0,,2042.0,,194.0,,2648.0,,232.0,,1352.0,,211.0,,2179.0,,213.0,,56.0,,32.0,,17629.0,,369.0,,7249.0,,389.0,,6846.0,,408.0,,403.0,,81.0,,2428.0,,236.0,,2775.0,,259.0,,2865.0,,293.0,,1026.0,,172.0,,1248.0,,212.0,,38.0,,20.0,,67940,02
