geoid,name,universe,universe_annotation,universe_moe,universe_moe_annotation,male_total,male_total_annotation,male_total_moe,male_total_moe_annotation,male_private_for_profit_wage_and_salary,male_private_for_profit_wage_and_salary_annotation,male_private_for_profit_wage_and_salary_moe,male_private_for_profit_wage_and_salary_moe_annotation,male_employee_of_private_company,male_employee_of_private_company_annotation,male_employee_of_private_company_moe,male_employee_of_private_company_moe_annotation,male_selfemployed_in_own_incorporated_business,male_selfemployed_in_own_incorporated_business_annotation,male_selfemployed_in_own_incorporated_business_moe,male_selfemployed_in_own_incorporated_business_moe_annotation,male_private_not_for_profit_wage_and_salary,male_private_not_for_profit_wage_and_salary_annotation,male_private_not_for_profit_wage_and_salary_moe,male_private_not_for_profit_wage_and_salary_moe_annotation,male_local_government,male_local_government_annotation,male_local_government_moe,male_local_government_moe_annotation,male_state_government,male_state_government_annotation,male_state_government_moe,male_state_government_moe_annotation,male_federal_government,male_federal_government_annotation,male_federal_government_moe,male_federal_government_moe_annotation,male_selfemployed_in_own_not_incorporated_business,male_selfemployed_in_own_not_incorporated_business_annotation,male_selfemployed_in_own_not_incorporated_business_moe,male_selfemployed_in_own_not_incorporated_business_moe_annotation,male_unpaid_family_workers,male_unpaid_family_workers_annotation,male_unpaid_family_workers_moe,male_unpaid_family_workers_moe_annotation,female_total,female_total_annotation,female_total_moe,female_total_moe_annotation,female_private_for_profit_wage_and_salary,female_private_for_profit_wage_and_salary_annotation,female_private_for_profit_wage_and_salary_moe,female_private_for_profit_wage_and_salary_moe_annotation,female_employee_of_private_company,female_employee_of_private_company_annotation,female_employee_of_private_company_moe,female_employee_of_private_company_moe_annotation,female_selfemployed_in_own_incorporated_business,female_selfemployed_in_own_incorporated_business_annotation,female_selfemployed_in_own_incorporated_business_moe,female_selfemployed_in_own_incorporated_business_moe_annotation,female_private_not_for_profit_wage_and_salary,female_private_not_for_profit_wage_and_salary_annotation,female_private_not_for_profit_wage_and_salary_moe,female_private_not_for_profit_wage_and_salary_moe_annotation,female_local_government,female_local_government_annotation,female_local_government_moe,female_local_government_moe_annotation,female_state_government,female_state_government_annotation,female_state_government_moe,female_state_government_moe_annotation,female_federal_government,female_federal_government_annotation,female_federal_government_moe,female_federal_government_moe_annotation,female_selfemployed_in_own_not_incorporated_business,female_selfemployed_in_own_not_incorporated_business_annotation,female_selfemployed_in_own_not_incorporated_business_moe,female_selfemployed_in_own_not_incorporated_business_moe_annotation,female_unpaid_family_workers,female_unpaid_family_workers_annotation,female_unpaid_family_workers_moe,female_unpaid_family_workers_moe_annotation,new england city and town area
70450,"Athol, MA Micropolitan NECTA",8949.0,,425.0,,4660.0,,302.0,,3297.0,,257.0,,3236.0,,253.0,,61.0,,37.0,,287.0,,107.0,,236.0,,93.0,,270.0,,109.0,,81.0,,44.0,,484.0,,134.0,,5.0,,7.0,,4289.0,,311.0,,2382.0,,274.0,,2292.0,,251.0,,90.0,,90.0,,764.0,,148.0,,440.0,,123.0,,244.0,,91.0,,109.0,,70.0,,330.0,,107.0,,20.0,,21.0,,70450
70600,"Augusta, ME Micropolitan NECTA",38126.0,,763.0,,19078.0,,537.0,,12382.0,,485.0,,11528.0,,469.0,,854.0,,212.0,,1300.0,,192.0,,1138.0,,190.0,,1576.0,,193.0,,707.0,,145.0,,1929.0,,233.0,,46.0,,43.0,,19048.0,,582.0,,9672.0,,520.0,,9416.0,,527.0,,256.0,,92.0,,3061.0,,348.0,,1925.0,,201.0,,2439.0,,250.0,,774.0,,135.0,,1122.0,,219.0,,55.0,,37.0,,70600
70750,"Bangor, ME Metropolitan NECTA",65079.0,,990.0,,32856.0,,689.0,,22270.0,,726.0,,20968.0,,717.0,,1302.0,,211.0,,3335.0,,299.0,,1834.0,,301.0,,1993.0,,283.0,,1063.0,,211.0,,2321.0,,274.0,,40.0,,34.0,,32223.0,,673.0,,18340.0,,716.0,,17756.0,,695.0,,584.0,,173.0,,6428.0,,457.0,,2495.0,,233.0,,2653.0,,385.0,,620.0,,136.0,,1651.0,,259.0,,36.0,,25.0,,70750
70900,"Barnstable Town, MA Metropolitan NECTA",113737.0,,1576.0,,57081.0,,1065.0,,37497.0,,1144.0,,34241.0,,1092.0,,3256.0,,422.0,,3535.0,,422.0,,4397.0,,507.0,,1769.0,,320.0,,1447.0,,230.0,,8390.0,,593.0,,46.0,,38.0,,56656.0,,942.0,,37066.0,,938.0,,35588.0,,896.0,,1478.0,,256.0,,7318.0,,624.0,,5361.0,,519.0,,1837.0,,291.0,,647.0,,177.0,,4323.0,,428.0,,104.0,,69.0,,70900
71050,"Barre, VT Micropolitan NECTA",22993.0,,447.0,,11236.0,,285.0,,7086.0,,344.0,,6480.0,,329.0,,606.0,,140.0,,1175.0,,156.0,,654.0,,138.0,,866.0,,158.0,,158.0,,57.0,,1227.0,,169.0,,70.0,,59.0,,11757.0,,344.0,,5512.0,,293.0,,5192.0,,306.0,,320.0,,109.0,,2757.0,,231.0,,1081.0,,164.0,,1291.0,,187.0,,193.0,,67.0,,909.0,,129.0,,14.0,,12.0,,71050
71350,"Bennington, VT Micropolitan NECTA",10993.0,,430.0,,5692.0,,270.0,,4030.0,,263.0,,3795.0,,271.0,,235.0,,71.0,,530.0,,147.0,,262.0,,114.0,,129.0,,61.0,,103.0,,58.0,,634.0,,143.0,,4.0,,7.0,,5301.0,,290.0,,3028.0,,231.0,,2903.0,,222.0,,125.0,,69.0,,1208.0,,185.0,,267.0,,84.0,,305.0,,118.0,,63.0,,47.0,,424.0,,125.0,,6.0,,7.0,,71350
71500,"Berlin, NH Micropolitan NECTA",6666.0,,425.0,,3382.0,,321.0,,2215.0,,250.0,,2100.0,,240.0,,115.0,,48.0,,192.0,,69.0,,236.0,,81.0,,333.0,,102.0,,108.0,,60.0,,291.0,,90.0,,7.0,,10.0,,3284.0,,203.0,,1579.0,,187.0,,1492.0,,172.0,,87.0,,50.0,,772.0,,131.0,,457.0,,99.0,,234.0,,66.0,,61.0,,36.0,,181.0,,70.0,,0.0,,17.0,,71500
71650,"Boston-Cambridge-Nashua, MA-NH Metropolitan NECTA",2521333.0,,6077.0,,1287263.0,,3979.0,,957695.0,,4599.0,,903946.0,,4448.0,,53749.0,,1461.0,,117972.0,,1985.0,,63266.0,,1975.0,,37342.0,,1400.0,,25727.0,,1160.0,,83649.0,,2241.0,,1612.0,,269.0,,1234070.0,,4535.0,,792700.0,,4754.0,,772559.0,,4896.0,,20141.0,,1140.0,,214107.0,,3051.0,,101892.0,,2004.0,,42236.0,,1331.0,,17807.0,,862.0,,63811.0,,1839.0,,1517.0,,282.0,,71650
71950,"Bridgeport-Stamford-Norwalk, CT Metropolitan NECTA",447384.0,,2778.0,,235788.0,,2031.0,,182624.0,,1995.0,,167749.0,,1984.0,,14875.0,,766.0,,12852.0,,813.0,,11635.0,,657.0,,3983.0,,365.0,,3317.0,,375.0,,21106.0,,1049.0,,271.0,,85.0,,211596.0,,1934.0,,143744.0,,1809.0,,138488.0,,1785.0,,5256.0,,428.0,,25849.0,,1009.0,,19643.0,,991.0,,5242.0,,470.0,,1730.0,,257.0,,15074.0,,815.0,,314.0,,119.0,,71950
72250,"Brunswick, ME Micropolitan NECTA",31618.0,,807.0,,16172.0,,572.0,,10998.0,,621.0,,10064.0,,610.0,,934.0,,188.0,,1298.0,,251.0,,974.0,,197.0,,425.0,,137.0,,609.0,,299.0,,1860.0,,275.0,,8.0,,12.0,,15446.0,,476.0,,9523.0,,481.0,,9081.0,,498.0,,442.0,,112.0,,2581.0,,279.0,,1361.0,,192.0,,498.0,,100.0,,197.0,,78.0,,1276.0,,205.0,,10.0,,11.0,,72250
72400,"Burlington-South Burlington, VT Metropolitan NECTA",116481.0,,1126.0,,59309.0,,833.0,,41310.0,,1066.0,,38007.0,,1032.0,,3303.0,,325.0,,6338.0,,450.0,,2751.0,,346.0,,2750.0,,350.0,,1854.0,,244.0,,4169.0,,409.0,,137.0,,73.0,,57172.0,,782.0,,31178.0,,833.0,,29758.0,,829.0,,1420.0,,217.0,,12606.0,,730.0,,4632.0,,400.0,,3518.0,,366.0,,1792.0,,222.0,,3417.0,,342.0,,29.0,,24.0,,72400
72700,"Concord, NH Micropolitan NECTA",43776.0,,852.0,,22641.0,,566.0,,15164.0,,601.0,,13985.0,,585.0,,1179.0,,237.0,,2011.0,,271.0,,1392.0,,246.0,,1589.0,,257.0,,414.0,,113.0,,2050.0,,224.0,,21.0,,23.0,,21135.0,,551.0,,10785.0,,471.0,,10398.0,,470.0,,387.0,,131.0,,4191.0,,310.0,,2295.0,,271.0,,2137.0,,300.0,,247.0,,79.0,,1451.0,,208.0,,29.0,,26.0,,72700
72850,"Danbury, CT Metropolitan NECTA",103546.0,,1235.0,,55025.0,,975.0,,42573.0,,1068.0,,39462.0,,1103.0,,3111.0,,392.0,,2539.0,,372.0,,2882.0,,324.0,,1138.0,,214.0,,451.0,,164.0,,5365.0,,539.0,,77.0,,69.0,,48521.0,,987.0,,33668.0,,961.0,,32408.0,,994.0,,1260.0,,268.0,,5208.0,,392.0,,4808.0,,426.0,,1233.0,,210.0,,321.0,,128.0,,3166.0,,351.0,,117.0,,66.0,,72850
73050,"Dover-Durham, NH-ME Metropolitan NECTA",77521.0,,1099.0,,39068.0,,733.0,,28629.0,,817.0,,27373.0,,824.0,,1256.0,,271.0,,2014.0,,319.0,,1803.0,,269.0,,2021.0,,345.0,,1964.0,,305.0,,2608.0,,354.0,,29.0,,31.0,,38453.0,,737.0,,24512.0,,820.0,,23978.0,,841.0,,534.0,,170.0,,5622.0,,468.0,,3672.0,,411.0,,2116.0,,349.0,,942.0,,198.0,,1589.0,,275.0,,0.0,,27.0,,73050
73300,"Greenfield Town, MA Micropolitan NECTA",19376.0,,518.0,,9781.0,,411.0,,6360.0,,357.0,,6024.0,,354.0,,336.0,,104.0,,1106.0,,201.0,,668.0,,148.0,,500.0,,107.0,,191.0,,72.0,,936.0,,156.0,,20.0,,19.0,,9595.0,,319.0,,5327.0,,288.0,,5170.0,,282.0,,157.0,,67.0,,1935.0,,234.0,,1073.0,,163.0,,586.0,,116.0,,28.0,,20.0,,643.0,,138.0,,3.0,,4.0,,73300
73450,"Hartford-West Hartford-East Hartford, CT Metropolitan NECTA",575808.0,,2835.0,,292744.0,,2151.0,,219039.0,,2110.0,,207599.0,,2097.0,,11440.0,,679.0,,17901.0,,753.0,,16091.0,,827.0,,16495.0,,905.0,,4190.0,,421.0,,18435.0,,963.0,,593.0,,178.0,,283064.0,,1949.0,,183145.0,,1933.0,,179190.0,,1948.0,,3955.0,,378.0,,36459.0,,1012.0,,27385.0,,982.0,,21145.0,,1016.0,,2984.0,,305.0,,11331.0,,701.0,,615.0,,189.0,,73450
73750,"Keene, NH Micropolitan NECTA",26390.0,,722.0,,12983.0,,457.0,,9063.0,,489.0,,8495.0,,484.0,,568.0,,149.0,,893.0,,172.0,,952.0,,206.0,,660.0,,189.0,,238.0,,192.0,,1171.0,,220.0,,6.0,,10.0,,13407.0,,505.0,,8269.0,,495.0,,8080.0,,491.0,,189.0,,80.0,,2231.0,,276.0,,1517.0,,229.0,,728.0,,166.0,,80.0,,47.0,,559.0,,114.0,,23.0,,17.0,,73750
73900,"Laconia, NH Micropolitan NECTA",11180.0,,508.0,,5503.0,,295.0,,4179.0,,358.0,,3925.0,,349.0,,254.0,,114.0,,307.0,,117.0,,284.0,,111.0,,90.0,,65.0,,49.0,,37.0,,594.0,,198.0,,0.0,,20.0,,5677.0,,398.0,,3111.0,,375.0,,3075.0,,377.0,,36.0,,40.0,,1146.0,,253.0,,613.0,,129.0,,272.0,,95.0,,172.0,,124.0,,348.0,,125.0,,15.0,,19.0,,73900
74350,"Lebanon, NH-VT Micropolitan NECTA",43762.0,,815.0,,22200.0,,590.0,,13798.0,,610.0,,12718.0,,595.0,,1080.0,,238.0,,3727.0,,319.0,,1132.0,,189.0,,385.0,,93.0,,737.0,,150.0,,2382.0,,225.0,,39.0,,32.0,,21562.0,,526.0,,10424.0,,514.0,,9999.0,,526.0,,425.0,,96.0,,6283.0,,423.0,,1919.0,,244.0,,682.0,,167.0,,624.0,,159.0,,1608.0,,214.0,,22.0,,13.0,,74350
74500,"Leominster-Gardner, MA Metropolitan NECTA",72453.0,,1311.0,,37679.0,,983.0,,28899.0,,1045.0,,27758.0,,1027.0,,1141.0,,259.0,,1994.0,,283.0,,2141.0,,285.0,,1537.0,,208.0,,788.0,,182.0,,2298.0,,372.0,,22.0,,21.0,,34774.0,,955.0,,23485.0,,817.0,,23043.0,,845.0,,442.0,,143.0,,3957.0,,424.0,,3066.0,,335.0,,1975.0,,305.0,,449.0,,154.0,,1800.0,,292.0,,42.0,,34.0,,74500
74650,"Lewiston-Auburn, ME Metropolitan NECTA",53390.0,,809.0,,27052.0,,552.0,,20099.0,,619.0,,19155.0,,624.0,,944.0,,189.0,,1997.0,,254.0,,1582.0,,236.0,,866.0,,215.0,,513.0,,133.0,,1943.0,,259.0,,52.0,,43.0,,26338.0,,624.0,,16608.0,,654.0,,16322.0,,647.0,,286.0,,87.0,,4800.0,,438.0,,2271.0,,378.0,,1236.0,,231.0,,272.0,,92.0,,1125.0,,221.0,,26.0,,27.0,,74650
74950,"Manchester, NH Metropolitan NECTA",108043.0,,1511.0,,57494.0,,1059.0,,45140.0,,1060.0,,43056.0,,1082.0,,2084.0,,312.0,,3704.0,,355.0,,2599.0,,320.0,,1091.0,,233.0,,1531.0,,247.0,,3378.0,,390.0,,51.0,,43.0,,50549.0,,919.0,,33816.0,,895.0,,33175.0,,903.0,,641.0,,147.0,,7232.0,,487.0,,4793.0,,499.0,,1730.0,,252.0,,886.0,,173.0,,2035.0,,303.0,,57.0,,39.0,,74950
75550,"New Bedford, MA Metropolitan NECTA",75467.0,,1196.0,,37324.0,,928.0,,28497.0,,991.0,,27058.0,,990.0,,1439.0,,229.0,,1848.0,,237.0,,2485.0,,340.0,,1495.0,,238.0,,665.0,,134.0,,2279.0,,255.0,,55.0,,53.0,,38143.0,,853.0,,24981.0,,871.0,,24503.0,,886.0,,478.0,,143.0,,5991.0,,448.0,,3379.0,,423.0,,1931.0,,250.0,,463.0,,125.0,,1371.0,,197.0,,27.0,,31.0,,75550
75700,"New Haven, CT Metropolitan NECTA",300125.0,,2265.0,,148454.0,,1915.0,,106658.0,,1866.0,,99364.0,,1907.0,,7294.0,,598.0,,14455.0,,896.0,,8411.0,,494.0,,5774.0,,517.0,,2499.0,,272.0,,10464.0,,656.0,,193.0,,92.0,,151671.0,,1603.0,,96323.0,,1830.0,,93730.0,,1821.0,,2593.0,,344.0,,25921.0,,1244.0,,13990.0,,617.0,,6152.0,,602.0,,2164.0,,345.0,,6775.0,,531.0,,346.0,,127.0,,75700
76150,"North Adams, MA-VT Micropolitan NECTA",10967.0,,446.0,,5252.0,,254.0,,3144.0,,264.0,,2992.0,,252.0,,152.0,,54.0,,956.0,,153.0,,315.0,,96.0,,264.0,,83.0,,4.0,,5.0,,560.0,,162.0,,9.0,,13.0,,5715.0,,367.0,,2942.0,,291.0,,2836.0,,305.0,,106.0,,55.0,,1640.0,,164.0,,466.0,,100.0,,275.0,,81.0,,60.0,,51.0,,332.0,,92.0,,0.0,,21.0,,76150
76450,"Norwich-New London-Westerly, CT-RI Metropolitan NECTA",139178.0,,1610.0,,71453.0,,1136.0,,53080.0,,1093.0,,50565.0,,1131.0,,2515.0,,291.0,,3656.0,,348.0,,4986.0,,538.0,,2374.0,,324.0,,2859.0,,370.0,,4435.0,,410.0,,63.0,,48.0,,67725.0,,1054.0,,43238.0,,1065.0,,41976.0,,1102.0,,1262.0,,238.0,,9223.0,,567.0,,7539.0,,610.0,,2668.0,,346.0,,1705.0,,322.0,,3219.0,,358.0,,133.0,,80.0,,76450
76600,"Pittsfield, MA Metropolitan NECTA",41406.0,,934.0,,20327.0,,613.0,,14194.0,,667.0,,13445.0,,638.0,,749.0,,169.0,,2359.0,,341.0,,1196.0,,201.0,,711.0,,170.0,,360.0,,123.0,,1452.0,,221.0,,55.0,,82.0,,21079.0,,658.0,,12362.0,,682.0,,12040.0,,671.0,,322.0,,119.0,,4084.0,,384.0,,2400.0,,334.0,,970.0,,218.0,,173.0,,73.0,,1072.0,,245.0,,18.0,,18.0,,76600
76750,"Portland-South Portland, ME Metropolitan NECTA",193391.0,,1808.0,,98091.0,,1277.0,,71687.0,,1349.0,,65135.0,,1348.0,,6552.0,,478.0,,7987.0,,596.0,,5495.0,,515.0,,2270.0,,358.0,,2156.0,,278.0,,8388.0,,554.0,,108.0,,49.0,,95300.0,,1186.0,,60173.0,,1104.0,,57794.0,,1136.0,,2379.0,,287.0,,17192.0,,736.0,,8113.0,,521.0,,2839.0,,294.0,,1121.0,,284.0,,5778.0,,426.0,,84.0,,52.0,,76750
76900,"Portsmouth, NH-ME Metropolitan NECTA",67844.0,,1138.0,,35307.0,,814.0,,25982.0,,819.0,,23826.0,,825.0,,2156.0,,276.0,,2170.0,,321.0,,1623.0,,284.0,,786.0,,203.0,,1591.0,,256.0,,3149.0,,393.0,,6.0,,10.0,,32537.0,,853.0,,20525.0,,882.0,,19392.0,,903.0,,1133.0,,247.0,,4579.0,,429.0,,3315.0,,364.0,,909.0,,164.0,,741.0,,177.0,,2418.0,,330.0,,50.0,,40.0,,76900
77200,"Providence-Warwick, RI-MA Metropolitan NECTA",638555.0,,3706.0,,323385.0,,2452.0,,241477.0,,2816.0,,227646.0,,2681.0,,13831.0,,740.0,,23919.0,,942.0,,17924.0,,1104.0,,11434.0,,728.0,,9513.0,,806.0,,18734.0,,1017.0,,384.0,,137.0,,315170.0,,2611.0,,215393.0,,2331.0,,210290.0,,2315.0,,5103.0,,431.0,,45881.0,,1201.0,,23121.0,,971.0,,13478.0,,871.0,,5205.0,,441.0,,11873.0,,684.0,,219.0,,86.0,,77200
77650,"Rutland, VT Micropolitan NECTA",20740.0,,493.0,,10356.0,,305.0,,7440.0,,342.0,,6848.0,,343.0,,592.0,,120.0,,741.0,,132.0,,711.0,,156.0,,391.0,,91.0,,200.0,,83.0,,837.0,,127.0,,36.0,,28.0,,10384.0,,376.0,,6423.0,,407.0,,6268.0,,410.0,,155.0,,53.0,,1497.0,,224.0,,1127.0,,198.0,,390.0,,93.0,,130.0,,54.0,,805.0,,175.0,,12.0,,12.0,,77650
77950,"Sanford, ME Micropolitan NECTA",10807.0,,426.0,,5535.0,,297.0,,3996.0,,257.0,,3821.0,,248.0,,175.0,,67.0,,251.0,,76.0,,318.0,,99.0,,111.0,,64.0,,360.0,,107.0,,499.0,,134.0,,0.0,,17.0,,5272.0,,290.0,,3377.0,,273.0,,3291.0,,269.0,,86.0,,43.0,,717.0,,157.0,,439.0,,119.0,,165.0,,75.0,,211.0,,88.0,,363.0,,114.0,,0.0,,17.0,,77950
78100,"Springfield, MA-CT Metropolitan NECTA",350111.0,,2766.0,,172788.0,,1933.0,,121894.0,,2024.0,,116127.0,,2026.0,,5767.0,,417.0,,12161.0,,761.0,,10951.0,,773.0,,10719.0,,684.0,,4642.0,,443.0,,12146.0,,715.0,,275.0,,135.0,,177323.0,,1760.0,,108458.0,,1883.0,,106239.0,,1886.0,,2219.0,,268.0,,28846.0,,1383.0,,17530.0,,838.0,,12186.0,,786.0,,2342.0,,320.0,,7828.0,,582.0,,133.0,,57.0,,78100
78400,"Torrington, CT Micropolitan NECTA",24533.0,,658.0,,12219.0,,500.0,,9233.0,,482.0,,8846.0,,478.0,,387.0,,113.0,,789.0,,203.0,,692.0,,174.0,,307.0,,93.0,,91.0,,69.0,,1102.0,,216.0,,5.0,,7.0,,12314.0,,486.0,,8559.0,,448.0,,8312.0,,422.0,,247.0,,112.0,,1430.0,,237.0,,1022.0,,169.0,,542.0,,147.0,,71.0,,36.0,,682.0,,149.0,,8.0,,12.0,,78400
78500,"Vineyard Haven, MA Micropolitan NECTA",8790.0,,553.0,,4652.0,,525.0,,2773.0,,373.0,,2213.0,,362.0,,560.0,,181.0,,180.0,,99.0,,518.0,,195.0,,60.0,,55.0,,4.0,,4.0,,1107.0,,387.0,,10.0,,9.0,,4138.0,,306.0,,2090.0,,287.0,,1837.0,,269.0,,253.0,,133.0,,343.0,,129.0,,670.0,,193.0,,85.0,,48.0,,54.0,,44.0,,889.0,,277.0,,7.0,,11.0,,78500
78700,"Waterbury, CT Metropolitan NECTA",101030.0,,1572.0,,51798.0,,1210.0,,39023.0,,1149.0,,37346.0,,1128.0,,1677.0,,290.0,,3239.0,,451.0,,3703.0,,415.0,,1758.0,,287.0,,640.0,,158.0,,3400.0,,421.0,,35.0,,30.0,,49232.0,,1287.0,,33074.0,,1079.0,,32368.0,,1114.0,,706.0,,200.0,,5569.0,,439.0,,5534.0,,481.0,,2643.0,,369.0,,465.0,,133.0,,1839.0,,255.0,,108.0,,64.0,,78700
78850,"Waterville, ME Micropolitan NECTA",20633.0,,778.0,,10453.0,,559.0,,7361.0,,482.0,,6927.0,,494.0,,434.0,,122.0,,868.0,,206.0,,642.0,,209.0,,336.0,,135.0,,164.0,,94.0,,1082.0,,256.0,,0.0,,20.0,,10180.0,,481.0,,5524.0,,396.0,,5318.0,,393.0,,206.0,,74.0,,2375.0,,329.0,,1048.0,,219.0,,639.0,,167.0,,121.0,,67.0,,466.0,,123.0,,7.0,,11.0,,78850
79600,"Worcester, MA-CT Metropolitan NECTA",325681.0,,2686.0,,166776.0,,1803.0,,125116.0,,1788.0,,119412.0,,1700.0,,5704.0,,472.0,,11617.0,,788.0,,8945.0,,574.0,,6899.0,,573.0,,2709.0,,334.0,,11199.0,,622.0,,291.0,,111.0,,158905.0,,1701.0,,106298.0,,1759.0,,104147.0,,1828.0,,2151.0,,324.0,,21159.0,,943.0,,14884.0,,777.0,,8217.0,,445.0,,1516.0,,232.0,,6430.0,,552.0,,401.0,,153.0,,79600
