B01003_001E,B01003_001EA,B01003_001M,B01003_001MA,NAME,division
14632374.0,,-555555555.0,*****,New England Division,1
41357146.0,,-555555555.0,*****,Middle Atlantic Division,2
46661071.0,,-555555555.0,*****,East North Central Division,3
20885327.0,,-555555555.0,*****,West North Central Division,4
61887900.0,,-555555555.0,*****,South Atlantic Division,5
18715669.0,,-555555555.0,*****,East South Central Division,6
37971808.0,,-555555555.0,*****,West South Central Division,7
22917891.0,,-555555555.0,*****,Mountain Division,8
51485835.0,,-555555555.0,*****,Pacific Division,9
