B05002_001E,B05002_001EA,B05002_001M,B05002_001MA,B05002_002E,B05002_002EA,B05002_002M,B05002_002MA,B05002_013E,B05002_013EA,B05002_013M,B05002_013MA,NAME,american indian area/alaska native area/hawaiian home land
48054.0,,-555555555.0,*****,47484.0,,147.0,,570.0,,147.0,,"Osage Reservation, OK",2595
4373.0,,410.0,,1894.0,,207.0,,2479.0,,258.0,,"Torres-Martinez Reservation, CA",4255
3.0,,5.0,,1.0,,3.0,,2.0,,3.0,,"Hassanamisco (state) Reservation, MA",9150
1048.0,,144.0,,896.0,,125.0,,152.0,,69.0,,"Ramapough SDTSA, NJ",9850
95.0,,27.0,,95.0,,27.0,,0.0,,9.0,,"Twin Hills ANVSA, AK",7650
13843.0,,621.0,,12815.0,,546.0,,1028.0,,256.0,,"Cherokee Tribe of Northeast Alabama SDTSA, AL",9560
5098.0,,351.0,,4814.0,,352.0,,284.0,,82.0,,"Lummi Reservation, WA",2070
58748.0,,738.0,,57561.0,,715.0,,1187.0,,213.0,,"Sac and Fox OTSA, OK",5820
25.0,,15.0,,25.0,,15.0,,0.0,,9.0,,"Stevens Village ANVSA, AK",7520
7765.0,,425.0,,7622.0,,407.0,,143.0,,79.0,,"Meherrin SDTSA, NC",9825
655.0,,89.0,,655.0,,89.0,,0.0,,11.0,,"Santa Ana Pueblo, NM",3480
7611.0,,218.0,,7517.0,,208.0,,94.0,,42.0,,"Fort Berthold Reservation, ND",1160
2888.0,,147.0,,2727.0,,148.0,,161.0,,34.0,,"Swinomish Reservation and Off-Reservation Trust Land, WA",4075
9815.0,,169.0,,9721.0,,168.0,,94.0,,25.0,,"White Earth Reservation and Off-Reservation Trust Land, MN",4595
35.0,,24.0,,24.0,,16.0,,11.0,,12.0,,"Hanapepe Hawaiian Home Land, HI",5011
26687.0,,204.0,,25898.0,,278.0,,789.0,,170.0,,"Kaw/Ponca joint-use OTSA, OK",5950
209.0,,45.0,,205.0,,44.0,,4.0,,6.0,,"Cantwell ANVSA, AK",6255
173822.0,,2577.0,,172452.0,,2573.0,,1370.0,,249.0,,"Navajo Nation Reservation and Off-Reservation Trust Land, AZ--NM--UT",2430
1074.0,,187.0,,868.0,,181.0,,206.0,,67.0,,"Rincon Reservation and Off-Reservation Trust Land, CA",3165
187.0,,70.0,,183.0,,69.0,,4.0,,7.0,,"Pauma and Yuima Reservation, CA",2715
1683.0,,139.0,,1627.0,,136.0,,56.0,,21.0,,"Nambe Pueblo and Off-Reservation Trust Land, NM",2400
106.0,,51.0,,105.0,,50.0,,1.0,,4.0,,"Santa Rosa Reservation, CA",3525
42.0,,20.0,,36.0,,17.0,,6.0,,7.0,,"Nelson Lagoon ANVSA, AK",7025
376.0,,110.0,,375.0,,110.0,,1.0,,3.0,,"Tazlina ANVSA, AK",7560
118.0,,109.0,,112.0,,107.0,,6.0,,10.0,,"Benton Paiute Reservation and Off-Reservation Trust Land, CA",0185
7044.0,,532.0,,6479.0,,479.0,,565.0,,148.0,,"Ohkay Owingeh, NM",2510
41.0,,18.0,,33.0,,16.0,,8.0,,12.0,,"Winnemucca Indian Colony, NV",4635
144.0,,28.0,,144.0,,28.0,,0.0,,9.0,,"Allakaket ANVSA, AK",6070
232.0,,63.0,,223.0,,63.0,,9.0,,9.0,,"Mooretown Rancheria and Off-Reservation Trust Land, CA",2340
4021.0,,88.0,,3920.0,,95.0,,101.0,,33.0,,"Tonkawa OTSA, OK",5860
171.0,,58.0,,169.0,,59.0,,2.0,,6.0,,"Big Sandy Rancheria, CA",0265
1717.0,,276.0,,1671.0,,277.0,,46.0,,21.0,,"Waiehu Hawaiian Home Land, HI",5241
12.0,,8.0,,12.0,,8.0,,0.0,,9.0,,"Pedro Bay ANVSA, AK",7205
8540.0,,578.0,,8384.0,,577.0,,156.0,,68.0,,"Haliwa-Saponi SDTSA, NC",9745
2140.0,,292.0,,2126.0,,295.0,,14.0,,16.0,,"Waccamaw Siouan SDTSA, NC",9970
399.0,,51.0,,398.0,,50.0,,1.0,,2.0,,"Akiak ANVSA, AK",6025
280.0,,39.0,,280.0,,39.0,,0.0,,9.0,,"Ambler ANVSA, AK",6075
346.0,,46.0,,338.0,,44.0,,8.0,,9.0,,"McGrath ANVSA, AK",6895
0.0,,9.0,,0.0,,9.0,,0.0,,9.0,,"Solomon ANVSA, AK",7500
285.0,,95.0,,265.0,,92.0,,20.0,,27.0,,"Paiute (UT) Reservation, UT",2625
41.0,,28.0,,41.0,,28.0,,0.0,,11.0,,"Skull Valley Reservation, UT",3840
1188.0,,169.0,,859.0,,160.0,,329.0,,104.0,,"Sand Point ANVSA, AK",7410
291.0,,62.0,,277.0,,54.0,,14.0,,21.0,,"Chemehuevi Reservation, CA",0585
1613.0,,216.0,,1524.0,,215.0,,89.0,,31.0,,"Fort Mojave Reservation and Off-Reservation Trust Land, AZ--CA--NV",1235
302.0,,101.0,,300.0,,100.0,,2.0,,4.0,,"Kalispel Reservation and Off-Reservation Trust Land, WA",1735
0.0,,11.0,,0.0,,11.0,,0.0,,11.0,,"Waiohinu Hawaiian Home Land, HI",5283
3744.0,,167.0,,3696.0,,168.0,,48.0,,18.0,,"Chickahominy SDTSA, VA",9580
1042.0,,90.0,,1005.0,,91.0,,37.0,,25.0,,"Fort McDowell Yavapai Nation Reservation, AZ",1220
422.0,,86.0,,420.0,,85.0,,2.0,,3.0,,"Lower Sioux Indian Community, MN",2055
0.0,,12.0,,0.0,,12.0,,0.0,,12.0,,"Ramona Village, CA",3070
155.0,,30.0,,155.0,,30.0,,0.0,,9.0,,"Wales ANVSA, AK",7740
25.0,,42.0,,25.0,,42.0,,0.0,,12.0,,"Narragansett Reservation, RI",2415
235.0,,71.0,,231.0,,69.0,,4.0,,7.0,,"Ouzinkie ANVSA, AK",7180
0.0,,12.0,,0.0,,12.0,,0.0,,12.0,,"Jamul Indian Village, CA",1670
516.0,,72.0,,516.0,,72.0,,0.0,,9.0,,"Chefornak ANVSA, AK",6275
73.0,,25.0,,72.0,,26.0,,1.0,,3.0,,"Chignik Lagoon ANVSA, AK",6300
1110.0,,138.0,,1083.0,,139.0,,27.0,,17.0,,"Salamatof ANVSA, AK",7400
1121.0,,148.0,,1089.0,,149.0,,32.0,,16.0,,"Bay Mills Reservation and Off-Reservation Trust Land, MI",0170
11268.0,,174.0,,11147.0,,174.0,,121.0,,66.0,,"Rosebud Indian Reservation and Off-Reservation Trust Land, SD",3235
163.0,,98.0,,159.0,,98.0,,4.0,,6.0,,"Shinnecock (state) Reservation, NY",9370
25.0,,14.0,,19.0,,11.0,,6.0,,10.0,,"Timbi-Sha Shoshone Reservation and Off-Reservation Trust Land, CA--NV",4180
43.0,,68.0,,43.0,,68.0,,0.0,,11.0,,"Nienie Hawaiian Home Land, HI",5166
73.0,,39.0,,73.0,,39.0,,0.0,,12.0,,"Manzanita Reservation and Off-Reservation Trust Land, CA",2115
7610.0,,483.0,,7423.0,,459.0,,187.0,,110.0,,"Mississippi Choctaw Reservation and Off-Reservation Trust Land, MS",2300
1832.0,,184.0,,1810.0,,184.0,,22.0,,10.0,,"Picuris Pueblo, NM",2785
1125.0,,207.0,,1093.0,,206.0,,32.0,,14.0,,"Maluohai Hawaiian Home Land, HI",5148
530.0,,82.0,,496.0,,81.0,,34.0,,16.0,,"Tonawanda Reservation, NY",4225
0.0,,11.0,,0.0,,11.0,,0.0,,11.0,,"San Felipe Pueblo/Santa Ana Pueblo joint-use area, NM",4930
277.0,,56.0,,277.0,,56.0,,0.0,,9.0,,"Tanana ANVSA, AK",7540
220.0,,71.0,,220.0,,71.0,,0.0,,9.0,,"Tyonek ANVSA, AK",7655
2060.0,,292.0,,2004.0,,290.0,,56.0,,40.0,,"Ho-Chunk Nation Reservation and Off-Reservation Trust Land, WI--MN",1450
229.0,,71.0,,229.0,,71.0,,0.0,,12.0,,"Lone Pine Reservation, CA",1970
760.0,,149.0,,756.0,,148.0,,4.0,,5.0,,"Panaewa (Agricultural) Hawaiian Home Land, HI",5176
159.0,,36.0,,159.0,,36.0,,0.0,,9.0,,"Newhalen ANVSA, AK",7035
3019.0,,331.0,,3019.0,,331.0,,0.0,,11.0,,"Acoma Pueblo and Off-Reservation Trust Land, NM",0010
132.0,,118.0,,132.0,,118.0,,0.0,,12.0,,"San Manuel Reservation and Off-Reservation Trust Land, CA",3445
0.0,,11.0,,0.0,,11.0,,0.0,,11.0,,"Honolulu Makai Hawaiian Home Land, HI",5030
138.0,,40.0,,138.0,,40.0,,0.0,,9.0,,"Arctic Village ANVSA, AK",6140
0.0,,9.0,,0.0,,9.0,,0.0,,9.0,,"Mary's Igloo ANVSA, AK",6915
129.0,,30.0,,129.0,,30.0,,0.0,,9.0,,"Nunam Iqua ANVSA, AK",7133
63.0,,19.0,,63.0,,19.0,,0.0,,9.0,,"South Naknek ANVSA, AK",7505
0.0,,12.0,,0.0,,12.0,,0.0,,12.0,,"Dry Creek Rancheria and Off-Reservation Trust Land, CA",0955
1023.0,,147.0,,976.0,,143.0,,47.0,,24.0,,"Tuscarora Nation Reservation, NY",4360
177.0,,135.0,,172.0,,128.0,,5.0,,10.0,,"Yavapai-Prescott Reservation, AZ",4710
15195.0,,333.0,,14584.0,,334.0,,611.0,,116.0,,"Caddo-Wichita-Delaware OTSA, OK",5540
127.0,,35.0,,124.0,,35.0,,3.0,,4.0,,"Tanacross ANVSA, AK",7535
0.0,,12.0,,0.0,,12.0,,0.0,,12.0,,"Augustine Reservation, CA",0125
256.0,,88.0,,255.0,,88.0,,1.0,,4.0,,"Eastern Chickahominy SDTSA, VA",9675
84.0,,23.0,,84.0,,23.0,,0.0,,9.0,,"Manley Hot Springs ANVSA, AK",6900
547.0,,62.0,,547.0,,62.0,,0.0,,9.0,,"Stebbins ANVSA, AK",7510
22.0,,12.0,,22.0,,12.0,,0.0,,9.0,,"Oscarville ANVSA, AK",7175
429.0,,149.0,,400.0,,141.0,,29.0,,21.0,,"Poospatuck (state) Reservation, NY",9300
76.0,,42.0,,74.0,,42.0,,2.0,,3.0,,"Blue Lake Rancheria and Off-Reservation Trust Land, CA",0325
120.0,,73.0,,120.0,,73.0,,0.0,,12.0,,"North Fork Rancheria and Off-Reservation Trust Land, CA",2495
0.0,,12.0,,0.0,,12.0,,0.0,,12.0,,"Pit River Trust Land, CA",2835
116.0,,25.0,,116.0,,25.0,,0.0,,9.0,,"Chuathbaluk ANVSA, AK",6335
37.0,,12.0,,37.0,,12.0,,0.0,,9.0,,"Nikolski ANVSA, AK",7075
443.0,,47.0,,443.0,,47.0,,0.0,,9.0,,"Noatak ANVSA, AK",7085
554.0,,48.0,,531.0,,51.0,,23.0,,12.0,,"Galena ANVSA, AK",6525
1220.0,,176.0,,1214.0,,176.0,,6.0,,6.0,,"Hualapai Indian Reservation and Off-Reservation Trust Land, AZ",1545
93.0,,58.0,,81.0,,49.0,,12.0,,23.0,,"Mohegan Reservation and Off-Reservation Trust Land, CT",2320
11531.0,,455.0,,10595.0,,417.0,,936.0,,137.0,,"Santa Clara Pueblo and Off-Reservation Trust Land, NM",3495
343.0,,114.0,,335.0,,114.0,,8.0,,7.0,,"Santa Ynez Reservation, CA",3540
0.0,,11.0,,0.0,,11.0,,0.0,,11.0,,"Honokaia Hawaiian Home Land, HI",5026
307811.0,,834.0,,299291.0,,960.0,,8520.0,,543.0,,"Chickasaw OTSA, OK",5580
34.0,,29.0,,34.0,,29.0,,0.0,,12.0,,"Guidiville Rancheria and Off-Reservation Trust Land, CA",1400
127.0,,92.0,,127.0,,92.0,,0.0,,12.0,,"Fallon Paiute-Shoshone Colony and Off-Reservation Trust Land, NV",1070
0.0,,13.0,,0.0,,13.0,,0.0,,13.0,,"Tampa Reservation, FL",4130
639.0,,445.0,,639.0,,445.0,,0.0,,11.0,,"Kanehili Hawaiian Home Land, HI",5067
217.0,,31.0,,216.0,,31.0,,1.0,,3.0,,"Miami OTSA, OK",5730
110.0,,53.0,,105.0,,50.0,,5.0,,6.0,,"Gakona ANVSA, AK",6520
2569.0,,321.0,,2523.0,,323.0,,46.0,,28.0,,"Sault Ste. Marie Reservation and Off-Reservation Trust Land, MI",3635
691.0,,138.0,,647.0,,97.0,,44.0,,62.0,,"Manokotak ANVSA, AK",6905
229.0,,98.0,,226.0,,99.0,,3.0,,5.0,,"Kaibab Indian Reservation, AZ",1720
199.0,,36.0,,199.0,,36.0,,0.0,,9.0,,"Aleknagik ANVSA, AK",6045
245.0,,90.0,,241.0,,90.0,,4.0,,5.0,,"Battle Mountain Reservation, NV",0165
15492.0,,711.0,,15446.0,,707.0,,46.0,,36.0,,"Fort Apache Reservation, AZ",1140
143.0,,69.0,,132.0,,62.0,,11.0,,17.0,,"Upper Lake Rancheria, CA",4430
67.0,,20.0,,62.0,,20.0,,5.0,,4.0,,"Chilkat ANVSA, AK",6310
272.0,,41.0,,270.0,,41.0,,2.0,,3.0,,"Koyuk ANVSA, AK",6825
0.0,,11.0,,0.0,,11.0,,0.0,,11.0,,"Kolaoa Hawaiian Home Land, HI",5123
0.0,,13.0,,0.0,,13.0,,0.0,,13.0,,"Coconut Creek Trust Land, FL",0690
0.0,,11.0,,0.0,,11.0,,0.0,,11.0,,"Oneida Nation Reservation, NY",2555
399.0,,88.0,,392.0,,86.0,,7.0,,8.0,,"Quileute Reservation, WA",3030
1696.0,,195.0,,1653.0,,189.0,,43.0,,56.0,,"Duck Valley Reservation, NV--ID",0965
117.0,,109.0,,109.0,,100.0,,8.0,,12.0,,"Keokea (Agricultural) Hawaiian Home Land, HI",5114
151.0,,73.0,,151.0,,73.0,,0.0,,9.0,,"Gulkana ANVSA, AK",6560
3448.0,,65.0,,3380.0,,72.0,,68.0,,31.0,,"Lac du Flambeau Reservation, WI",1825
30.0,,26.0,,30.0,,26.0,,0.0,,11.0,,"Waiahole Hawaiian Home Land, HI",5223
562.0,,52.0,,562.0,,52.0,,0.0,,9.0,,"Akiachak ANVSA, AK",6020
4947.0,,287.0,,4402.0,,290.0,,545.0,,109.0,,"Sitka ANVSA, AK",7475
6185.0,,365.0,,5753.0,,319.0,,432.0,,122.0,,"United Cherokee Ani-Yun-Wiya Nation SDTSA, AL",9950
157.0,,54.0,,153.0,,56.0,,4.0,,9.0,,"Cow Creek Reservation and Off-Reservation Trust Land, OR",0815
4429.0,,350.0,,4343.0,,347.0,,86.0,,53.0,,"Warm Springs Reservation and Off-Reservation Trust Land, OR",4545
78.0,,48.0,,61.0,,29.0,,17.0,,24.0,,"Wells Colony, NV",4580
136.0,,30.0,,136.0,,30.0,,0.0,,9.0,,"Pitkas Point ANVSA, AK",7235
65.0,,24.0,,57.0,,22.0,,8.0,,14.0,,"Huron Potawatomi Reservation and Off-Reservation Trust Land, MI",1550
616.0,,133.0,,585.0,,129.0,,31.0,,28.0,,"Morongo Reservation and Off-Reservation Trust Land, CA",2360
1569.0,,230.0,,1531.0,,228.0,,38.0,,24.0,,"Anahola (Residential) Hawaiian Home Land, HI",5004
80.0,,23.0,,80.0,,23.0,,0.0,,9.0,,"Koyukuk ANVSA, AK",6830
10809.0,,276.0,,10689.0,,267.0,,120.0,,35.0,,"Leech Lake Reservation and Off-Reservation Trust Land, MN",1940
1771.0,,170.0,,1761.0,,171.0,,10.0,,8.0,,"Keaukaha Hawaiian Home Land, HI",5106
1687.0,,120.0,,1631.0,,121.0,,56.0,,24.0,,"Craig ANVSA, AK",6385
31309.0,,990.0,,29927.0,,918.0,,1382.0,,194.0,,"Four Winds Cherokee SDTSA, LA",9720
70.0,,33.0,,70.0,,33.0,,0.0,,10.0,,"Little Traverse Bay Reservation and Off-Reservation Trust Land, MI",1963
4317.0,,468.0,,3890.0,,436.0,,427.0,,83.0,,"Muckleshoot Reservation and Off-Reservation Trust Land, WA",2375
146.0,,58.0,,146.0,,58.0,,0.0,,12.0,,"Shoalwater Bay Indian Reservation and Off-Reservation Trust Land, WA",3780
97.0,,61.0,,90.0,,60.0,,7.0,,8.0,,"Lalamilo Hawaiian Home Land, HI",5133
202.0,,33.0,,202.0,,33.0,,0.0,,9.0,,"Ruby ANVSA, AK",7310
4619.0,,116.0,,2665.0,,154.0,,1954.0,,118.0,,"Unalaska ANVSA, AK",7695
0.0,,11.0,,0.0,,11.0,,0.0,,11.0,,"San Felipe Pueblo/Santo Domingo Pueblo joint-use area, NM",4940
0.0,,11.0,,0.0,,11.0,,0.0,,11.0,,"Kapaa Hawaiian Home Land, HI",5071
633.0,,144.0,,624.0,,143.0,,9.0,,9.0,,"Siletz Reservation and Off-Reservation Trust Land, OR",3795
9796.0,,574.0,,9489.0,,554.0,,307.0,,135.0,,"Eastern Cherokee Reservation, NC",0990
160.0,,33.0,,160.0,,33.0,,0.0,,11.0,,"Sac and Fox Nation Reservation and Off-Reservation Trust Land, NE--KS",3285
78.0,,21.0,,78.0,,21.0,,0.0,,9.0,,"Ekwok ANVSA, AK",6460
49.0,,22.0,,49.0,,22.0,,0.0,,9.0,,"Takotna ANVSA, AK",7530
342.0,,68.0,,335.0,,67.0,,7.0,,10.0,,"Clifton Choctaw SDTSA, LA",9630
101.0,,28.0,,98.0,,29.0,,3.0,,4.0,,"Chalkyitsik ANVSA, AK",6265
132.0,,34.0,,132.0,,34.0,,0.0,,9.0,,"Golovin ANVSA, AK",6540
176.0,,48.0,,176.0,,48.0,,0.0,,10.0,,"Lac Vieux Desert Reservation, MI",1830
368.0,,128.0,,368.0,,128.0,,0.0,,11.0,,"Poarch Creek Reservation and Off-Reservation Trust Land, AL--FL",2865
25490.0,,586.0,,24854.0,,583.0,,636.0,,83.0,,"Chickaloon ANVSA, AK",6290
294.0,,41.0,,294.0,,41.0,,0.0,,9.0,,"Tununak ANVSA, AK",7645
160.0,,58.0,,148.0,,51.0,,12.0,,15.0,,"Anahola (Agricultural) Hawaiian Home Land, HI",5003
120447.0,,1529.0,,118230.0,,1521.0,,2217.0,,321.0,,"Citizen Potawatomi Nation-Absentee Shawnee OTSA, OK",5600
192.0,,45.0,,192.0,,45.0,,0.0,,9.0,,"Kaltag ANVSA, AK",6690
60.0,,22.0,,60.0,,22.0,,0.0,,9.0,,"Minnesota Chippewa Trust Land, MN",2285
3982.0,,251.0,,3841.0,,252.0,,141.0,,64.0,,"Pascua Pueblo Yaqui Reservation and Off-Reservation Trust Land, AZ",2680
511793.0,,1482.0,,494728.0,,1474.0,,17065.0,,654.0,,"Cherokee OTSA, OK",5550
171.0,,41.0,,171.0,,41.0,,0.0,,9.0,,"Grayling ANVSA, AK",6550
758.0,,108.0,,750.0,,99.0,,8.0,,23.0,,"Pleasant Point Reservation, ME",2850
44.0,,43.0,,44.0,,43.0,,0.0,,12.0,,"Table Mountain Rancheria, CA",4110
16251.0,,84.0,,16041.0,,89.0,,210.0,,60.0,,"Pawnee OTSA, OK",5780
0.0,,9.0,,0.0,,9.0,,0.0,,9.0,,"Council ANVSA, AK",6380
183.0,,77.0,,176.0,,72.0,,7.0,,12.0,,"Grindstone Indian Rancheria, CA",1395
927.0,,206.0,,895.0,,205.0,,32.0,,19.0,,"Santa Rosa Rancheria, CA",3520
29.0,,14.0,,29.0,,14.0,,0.0,,11.0,,"Kamoku-Kapulena Hawaiian Home Land, HI",5066
1348.0,,196.0,,1335.0,,195.0,,13.0,,11.0,,"Panaewa (Residential) Hawaiian Home Land, HI",5177
131.0,,78.0,,103.0,,54.0,,28.0,,35.0,,"Colusa Rancheria, CA",0750
144.0,,33.0,,144.0,,33.0,,0.0,,9.0,,"Deering ANVSA, AK",6400
13.0,,9.0,,13.0,,9.0,,0.0,,11.0,,"Kamaoa-Puueo Hawaiian Home Land, HI",5056
306.0,,103.0,,306.0,,103.0,,0.0,,11.0,,"Kewalo Hawaiian Home Land, HI",5120
0.0,,12.0,,0.0,,12.0,,0.0,,12.0,,"Capitan Grande Reservation, CA",0495
26738.0,,614.0,,26215.0,,609.0,,523.0,,120.0,,"Isabella Reservation and Off-Reservation Trust Land, MI",1610
15.0,,14.0,,15.0,,14.0,,0.0,,11.0,,"Ponca (NE) Trust Land, NE--IA",2900
78.0,,45.0,,78.0,,45.0,,0.0,,12.0,,"Sulphur Bank Rancheria, CA",4030
970.0,,141.0,,952.0,,142.0,,18.0,,16.0,,"Otoe-Missouria OTSA, OK",5760
0.0,,9.0,,0.0,,9.0,,0.0,,9.0,,"Belkofski ANVSA, AK",6195
0.0,,11.0,,0.0,,11.0,,0.0,,11.0,,"Honokowai Hawaiian Home Land, HI",5029
1289.0,,236.0,,1280.0,,235.0,,9.0,,9.0,,"Princess Kahanu Estates Hawaiian Home Land, HI",5198
0.0,,11.0,,0.0,,11.0,,0.0,,11.0,,"Upolu Hawaiian Home Land, HI",5222
643.0,,47.0,,643.0,,47.0,,0.0,,9.0,,"Kotlik ANVSA, AK",6815
42.0,,20.0,,42.0,,20.0,,0.0,,9.0,,"Platinum ANVSA, AK",7245
639.0,,108.0,,610.0,,104.0,,29.0,,24.0,,"Barona Reservation, CA",0155
9.0,,12.0,,9.0,,12.0,,0.0,,11.0,,"Keanae-Wailua Hawaiian Home Land, HI",5104
1082.0,,102.0,,1038.0,,100.0,,44.0,,38.0,,"Chevak ANVSA, AK",6285
0.0,,12.0,,0.0,,12.0,,0.0,,12.0,,"Likely Rancheria, CA",1955
147.0,,63.0,,143.0,,62.0,,4.0,,7.0,,"Stewart Community, NV",3980
26.0,,9.0,,26.0,,9.0,,0.0,,9.0,,"Eklutna ANVSA, AK",6450
352.0,,41.0,,352.0,,41.0,,0.0,,9.0,,"Napakiak ANVSA, AK",7010
60.0,,35.0,,60.0,,35.0,,0.0,,11.0,,"Kamiloloa-Makakupaia Hawaiian Home Land, HI",5061
27182.0,,376.0,,26873.0,,366.0,,309.0,,118.0,,"Wind River Reservation and Off-Reservation Trust Land, WY",4610
601.0,,93.0,,597.0,,90.0,,4.0,,5.0,,"Hannahville Indian Community and Off-Reservation Trust Land, MI",1410
11203.0,,262.0,,10964.0,,263.0,,239.0,,93.0,,"Lake Traverse Reservation and Off-Reservation Trust Land, SD--ND",1860
843.0,,192.0,,812.0,,189.0,,31.0,,20.0,,"Lower Elwha Reservation and Off-Reservation Trust Land, WA",2040
408.0,,51.0,,408.0,,51.0,,0.0,,9.0,,"Kongiganak ANVSA, AK",6810
0.0,,9.0,,0.0,,9.0,,0.0,,9.0,,"Ekuk ANVSA, AK",6455
0.0,,9.0,,0.0,,9.0,,0.0,,9.0,,"Paimiut ANVSA, AK",7185
82.0,,33.0,,82.0,,33.0,,0.0,,12.0,,"Pamunkey (state) Reservation, VA",9260
42.0,,36.0,,42.0,,36.0,,0.0,,11.0,,"Lanai City Hawaiian Home Land, HI",5134
609.0,,74.0,,564.0,,75.0,,45.0,,22.0,,"Grand Portage Reservation and Off-Reservation Trust Land, MN",1355
177.0,,55.0,,160.0,,49.0,,17.0,,15.0,,"Sycuan Reservation and Off-Reservation Trust Land, CA",4090
224.0,,99.0,,213.0,,96.0,,11.0,,11.0,,"Yerington Colony, NV",4725
2.0,,4.0,,2.0,,4.0,,0.0,,12.0,,"Golden Hill Paugussett (state) Reservation, CT",9100
1199.0,,273.0,,1108.0,,250.0,,91.0,,45.0,,"Nooksack Reservation and Off-Reservation Trust Land, WA",2475
0.0,,11.0,,0.0,,11.0,,0.0,,11.0,,"Pauahi Hawaiian Home Land, HI",5181
609.0,,62.0,,609.0,,62.0,,0.0,,9.0,,"New Stuyahok ANVSA, AK",7050
0.0,,12.0,,0.0,,12.0,,0.0,,12.0,,"Rumsey Indian Rancheria, CA",3265
0.0,,9.0,,0.0,,9.0,,0.0,,9.0,,"Bill Moore's ANVSA, AK",6225
0.0,,9.0,,0.0,,9.0,,0.0,,9.0,,"Ivanof Bay ANVSA, AK",6650
1848.0,,241.0,,1687.0,,222.0,,161.0,,78.0,,"Fort Yuma Indian Reservation, CA--AZ",1280
22.0,,11.0,,22.0,,11.0,,0.0,,12.0,,"Rohnerville Rancheria, CA",3220
700.0,,108.0,,684.0,,107.0,,16.0,,13.0,,"St. Croix Reservation and Off-Reservation Trust Land, WI",3305
999.0,,112.0,,902.0,,67.0,,97.0,,75.0,,"Skagway ANVSA, AK",7485
6715.0,,394.0,,6579.0,,390.0,,136.0,,35.0,,"Apache Choctaw SDTSA, LA",9515
22215.0,,530.0,,21652.0,,530.0,,563.0,,143.0,,"MaChis Lower Creek SDTSA, AL",9820
8399.0,,9.0,,8344.0,,32.0,,55.0,,32.0,,"Cheyenne River Reservation and Off-Reservation Trust Land, SD",0605
23.0,,12.0,,23.0,,12.0,,0.0,,12.0,,"Greenville Rancheria, CA",1380
0.0,,9.0,,0.0,,9.0,,0.0,,9.0,,"Kodiak ANVSA, AK",6795
18.0,,18.0,,18.0,,18.0,,0.0,,13.0,,"Tama (state) Reservation, GA",9400
0.0,,11.0,,0.0,,11.0,,0.0,,11.0,,"Kapolei Hawaiian Home Land, HI",5083
553.0,,184.0,,535.0,,178.0,,18.0,,19.0,,"Leialii Hawaiian Home Land, HI",5135
4976.0,,197.0,,4844.0,,195.0,,132.0,,37.0,,"Peoria OTSA, OK",5795
686.0,,63.0,,686.0,,63.0,,0.0,,9.0,,"Kipnuk ANVSA, AK",6750
1087.0,,208.0,,1087.0,,208.0,,0.0,,12.0,,"Beaver Creek SDTSA, SC",9525
19541.0,,120.0,,19459.0,,143.0,,82.0,,59.0,,"Pine Ridge Reservation, SD--NE",2810
182.0,,37.0,,182.0,,37.0,,0.0,,9.0,,"Nondalton ANVSA, AK",7100
55.0,,48.0,,53.0,,46.0,,2.0,,3.0,,"La Posta Indian Reservation, CA",1895
4442.0,,497.0,,4434.0,,496.0,,8.0,,11.0,,"San Felipe Pueblo, NM",3400
31369.0,,816.0,,24177.0,,855.0,,7192.0,,428.0,,"Yakama Nation Reservation and Off-Reservation Trust Land, WA",4690
0.0,,11.0,,0.0,,11.0,,0.0,,11.0,,"Waiakea Hawaiian Home Land, HI",5236
0.0,,9.0,,0.0,,9.0,,0.0,,9.0,,"Canyon Village ANVSA, AK",6257
1140.0,,83.0,,1140.0,,83.0,,0.0,,9.0,,"Hooper Bay ANVSA, AK",6595
401.0,,70.0,,394.0,,69.0,,7.0,,6.0,,"Saxman ANVSA, AK",7420
223.0,,30.0,,223.0,,30.0,,0.0,,9.0,,"Shaktoolik ANVSA, AK",7450
2543.0,,349.0,,2499.0,,342.0,,44.0,,33.0,,"Sappony SDTSA, NC",9865
243.0,,101.0,,213.0,,82.0,,30.0,,32.0,,"Pechanga Reservation, CA",2745
227.0,,85.0,,222.0,,83.0,,5.0,,8.0,,"Coyote Valley Reservation, CA",0825
13959.0,,1424.0,,13589.0,,1467.0,,370.0,,182.0,,"Gila River Indian Reservation, AZ",1310
5565.0,,225.0,,5410.0,,225.0,,155.0,,44.0,,"Quapaw OTSA, OK",5810
442.0,,52.0,,442.0,,52.0,,0.0,,9.0,,"Brevig Mission ANVSA, AK",6240
718.0,,100.0,,703.0,,78.0,,15.0,,27.0,,"Gambell ANVSA, AK",6530
420.0,,54.0,,419.0,,53.0,,1.0,,2.0,,"Huslia ANVSA, AK",6610
145.0,,30.0,,145.0,,30.0,,0.0,,9.0,,"Kokhanok ANVSA, AK",6800
0.0,,10.0,,0.0,,10.0,,0.0,,10.0,,"Match-e-be-nash-she-wish Band of Pottawatomi Reservation, MI",2150
1314.0,,285.0,,1298.0,,281.0,,16.0,,20.0,,"Ute Mountain Reservation and Off-Reservation Trust Land, CO--NM--UT",4470
1111.0,,195.0,,1092.0,,194.0,,19.0,,12.0,,"Waiohuli (Residential) Hawaiian Home Land, HI",5286
165.0,,37.0,,165.0,,37.0,,0.0,,9.0,,"Teller ANVSA, AK",7570
1421.0,,143.0,,1407.0,,143.0,,14.0,,13.0,,"Bad River Reservation, WI",0140
270.0,,70.0,,267.0,,69.0,,3.0,,4.0,,"Santa Ysabel Reservation, CA",3550
0.0,,11.0,,0.0,,11.0,,0.0,,11.0,,"Haiku Hawaiian Home Land, HI",5009
159.0,,40.0,,159.0,,40.0,,0.0,,9.0,,"Atqasuk ANVSA, AK",6165
0.0,,11.0,,0.0,,11.0,,0.0,,11.0,,"East Kapolei Hawaiian Home Land, HI",5008
1.0,,4.0,,1.0,,4.0,,0.0,,9.0,,"Birch Creek ANVSA, AK",6235
66.0,,33.0,,64.0,,33.0,,2.0,,3.0,,"Chitina ANVSA, AK",6330
342.0,,66.0,,339.0,,66.0,,3.0,,3.0,,"Kalawahine Hawaiian Home Land, HI",5053
923.0,,245.0,,872.0,,202.0,,51.0,,79.0,,"Paukukalo Hawaiian Home Land, HI",5186
7.0,,7.0,,7.0,,7.0,,0.0,,9.0,,"Rampart ANVSA, AK",7300
86.0,,36.0,,86.0,,36.0,,0.0,,9.0,,"Tatitlek ANVSA, AK",7555
1514.0,,171.0,,1492.0,,169.0,,22.0,,17.0,,"Makah Indian Reservation, WA",2085
5944.0,,47.0,,5896.0,,70.0,,48.0,,49.0,,"Red Lake Reservation, MN",3100
0.0,,12.0,,0.0,,12.0,,0.0,,12.0,,"Snoqualmie Reservation, WA",3860
2102.0,,177.0,,2041.0,,178.0,,61.0,,35.0,,"Ponca OTSA, OK",5800
0.0,,12.0,,0.0,,12.0,,0.0,,12.0,,"Auburn Rancheria and Off-Reservation Trust Land, CA",0120
63.0,,32.0,,60.0,,32.0,,3.0,,4.0,,"Fort Pierce Reservation, FL",1260
204.0,,31.0,,195.0,,30.0,,9.0,,12.0,,"Iowa (KS-NE) Reservation and Off-Reservation Trust Land, KS--NE",1590
98.0,,28.0,,98.0,,28.0,,0.0,,9.0,,"Perryville ANVSA, AK",7215
179.0,,37.0,,179.0,,37.0,,0.0,,9.0,,"White Mountain ANVSA, AK",7745
98.0,,23.0,,98.0,,23.0,,0.0,,9.0,,"Crooked Creek ANVSA, AK",6390
3.0,,3.0,,3.0,,3.0,,0.0,,9.0,,"Telida ANVSA, AK",7565
1605.0,,163.0,,1593.0,,163.0,,12.0,,12.0,,"Prairie Band of Potawatomi Nation Reservation, KS",2980
188.0,,75.0,,188.0,,75.0,,0.0,,12.0,,"Trinidad Rancheria and Off-Reservation Trust Land, CA",4275
775638.0,,1503.0,,727172.0,,1555.0,,48466.0,,1317.0,,"Creek OTSA, OK",5620
1207.0,,293.0,,1086.0,,272.0,,121.0,,42.0,,"Cocopah Reservation, AZ",0695
3761.0,,216.0,,3673.0,,213.0,,88.0,,38.0,,"Menominee Reservation and Off-Reservation Trust Land, WI",2175
0.0,,11.0,,0.0,,11.0,,0.0,,11.0,,"Kahikinui Hawaiian Home Land, HI",5041
625.0,,124.0,,620.0,,124.0,,5.0,,5.0,,"Waianae Kai Hawaiian Home Land, HI",5239
664.0,,79.0,,663.0,,79.0,,1.0,,4.0,,"Klawock ANVSA, AK",6765
8542.0,,9.0,,8501.0,,20.0,,41.0,,20.0,,"Standing Rock Reservation, SD--ND",3970
491.0,,58.0,,476.0,,59.0,,15.0,,21.0,,"Algaaciq ANVSA, AK",6065
92.0,,21.0,,92.0,,21.0,,0.0,,9.0,,"Andreafsky ANVSA, AK",6095
455.0,,46.0,,449.0,,45.0,,6.0,,5.0,,"Eek ANVSA, AK",6440
23.0,,14.0,,21.0,,13.0,,2.0,,5.0,,"Klamath Reservation, OR",1785
73.0,,59.0,,73.0,,59.0,,0.0,,10.0,,"Pokagon Reservation and Off-Reservation Trust Land, MI",2890
6321.0,,374.0,,6301.0,,374.0,,20.0,,13.0,,"Iowa OTSA, OK",5670
436.0,,99.0,,436.0,,99.0,,0.0,,9.0,,"Tuluksak ANVSA, AK",7630
458.0,,103.0,,458.0,,103.0,,0.0,,9.0,,"Wainwright ANVSA, AK",7735
385.0,,106.0,,373.0,,104.0,,12.0,,11.0,,"Round Valley Reservation and Off-Reservation Trust Land, CA",3250
771.0,,127.0,,764.0,,125.0,,7.0,,7.0,,"Chehalis Reservation and Off-Reservation Trust Land, WA",0575
85.0,,21.0,,71.0,,19.0,,14.0,,9.0,,"Kalaupapa Hawaiian Home Land, HI",5051
257.0,,43.0,,257.0,,43.0,,0.0,,9.0,,"Minto ANVSA, AK",6965
9515.0,,500.0,,8064.0,,381.0,,1451.0,,201.0,,"Colorado River Indian Reservation, AZ--CA",0735
383.0,,87.0,,374.0,,85.0,,9.0,,8.0,,"Dresslerville Colony, NV",0940
214.0,,46.0,,214.0,,46.0,,0.0,,9.0,,"Holy Cross ANVSA, AK",6585
3247.0,,14.0,,2899.0,,191.0,,348.0,,190.0,,"St. Regis Mohawk Reservation, NY",3320
144.0,,55.0,,141.0,,55.0,,3.0,,6.0,,"Kaumana Hawaiian Home Land, HI",5086
66.0,,16.0,,64.0,,15.0,,2.0,,2.0,,"Atka ANVSA, AK",6150
7.0,,9.0,,7.0,,9.0,,0.0,,12.0,,"Big Lagoon Rancheria, CA",0240
0.0,,11.0,,0.0,,11.0,,0.0,,11.0,,"South Maui Hawaiian Home Land, HI",5213
174.0,,30.0,,174.0,,30.0,,0.0,,9.0,,"Mekoryuk ANVSA, AK",6935
8791.0,,448.0,,8367.0,,403.0,,424.0,,99.0,,"Occaneechi-Saponi SDTSA, NC",9838
0.0,,9.0,,0.0,,9.0,,0.0,,9.0,,"Lesnoi ANVSA, AK",6860
388.0,,42.0,,388.0,,42.0,,0.0,,9.0,,"Newtok ANVSA, AK",7055
13.0,,12.0,,11.0,,11.0,,2.0,,4.0,,"Paucatuck Eastern Pequot (state) Reservation, CT",9280
136.0,,65.0,,136.0,,65.0,,0.0,,12.0,,"Wampanoag-Aquinnah Trust Land, MA",4530
70463.0,,592.0,,67417.0,,637.0,,3046.0,,482.0,,"Knik ANVSA, AK",6785
336.0,,114.0,,326.0,,112.0,,10.0,,14.0,,"Laytonville Rancheria, CA",1925
839.0,,126.0,,743.0,,112.0,,96.0,,31.0,,"Tesuque Pueblo and Off-Reservation Trust Land, NM",4170
162.0,,65.0,,160.0,,64.0,,2.0,,5.0,,"Tuolumne Rancheria, CA",4330
183.0,,49.0,,183.0,,49.0,,0.0,,11.0,,"Kapaakea Hawaiian Home Land, HI",5076
232176.0,,602.0,,227361.0,,660.0,,4815.0,,355.0,,"Choctaw OTSA, OK",5590
40.0,,21.0,,40.0,,21.0,,0.0,,9.0,,"Stony River ANVSA, AK",7525
313.0,,685.0,,227.0,,498.0,,86.0,,187.0,,"Passamaquoddy Trust Land, ME",2695
54.0,,32.0,,54.0,,32.0,,0.0,,12.0,,"Picayune Rancheria and Off-Reservation Trust Land, CA",2775
900.0,,153.0,,871.0,,148.0,,29.0,,32.0,,"Walker River Reservation, NV",4515
4289.0,,153.0,,4187.0,,150.0,,102.0,,43.0,,"Miami/Peoria joint-use OTSA, OK",5970
62.0,,19.0,,60.0,,17.0,,2.0,,6.0,,"Hughes ANVSA, AK",6605
0.0,,9.0,,0.0,,9.0,,0.0,,9.0,,"Napaimute ANVSA, AK",7005
488.0,,120.0,,488.0,,120.0,,0.0,,13.0,,"Alabama-Coushatta Reservation and Off-Reservation Trust Land, TX",0050
197.0,,71.0,,197.0,,71.0,,0.0,,12.0,,"Burns Paiute Indian Colony and Off-Reservation Trust Land, OR",0400
10512.0,,424.0,,10372.0,,426.0,,140.0,,110.0,,"San Carlos Reservation, AZ",3355
562.0,,130.0,,562.0,,130.0,,0.0,,9.0,,"Point Hope ANVSA, AK",7250
222.0,,84.0,,221.0,,84.0,,1.0,,3.0,,"Quartz Valley Reservation and Off-Reservation Trust Land, CA",3020
385.0,,103.0,,358.0,,98.0,,27.0,,16.0,,"Viejas Reservation, CA",4500
73.0,,56.0,,62.0,,55.0,,11.0,,16.0,,"Bridgeport Reservation, CA",0350
425.0,,162.0,,386.0,,150.0,,39.0,,55.0,,"Campo Indian Reservation, CA",0450
121.0,,47.0,,121.0,,47.0,,0.0,,11.0,,"Goshute Reservation, NV--UT",1340
918.0,,187.0,,904.0,,185.0,,14.0,,12.0,,"Puukapu Hawaiian Home Land, HI",5201
28993.0,,295.0,,28275.0,,397.0,,718.0,,263.0,,"Flathead Reservation, MT",1110
2995.0,,356.0,,2922.0,,348.0,,73.0,,27.0,,"L'Anse Reservation and Off-Reservation Trust Land, MI",1880
3040.0,,156.0,,3009.0,,156.0,,31.0,,12.0,,"Lac Courte Oreilles Reservation and Off-Reservation Trust Land, WI",1815
5.0,,5.0,,5.0,,5.0,,0.0,,11.0,,"Homuula-Upper Piihonua Hawaiian Home Land, HI",5018
87.0,,29.0,,87.0,,29.0,,0.0,,12.0,,"Fort Independence Reservation, CA",1195
558.0,,186.0,,527.0,,171.0,,31.0,,44.0,,"Soboba Reservation and Off-Reservation Trust Land, CA",3870
2619.0,,348.0,,2594.0,,343.0,,25.0,,19.0,,"Waianae Hawaiian Home Land, HI",5238
824.0,,69.0,,820.0,,68.0,,4.0,,5.0,,"Kwethluk ANVSA, AK",6835
499874.0,,1311.0,,472720.0,,1812.0,,27154.0,,1221.0,,"Lumbee SDTSA, NC",9815
543.0,,92.0,,527.0,,89.0,,16.0,,14.0,,"Big Pine Reservation, CA",0250
1356.0,,352.0,,1346.0,,350.0,,10.0,,9.0,,"Maricopa (Ak Chin) Indian Reservation and Off-Reservation Trust Land, AZ",2130
13243.0,,77.0,,12181.0,,124.0,,1062.0,,97.0,,"Ketchikan ANVSA, AK",6725
146.0,,85.0,,131.0,,78.0,,15.0,,15.0,,"Cahuilla Reservation, CA",0435
0.0,,11.0,,0.0,,11.0,,0.0,,11.0,,"Fort Sill Apache Indian Reservation, NM",1270
1970.0,,136.0,,1904.0,,135.0,,66.0,,19.0,,"San Ildefonso Pueblo and Off-Reservation Trust Land, NM",3415
116.0,,74.0,,116.0,,74.0,,0.0,,12.0,,"Shingle Springs Rancheria and Off-Reservation Trust Land, CA",3750
0.0,,9.0,,0.0,,9.0,,0.0,,9.0,,"Hamilton ANVSA, AK",6570
3283.0,,25.0,,3219.0,,32.0,,64.0,,22.0,,"Kotzebue ANVSA, AK",6820
1247.0,,166.0,,1221.0,,164.0,,26.0,,14.0,,"Yurok Reservation, CA",4760
2335.0,,136.0,,2300.0,,128.0,,35.0,,32.0,,"Dillingham ANVSA, AK",6405
777.0,,123.0,,755.0,,119.0,,22.0,,15.0,,"Grand Traverse Reservation and Off-Reservation Trust Land, MI",1370
581.0,,159.0,,562.0,,154.0,,19.0,,22.0,,"Kekaha Hawaiian Home Land, HI",5111
2184.0,,216.0,,2091.0,,206.0,,93.0,,49.0,,"Cattaraugus Reservation, NY",0540
174.0,,62.0,,169.0,,62.0,,5.0,,10.0,,"Ely Reservation, NV",1040
4276.0,,186.0,,4194.0,,188.0,,82.0,,28.0,,"Kickapoo (KS) Reservation, KS",1770
70.0,,24.0,,64.0,,23.0,,6.0,,8.0,,"Chignik ANVSA, AK",6295
285.0,,37.0,,285.0,,37.0,,0.0,,9.0,,"Nulato ANVSA, AK",7130
0.0,,11.0,,0.0,,11.0,,0.0,,11.0,,"Honomu Hawaiian Home Land, HI",5031
119.0,,70.0,,116.0,,70.0,,3.0,,6.0,,"Elk Valley Rancheria and Off-Reservation Trust Land, CA",1010
24131.0,,439.0,,23657.0,,468.0,,474.0,,142.0,,"Oneida (WI) Reservation and Off-Reservation Trust Land, WI",2560
4595.0,,205.0,,4541.0,,200.0,,54.0,,19.0,,"Seneca-Cayuga OTSA, OK",5835
59.0,,42.0,,59.0,,42.0,,0.0,,12.0,,"Havasupai Reservation, AZ",1440
1244.0,,178.0,,1195.0,,171.0,,49.0,,36.0,,"Tule River Reservation and Off-Reservation Trust Land, CA",4300
6498.0,,171.0,,6468.0,,175.0,,30.0,,18.0,,"Yankton Reservation, SD",4700
0.0,,10.0,,0.0,,10.0,,0.0,,10.0,,"Kickapoo (KS) Reservation/Sac and Fox Nation Trust Land joint-use area, KS",4910
1.0,,2.0,,1.0,,2.0,,0.0,,12.0,,"Enterprise Rancheria, CA",1055
293.0,,105.0,,282.0,,107.0,,11.0,,14.0,,"Redwood Valley Rancheria, CA",3115
25047.0,,568.0,,20812.0,,473.0,,4235.0,,267.0,,"Agua Caliente Indian Reservation and Off-Reservation Trust Land, CA",0020
0.0,,11.0,,0.0,,11.0,,0.0,,11.0,,"Waiku-Hana Hawaiian Home Land, HI",5248
2876.0,,220.0,,2840.0,,219.0,,36.0,,17.0,,"Cayuga Nation TDSA, NY",8100
8.0,,14.0,,8.0,,14.0,,0.0,,12.0,,"Lookout Rancheria, CA",1980
835.0,,62.0,,829.0,,61.0,,6.0,,6.0,,"Emmonak ANVSA, AK",6480
555.0,,54.0,,550.0,,55.0,,5.0,,5.0,,"Fort Yukon ANVSA, AK",6515
258.0,,38.0,,258.0,,38.0,,0.0,,9.0,,"Atmautluak ANVSA, AK",6160
6370.0,,25.0,,6079.0,,121.0,,291.0,,120.0,,"Bethel ANVSA, AK",6205
78.0,,25.0,,78.0,,25.0,,0.0,,9.0,,"Iliamna ANVSA, AK",6625
71.0,,36.0,,71.0,,36.0,,0.0,,9.0,,"Kasaan ANVSA, AK",6705
408.0,,51.0,,408.0,,51.0,,0.0,,9.0,,"Napaskiak ANVSA, AK",7020
7014.0,,273.0,,6911.0,,271.0,,103.0,,56.0,,"Crow Reservation and Off-Reservation Trust Land, MT",0845
154.0,,41.0,,122.0,,40.0,,32.0,,26.0,,"Mesa Grande Reservation, CA",2190
53.0,,19.0,,53.0,,19.0,,0.0,,9.0,,"Pilot Point ANVSA, AK",7225
608.0,,60.0,,608.0,,60.0,,0.0,,9.0,,"Noorvik ANVSA, AK",7110
169.0,,93.0,,169.0,,93.0,,0.0,,11.0,,"MOWA Choctaw (state) Reservation, AL",9240
284.0,,37.0,,279.0,,33.0,,5.0,,8.0,,"Kalskag ANVSA, AK",6685
3243.0,,439.0,,2714.0,,363.0,,529.0,,176.0,,"Mechoopda TDSA, CA",8450
5833.0,,301.0,,5649.0,,287.0,,184.0,,53.0,,"Douglas ANVSA, AK",6420
567.0,,67.0,,554.0,,65.0,,13.0,,11.0,,"Naknek ANVSA, AK",6990
5211.0,,424.0,,5154.0,,419.0,,57.0,,31.0,,"Nanakuli Hawaiian Home Land, HI",5161
2958.0,,366.0,,2894.0,,358.0,,64.0,,58.0,,"Hoopa Valley Reservation, CA",1490
257.0,,79.0,,253.0,,77.0,,4.0,,7.0,,"Houlton Maliseet Reservation and Off-Reservation Trust Land, ME",1530
3159.0,,261.0,,2950.0,,235.0,,209.0,,61.0,,"Washoe Ranches Trust Land, NV--CA",4560
30.0,,44.0,,30.0,,44.0,,0.0,,12.0,,"Jamestown S'Klallam Reservation and Off-Reservation Trust Land, WA",1655
84.0,,38.0,,84.0,,38.0,,0.0,,12.0,,"Los Coyotes Reservation, CA",1995
4.0,,7.0,,4.0,,7.0,,0.0,,11.0,,"Ponohawaii Hawaiian Home Land, HI",5196
60.0,,33.0,,60.0,,33.0,,0.0,,12.0,,"Sauk-Suiattle Reservation, WA",3625
19888.0,,669.0,,19570.0,,682.0,,318.0,,73.0,,"Kickapoo OTSA, OK",5700
328.0,,35.0,,326.0,,33.0,,2.0,,3.0,,"Elim ANVSA, AK",6470
37.0,,17.0,,35.0,,17.0,,2.0,,3.0,,"False Pass ANVSA, AK",6500
114.0,,26.0,,114.0,,26.0,,0.0,,9.0,,"Levelock ANVSA, AK",6865
7.0,,6.0,,7.0,,6.0,,0.0,,9.0,,"Lime Village ANVSA, AK",6875
42.0,,18.0,,40.0,,19.0,,2.0,,6.0,,"Piihonua Hawaiian Home Land, HI",5193
56.0,,21.0,,56.0,,21.0,,0.0,,9.0,,"Clarks Point ANVSA, AK",6360
159.0,,33.0,,159.0,,33.0,,0.0,,9.0,,"Kobuk ANVSA, AK",6790
0.0,,12.0,,0.0,,12.0,,0.0,,12.0,,"Chicken Ranch Rancheria and Off-Reservation Trust Land, CA",0620
1051.0,,73.0,,986.0,,65.0,,65.0,,33.0,,"Santee Reservation, NE",3565
0.0,,11.0,,0.0,,11.0,,0.0,,11.0,,"Waimea Hawaiian Home Land, HI",5281
3794.0,,96.0,,3679.0,,104.0,,115.0,,52.0,,"Nome ANVSA, AK",7095
155.0,,35.0,,155.0,,35.0,,0.0,,9.0,,"Venetie ANVSA, AK",7725
1017.0,,149.0,,978.0,,135.0,,39.0,,37.0,,"Bois Forte Reservation, MN",0335
14.0,,12.0,,14.0,,12.0,,0.0,,12.0,,"Cedarville Rancheria and Off-Reservation Trust Land, CA",0555
0.0,,11.0,,0.0,,11.0,,0.0,,11.0,,"Makaha Valley Hawaiian Home Land, HI",5139
820.0,,103.0,,818.0,,103.0,,2.0,,2.0,,"Stockbridge Munsee Community and Off-Reservation Trust Land, WI",4015
7706.0,,305.0,,7328.0,,307.0,,378.0,,64.0,,"Port Madison Reservation, WA",2925
3422.0,,315.0,,3422.0,,315.0,,0.0,,11.0,,"Santo Domingo Pueblo, NM",3585
129.0,,31.0,,129.0,,31.0,,0.0,,9.0,,"New Koliganek ANVSA, AK",7040
546.0,,153.0,,533.0,,151.0,,13.0,,17.0,,"Karuk Reservation and Off-Reservation Trust Land, CA",1750
161.0,,79.0,,156.0,,75.0,,5.0,,9.0,,"Las Vegas Indian Colony, NV",1915
1064.0,,284.0,,1047.0,,281.0,,17.0,,13.0,,"Yavapai-Apache Nation Reservation, AZ",4708
106.0,,44.0,,106.0,,44.0,,0.0,,12.0,,"Tunica-Biloxi Reservation and Off-Reservation Trust Land, LA",4315
81.0,,75.0,,79.0,,75.0,,2.0,,3.0,,"Lualualei Hawaiian Home Land, HI",5136
17.0,,10.0,,17.0,,10.0,,0.0,,9.0,,"Eagle ANVSA, AK",6430
0.0,,9.0,,0.0,,9.0,,0.0,,9.0,,"Georgetown ANVSA, AK",6535
18739.0,,402.0,,18420.0,,397.0,,319.0,,70.0,,"Nez Perce Reservation, ID",2445
231.0,,45.0,,223.0,,42.0,,8.0,,12.0,,"Port Lions ANVSA, AK",7275
49.0,,30.0,,48.0,,30.0,,1.0,,2.0,,"Mattaponi (state) Reservation, VA",9230
239.0,,110.0,,227.0,,107.0,,12.0,,10.0,,"Aroostook Band of Micmac Trust Land, ME",0115
53.0,,16.0,,53.0,,16.0,,0.0,,9.0,,"St. George ANVSA, AK",7340
0.0,,11.0,,0.0,,11.0,,0.0,,11.0,,"Kaohe-Olaa Hawaiian Home Land, HI",5069
870.0,,166.0,,733.0,,122.0,,137.0,,78.0,,"San Pasqual Reservation, CA",3460
644.0,,158.0,,625.0,,156.0,,19.0,,13.0,,"Nisqually Reservation, WA",2460
243.0,,53.0,,243.0,,53.0,,0.0,,9.0,,"Nightmute ANVSA, AK",7065
53985.0,,1273.0,,53223.0,,1263.0,,762.0,,210.0,,"Echota Cherokee SDTSA, AL",9680
230.0,,39.0,,230.0,,39.0,,0.0,,9.0,,"Goodnews Bay ANVSA, AK",6545
749.0,,74.0,,749.0,,74.0,,0.0,,9.0,,"Mountain Village ANVSA, AK",6975
176.0,,73.0,,160.0,,68.0,,16.0,,23.0,,"Big Valley Rancheria, CA",0275
387.0,,91.0,,374.0,,92.0,,13.0,,17.0,,"Kalamaula Hawaiian Home Land, HI",5046
255.0,,126.0,,255.0,,126.0,,0.0,,12.0,,"Robinson Rancheria and Off-Reservation Trust Land, CA",3195
7.0,,10.0,,7.0,,10.0,,0.0,,11.0,,"Moloaa Hawaiian Home Land, HI",5156
81.0,,23.0,,81.0,,23.0,,0.0,,9.0,,"Port Heiden ANVSA, AK",7270
105.0,,48.0,,104.0,,47.0,,1.0,,3.0,,"Little River Reservation and Off-Reservation Trust Land, MI",1960
191.0,,51.0,,187.0,,50.0,,4.0,,5.0,,"Upper Sioux Community and Off-Reservation Trust Land, MN",4445
49.0,,17.0,,49.0,,17.0,,0.0,,9.0,,"Igiugig ANVSA, AK",6620
22.0,,11.0,,22.0,,11.0,,0.0,,9.0,,"Red Devil ANVSA, AK",7305
16.0,,18.0,,16.0,,18.0,,0.0,,12.0,,"Resighini Rancheria, CA",3145
763.0,,125.0,,749.0,,126.0,,14.0,,11.0,,"Skokomish Reservation, WA",3825
0.0,,11.0,,0.0,,11.0,,0.0,,11.0,,"Keahuolu Hawaiian Home Land, HI",5098
1074.0,,162.0,,589.0,,99.0,,485.0,,178.0,,"King Cove ANVSA, AK",6735
18.0,,11.0,,18.0,,11.0,,0.0,,9.0,,"Lake Minchumina ANVSA, AK",6850
623.0,,93.0,,611.0,,91.0,,12.0,,14.0,,"Big Cypress Reservation, FL",0225
1674.0,,255.0,,1560.0,,222.0,,114.0,,65.0,,"Bishop Reservation, CA",0290
363.0,,163.0,,354.0,,162.0,,9.0,,8.0,,"Kickapoo (TX) Reservation, TX",1775
84.0,,44.0,,81.0,,41.0,,3.0,,5.0,,"Akhiok ANVSA, AK",6015
345.0,,78.0,,345.0,,78.0,,0.0,,9.0,,"Nuiqsut ANVSA, AK",7125
173.0,,60.0,,169.0,,58.0,,4.0,,5.0,,"Prairie Island Indian Community and Off-Reservation Trust Land, MN",2985
488.0,,127.0,,471.0,,121.0,,17.0,,24.0,,"Susanville Indian Rancheria and Off-Reservation Trust Land, CA",4060
8140.0,,557.0,,8075.0,,560.0,,65.0,,44.0,,"Hopi Reservation and Off-Reservation Trust Land, AZ",1505
234.0,,118.0,,223.0,,119.0,,11.0,,11.0,,"Immokalee Reservation, FL",1555
10041.0,,422.0,,9462.0,,407.0,,579.0,,159.0,,"Tulalip Reservation and Off-Reservation Trust Land, WA",4290
0.0,,12.0,,0.0,,12.0,,0.0,,12.0,,"Inaja and Cosmit Reservation, CA",1560
1146.0,,106.0,,1125.0,,105.0,,21.0,,12.0,,"Red Cliff Reservation and Off-Reservation Trust Land, WI",3085
998.0,,214.0,,925.0,,204.0,,73.0,,33.0,,"Ysleta del Sur Pueblo and Off-Reservation Trust Land, TX",4755
4090.0,,314.0,,4069.0,,314.0,,21.0,,15.0,,"Fond du Lac Reservation and Off-Reservation Trust Land, MN--WI",1125
463.0,,103.0,,456.0,,104.0,,7.0,,10.0,,"Grand Ronde Community and Off-Reservation Trust Land, OR",1365
0.0,,13.0,,0.0,,13.0,,0.0,,13.0,,"Seminole (FL) Trust Land, FL",3665
295.0,,73.0,,293.0,,72.0,,2.0,,3.0,,"Northway ANVSA, AK",7115
5824.0,,448.0,,5679.0,,436.0,,145.0,,79.0,,"Star Muskogee Creek SDTSA, AL",9880
5007.0,,578.0,,4757.0,,550.0,,250.0,,76.0,,"Taos Pueblo and Off-Reservation Trust Land, NM",4140
7504.0,,426.0,,7039.0,,391.0,,465.0,,135.0,,"Nanticoke Indian Tribe SDTSA, DE",9830
0.0,,11.0,,0.0,,11.0,,0.0,,11.0,,"Northwestern Shoshone Reservation, UT",2505
1429.0,,294.0,,1421.0,,293.0,,8.0,,8.0,,"Papakolea Hawaiian Home Land, HI",5179
0.0,,11.0,,0.0,,11.0,,0.0,,11.0,,"Wailau Hawaiian Home Land, HI",5251
596.0,,57.0,,596.0,,57.0,,0.0,,9.0,,"Buckland ANVSA, AK",6250
54.0,,24.0,,52.0,,23.0,,2.0,,3.0,,"Dot Lake ANVSA, AK",6415
1751.0,,168.0,,1688.0,,162.0,,63.0,,22.0,,"Pueblo de Cochiti, NM",0680
8.0,,12.0,,8.0,,12.0,,0.0,,12.0,,"Schaghticoke (state) Reservation, CT",9350
396.0,,52.0,,396.0,,52.0,,0.0,,9.0,,"St. Michael ANVSA, AK",7375
70.0,,20.0,,70.0,,20.0,,0.0,,9.0,,"Chignik Lake ANVSA, AK",6305
121.0,,55.0,,121.0,,55.0,,0.0,,9.0,,"Tetlin ANVSA, AK",7580
0.0,,12.0,,0.0,,12.0,,0.0,,12.0,,"Alturas Indian Rancheria, CA",0095
60.0,,15.0,,60.0,,15.0,,0.0,,9.0,,"Beaver ANVSA, AK",6190
483.0,,92.0,,463.0,,91.0,,20.0,,16.0,,"Seldovia ANVSA, AK",7435
711.0,,137.0,,458.0,,91.0,,253.0,,74.0,,"Cabazon Reservation, CA",0415
96.0,,41.0,,96.0,,41.0,,0.0,,12.0,,"South Fork Reservation and Off-Reservation Trust Land, NV",3930
44.0,,34.0,,44.0,,34.0,,0.0,,9.0,,"Karluk ANVSA, AK",6700
1517.0,,78.0,,1514.0,,78.0,,3.0,,5.0,,"Lower Brule Reservation and Off-Reservation Trust Land, SD",2030
0.0,,11.0,,0.0,,11.0,,0.0,,11.0,,"Keoniki Hawaiian Home Land, HI",5116
876.0,,206.0,,227.0,,66.0,,649.0,,193.0,,"Akutan ANVSA, AK",6030
576.0,,65.0,,576.0,,65.0,,0.0,,9.0,,"Kivalina ANVSA, AK",6755
2150.0,,145.0,,2150.0,,145.0,,0.0,,9.0,,"Crow Creek Reservation, SD",0855
310.0,,141.0,,296.0,,140.0,,14.0,,21.0,,"Hopland Rancheria, CA",1515
4810.0,,269.0,,4789.0,,271.0,,21.0,,16.0,,"Northern Cheyenne Indian Reservation and Off-Reservation Trust Land, MT--SD",2490
48443.0,,929.0,,40350.0,,981.0,,8093.0,,586.0,,"Puyallup Reservation and Off-Reservation Trust Land, WA",3000
0.0,,9.0,,0.0,,9.0,,0.0,,9.0,,"Ohogamiut ANVSA, AK",7145
61759.0,,1446.0,,57146.0,,1303.0,,4613.0,,610.0,,"Coharie SDTSA, NC",9635
514.0,,110.0,,511.0,,110.0,,3.0,,3.0,,"Kawaihae Hawaiian Home Land, HI",5091
3944.0,,355.0,,3893.0,,354.0,,51.0,,54.0,,"Laguna Pueblo and Off-Reservation Trust Land, NM",1840
4682.0,,166.0,,4604.0,,165.0,,78.0,,30.0,,"Omaha Reservation, NE--IA",2550
0.0,,10.0,,0.0,,10.0,,0.0,,10.0,,"Ontonagon Reservation, MI",2580
541.0,,80.0,,539.0,,81.0,,2.0,,3.0,,"Sokaogon Chippewa Community and Off-Reservation Trust Land, WI",3885
66.0,,44.0,,66.0,,44.0,,0.0,,9.0,,"Chenega ANVSA, AK",6280
0.0,,9.0,,0.0,,9.0,,0.0,,9.0,,"Healy Lake ANVSA, AK",6575
931.0,,167.0,,897.0,,155.0,,34.0,,35.0,,"Elko Colony, NV",1005
879.0,,107.0,,879.0,,107.0,,0.0,,11.0,,"Zia Pueblo and Off-Reservation Trust Land, NM",4770
28.0,,17.0,,28.0,,17.0,,0.0,,11.0,,"Pearl City Hawaiian Home Land, HI",5188
155.0,,40.0,,149.0,,38.0,,6.0,,5.0,,"Kaktovik ANVSA, AK",6680
3550.0,,266.0,,3539.0,,266.0,,11.0,,11.0,,"Mescalero Reservation, NM",2205
218.0,,101.0,,218.0,,101.0,,0.0,,12.0,,"Upper Skagit Reservation, WA",4455
573.0,,134.0,,573.0,,134.0,,0.0,,9.0,,"Copper Center ANVSA, AK",6365
26.0,,29.0,,26.0,,29.0,,0.0,,12.0,,"Ione Band of Miwok TDSA, CA",8300
5789.0,,260.0,,5635.0,,246.0,,154.0,,61.0,,"Ottawa OTSA, OK",5770
11749.0,,317.0,,11407.0,,296.0,,342.0,,124.0,,"Kiowa-Comanche-Apache-Ft Sill Apache/Caddo-Wichita-Delaware joint-use OTSA, OK",5955
3934.0,,299.0,,3911.0,,302.0,,23.0,,20.0,,"Rocky Boy's Reservation and Off-Reservation Trust Land, MT",3205
2794.0,,262.0,,2727.0,,257.0,,67.0,,45.0,,"Waimanalo Hawaiian Home Land, HI",5271
2034.0,,307.0,,1994.0,,302.0,,40.0,,28.0,,"Wassamasaw SDTSA, SC",9975
176.0,,40.0,,175.0,,40.0,,1.0,,5.0,,"King Salmon ANVSA, AK",6740
502.0,,158.0,,475.0,,139.0,,27.0,,30.0,,"Coquille Reservation, OR",0775
0.0,,12.0,,0.0,,12.0,,0.0,,12.0,,"Jena Band of Choctaw Reservation, LA",1690
0.0,,11.0,,0.0,,11.0,,0.0,,11.0,,"Pulehunui Hawaiian Home Land, HI",5199
44.0,,34.0,,44.0,,34.0,,0.0,,12.0,,"Waccamaw SDTSA, SC",9967
3049.0,,145.0,,3030.0,,142.0,,19.0,,19.0,,"Fort Belknap Reservation and Off-Reservation Trust Land, MT",1150
14.0,,19.0,,14.0,,19.0,,0.0,,12.0,,"Stillaguamish Reservation and Off-Reservation Trust Land, WA",4000
0.0,,9.0,,0.0,,9.0,,0.0,,9.0,,"Chulloonawick ANVSA, AK",6340
342.0,,47.0,,342.0,,47.0,,0.0,,9.0,,"Shungnak ANVSA, AK",7470
777.0,,64.0,,773.0,,64.0,,4.0,,5.0,,"Alakanuk ANVSA, AK",6035
38.0,,25.0,,38.0,,25.0,,0.0,,9.0,,"Evansville ANVSA, AK",6490
0.0,,12.0,,0.0,,12.0,,0.0,,12.0,,"Lytton Rancheria, CA",2075
386.0,,82.0,,365.0,,78.0,,21.0,,15.0,,"Chilkoot ANVSA, AK",6315
2540.0,,156.0,,2370.0,,178.0,,170.0,,107.0,,"Petersburg ANVSA, AK",7220
104.0,,54.0,,100.0,,53.0,,4.0,,7.0,,"Coushatta Reservation and Off-Reservation Trust Land, LA",0795
1983.0,,184.0,,1972.0,,185.0,,11.0,,9.0,,"Jemez Pueblo, NM",1685
2204.0,,204.0,,2160.0,,193.0,,44.0,,31.0,,"Spokane Reservation and Off-Reservation Trust Land, WA",3940
486.0,,145.0,,472.0,,138.0,,14.0,,12.0,,"Squaxin Island Reservation and Off-Reservation Trust Land, WA",3955
1465.0,,246.0,,1442.0,,247.0,,23.0,,17.0,,"Upper South Carolina Pee Dee SDTSA, SC",9963
977.0,,202.0,,932.0,,192.0,,45.0,,43.0,,"Catawba Reservation, SC",0525
483.0,,105.0,,483.0,,105.0,,0.0,,9.0,,"Flandreau Reservation, SD",1100
567.0,,147.0,,560.0,,144.0,,7.0,,8.0,,"Port Gamble Reservation and Off-Reservation Trust Land, WA",2910
602.0,,109.0,,592.0,,108.0,,10.0,,8.0,,"Shakopee Mdewakanton Sioux Community and Off-Reservation Trust Land, MN",3680
797.0,,100.0,,793.0,,99.0,,4.0,,5.0,,"Indian Township Reservation, ME",1575
1239.0,,267.0,,1167.0,,250.0,,72.0,,60.0,,"Kealakehe Hawaiian Home Land, HI",5101
181684.0,,1194.0,,173514.0,,1412.0,,8170.0,,641.0,,"Cheyenne-Arapaho OTSA, OK",5560
118.0,,36.0,,118.0,,36.0,,0.0,,9.0,,"Circle ANVSA, AK",6350
317.0,,48.0,,303.0,,42.0,,14.0,,16.0,,"Lower Kalskag ANVSA, AK",6890
3229.0,,288.0,,2831.0,,272.0,,398.0,,76.0,,"Pee Dee SDTSA, SC",9844
1008.0,,141.0,,989.0,,140.0,,19.0,,14.0,,"Reno-Sparks Indian Colony, NV",3130
2677.0,,363.0,,2632.0,,358.0,,45.0,,33.0,,"Adais Caddo SDTSA, LA",9510
205652.0,,1441.0,,196917.0,,1615.0,,8735.0,,663.0,,"United Houma Nation SDTSA, LA",9960
76.0,,58.0,,76.0,,58.0,,0.0,,12.0,,"Coos, Lower Umpqua, and Siuslaw Reservation and Off-Reservation Trust Land, OR",0770
792.0,,145.0,,785.0,,145.0,,7.0,,10.0,,"Fallon Paiute-Shoshone Reservation and Off-Reservation Trust Land, NV",1075
1242.0,,201.0,,1216.0,,200.0,,26.0,,18.0,,"Hoolehua-Palaau Hawaiian Home Land, HI",5033
508.0,,119.0,,495.0,,116.0,,13.0,,16.0,,"Santee SDTSA, SC",9875
300.0,,78.0,,300.0,,78.0,,0.0,,12.0,,"Carson Colony, NV",0510
1166.0,,250.0,,904.0,,225.0,,262.0,,74.0,,"Hollywood Reservation, FL",1475
20.0,,21.0,,0.0,,11.0,,20.0,,21.0,,"Oil Springs Reservation, NY",2535
1.0,,2.0,,1.0,,2.0,,0.0,,9.0,,"Alatna ANVSA, AK",6040
466.0,,44.0,,466.0,,44.0,,0.0,,9.0,,"Tuntutuliak ANVSA, AK",7640
36933.0,,216.0,,34611.0,,253.0,,2322.0,,176.0,,"Samish TDSA, WA",8750
3881.0,,350.0,,3750.0,,360.0,,131.0,,88.0,,"Isleta Pueblo, NM",1625
407.0,,111.0,,389.0,,105.0,,18.0,,21.0,,"Manchester-Point Arena Rancheria, CA",2100
195.0,,240.0,,195.0,,240.0,,0.0,,11.0,,"Kakaina-Kumuhau Hawaiian Home Land, HI",5043
0.0,,11.0,,0.0,,11.0,,0.0,,11.0,,"Wailua Hawaiian Home Land, HI",5256
0.0,,12.0,,0.0,,12.0,,0.0,,12.0,,"Paskenta Rancheria, CA",2685
11410.0,,823.0,,11307.0,,822.0,,103.0,,50.0,,"Zuni Reservation and Off-Reservation Trust Land, NM--AZ",4785
10.0,,10.0,,10.0,,10.0,,0.0,,11.0,,"Ualapue Hawaiian Home Land, HI",5216
821.0,,86.0,,806.0,,86.0,,15.0,,13.0,,"Hoonah ANVSA, AK",6590
55.0,,37.0,,54.0,,36.0,,1.0,,4.0,,"Kootenai Reservation and Off-Reservation Trust Land, ID",1800
90.0,,77.0,,90.0,,77.0,,0.0,,12.0,,"Lovelock Indian Colony, NV",2015
147.0,,28.0,,144.0,,28.0,,3.0,,3.0,,"Port Alsworth ANVSA, AK",7263
1277.0,,108.0,,1270.0,,107.0,,7.0,,9.0,,"Sac and Fox/Meskwaki Settlement and Off-Reservation Trust Land, IA",3280
2911.0,,175.0,,2849.0,,171.0,,62.0,,22.0,,"Winnebago Reservation and Off-Reservation Trust Land, NE--IA",4625
382.0,,89.0,,319.0,,68.0,,63.0,,96.0,,"Angoon ANVSA, AK",6100
661.0,,66.0,,661.0,,66.0,,0.0,,9.0,,"Kwinhagak ANVSA, AK",6845
113.0,,32.0,,113.0,,32.0,,0.0,,9.0,,"Nikolai ANVSA, AK",7070
262.0,,85.0,,262.0,,85.0,,0.0,,12.0,,"Duckwater Reservation, NV",0975
6.0,,7.0,,4.0,,5.0,,2.0,,3.0,,"Middletown Rancheria, CA",2255
247.0,,85.0,,247.0,,85.0,,0.0,,9.0,,"Anaktuvuk Pass ANVSA, AK",6080
285.0,,77.0,,283.0,,76.0,,2.0,,3.0,,"Point Lay ANVSA, AK",7255
7257.0,,414.0,,7067.0,,406.0,,190.0,,61.0,,"Colville Reservation and Off-Reservation Trust Land, WA",0760
5693.0,,202.0,,5647.0,,197.0,,46.0,,23.0,,"Kaw OTSA, OK",5690
380.0,,52.0,,380.0,,52.0,,0.0,,9.0,,"Kiana ANVSA, AK",6730
582.0,,47.0,,582.0,,47.0,,0.0,,9.0,,"Pilot Station ANVSA, AK",7230
490.0,,149.0,,468.0,,147.0,,22.0,,16.0,,"Campbell Ranch, NV",0440
98.0,,54.0,,97.0,,55.0,,1.0,,3.0,,"Tonto Apache Reservation and Off-Reservation Trust Land, AZ",4235
278.0,,85.0,,273.0,,81.0,,5.0,,9.0,,"Woodfords Community, CA",4665
68.0,,21.0,,52.0,,23.0,,16.0,,14.0,,"Egegik ANVSA, AK",6445
787.0,,82.0,,783.0,,79.0,,4.0,,9.0,,"Togiak ANVSA, AK",7605
720.0,,92.0,,686.0,,59.0,,34.0,,73.0,,"Unalakleet ANVSA, AK",7690
161.0,,147.0,,68.0,,64.0,,93.0,,86.0,,"Onondaga Nation Reservation, NY",2570
1277.0,,115.0,,1207.0,,122.0,,70.0,,28.0,,"Wrangell ANVSA, AK",7755
216.0,,59.0,,202.0,,58.0,,14.0,,11.0,,"Moapa River Indian Reservation, NV",2315
209.0,,139.0,,195.0,,130.0,,14.0,,16.0,,"Pinoleville Rancheria, CA",2820
406.0,,48.0,,404.0,,48.0,,2.0,,3.0,,"Nenana ANVSA, AK",7030
1711.0,,119.0,,1706.0,,120.0,,5.0,,6.0,,"Annette Island Reserve, AK",0110
512.0,,104.0,,503.0,,102.0,,9.0,,10.0,,"Lenape Indian Tribe of Delaware SDTSA, DE",9800
94.0,,26.0,,94.0,,26.0,,0.0,,9.0,,"Sleetmute ANVSA, AK",7495
0.0,,12.0,,0.0,,12.0,,0.0,,12.0,,"Jackson Rancheria, CA",1640
19.0,,31.0,,14.0,,23.0,,5.0,,9.0,,"Kalaeloa Hawaiian Home Land, HI",5044
71.0,,28.0,,71.0,,28.0,,0.0,,11.0,,"Makuu Hawaiian Home Land, HI",5146
87.0,,22.0,,87.0,,22.0,,0.0,,9.0,,"Anvik ANVSA, AK",6125
277.0,,53.0,,273.0,,52.0,,4.0,,5.0,,"Hydaburg ANVSA, AK",6615
197380.0,,692.0,,187571.0,,863.0,,9809.0,,658.0,,"Kiowa-Comanche-Apache-Fort Sill Apache OTSA, OK",5720
6197.0,,549.0,,5749.0,,516.0,,448.0,,227.0,,"Salt River Reservation, AZ",3340
153.0,,107.0,,152.0,,107.0,,1.0,,4.0,,"Yomba Reservation, NV",4740
569.0,,252.0,,377.0,,165.0,,192.0,,171.0,,"Maili Hawaiian Home Land, HI",5138
0.0,,12.0,,0.0,,12.0,,0.0,,12.0,,"Big Bend Rancheria, CA",0215
211.0,,89.0,,211.0,,89.0,,0.0,,12.0,,"Cold Springs Rancheria, CA",0720
41.0,,22.0,,41.0,,22.0,,0.0,,12.0,,"Cortina Indian Rancheria, CA",0780
247.0,,41.0,,247.0,,41.0,,0.0,,9.0,,"Modoc OTSA, OK",5740
4293.0,,248.0,,3813.0,,265.0,,480.0,,92.0,,"Barrow ANVSA, AK",6175
61.0,,30.0,,61.0,,30.0,,0.0,,9.0,,"Larsen Bay ANVSA, AK",6855
238.0,,56.0,,236.0,,56.0,,2.0,,3.0,,"Nanwalek ANVSA, AK",6995
10938.0,,215.0,,10710.0,,256.0,,228.0,,111.0,,"Blackfeet Indian Reservation and Off-Reservation Trust Land, MT",0305
34013.0,,672.0,,33338.0,,686.0,,675.0,,186.0,,"Kenaitze ANVSA, AK",6720
350.0,,47.0,,350.0,,47.0,,0.0,,9.0,,"Marshall ANVSA, AK",6910
167.0,,68.0,,162.0,,66.0,,5.0,,7.0,,"Mashantucket Pequot Reservation and Off-Reservation Trust Land, CT",2145
2842.0,,209.0,,2790.0,,203.0,,52.0,,34.0,,"Umatilla Reservation and Off-Reservation Trust Land, OR",4405
599.0,,55.0,,599.0,,55.0,,0.0,,9.0,,"Kasigluk ANVSA, AK",6710
170.0,,89.0,,161.0,,85.0,,9.0,,13.0,,"Berry Creek Rancheria and Off-Reservation Trust Land, CA",0200
3694.0,,197.0,,3412.0,,188.0,,282.0,,42.0,,"Pueblo of Pojoaque and Off-Reservation Trust Land, NM",2990
834.0,,80.0,,829.0,,79.0,,5.0,,4.0,,"Eastern Shawnee OTSA, OK",5640
179.0,,70.0,,173.0,,69.0,,6.0,,11.0,,"Hoh Indian Reservation and Off-Reservation Trust Land, WA",1460
554.0,,60.0,,554.0,,60.0,,0.0,,9.0,,"Nunapitchuk ANVSA, AK",7135
488.0,,40.0,,488.0,,40.0,,0.0,,9.0,,"Scammon Bay ANVSA, AK",7425
531.0,,64.0,,529.0,,65.0,,2.0,,3.0,,"Toksook Bay ANVSA, AK",7625
585.0,,119.0,,561.0,,111.0,,24.0,,24.0,,"Chitimacha Reservation, LA",0635
5950.0,,433.0,,5789.0,,414.0,,161.0,,71.0,,"Fort Hall Reservation and Off-Reservation Trust Land, ID",1185
5034.0,,344.0,,4384.0,,310.0,,650.0,,98.0,,"Sandia Pueblo, NM",3370
249.0,,62.0,,248.0,,62.0,,1.0,,3.0,,"Old Harbor ANVSA, AK",7150
13173.0,,495.0,,12887.0,,491.0,,286.0,,68.0,,"Southern Ute Reservation, CO",3925
410.0,,56.0,,410.0,,56.0,,0.0,,9.0,,"Russian Mission ANVSA, AK",7315
576.0,,86.0,,570.0,,85.0,,6.0,,6.0,,"St. Paul ANVSA, AK",7390
573.0,,49.0,,572.0,,49.0,,1.0,,2.0,,"Shishmaref ANVSA, AK",7465
662.0,,116.0,,651.0,,114.0,,11.0,,12.0,,"Brighton Reservation, FL",0360
8.0,,15.0,,0.0,,13.0,,8.0,,15.0,,"Miccosukee Reservation and Off-Reservation Trust Land, FL",2240
23453.0,,161.0,,23131.0,,176.0,,322.0,,74.0,,"Seminole OTSA, OK",5830
58.0,,30.0,,58.0,,30.0,,0.0,,12.0,,"Celilo Village, OR",0560
689.0,,111.0,,638.0,,104.0,,51.0,,48.0,,"Forest County Potawatomi Community and Off-Reservation Trust Land, WI",1135
464.0,,101.0,,440.0,,98.0,,24.0,,15.0,,"La Jolla Reservation, CA",1850
43.0,,25.0,,43.0,,25.0,,0.0,,9.0,,"Inalik ANVSA, AK",6630
59.0,,42.0,,59.0,,42.0,,0.0,,9.0,,"Chistochina ANVSA, AK",6325
67.0,,71.0,,67.0,,71.0,,0.0,,12.0,,"XL Ranch Rancheria, CA",4680
7164.0,,376.0,,7047.0,,370.0,,117.0,,37.0,,"Coeur d'Alene Reservation, ID",0705
811.0,,118.0,,789.0,,117.0,,22.0,,13.0,,"Penobscot Reservation and Off-Reservation Trust Land, ME",2760
883.0,,71.0,,883.0,,71.0,,0.0,,9.0,,"Savoonga ANVSA, AK",7415
6294.0,,166.0,,6199.0,,167.0,,95.0,,33.0,,"Allegany Reservation, NY",0080
9271.0,,242.0,,9242.0,,250.0,,29.0,,37.0,,"Turtle Mountain Reservation and Off-Reservation Trust Land, MT--ND--SD",4345
4544.0,,231.0,,4461.0,,224.0,,83.0,,47.0,,"Mille Lacs Reservation and Off-Reservation Trust Land, MN",2270
597.0,,61.0,,580.0,,61.0,,17.0,,10.0,,"Yakutat ANVSA, AK",7765
25453.0,,387.0,,24730.0,,390.0,,723.0,,120.0,,"Uintah and Ouray Reservation and Off-Reservation Trust Land, UT",4390
29.0,,41.0,,29.0,,41.0,,0.0,,12.0,,"Redding Rancheria, CA",3095
142.0,,67.0,,130.0,,65.0,,12.0,,13.0,,"Sherwood Valley Rancheria and Off-Reservation Trust Land, CA",3735
145.0,,55.0,,145.0,,55.0,,0.0,,12.0,,"Smith River Rancheria and Off-Reservation Trust Land, CA",3855
43.0,,17.0,,42.0,,15.0,,1.0,,4.0,,"Shageluk ANVSA, AK",7440
611.0,,86.0,,610.0,,86.0,,1.0,,2.0,,"Fort McDermitt Indian Reservation, NV--OR",1210
2995.0,,262.0,,2950.0,,256.0,,45.0,,30.0,,"Jicarilla Apache Nation Reservation and Off-Reservation Trust Land, NM",1700
0.0,,11.0,,0.0,,11.0,,0.0,,11.0,,"Waimanu Hawaiian Home Land, HI",5276
5946.0,,316.0,,5544.0,,324.0,,402.0,,86.0,,"Nanticoke Lenni Lenape SDTSA, NJ",9835
10238.0,,215.0,,10163.0,,219.0,,75.0,,41.0,,"Fort Peck Indian Reservation and Off-Reservation Trust Land, MT",1250
192.0,,89.0,,179.0,,92.0,,13.0,,15.0,,"Eyak ANVSA, AK",6495
794.0,,63.0,,794.0,,63.0,,0.0,,9.0,,"Selawik ANVSA, AK",7430
85664.0,,834.0,,83745.0,,855.0,,1919.0,,178.0,,"Cher-O-Creek SDTSA, AL",9550
1558.0,,178.0,,1519.0,,185.0,,39.0,,21.0,,"Pyramid Lake Paiute Reservation, NV",3010
157.0,,63.0,,157.0,,63.0,,0.0,,9.0,,"Mentasta Lake ANVSA, AK",6945
12.0,,11.0,,12.0,,11.0,,0.0,,9.0,,"Ugashik ANVSA, AK",7665
1256.0,,159.0,,1243.0,,159.0,,13.0,,8.0,,"Kaupea Hawaiian Home Land, HI",5088
1739.0,,107.0,,1706.0,,104.0,,33.0,,22.0,,"Wyandotte OTSA, OK",5890
206.0,,50.0,,206.0,,50.0,,0.0,,9.0,,"Port Graham ANVSA, AK",7265
0.0,,12.0,,0.0,,12.0,,0.0,,12.0,,"Montgomery Creek Rancheria, CA",2330
1303.0,,167.0,,1274.0,,164.0,,29.0,,17.0,,"Quinault Reservation, WA",3040
0.0,,12.0,,0.0,,12.0,,0.0,,12.0,,"Ewiiaapaayp Reservation, CA",1065
4323.0,,101.0,,4306.0,,103.0,,17.0,,11.0,,"Spirit Lake Reservation, ND",3935
66.0,,44.0,,66.0,,44.0,,0.0,,12.0,,"Stewarts Point Rancheria, CA",3985
90.0,,55.0,,87.0,,54.0,,3.0,,4.0,,"Table Bluff Reservation, CA",4095
9828.0,,804.0,,9510.0,,786.0,,318.0,,126.0,,"Tohono O'odham Nation Reservation and Off-Reservation Trust Land, AZ",4200
533.0,,59.0,,529.0,,59.0,,4.0,,4.0,,"Aniak ANVSA, AK",6105
0.0,,9.0,,0.0,,9.0,,0.0,,9.0,,"Portage Creek ANVSA, AK",7260
11.0,,7.0,,11.0,,7.0,,0.0,,12.0,,"Twenty-Nine Palms Reservation, CA",4375
2028.0,,161.0,,1996.0,,163.0,,32.0,,20.0,,"Creek/Seminole joint-use OTSA, OK",5915
628.0,,94.0,,617.0,,90.0,,11.0,,11.0,,"Kake ANVSA, AK",6670
142.0,,70.0,,123.0,,51.0,,19.0,,31.0,,"Fort Bidwell Reservation and Off-Reservation Trust Land, CA",1170
14853.0,,455.0,,14404.0,,440.0,,449.0,,98.0,,"Ninilchik ANVSA, AK",7080
25.0,,29.0,,25.0,,29.0,,0.0,,12.0,,"Roaring Creek Rancheria, CA",3185
0.0,,12.0,,0.0,,12.0,,0.0,,12.0,,"Summit Lake Reservation and Off-Reservation Trust Land, NV",4045
331.0,,51.0,,331.0,,51.0,,0.0,,9.0,,"Kwigillingok ANVSA, AK",6840
1162.0,,223.0,,1001.0,,190.0,,161.0,,58.0,,"Pala Reservation, CA",2635
