B05002_001E,B05002_001EA,B05002_001M,B05002_001MA,B05002_002E,B05002_002EA,B05002_002M,B05002_002MA,B05002_013E,B05002_013EA,B05002_013M,B05002_013MA,NAME,division
14632374.0,,-555555555.0,*****,12804538.0,,11555.0,,1827836.0,,11555.0,,New England Division,1
41357146.0,,-555555555.0,*****,34204761.0,,19890.0,,7152385.0,,19892.0,,Middle Atlantic Division,2
46661071.0,,-555555555.0,*****,43168175.0,,18101.0,,3492896.0,,18105.0,,East North Central Division,3
20885327.0,,-555555555.0,*****,19710914.0,,8811.0,,1174413.0,,8826.0,,West North Central Division,4
61887900.0,,-555555555.0,*****,54019770.0,,25905.0,,7868130.0,,25911.0,,South Atlantic Division,5
18715669.0,,-555555555.0,*****,18013274.0,,7474.0,,702395.0,,7477.0,,East South Central Division,6
37971808.0,,-555555555.0,*****,33027169.0,,18052.0,,4944639.0,,18057.0,,West South Central Division,7
22917891.0,,-555555555.0,*****,20382880.0,,15015.0,,2535011.0,,15020.0,,Mountain Division,8
51485835.0,,-555555555.0,*****,39466120.0,,35240.0,,12019715.0,,35245.0,,Pacific Division,9
