B05002_001E,B05002_001EA,B05002_001M,B05002_001MA,B05002_002E,B05002_002EA,B05002_002M,B05002_002MA,B05002_013E,B05002_013EA,B05002_013M,B05002_013MA,NAME,region
55989520.0,,-555555555.0,*****,47009299.0,,26060.0,,8980221.0,,26062.0,,Northeast Region,1
67546398.0,,-555555555.0,*****,62879089.0,,22532.0,,4667309.0,,22561.0,,Midwest Region,2
118575377.0,,-555555555.0,*****,105060213.0,,39690.0,,13515164.0,,39709.0,,South Region,3
74403726.0,,-555555555.0,*****,59849000.0,,44602.0,,14554726.0,,44614.0,,West Region,4
