B23025_001E,B23025_001EA,B23025_001M,B23025_001MA,B23025_002E,B23025_002EA,B23025_002M,B23025_002MA,B23025_003E,B23025_003EA,B23025_003M,B23025_003MA,B23025_004E,B23025_004EA,B23025_004M,B23025_004MA,B23025_005E,B23025_005EA,B23025_005M,B23025_005MA,B23025_006E,B23025_006EA,B23025_006M,B23025_006MA,B23025_007E,B23025_007EA,B23025_007M,B23025_007MA,NAME,american indian area/alaska native area/hawaiian home land
2314.0,,242.0,,1433.0,,172.0,,1433.0,,172.0,,1114.0,,152.0,,319.0,,84.0,,0.0,,11.0,,881.0,,125.0,,"Acoma Pueblo and Off-Reservation Trust Land, NM",0010
22946.0,,517.0,,10549.0,,404.0,,10540.0,,403.0,,9451.0,,367.0,,1089.0,,136.0,,9.0,,11.0,,12397.0,,335.0,,"Agua Caliente Indian Reservation and Off-Reservation Trust Land, CA",0020
353.0,,87.0,,221.0,,63.0,,221.0,,63.0,,180.0,,55.0,,41.0,,21.0,,0.0,,13.0,,132.0,,45.0,,"Alabama-Coushatta Reservation and Off-Reservation Trust Land, TX",0050
4613.0,,146.0,,2661.0,,124.0,,2658.0,,123.0,,2300.0,,111.0,,358.0,,49.0,,3.0,,4.0,,1952.0,,121.0,,"Allegany Reservation, NY",0080
0.0,,12.0,,0.0,,12.0,,0.0,,12.0,,0.0,,12.0,,0.0,,12.0,,0.0,,12.0,,0.0,,12.0,,"Alturas Indian Rancheria, CA",0095
1263.0,,93.0,,792.0,,78.0,,792.0,,78.0,,673.0,,74.0,,119.0,,38.0,,0.0,,9.0,,471.0,,72.0,,"Annette Island Reserve, AK",0110
152.0,,67.0,,92.0,,49.0,,92.0,,49.0,,61.0,,34.0,,31.0,,22.0,,0.0,,9.0,,60.0,,27.0,,"Aroostook Band of Micmac Trust Land, ME",0115
0.0,,12.0,,0.0,,12.0,,0.0,,12.0,,0.0,,12.0,,0.0,,12.0,,0.0,,12.0,,0.0,,12.0,,"Auburn Rancheria and Off-Reservation Trust Land, CA",0120
0.0,,12.0,,0.0,,12.0,,0.0,,12.0,,0.0,,12.0,,0.0,,12.0,,0.0,,12.0,,0.0,,12.0,,"Augustine Reservation, CA",0125
1008.0,,108.0,,627.0,,81.0,,627.0,,81.0,,525.0,,73.0,,102.0,,32.0,,0.0,,9.0,,381.0,,65.0,,"Bad River Reservation, WI",0140
435.0,,73.0,,145.0,,33.0,,145.0,,33.0,,135.0,,32.0,,10.0,,9.0,,0.0,,12.0,,290.0,,55.0,,"Barona Reservation, CA",0155
191.0,,66.0,,125.0,,52.0,,125.0,,52.0,,92.0,,39.0,,33.0,,28.0,,0.0,,12.0,,66.0,,24.0,,"Battle Mountain Reservation, NV",0165
773.0,,92.0,,595.0,,89.0,,595.0,,89.0,,508.0,,77.0,,87.0,,37.0,,0.0,,10.0,,178.0,,42.0,,"Bay Mills Reservation and Off-Reservation Trust Land, MI",0170
37.0,,31.0,,16.0,,12.0,,16.0,,12.0,,14.0,,11.0,,2.0,,3.0,,0.0,,12.0,,21.0,,26.0,,"Benton Paiute Reservation and Off-Reservation Trust Land, CA",0185
107.0,,48.0,,47.0,,29.0,,47.0,,29.0,,44.0,,28.0,,3.0,,5.0,,0.0,,12.0,,60.0,,29.0,,"Berry Creek Rancheria and Off-Reservation Trust Land, CA",0200
0.0,,12.0,,0.0,,12.0,,0.0,,12.0,,0.0,,12.0,,0.0,,12.0,,0.0,,12.0,,0.0,,12.0,,"Big Bend Rancheria, CA",0215
380.0,,54.0,,176.0,,38.0,,176.0,,38.0,,161.0,,35.0,,15.0,,15.0,,0.0,,13.0,,204.0,,46.0,,"Big Cypress Reservation, FL",0225
4.0,,5.0,,2.0,,3.0,,2.0,,3.0,,2.0,,3.0,,0.0,,12.0,,0.0,,12.0,,2.0,,3.0,,"Big Lagoon Rancheria, CA",0240
387.0,,65.0,,203.0,,41.0,,203.0,,41.0,,177.0,,38.0,,26.0,,12.0,,0.0,,12.0,,184.0,,41.0,,"Big Pine Reservation, CA",0250
100.0,,41.0,,40.0,,18.0,,40.0,,18.0,,28.0,,18.0,,12.0,,9.0,,0.0,,12.0,,60.0,,29.0,,"Big Sandy Rancheria, CA",0265
111.0,,43.0,,65.0,,26.0,,65.0,,26.0,,59.0,,25.0,,6.0,,7.0,,0.0,,12.0,,46.0,,26.0,,"Big Valley Rancheria, CA",0275
1207.0,,163.0,,767.0,,135.0,,767.0,,135.0,,679.0,,125.0,,88.0,,34.0,,0.0,,12.0,,440.0,,69.0,,"Bishop Reservation, CA",0290
7736.0,,198.0,,4122.0,,291.0,,4122.0,,291.0,,3352.0,,290.0,,770.0,,144.0,,0.0,,16.0,,3614.0,,278.0,,"Blackfeet Indian Reservation and Off-Reservation Trust Land, MT",0305
68.0,,41.0,,49.0,,40.0,,49.0,,40.0,,48.0,,40.0,,1.0,,3.0,,0.0,,12.0,,19.0,,12.0,,"Blue Lake Rancheria and Off-Reservation Trust Land, CA",0325
756.0,,104.0,,495.0,,78.0,,495.0,,78.0,,404.0,,71.0,,91.0,,26.0,,0.0,,9.0,,261.0,,55.0,,"Bois Forte Reservation, MN",0335
65.0,,57.0,,29.0,,40.0,,29.0,,40.0,,28.0,,41.0,,1.0,,3.0,,0.0,,12.0,,36.0,,40.0,,"Bridgeport Reservation, CA",0350
436.0,,78.0,,192.0,,51.0,,192.0,,51.0,,156.0,,41.0,,36.0,,24.0,,0.0,,13.0,,244.0,,62.0,,"Brighton Reservation, FL",0360
175.0,,46.0,,95.0,,37.0,,95.0,,37.0,,57.0,,30.0,,38.0,,23.0,,0.0,,12.0,,80.0,,31.0,,"Burns Paiute Indian Colony and Off-Reservation Trust Land, OR",0400
532.0,,82.0,,352.0,,73.0,,352.0,,73.0,,292.0,,62.0,,60.0,,32.0,,0.0,,12.0,,180.0,,50.0,,"Cabazon Reservation, CA",0415
97.0,,50.0,,64.0,,39.0,,64.0,,39.0,,54.0,,35.0,,10.0,,11.0,,0.0,,12.0,,33.0,,17.0,,"Cahuilla Reservation, CA",0435
407.0,,138.0,,172.0,,83.0,,172.0,,83.0,,107.0,,47.0,,65.0,,55.0,,0.0,,12.0,,235.0,,82.0,,"Campbell Ranch, NV",0440
326.0,,137.0,,173.0,,78.0,,173.0,,78.0,,130.0,,53.0,,43.0,,35.0,,0.0,,12.0,,153.0,,77.0,,"Campo Indian Reservation, CA",0450
0.0,,12.0,,0.0,,12.0,,0.0,,12.0,,0.0,,12.0,,0.0,,12.0,,0.0,,12.0,,0.0,,12.0,,"Capitan Grande Reservation, CA",0495
266.0,,74.0,,157.0,,54.0,,157.0,,54.0,,94.0,,40.0,,63.0,,40.0,,0.0,,12.0,,109.0,,37.0,,"Carson Colony, NV",0510
749.0,,151.0,,512.0,,117.0,,512.0,,117.0,,444.0,,108.0,,68.0,,28.0,,0.0,,12.0,,237.0,,67.0,,"Catawba Reservation, SC",0525
1563.0,,151.0,,803.0,,140.0,,803.0,,140.0,,622.0,,112.0,,181.0,,64.0,,0.0,,11.0,,760.0,,92.0,,"Cattaraugus Reservation, NY",0540
9.0,,8.0,,3.0,,4.0,,3.0,,4.0,,3.0,,4.0,,0.0,,12.0,,0.0,,12.0,,6.0,,8.0,,"Cedarville Rancheria and Off-Reservation Trust Land, CA",0555
45.0,,24.0,,2.0,,5.0,,2.0,,5.0,,2.0,,5.0,,0.0,,12.0,,0.0,,12.0,,43.0,,23.0,,"Celilo Village, OR",0560
546.0,,87.0,,307.0,,59.0,,307.0,,59.0,,249.0,,52.0,,58.0,,25.0,,0.0,,12.0,,239.0,,50.0,,"Chehalis Reservation and Off-Reservation Trust Land, WA",0575
211.0,,40.0,,140.0,,31.0,,140.0,,31.0,,117.0,,31.0,,23.0,,12.0,,0.0,,12.0,,71.0,,20.0,,"Chemehuevi Reservation, CA",0585
5711.0,,43.0,,3819.0,,112.0,,3819.0,,112.0,,2841.0,,116.0,,978.0,,99.0,,0.0,,13.0,,1892.0,,110.0,,"Cheyenne River Reservation and Off-Reservation Trust Land, SD",0605
0.0,,12.0,,0.0,,12.0,,0.0,,12.0,,0.0,,12.0,,0.0,,12.0,,0.0,,12.0,,0.0,,12.0,,"Chicken Ranch Rancheria and Off-Reservation Trust Land, CA",0620
446.0,,88.0,,278.0,,75.0,,278.0,,75.0,,255.0,,72.0,,23.0,,15.0,,0.0,,12.0,,168.0,,32.0,,"Chitimacha Reservation, LA",0635
1381.0,,122.0,,735.0,,89.0,,735.0,,89.0,,640.0,,78.0,,95.0,,27.0,,0.0,,11.0,,646.0,,76.0,,"Pueblo de Cochiti, NM",0680
0.0,,13.0,,0.0,,13.0,,0.0,,13.0,,0.0,,13.0,,0.0,,13.0,,0.0,,13.0,,0.0,,13.0,,"Coconut Creek Trust Land, FL",0690
886.0,,200.0,,300.0,,106.0,,300.0,,106.0,,226.0,,83.0,,74.0,,42.0,,0.0,,12.0,,586.0,,116.0,,"Cocopah Reservation, AZ",0695
5846.0,,306.0,,3187.0,,213.0,,3187.0,,213.0,,2813.0,,182.0,,374.0,,68.0,,0.0,,16.0,,2659.0,,187.0,,"Coeur d'Alene Reservation, ID",0705
156.0,,70.0,,75.0,,37.0,,75.0,,37.0,,58.0,,30.0,,17.0,,17.0,,0.0,,12.0,,81.0,,39.0,,"Cold Springs Rancheria, CA",0720
7491.0,,350.0,,4298.0,,281.0,,4298.0,,281.0,,3745.0,,279.0,,553.0,,129.0,,0.0,,16.0,,3193.0,,260.0,,"Colorado River Indian Reservation, AZ--CA",0735
86.0,,50.0,,28.0,,24.0,,22.0,,18.0,,22.0,,18.0,,0.0,,12.0,,6.0,,9.0,,58.0,,32.0,,"Colusa Rancheria, CA",0750
5638.0,,297.0,,3088.0,,214.0,,3088.0,,214.0,,2504.0,,203.0,,584.0,,114.0,,0.0,,17.0,,2550.0,,234.0,,"Colville Reservation and Off-Reservation Trust Land, WA",0760
45.0,,32.0,,20.0,,24.0,,20.0,,24.0,,18.0,,23.0,,2.0,,5.0,,0.0,,12.0,,25.0,,14.0,,"Coos, Lower Umpqua, and Siuslaw Reservation and Off-Reservation Trust Land, OR",0770
342.0,,81.0,,161.0,,61.0,,161.0,,61.0,,142.0,,60.0,,19.0,,13.0,,0.0,,12.0,,181.0,,41.0,,"Coquille Reservation, OR",0775
32.0,,17.0,,5.0,,7.0,,5.0,,7.0,,3.0,,6.0,,2.0,,3.0,,0.0,,12.0,,27.0,,17.0,,"Cortina Indian Rancheria, CA",0780
70.0,,38.0,,32.0,,18.0,,32.0,,18.0,,26.0,,19.0,,6.0,,8.0,,0.0,,12.0,,38.0,,24.0,,"Coushatta Reservation and Off-Reservation Trust Land, LA",0795
127.0,,45.0,,61.0,,26.0,,61.0,,26.0,,51.0,,18.0,,10.0,,14.0,,0.0,,12.0,,66.0,,25.0,,"Cow Creek Reservation and Off-Reservation Trust Land, OR",0815
121.0,,55.0,,71.0,,37.0,,71.0,,37.0,,48.0,,32.0,,23.0,,18.0,,0.0,,12.0,,50.0,,33.0,,"Coyote Valley Reservation, CA",0825
5010.0,,195.0,,3368.0,,188.0,,3368.0,,188.0,,2561.0,,182.0,,807.0,,126.0,,0.0,,14.0,,1642.0,,140.0,,"Crow Reservation and Off-Reservation Trust Land, MT",0845
1406.0,,116.0,,800.0,,84.0,,800.0,,84.0,,643.0,,67.0,,157.0,,46.0,,0.0,,9.0,,606.0,,88.0,,"Crow Creek Reservation, SD",0855
300.0,,68.0,,146.0,,43.0,,146.0,,43.0,,109.0,,35.0,,37.0,,18.0,,0.0,,12.0,,154.0,,43.0,,"Dresslerville Colony, NV",0940
0.0,,12.0,,0.0,,12.0,,0.0,,12.0,,0.0,,12.0,,0.0,,12.0,,0.0,,12.0,,0.0,,12.0,,"Dry Creek Rancheria and Off-Reservation Trust Land, CA",0955
1268.0,,141.0,,741.0,,106.0,,741.0,,106.0,,573.0,,88.0,,168.0,,53.0,,0.0,,11.0,,527.0,,92.0,,"Duck Valley Reservation, NV--ID",0965
185.0,,69.0,,132.0,,54.0,,132.0,,54.0,,116.0,,47.0,,16.0,,12.0,,0.0,,12.0,,53.0,,27.0,,"Duckwater Reservation, NV",0975
7191.0,,375.0,,3805.0,,333.0,,3805.0,,333.0,,3608.0,,322.0,,197.0,,90.0,,0.0,,17.0,,3386.0,,325.0,,"Eastern Cherokee Reservation, NC",0990
723.0,,125.0,,445.0,,90.0,,445.0,,90.0,,373.0,,76.0,,72.0,,29.0,,0.0,,12.0,,278.0,,63.0,,"Elko Colony, NV",1005
91.0,,48.0,,48.0,,25.0,,48.0,,25.0,,45.0,,24.0,,3.0,,4.0,,0.0,,12.0,,43.0,,33.0,,"Elk Valley Rancheria and Off-Reservation Trust Land, CA",1010
138.0,,54.0,,75.0,,38.0,,75.0,,38.0,,64.0,,33.0,,11.0,,15.0,,0.0,,12.0,,63.0,,37.0,,"Ely Reservation, NV",1040
1.0,,2.0,,1.0,,2.0,,1.0,,2.0,,1.0,,2.0,,0.0,,12.0,,0.0,,12.0,,0.0,,12.0,,"Enterprise Rancheria, CA",1055
0.0,,12.0,,0.0,,12.0,,0.0,,12.0,,0.0,,12.0,,0.0,,12.0,,0.0,,12.0,,0.0,,12.0,,"Ewiiaapaayp Reservation, CA",1065
92.0,,61.0,,46.0,,34.0,,43.0,,31.0,,26.0,,23.0,,17.0,,15.0,,3.0,,6.0,,46.0,,33.0,,"Fallon Paiute-Shoshone Colony and Off-Reservation Trust Land, NV",1070
632.0,,100.0,,322.0,,70.0,,321.0,,70.0,,236.0,,57.0,,85.0,,28.0,,1.0,,3.0,,310.0,,48.0,,"Fallon Paiute-Shoshone Reservation and Off-Reservation Trust Land, NV",1075
281.0,,71.0,,171.0,,58.0,,171.0,,58.0,,144.0,,47.0,,27.0,,17.0,,0.0,,9.0,,110.0,,31.0,,"Flandreau Reservation, SD",1100
22373.0,,250.0,,12834.0,,329.0,,12830.0,,329.0,,11514.0,,341.0,,1316.0,,194.0,,4.0,,6.0,,9539.0,,365.0,,"Flathead Reservation, MT",1110
3276.0,,178.0,,1905.0,,123.0,,1905.0,,123.0,,1740.0,,119.0,,165.0,,35.0,,0.0,,11.0,,1371.0,,113.0,,"Fond du Lac Reservation and Off-Reservation Trust Land, MN--WI",1125
479.0,,75.0,,201.0,,40.0,,201.0,,40.0,,163.0,,34.0,,38.0,,20.0,,0.0,,9.0,,278.0,,59.0,,"Forest County Potawatomi Community and Off-Reservation Trust Land, WI",1135
10738.0,,489.0,,6264.0,,456.0,,6264.0,,456.0,,3670.0,,353.0,,2594.0,,311.0,,0.0,,19.0,,4474.0,,360.0,,"Fort Apache Reservation, AZ",1140
2017.0,,116.0,,1192.0,,103.0,,1192.0,,103.0,,876.0,,94.0,,316.0,,79.0,,0.0,,10.0,,825.0,,99.0,,"Fort Belknap Reservation and Off-Reservation Trust Land, MT",1150
5373.0,,166.0,,3414.0,,156.0,,3392.0,,155.0,,3167.0,,158.0,,225.0,,49.0,,22.0,,13.0,,1959.0,,119.0,,"Fort Berthold Reservation, ND",1160
111.0,,58.0,,59.0,,31.0,,59.0,,31.0,,41.0,,26.0,,18.0,,16.0,,0.0,,12.0,,52.0,,43.0,,"Fort Bidwell Reservation and Off-Reservation Trust Land, CA",1170
4440.0,,291.0,,2581.0,,236.0,,2576.0,,235.0,,2048.0,,216.0,,528.0,,106.0,,5.0,,8.0,,1859.0,,199.0,,"Fort Hall Reservation and Off-Reservation Trust Land, ID",1185
74.0,,28.0,,36.0,,19.0,,36.0,,19.0,,35.0,,18.0,,1.0,,3.0,,0.0,,12.0,,38.0,,17.0,,"Fort Independence Reservation, CA",1195
361.0,,75.0,,211.0,,59.0,,211.0,,59.0,,104.0,,39.0,,107.0,,45.0,,0.0,,11.0,,150.0,,39.0,,"Fort McDermitt Indian Reservation, NV--OR",1210
702.0,,59.0,,315.0,,42.0,,315.0,,42.0,,283.0,,40.0,,32.0,,15.0,,0.0,,12.0,,387.0,,52.0,,"Fort McDowell Yavapai Nation Reservation, AZ",1220
1356.0,,173.0,,592.0,,105.0,,592.0,,105.0,,490.0,,90.0,,102.0,,32.0,,0.0,,11.0,,764.0,,111.0,,"Fort Mojave Reservation and Off-Reservation Trust Land, AZ--CA--NV",1235
7286.0,,165.0,,3490.0,,193.0,,3490.0,,193.0,,3208.0,,234.0,,282.0,,143.0,,0.0,,16.0,,3796.0,,204.0,,"Fort Peck Indian Reservation and Off-Reservation Trust Land, MT",1250
48.0,,25.0,,25.0,,15.0,,25.0,,15.0,,16.0,,14.0,,9.0,,8.0,,0.0,,13.0,,23.0,,19.0,,"Fort Pierce Reservation, FL",1260
0.0,,11.0,,0.0,,11.0,,0.0,,11.0,,0.0,,11.0,,0.0,,11.0,,0.0,,11.0,,0.0,,11.0,,"Fort Sill Apache Indian Reservation, NM",1270
1301.0,,179.0,,675.0,,124.0,,675.0,,124.0,,509.0,,115.0,,166.0,,52.0,,0.0,,11.0,,626.0,,104.0,,"Fort Yuma Indian Reservation, CA--AZ",1280
10050.0,,846.0,,4769.0,,603.0,,4769.0,,603.0,,3216.0,,390.0,,1553.0,,418.0,,0.0,,19.0,,5281.0,,517.0,,"Gila River Indian Reservation, AZ",1310
88.0,,37.0,,71.0,,30.0,,71.0,,30.0,,48.0,,19.0,,23.0,,17.0,,0.0,,11.0,,17.0,,12.0,,"Goshute Reservation, NV--UT",1340
424.0,,118.0,,316.0,,140.0,,316.0,,140.0,,290.0,,115.0,,26.0,,34.0,,0.0,,9.0,,108.0,,35.0,,"Grand Portage Reservation and Off-Reservation Trust Land, MN",1355
341.0,,68.0,,189.0,,49.0,,189.0,,49.0,,160.0,,46.0,,29.0,,13.0,,0.0,,12.0,,152.0,,45.0,,"Grand Ronde Community and Off-Reservation Trust Land, OR",1365
535.0,,91.0,,321.0,,73.0,,321.0,,73.0,,259.0,,55.0,,62.0,,34.0,,0.0,,10.0,,214.0,,45.0,,"Grand Traverse Reservation and Off-Reservation Trust Land, MI",1370
23.0,,12.0,,11.0,,10.0,,11.0,,10.0,,7.0,,7.0,,4.0,,7.0,,0.0,,12.0,,12.0,,8.0,,"Greenville Rancheria, CA",1380
119.0,,48.0,,66.0,,31.0,,66.0,,31.0,,34.0,,22.0,,32.0,,19.0,,0.0,,12.0,,53.0,,26.0,,"Grindstone Indian Rancheria, CA",1395
24.0,,20.0,,13.0,,14.0,,13.0,,14.0,,4.0,,7.0,,9.0,,10.0,,0.0,,12.0,,11.0,,10.0,,"Guidiville Rancheria and Off-Reservation Trust Land, CA",1400
417.0,,78.0,,231.0,,47.0,,230.0,,45.0,,177.0,,37.0,,53.0,,20.0,,1.0,,3.0,,186.0,,45.0,,"Hannahville Indian Community and Off-Reservation Trust Land, MI",1410
59.0,,42.0,,40.0,,32.0,,40.0,,32.0,,25.0,,21.0,,15.0,,19.0,,0.0,,12.0,,19.0,,14.0,,"Havasupai Reservation, AZ",1440
1414.0,,181.0,,642.0,,104.0,,642.0,,104.0,,566.0,,96.0,,76.0,,32.0,,0.0,,11.0,,772.0,,122.0,,"Ho-Chunk Nation Reservation and Off-Reservation Trust Land, WI--MN",1450
139.0,,50.0,,62.0,,30.0,,62.0,,30.0,,47.0,,24.0,,15.0,,15.0,,0.0,,12.0,,77.0,,33.0,,"Hoh Indian Reservation and Off-Reservation Trust Land, WA",1460
915.0,,178.0,,375.0,,91.0,,375.0,,91.0,,328.0,,87.0,,47.0,,27.0,,0.0,,13.0,,540.0,,119.0,,"Hollywood Reservation, FL",1475
2225.0,,250.0,,1270.0,,190.0,,1270.0,,190.0,,1030.0,,169.0,,240.0,,82.0,,0.0,,12.0,,955.0,,148.0,,"Hoopa Valley Reservation, CA",1490
5947.0,,418.0,,2876.0,,282.0,,2876.0,,282.0,,2507.0,,256.0,,369.0,,119.0,,0.0,,17.0,,3071.0,,319.0,,"Hopi Reservation and Off-Reservation Trust Land, AZ",1505
238.0,,120.0,,170.0,,103.0,,170.0,,103.0,,102.0,,68.0,,68.0,,67.0,,0.0,,12.0,,68.0,,26.0,,"Hopland Rancheria, CA",1515
154.0,,41.0,,85.0,,36.0,,85.0,,36.0,,64.0,,29.0,,21.0,,17.0,,0.0,,9.0,,69.0,,24.0,,"Houlton Maliseet Reservation and Off-Reservation Trust Land, ME",1530
870.0,,111.0,,537.0,,80.0,,537.0,,80.0,,412.0,,65.0,,125.0,,37.0,,0.0,,12.0,,333.0,,73.0,,"Hualapai Indian Reservation and Off-Reservation Trust Land, AZ",1545
55.0,,22.0,,28.0,,15.0,,28.0,,15.0,,26.0,,14.0,,2.0,,3.0,,0.0,,10.0,,27.0,,14.0,,"Huron Potawatomi Reservation and Off-Reservation Trust Land, MI",1550
159.0,,83.0,,53.0,,38.0,,53.0,,38.0,,46.0,,37.0,,7.0,,7.0,,0.0,,13.0,,106.0,,54.0,,"Immokalee Reservation, FL",1555
0.0,,12.0,,0.0,,12.0,,0.0,,12.0,,0.0,,12.0,,0.0,,12.0,,0.0,,12.0,,0.0,,12.0,,"Inaja and Cosmit Reservation, CA",1560
583.0,,70.0,,296.0,,57.0,,296.0,,57.0,,178.0,,46.0,,118.0,,30.0,,0.0,,9.0,,287.0,,46.0,,"Indian Township Reservation, ME",1575
148.0,,26.0,,115.0,,27.0,,115.0,,27.0,,106.0,,26.0,,9.0,,8.0,,0.0,,11.0,,33.0,,14.0,,"Iowa (KS-NE) Reservation and Off-Reservation Trust Land, KS--NE",1590
21691.0,,498.0,,13889.0,,371.0,,13885.0,,371.0,,12479.0,,375.0,,1406.0,,181.0,,4.0,,5.0,,7802.0,,352.0,,"Isabella Reservation and Off-Reservation Trust Land, MI",1610
2991.0,,241.0,,1711.0,,176.0,,1711.0,,176.0,,1476.0,,154.0,,235.0,,79.0,,0.0,,11.0,,1280.0,,170.0,,"Isleta Pueblo, NM",1625
0.0,,12.0,,0.0,,12.0,,0.0,,12.0,,0.0,,12.0,,0.0,,12.0,,0.0,,12.0,,0.0,,12.0,,"Jackson Rancheria, CA",1640
30.0,,44.0,,30.0,,44.0,,30.0,,44.0,,27.0,,38.0,,3.0,,7.0,,0.0,,12.0,,0.0,,12.0,,"Jamestown S'Klallam Reservation and Off-Reservation Trust Land, WA",1655
0.0,,12.0,,0.0,,12.0,,0.0,,12.0,,0.0,,12.0,,0.0,,12.0,,0.0,,12.0,,0.0,,12.0,,"Jamul Indian Village, CA",1670
1488.0,,143.0,,817.0,,111.0,,817.0,,111.0,,698.0,,106.0,,119.0,,31.0,,0.0,,11.0,,671.0,,83.0,,"Jemez Pueblo, NM",1685
0.0,,12.0,,0.0,,12.0,,0.0,,12.0,,0.0,,12.0,,0.0,,12.0,,0.0,,12.0,,0.0,,12.0,,"Jena Band of Choctaw Reservation, LA",1690
1987.0,,199.0,,1329.0,,165.0,,1329.0,,165.0,,1171.0,,166.0,,158.0,,51.0,,0.0,,11.0,,658.0,,113.0,,"Jicarilla Apache Nation Reservation and Off-Reservation Trust Land, NM",1700
155.0,,52.0,,97.0,,41.0,,97.0,,41.0,,88.0,,40.0,,9.0,,8.0,,0.0,,12.0,,58.0,,26.0,,"Kaibab Indian Reservation, AZ",1720
225.0,,67.0,,121.0,,44.0,,121.0,,44.0,,118.0,,43.0,,3.0,,6.0,,0.0,,12.0,,104.0,,35.0,,"Kalispel Reservation and Off-Reservation Trust Land, WA",1735
335.0,,79.0,,176.0,,51.0,,176.0,,51.0,,120.0,,38.0,,56.0,,25.0,,0.0,,12.0,,159.0,,46.0,,"Karuk Reservation and Off-Reservation Trust Land, CA",1750
3289.0,,130.0,,1944.0,,97.0,,1942.0,,97.0,,1848.0,,97.0,,94.0,,29.0,,2.0,,3.0,,1345.0,,85.0,,"Kickapoo (KS) Reservation, KS",1770
200.0,,114.0,,157.0,,92.0,,157.0,,92.0,,133.0,,75.0,,24.0,,27.0,,0.0,,13.0,,43.0,,34.0,,"Kickapoo (TX) Reservation, TX",1775
21.0,,11.0,,5.0,,6.0,,5.0,,6.0,,3.0,,4.0,,2.0,,3.0,,0.0,,12.0,,16.0,,9.0,,"Klamath Reservation, OR",1785
40.0,,28.0,,19.0,,16.0,,19.0,,16.0,,19.0,,16.0,,0.0,,11.0,,0.0,,11.0,,21.0,,18.0,,"Kootenai Reservation and Off-Reservation Trust Land, ID",1800
2239.0,,106.0,,1317.0,,99.0,,1317.0,,99.0,,986.0,,86.0,,331.0,,58.0,,0.0,,9.0,,922.0,,87.0,,"Lac Courte Oreilles Reservation and Off-Reservation Trust Land, WI",1815
2810.0,,157.0,,1457.0,,104.0,,1457.0,,104.0,,1211.0,,99.0,,246.0,,81.0,,0.0,,9.0,,1353.0,,137.0,,"Lac du Flambeau Reservation, WI",1825
90.0,,33.0,,56.0,,31.0,,56.0,,31.0,,55.0,,31.0,,1.0,,3.0,,0.0,,10.0,,34.0,,16.0,,"Lac Vieux Desert Reservation, MI",1830
3208.0,,251.0,,1816.0,,225.0,,1816.0,,225.0,,1264.0,,191.0,,552.0,,122.0,,0.0,,11.0,,1392.0,,164.0,,"Laguna Pueblo and Off-Reservation Trust Land, NM",1840
346.0,,80.0,,200.0,,50.0,,199.0,,50.0,,139.0,,38.0,,60.0,,26.0,,1.0,,4.0,,146.0,,50.0,,"La Jolla Reservation, CA",1850
8370.0,,177.0,,5235.0,,217.0,,5235.0,,217.0,,4859.0,,212.0,,376.0,,79.0,,0.0,,18.0,,3135.0,,212.0,,"Lake Traverse Reservation and Off-Reservation Trust Land, SD--ND",1860
2353.0,,298.0,,1194.0,,183.0,,1194.0,,183.0,,1078.0,,163.0,,116.0,,48.0,,0.0,,10.0,,1159.0,,151.0,,"L'Anse Reservation and Off-Reservation Trust Land, MI",1880
30.0,,26.0,,18.0,,20.0,,18.0,,20.0,,16.0,,20.0,,2.0,,3.0,,0.0,,12.0,,12.0,,12.0,,"La Posta Indian Reservation, CA",1895
122.0,,60.0,,43.0,,41.0,,43.0,,41.0,,25.0,,31.0,,18.0,,14.0,,0.0,,12.0,,79.0,,44.0,,"Las Vegas Indian Colony, NV",1915
244.0,,77.0,,127.0,,46.0,,127.0,,46.0,,79.0,,38.0,,48.0,,23.0,,0.0,,12.0,,117.0,,48.0,,"Laytonville Rancheria, CA",1925
8155.0,,201.0,,4624.0,,175.0,,4624.0,,175.0,,3948.0,,161.0,,676.0,,80.0,,0.0,,14.0,,3531.0,,146.0,,"Leech Lake Reservation and Off-Reservation Trust Land, MN",1940
0.0,,12.0,,0.0,,12.0,,0.0,,12.0,,0.0,,12.0,,0.0,,12.0,,0.0,,12.0,,0.0,,12.0,,"Likely Rancheria, CA",1955
74.0,,31.0,,40.0,,19.0,,40.0,,19.0,,29.0,,16.0,,11.0,,11.0,,0.0,,10.0,,34.0,,20.0,,"Little River Reservation and Off-Reservation Trust Land, MI",1960
47.0,,29.0,,31.0,,25.0,,31.0,,25.0,,30.0,,25.0,,1.0,,2.0,,0.0,,10.0,,16.0,,9.0,,"Little Traverse Bay Reservation and Off-Reservation Trust Land, MI",1963
175.0,,52.0,,91.0,,27.0,,91.0,,27.0,,68.0,,22.0,,23.0,,14.0,,0.0,,12.0,,84.0,,35.0,,"Lone Pine Reservation, CA",1970
8.0,,14.0,,3.0,,4.0,,3.0,,4.0,,3.0,,4.0,,0.0,,12.0,,0.0,,12.0,,5.0,,11.0,,"Lookout Rancheria, CA",1980
58.0,,28.0,,38.0,,21.0,,38.0,,21.0,,29.0,,20.0,,9.0,,8.0,,0.0,,12.0,,20.0,,16.0,,"Los Coyotes Reservation, CA",1995
59.0,,38.0,,36.0,,27.0,,34.0,,25.0,,16.0,,16.0,,18.0,,18.0,,2.0,,4.0,,23.0,,16.0,,"Lovelock Indian Colony, NV",2015
1018.0,,53.0,,596.0,,49.0,,596.0,,49.0,,492.0,,47.0,,104.0,,33.0,,0.0,,9.0,,422.0,,50.0,,"Lower Brule Reservation and Off-Reservation Trust Land, SD",2030
628.0,,137.0,,328.0,,82.0,,328.0,,82.0,,206.0,,52.0,,122.0,,63.0,,0.0,,12.0,,300.0,,74.0,,"Lower Elwha Reservation and Off-Reservation Trust Land, WA",2040
287.0,,49.0,,133.0,,31.0,,133.0,,31.0,,116.0,,27.0,,17.0,,10.0,,0.0,,9.0,,154.0,,33.0,,"Lower Sioux Indian Community, MN",2055
4066.0,,290.0,,2281.0,,203.0,,2281.0,,203.0,,2009.0,,190.0,,272.0,,72.0,,0.0,,17.0,,1785.0,,201.0,,"Lummi Reservation, WA",2070
0.0,,12.0,,0.0,,12.0,,0.0,,12.0,,0.0,,12.0,,0.0,,12.0,,0.0,,12.0,,0.0,,12.0,,"Lytton Rancheria, CA",2075
1065.0,,121.0,,636.0,,88.0,,636.0,,88.0,,530.0,,73.0,,106.0,,43.0,,0.0,,12.0,,429.0,,71.0,,"Makah Indian Reservation, WA",2085
267.0,,80.0,,176.0,,61.0,,176.0,,61.0,,138.0,,54.0,,38.0,,19.0,,0.0,,12.0,,91.0,,43.0,,"Manchester-Point Arena Rancheria, CA",2100
41.0,,22.0,,29.0,,18.0,,29.0,,18.0,,27.0,,16.0,,2.0,,4.0,,0.0,,12.0,,12.0,,8.0,,"Manzanita Reservation and Off-Reservation Trust Land, CA",2115
944.0,,220.0,,483.0,,127.0,,483.0,,127.0,,355.0,,94.0,,128.0,,57.0,,0.0,,12.0,,461.0,,141.0,,"Maricopa (Ak Chin) Indian Reservation and Off-Reservation Trust Land, AZ",2130
127.0,,47.0,,88.0,,34.0,,88.0,,34.0,,75.0,,31.0,,13.0,,9.0,,0.0,,12.0,,39.0,,21.0,,"Mashantucket Pequot Reservation and Off-Reservation Trust Land, CT",2145
0.0,,10.0,,0.0,,10.0,,0.0,,10.0,,0.0,,10.0,,0.0,,10.0,,0.0,,10.0,,0.0,,10.0,,"Match-e-be-nash-she-wish Band of Pottawatomi Reservation, MI",2150
2579.0,,146.0,,1464.0,,135.0,,1464.0,,135.0,,1252.0,,131.0,,212.0,,78.0,,0.0,,9.0,,1115.0,,125.0,,"Menominee Reservation and Off-Reservation Trust Land, WI",2175
109.0,,31.0,,69.0,,27.0,,69.0,,27.0,,52.0,,28.0,,17.0,,13.0,,0.0,,12.0,,40.0,,25.0,,"Mesa Grande Reservation, CA",2190
2398.0,,201.0,,1529.0,,166.0,,1522.0,,166.0,,1105.0,,142.0,,417.0,,81.0,,7.0,,10.0,,869.0,,155.0,,"Mescalero Reservation, NM",2205
8.0,,15.0,,0.0,,13.0,,0.0,,13.0,,0.0,,13.0,,0.0,,13.0,,0.0,,13.0,,8.0,,15.0,,"Miccosukee Reservation and Off-Reservation Trust Land, FL",2240
6.0,,7.0,,4.0,,6.0,,4.0,,6.0,,2.0,,4.0,,2.0,,3.0,,0.0,,12.0,,2.0,,4.0,,"Middletown Rancheria, CA",2255
3574.0,,176.0,,1873.0,,118.0,,1873.0,,118.0,,1575.0,,103.0,,298.0,,57.0,,0.0,,9.0,,1701.0,,135.0,,"Mille Lacs Reservation and Off-Reservation Trust Land, MN",2270
46.0,,15.0,,34.0,,14.0,,34.0,,14.0,,27.0,,11.0,,7.0,,5.0,,0.0,,9.0,,12.0,,11.0,,"Minnesota Chippewa Trust Land, MN",2285
4870.0,,271.0,,3434.0,,286.0,,3434.0,,286.0,,2983.0,,280.0,,451.0,,114.0,,0.0,,17.0,,1436.0,,228.0,,"Mississippi Choctaw Reservation and Off-Reservation Trust Land, MS",2300
164.0,,44.0,,94.0,,28.0,,94.0,,28.0,,71.0,,23.0,,23.0,,16.0,,0.0,,12.0,,70.0,,28.0,,"Moapa River Indian Reservation, NV",2315
76.0,,48.0,,60.0,,46.0,,60.0,,46.0,,14.0,,15.0,,46.0,,46.0,,0.0,,12.0,,16.0,,14.0,,"Mohegan Reservation and Off-Reservation Trust Land, CT",2320
0.0,,12.0,,0.0,,12.0,,0.0,,12.0,,0.0,,12.0,,0.0,,12.0,,0.0,,12.0,,0.0,,12.0,,"Montgomery Creek Rancheria, CA",2330
144.0,,36.0,,70.0,,27.0,,70.0,,27.0,,60.0,,25.0,,10.0,,8.0,,0.0,,12.0,,74.0,,29.0,,"Mooretown Rancheria and Off-Reservation Trust Land, CA",2340
497.0,,117.0,,111.0,,37.0,,111.0,,37.0,,81.0,,33.0,,30.0,,19.0,,0.0,,12.0,,386.0,,109.0,,"Morongo Reservation and Off-Reservation Trust Land, CA",2360
3219.0,,313.0,,1750.0,,206.0,,1750.0,,206.0,,1500.0,,179.0,,250.0,,51.0,,0.0,,12.0,,1469.0,,167.0,,"Muckleshoot Reservation and Off-Reservation Trust Land, WA",2375
1353.0,,102.0,,741.0,,67.0,,741.0,,67.0,,631.0,,58.0,,110.0,,23.0,,0.0,,11.0,,612.0,,55.0,,"Nambe Pueblo and Off-Reservation Trust Land, NM",2400
13.0,,23.0,,9.0,,16.0,,9.0,,16.0,,9.0,,16.0,,0.0,,12.0,,0.0,,12.0,,4.0,,8.0,,"Narragansett Reservation, RI",2415
126882.0,,1797.0,,56524.0,,1157.0,,56498.0,,1159.0,,44373.0,,939.0,,12125.0,,519.0,,26.0,,20.0,,70358.0,,1150.0,,"Navajo Nation Reservation and Off-Reservation Trust Land, AZ--NM--UT",2430
15332.0,,344.0,,7430.0,,325.0,,7425.0,,325.0,,6727.0,,321.0,,698.0,,123.0,,5.0,,8.0,,7902.0,,411.0,,"Nez Perce Reservation, ID",2445
471.0,,105.0,,263.0,,71.0,,262.0,,71.0,,217.0,,58.0,,45.0,,25.0,,1.0,,3.0,,208.0,,55.0,,"Nisqually Reservation, WA",2460
869.0,,190.0,,478.0,,106.0,,478.0,,106.0,,378.0,,91.0,,100.0,,40.0,,0.0,,12.0,,391.0,,105.0,,"Nooksack Reservation and Off-Reservation Trust Land, WA",2475
3169.0,,144.0,,1886.0,,150.0,,1886.0,,150.0,,1349.0,,106.0,,537.0,,104.0,,0.0,,11.0,,1283.0,,112.0,,"Northern Cheyenne Indian Reservation and Off-Reservation Trust Land, MT--SD",2490
67.0,,32.0,,16.0,,15.0,,16.0,,15.0,,16.0,,15.0,,0.0,,12.0,,0.0,,12.0,,51.0,,25.0,,"North Fork Rancheria and Off-Reservation Trust Land, CA",2495
0.0,,11.0,,0.0,,11.0,,0.0,,11.0,,0.0,,11.0,,0.0,,11.0,,0.0,,11.0,,0.0,,11.0,,"Northwestern Shoshone Reservation, UT",2505
5609.0,,448.0,,2920.0,,293.0,,2914.0,,291.0,,2449.0,,241.0,,465.0,,104.0,,6.0,,13.0,,2689.0,,257.0,,"Ohkay Owingeh, NM",2510
20.0,,21.0,,20.0,,21.0,,20.0,,21.0,,6.0,,8.0,,14.0,,15.0,,0.0,,11.0,,0.0,,11.0,,"Oil Springs Reservation, NY",2535
3294.0,,110.0,,1955.0,,111.0,,1952.0,,111.0,,1709.0,,104.0,,243.0,,39.0,,3.0,,4.0,,1339.0,,95.0,,"Omaha Reservation, NE--IA",2550
0.0,,11.0,,0.0,,11.0,,0.0,,11.0,,0.0,,11.0,,0.0,,11.0,,0.0,,11.0,,0.0,,11.0,,"Oneida Nation Reservation, NY",2555
18312.0,,439.0,,12599.0,,467.0,,12599.0,,467.0,,11997.0,,465.0,,602.0,,172.0,,0.0,,16.0,,5713.0,,400.0,,"Oneida (WI) Reservation and Off-Reservation Trust Land, WI",2560
161.0,,147.0,,68.0,,64.0,,68.0,,64.0,,68.0,,64.0,,0.0,,11.0,,0.0,,11.0,,93.0,,86.0,,"Onondaga Nation Reservation, NY",2570
0.0,,10.0,,0.0,,10.0,,0.0,,10.0,,0.0,,10.0,,0.0,,10.0,,0.0,,10.0,,0.0,,10.0,,"Ontonagon Reservation, MI",2580
38252.0,,104.0,,20785.0,,479.0,,20742.0,,484.0,,19274.0,,481.0,,1468.0,,214.0,,43.0,,47.0,,17467.0,,475.0,,"Osage Reservation, OK",2595
202.0,,71.0,,116.0,,46.0,,116.0,,46.0,,93.0,,41.0,,23.0,,13.0,,0.0,,11.0,,86.0,,43.0,,"Paiute (UT) Reservation, UT",2625
758.0,,146.0,,294.0,,72.0,,294.0,,72.0,,246.0,,60.0,,48.0,,24.0,,0.0,,12.0,,464.0,,100.0,,"Pala Reservation, CA",2635
2565.0,,152.0,,1437.0,,104.0,,1437.0,,104.0,,1098.0,,98.0,,339.0,,56.0,,0.0,,12.0,,1128.0,,122.0,,"Pascua Pueblo Yaqui Reservation and Off-Reservation Trust Land, AZ",2680
0.0,,12.0,,0.0,,12.0,,0.0,,12.0,,0.0,,12.0,,0.0,,12.0,,0.0,,12.0,,0.0,,12.0,,"Paskenta Rancheria, CA",2685
313.0,,685.0,,116.0,,249.0,,116.0,,249.0,,100.0,,218.0,,16.0,,32.0,,0.0,,9.0,,197.0,,435.0,,"Passamaquoddy Trust Land, ME",2695
137.0,,43.0,,67.0,,25.0,,67.0,,25.0,,55.0,,23.0,,12.0,,9.0,,0.0,,12.0,,70.0,,30.0,,"Pauma and Yuima Reservation, CA",2715
175.0,,72.0,,75.0,,40.0,,75.0,,40.0,,63.0,,34.0,,12.0,,10.0,,0.0,,12.0,,100.0,,39.0,,"Pechanga Reservation, CA",2745
632.0,,93.0,,388.0,,76.0,,388.0,,76.0,,357.0,,68.0,,31.0,,16.0,,0.0,,9.0,,244.0,,54.0,,"Penobscot Reservation and Off-Reservation Trust Land, ME",2760
51.0,,31.0,,19.0,,19.0,,19.0,,19.0,,16.0,,14.0,,3.0,,6.0,,0.0,,12.0,,32.0,,28.0,,"Picayune Rancheria and Off-Reservation Trust Land, CA",2775
1561.0,,158.0,,740.0,,105.0,,740.0,,105.0,,639.0,,86.0,,101.0,,45.0,,0.0,,11.0,,821.0,,93.0,,"Picuris Pueblo, NM",2785
13345.0,,105.0,,6658.0,,278.0,,6658.0,,278.0,,4955.0,,270.0,,1703.0,,230.0,,0.0,,18.0,,6687.0,,275.0,,"Pine Ridge Reservation, SD--NE",2810
172.0,,122.0,,82.0,,61.0,,82.0,,61.0,,69.0,,49.0,,13.0,,15.0,,0.0,,12.0,,90.0,,67.0,,"Pinoleville Rancheria, CA",2820
0.0,,12.0,,0.0,,12.0,,0.0,,12.0,,0.0,,12.0,,0.0,,12.0,,0.0,,12.0,,0.0,,12.0,,"Pit River Trust Land, CA",2835
536.0,,76.0,,288.0,,50.0,,288.0,,50.0,,201.0,,45.0,,87.0,,25.0,,0.0,,9.0,,248.0,,52.0,,"Pleasant Point Reservation, ME",2850
259.0,,89.0,,126.0,,56.0,,126.0,,56.0,,114.0,,53.0,,12.0,,10.0,,0.0,,11.0,,133.0,,50.0,,"Poarch Creek Reservation and Off-Reservation Trust Land, AL--FL",2865
66.0,,54.0,,36.0,,39.0,,36.0,,39.0,,32.0,,38.0,,4.0,,7.0,,0.0,,10.0,,30.0,,29.0,,"Pokagon Reservation and Off-Reservation Trust Land, MI",2890
9.0,,8.0,,2.0,,4.0,,2.0,,4.0,,2.0,,4.0,,0.0,,11.0,,0.0,,11.0,,7.0,,7.0,,"Ponca (NE) Trust Land, NE--IA",2900
385.0,,101.0,,223.0,,74.0,,221.0,,74.0,,190.0,,80.0,,31.0,,24.0,,2.0,,3.0,,162.0,,40.0,,"Port Gamble Reservation and Off-Reservation Trust Land, WA",2910
6300.0,,240.0,,4050.0,,174.0,,4009.0,,174.0,,3755.0,,161.0,,254.0,,47.0,,41.0,,14.0,,2250.0,,133.0,,"Port Madison Reservation, WA",2925
1253.0,,132.0,,809.0,,121.0,,809.0,,121.0,,764.0,,118.0,,45.0,,19.0,,0.0,,10.0,,444.0,,61.0,,"Prairie Band of Potawatomi Nation Reservation, KS",2980
138.0,,48.0,,55.0,,36.0,,55.0,,36.0,,50.0,,35.0,,5.0,,6.0,,0.0,,9.0,,83.0,,31.0,,"Prairie Island Indian Community and Off-Reservation Trust Land, MN",2985
2843.0,,136.0,,1897.0,,98.0,,1897.0,,98.0,,1718.0,,92.0,,179.0,,37.0,,0.0,,11.0,,946.0,,78.0,,"Pueblo of Pojoaque and Off-Reservation Trust Land, NM",2990
37349.0,,683.0,,24759.0,,572.0,,24593.0,,566.0,,22541.0,,560.0,,2052.0,,210.0,,166.0,,50.0,,12590.0,,468.0,,"Puyallup Reservation and Off-Reservation Trust Land, WA",3000
1122.0,,117.0,,638.0,,97.0,,638.0,,97.0,,504.0,,85.0,,134.0,,44.0,,0.0,,12.0,,484.0,,62.0,,"Pyramid Lake Paiute Reservation, NV",3010
128.0,,46.0,,81.0,,33.0,,81.0,,33.0,,77.0,,28.0,,4.0,,10.0,,0.0,,12.0,,47.0,,20.0,,"Quartz Valley Reservation and Off-Reservation Trust Land, CA",3020
273.0,,58.0,,171.0,,40.0,,169.0,,40.0,,135.0,,34.0,,34.0,,14.0,,2.0,,4.0,,102.0,,36.0,,"Quileute Reservation, WA",3030
945.0,,120.0,,500.0,,69.0,,500.0,,69.0,,361.0,,56.0,,139.0,,38.0,,0.0,,12.0,,445.0,,82.0,,"Quinault Reservation, WA",3040
0.0,,12.0,,0.0,,12.0,,0.0,,12.0,,0.0,,12.0,,0.0,,12.0,,0.0,,12.0,,0.0,,12.0,,"Ramona Village, CA",3070
852.0,,66.0,,562.0,,65.0,,562.0,,65.0,,488.0,,58.0,,74.0,,25.0,,0.0,,9.0,,290.0,,40.0,,"Red Cliff Reservation and Off-Reservation Trust Land, WI",3085
25.0,,35.0,,1.0,,3.0,,1.0,,3.0,,1.0,,3.0,,0.0,,12.0,,0.0,,12.0,,24.0,,34.0,,"Redding Rancheria, CA",3095
3830.0,,135.0,,2625.0,,192.0,,2625.0,,192.0,,1963.0,,179.0,,662.0,,138.0,,0.0,,12.0,,1205.0,,171.0,,"Red Lake Reservation, MN",3100
254.0,,89.0,,143.0,,64.0,,143.0,,64.0,,123.0,,53.0,,20.0,,25.0,,0.0,,12.0,,111.0,,42.0,,"Redwood Valley Rancheria, CA",3115
749.0,,112.0,,431.0,,81.0,,431.0,,81.0,,304.0,,62.0,,127.0,,48.0,,0.0,,12.0,,318.0,,63.0,,"Reno-Sparks Indian Colony, NV",3130
11.0,,11.0,,8.0,,9.0,,8.0,,9.0,,5.0,,7.0,,3.0,,6.0,,0.0,,12.0,,3.0,,6.0,,"Resighini Rancheria, CA",3145
789.0,,130.0,,390.0,,77.0,,390.0,,77.0,,312.0,,65.0,,78.0,,34.0,,0.0,,12.0,,399.0,,74.0,,"Rincon Reservation and Off-Reservation Trust Land, CA",3165
11.0,,12.0,,11.0,,12.0,,11.0,,12.0,,11.0,,12.0,,0.0,,12.0,,0.0,,12.0,,0.0,,12.0,,"Roaring Creek Rancheria, CA",3185
173.0,,84.0,,110.0,,56.0,,110.0,,56.0,,95.0,,49.0,,15.0,,15.0,,0.0,,12.0,,63.0,,41.0,,"Robinson Rancheria and Off-Reservation Trust Land, CA",3195
2579.0,,184.0,,1142.0,,119.0,,1142.0,,119.0,,961.0,,108.0,,181.0,,52.0,,0.0,,10.0,,1437.0,,129.0,,"Rocky Boy's Reservation and Off-Reservation Trust Land, MT",3205
21.0,,10.0,,12.0,,7.0,,12.0,,7.0,,11.0,,7.0,,1.0,,2.0,,0.0,,12.0,,9.0,,6.0,,"Rohnerville Rancheria, CA",3220
7111.0,,127.0,,4322.0,,233.0,,4322.0,,233.0,,3259.0,,225.0,,1063.0,,170.0,,0.0,,15.0,,2789.0,,243.0,,"Rosebud Indian Reservation and Off-Reservation Trust Land, SD",3235
322.0,,93.0,,165.0,,47.0,,165.0,,47.0,,110.0,,41.0,,55.0,,24.0,,0.0,,12.0,,157.0,,64.0,,"Round Valley Reservation and Off-Reservation Trust Land, CA",3250
0.0,,12.0,,0.0,,12.0,,0.0,,12.0,,0.0,,12.0,,0.0,,12.0,,0.0,,12.0,,0.0,,12.0,,"Rumsey Indian Rancheria, CA",3265
895.0,,67.0,,456.0,,53.0,,456.0,,53.0,,385.0,,46.0,,71.0,,32.0,,0.0,,9.0,,439.0,,54.0,,"Sac and Fox/Meskwaki Settlement and Off-Reservation Trust Land, IA",3280
118.0,,21.0,,90.0,,21.0,,90.0,,21.0,,86.0,,21.0,,4.0,,7.0,,0.0,,11.0,,28.0,,12.0,,"Sac and Fox Nation Reservation and Off-Reservation Trust Land, NE--KS",3285
484.0,,72.0,,291.0,,62.0,,291.0,,62.0,,242.0,,54.0,,49.0,,21.0,,0.0,,9.0,,193.0,,43.0,,"St. Croix Reservation and Off-Reservation Trust Land, WI",3305
2338.0,,160.0,,1163.0,,222.0,,1163.0,,222.0,,887.0,,217.0,,276.0,,162.0,,0.0,,11.0,,1175.0,,237.0,,"St. Regis Mohawk Reservation, NY",3320
4681.0,,387.0,,2263.0,,351.0,,2263.0,,351.0,,1953.0,,330.0,,310.0,,115.0,,0.0,,17.0,,2418.0,,283.0,,"Salt River Reservation, AZ",3340
7078.0,,311.0,,3682.0,,322.0,,3682.0,,322.0,,2332.0,,255.0,,1350.0,,217.0,,0.0,,19.0,,3396.0,,309.0,,"San Carlos Reservation, AZ",3355
3892.0,,272.0,,2404.0,,179.0,,2404.0,,179.0,,2079.0,,158.0,,325.0,,54.0,,0.0,,16.0,,1488.0,,168.0,,"Sandia Pueblo, NM",3370
3232.0,,346.0,,1813.0,,226.0,,1813.0,,226.0,,1377.0,,176.0,,436.0,,104.0,,0.0,,11.0,,1419.0,,206.0,,"San Felipe Pueblo, NM",3400
1569.0,,109.0,,978.0,,82.0,,975.0,,82.0,,856.0,,77.0,,119.0,,27.0,,3.0,,4.0,,591.0,,59.0,,"San Ildefonso Pueblo and Off-Reservation Trust Land, NM",3415
68.0,,47.0,,14.0,,11.0,,14.0,,11.0,,14.0,,11.0,,0.0,,12.0,,0.0,,12.0,,54.0,,45.0,,"San Manuel Reservation and Off-Reservation Trust Land, CA",3445
642.0,,124.0,,332.0,,67.0,,332.0,,67.0,,267.0,,62.0,,65.0,,28.0,,0.0,,12.0,,310.0,,85.0,,"San Pasqual Reservation, CA",3460
510.0,,76.0,,326.0,,57.0,,326.0,,57.0,,271.0,,51.0,,55.0,,26.0,,0.0,,11.0,,184.0,,42.0,,"Santa Ana Pueblo, NM",3480
9003.0,,392.0,,5060.0,,289.0,,5057.0,,288.0,,4582.0,,280.0,,475.0,,105.0,,3.0,,5.0,,3943.0,,267.0,,"Santa Clara Pueblo and Off-Reservation Trust Land, NM",3495
466.0,,99.0,,130.0,,48.0,,127.0,,47.0,,81.0,,32.0,,46.0,,25.0,,3.0,,4.0,,336.0,,89.0,,"Santa Rosa Rancheria, CA",3520
74.0,,36.0,,34.0,,33.0,,34.0,,33.0,,26.0,,23.0,,8.0,,11.0,,0.0,,12.0,,40.0,,23.0,,"Santa Rosa Reservation, CA",3525
247.0,,78.0,,132.0,,49.0,,132.0,,49.0,,107.0,,44.0,,25.0,,22.0,,0.0,,12.0,,115.0,,42.0,,"Santa Ynez Reservation, CA",3540
195.0,,48.0,,124.0,,34.0,,124.0,,34.0,,86.0,,30.0,,38.0,,19.0,,0.0,,12.0,,71.0,,25.0,,"Santa Ysabel Reservation, CA",3550
656.0,,51.0,,413.0,,53.0,,413.0,,53.0,,345.0,,62.0,,68.0,,22.0,,0.0,,9.0,,243.0,,65.0,,"Santee Reservation, NE",3565
2625.0,,228.0,,1227.0,,142.0,,1227.0,,142.0,,1008.0,,126.0,,219.0,,64.0,,0.0,,11.0,,1398.0,,142.0,,"Santo Domingo Pueblo, NM",3585
36.0,,22.0,,29.0,,19.0,,29.0,,19.0,,26.0,,18.0,,3.0,,5.0,,0.0,,12.0,,7.0,,10.0,,"Sauk-Suiattle Reservation, WA",3625
1581.0,,206.0,,963.0,,139.0,,963.0,,139.0,,730.0,,113.0,,233.0,,62.0,,0.0,,10.0,,618.0,,103.0,,"Sault Ste. Marie Reservation and Off-Reservation Trust Land, MI",3635
0.0,,13.0,,0.0,,13.0,,0.0,,13.0,,0.0,,13.0,,0.0,,13.0,,0.0,,13.0,,0.0,,13.0,,"Seminole (FL) Trust Land, FL",3665
413.0,,70.0,,111.0,,33.0,,111.0,,33.0,,94.0,,29.0,,17.0,,13.0,,0.0,,9.0,,302.0,,59.0,,"Shakopee Mdewakanton Sioux Community and Off-Reservation Trust Land, MN",3680
114.0,,51.0,,60.0,,30.0,,60.0,,30.0,,40.0,,20.0,,20.0,,16.0,,0.0,,12.0,,54.0,,34.0,,"Sherwood Valley Rancheria and Off-Reservation Trust Land, CA",3735
85.0,,48.0,,46.0,,29.0,,46.0,,29.0,,40.0,,26.0,,6.0,,6.0,,0.0,,12.0,,39.0,,33.0,,"Shingle Springs Rancheria and Off-Reservation Trust Land, CA",3750
107.0,,39.0,,63.0,,25.0,,63.0,,25.0,,52.0,,22.0,,11.0,,14.0,,0.0,,12.0,,44.0,,21.0,,"Shoalwater Bay Indian Reservation and Off-Reservation Trust Land, WA",3780
425.0,,90.0,,251.0,,67.0,,251.0,,67.0,,207.0,,53.0,,44.0,,22.0,,0.0,,12.0,,174.0,,37.0,,"Siletz Reservation and Off-Reservation Trust Land, OR",3795
572.0,,94.0,,279.0,,52.0,,279.0,,52.0,,231.0,,44.0,,48.0,,19.0,,0.0,,12.0,,293.0,,56.0,,"Skokomish Reservation, WA",3825
29.0,,22.0,,21.0,,19.0,,21.0,,19.0,,18.0,,17.0,,3.0,,6.0,,0.0,,11.0,,8.0,,7.0,,"Skull Valley Reservation, UT",3840
125.0,,50.0,,56.0,,32.0,,56.0,,32.0,,46.0,,28.0,,10.0,,13.0,,0.0,,12.0,,69.0,,39.0,,"Smith River Rancheria and Off-Reservation Trust Land, CA",3855
0.0,,12.0,,0.0,,12.0,,0.0,,12.0,,0.0,,12.0,,0.0,,12.0,,0.0,,12.0,,0.0,,12.0,,"Snoqualmie Reservation, WA",3860
394.0,,127.0,,112.0,,66.0,,112.0,,66.0,,92.0,,64.0,,20.0,,12.0,,0.0,,12.0,,282.0,,90.0,,"Soboba Reservation and Off-Reservation Trust Land, CA",3870
419.0,,62.0,,292.0,,52.0,,292.0,,52.0,,204.0,,36.0,,88.0,,29.0,,0.0,,9.0,,127.0,,31.0,,"Sokaogon Chippewa Community and Off-Reservation Trust Land, WI",3885
10700.0,,434.0,,6970.0,,331.0,,6970.0,,331.0,,6508.0,,312.0,,462.0,,90.0,,0.0,,18.0,,3730.0,,214.0,,"Southern Ute Reservation, CO",3925
87.0,,40.0,,44.0,,24.0,,44.0,,24.0,,42.0,,22.0,,2.0,,4.0,,0.0,,12.0,,43.0,,28.0,,"South Fork Reservation and Off-Reservation Trust Land, NV",3930
2683.0,,76.0,,1287.0,,93.0,,1283.0,,93.0,,1172.0,,94.0,,111.0,,37.0,,4.0,,6.0,,1396.0,,75.0,,"Spirit Lake Reservation, ND",3935
1522.0,,152.0,,880.0,,101.0,,880.0,,101.0,,730.0,,91.0,,150.0,,38.0,,0.0,,12.0,,642.0,,95.0,,"Spokane Reservation and Off-Reservation Trust Land, WA",3940
359.0,,91.0,,225.0,,72.0,,225.0,,72.0,,178.0,,58.0,,47.0,,28.0,,0.0,,12.0,,134.0,,42.0,,"Squaxin Island Reservation and Off-Reservation Trust Land, WA",3955
5770.0,,32.0,,3390.0,,87.0,,3384.0,,88.0,,2538.0,,91.0,,846.0,,63.0,,6.0,,4.0,,2380.0,,93.0,,"Standing Rock Reservation, SD--ND",3970
118.0,,48.0,,80.0,,38.0,,80.0,,38.0,,59.0,,30.0,,21.0,,17.0,,0.0,,12.0,,38.0,,23.0,,"Stewart Community, NV",3980
52.0,,34.0,,12.0,,9.0,,12.0,,9.0,,12.0,,9.0,,0.0,,12.0,,0.0,,12.0,,40.0,,34.0,,"Stewarts Point Rancheria, CA",3985
14.0,,19.0,,11.0,,19.0,,11.0,,19.0,,11.0,,19.0,,0.0,,12.0,,0.0,,12.0,,3.0,,4.0,,"Stillaguamish Reservation and Off-Reservation Trust Land, WA",4000
607.0,,74.0,,352.0,,58.0,,352.0,,58.0,,319.0,,54.0,,33.0,,14.0,,0.0,,9.0,,255.0,,44.0,,"Stockbridge Munsee Community and Off-Reservation Trust Land, WI",4015
49.0,,27.0,,19.0,,22.0,,19.0,,22.0,,5.0,,7.0,,14.0,,20.0,,0.0,,12.0,,30.0,,21.0,,"Sulphur Bank Rancheria, CA",4030
0.0,,12.0,,0.0,,12.0,,0.0,,12.0,,0.0,,12.0,,0.0,,12.0,,0.0,,12.0,,0.0,,12.0,,"Summit Lake Reservation and Off-Reservation Trust Land, NV",4045
379.0,,100.0,,269.0,,76.0,,269.0,,76.0,,236.0,,70.0,,33.0,,21.0,,0.0,,12.0,,110.0,,39.0,,"Susanville Indian Rancheria and Off-Reservation Trust Land, CA",4060
2494.0,,111.0,,1203.0,,80.0,,1201.0,,79.0,,1127.0,,77.0,,74.0,,21.0,,2.0,,3.0,,1291.0,,78.0,,"Swinomish Reservation and Off-Reservation Trust Land, WA",4075
131.0,,43.0,,53.0,,20.0,,53.0,,20.0,,49.0,,21.0,,4.0,,4.0,,0.0,,12.0,,78.0,,30.0,,"Sycuan Reservation and Off-Reservation Trust Land, CA",4090
69.0,,38.0,,31.0,,24.0,,31.0,,24.0,,27.0,,21.0,,4.0,,6.0,,0.0,,12.0,,38.0,,20.0,,"Table Bluff Reservation, CA",4095
38.0,,35.0,,12.0,,10.0,,12.0,,10.0,,5.0,,8.0,,7.0,,11.0,,0.0,,12.0,,26.0,,26.0,,"Table Mountain Rancheria, CA",4110
0.0,,13.0,,0.0,,13.0,,0.0,,13.0,,0.0,,13.0,,0.0,,13.0,,0.0,,13.0,,0.0,,13.0,,"Tampa Reservation, FL",4130
4152.0,,457.0,,2459.0,,328.0,,2459.0,,328.0,,2066.0,,280.0,,393.0,,106.0,,0.0,,16.0,,1693.0,,201.0,,"Taos Pueblo and Off-Reservation Trust Land, NM",4140
635.0,,97.0,,409.0,,68.0,,409.0,,68.0,,372.0,,68.0,,37.0,,20.0,,0.0,,11.0,,226.0,,62.0,,"Tesuque Pueblo and Off-Reservation Trust Land, NM",4170
25.0,,14.0,,14.0,,13.0,,14.0,,13.0,,13.0,,13.0,,1.0,,2.0,,0.0,,11.0,,11.0,,7.0,,"Timbi-Sha Shoshone Reservation and Off-Reservation Trust Land, CA--NV",4180
7093.0,,536.0,,3535.0,,372.0,,3535.0,,372.0,,2581.0,,291.0,,954.0,,194.0,,0.0,,17.0,,3558.0,,306.0,,"Tohono O'odham Nation Reservation and Off-Reservation Trust Land, AZ",4200
453.0,,57.0,,260.0,,47.0,,260.0,,47.0,,188.0,,43.0,,72.0,,26.0,,0.0,,11.0,,193.0,,31.0,,"Tonawanda Reservation, NY",4225
74.0,,37.0,,30.0,,21.0,,30.0,,21.0,,25.0,,21.0,,5.0,,7.0,,0.0,,12.0,,44.0,,27.0,,"Tonto Apache Reservation and Off-Reservation Trust Land, AZ",4235
2785.0,,270.0,,1940.0,,203.0,,1940.0,,203.0,,1567.0,,176.0,,373.0,,70.0,,0.0,,12.0,,845.0,,115.0,,"Torres-Martinez Reservation, CA",4255
159.0,,66.0,,94.0,,48.0,,94.0,,48.0,,74.0,,39.0,,20.0,,18.0,,0.0,,12.0,,65.0,,33.0,,"Trinidad Rancheria and Off-Reservation Trust Land, CA",4275
8080.0,,315.0,,4790.0,,282.0,,4772.0,,282.0,,4252.0,,248.0,,520.0,,117.0,,18.0,,15.0,,3290.0,,230.0,,"Tulalip Reservation and Off-Reservation Trust Land, WA",4290
787.0,,126.0,,390.0,,80.0,,389.0,,80.0,,323.0,,78.0,,66.0,,28.0,,1.0,,4.0,,397.0,,79.0,,"Tule River Reservation and Off-Reservation Trust Land, CA",4300
70.0,,28.0,,50.0,,21.0,,50.0,,21.0,,42.0,,20.0,,8.0,,7.0,,0.0,,12.0,,20.0,,17.0,,"Tunica-Biloxi Reservation and Off-Reservation Trust Land, LA",4315
116.0,,40.0,,71.0,,30.0,,71.0,,30.0,,65.0,,28.0,,6.0,,7.0,,0.0,,12.0,,45.0,,21.0,,"Tuolumne Rancheria, CA",4330
6171.0,,192.0,,2958.0,,242.0,,2958.0,,242.0,,2810.0,,238.0,,148.0,,67.0,,0.0,,16.0,,3213.0,,293.0,,"Turtle Mountain Reservation and Off-Reservation Trust Land, MT--ND--SD",4345
783.0,,109.0,,388.0,,65.0,,388.0,,65.0,,321.0,,59.0,,67.0,,31.0,,0.0,,11.0,,395.0,,72.0,,"Tuscarora Nation Reservation, NY",4360
11.0,,7.0,,2.0,,3.0,,2.0,,3.0,,2.0,,3.0,,0.0,,12.0,,0.0,,12.0,,9.0,,6.0,,"Twenty-Nine Palms Reservation, CA",4375
17721.0,,260.0,,10429.0,,279.0,,10429.0,,279.0,,9885.0,,299.0,,544.0,,130.0,,0.0,,20.0,,7292.0,,290.0,,"Uintah and Ouray Reservation and Off-Reservation Trust Land, UT",4390
2156.0,,171.0,,1236.0,,116.0,,1236.0,,116.0,,1114.0,,103.0,,122.0,,35.0,,0.0,,12.0,,920.0,,108.0,,"Umatilla Reservation and Off-Reservation Trust Land, OR",4405
106.0,,46.0,,65.0,,37.0,,65.0,,37.0,,53.0,,33.0,,12.0,,11.0,,0.0,,12.0,,41.0,,24.0,,"Upper Lake Rancheria, CA",4430
140.0,,29.0,,83.0,,23.0,,83.0,,23.0,,67.0,,18.0,,16.0,,11.0,,0.0,,9.0,,57.0,,17.0,,"Upper Sioux Community and Off-Reservation Trust Land, MN",4445
164.0,,74.0,,77.0,,37.0,,77.0,,37.0,,49.0,,22.0,,28.0,,24.0,,0.0,,12.0,,87.0,,47.0,,"Upper Skagit Reservation, WA",4455
905.0,,175.0,,436.0,,119.0,,436.0,,119.0,,400.0,,113.0,,36.0,,21.0,,0.0,,11.0,,469.0,,94.0,,"Ute Mountain Reservation and Off-Reservation Trust Land, CO--NM--UT",4470
291.0,,77.0,,160.0,,57.0,,160.0,,57.0,,125.0,,40.0,,35.0,,39.0,,0.0,,12.0,,131.0,,42.0,,"Viejas Reservation, CA",4500
715.0,,131.0,,435.0,,89.0,,435.0,,89.0,,285.0,,65.0,,150.0,,51.0,,0.0,,12.0,,280.0,,74.0,,"Walker River Reservation, NV",4515
109.0,,55.0,,95.0,,49.0,,95.0,,49.0,,91.0,,47.0,,4.0,,6.0,,0.0,,12.0,,14.0,,9.0,,"Wampanoag-Aquinnah Trust Land, MA",4530
3029.0,,250.0,,1897.0,,204.0,,1897.0,,204.0,,1373.0,,181.0,,524.0,,117.0,,0.0,,12.0,,1132.0,,175.0,,"Warm Springs Reservation and Off-Reservation Trust Land, OR",4545
2716.0,,216.0,,1506.0,,165.0,,1493.0,,166.0,,1275.0,,142.0,,218.0,,59.0,,13.0,,8.0,,1210.0,,106.0,,"Washoe Ranches Trust Land, NV--CA",4560
59.0,,32.0,,38.0,,29.0,,38.0,,29.0,,36.0,,30.0,,2.0,,4.0,,0.0,,12.0,,21.0,,13.0,,"Wells Colony, NV",4580
7078.0,,117.0,,4154.0,,135.0,,4154.0,,135.0,,3801.0,,126.0,,353.0,,43.0,,0.0,,12.0,,2924.0,,95.0,,"White Earth Reservation and Off-Reservation Trust Land, MN",4595
20557.0,,345.0,,13395.0,,378.0,,13376.0,,374.0,,12148.0,,376.0,,1228.0,,178.0,,19.0,,30.0,,7162.0,,332.0,,"Wind River Reservation and Off-Reservation Trust Land, WY",4610
1862.0,,111.0,,1282.0,,80.0,,1282.0,,80.0,,1099.0,,85.0,,183.0,,39.0,,0.0,,11.0,,580.0,,70.0,,"Winnebago Reservation and Off-Reservation Trust Land, NE--IA",4625
34.0,,18.0,,15.0,,13.0,,15.0,,13.0,,12.0,,12.0,,3.0,,4.0,,0.0,,12.0,,19.0,,12.0,,"Winnemucca Indian Colony, NV",4635
197.0,,64.0,,79.0,,32.0,,79.0,,32.0,,67.0,,28.0,,12.0,,13.0,,0.0,,12.0,,118.0,,46.0,,"Woodfords Community, CA",4665
40.0,,41.0,,23.0,,23.0,,23.0,,23.0,,22.0,,22.0,,1.0,,2.0,,0.0,,12.0,,17.0,,22.0,,"XL Ranch Rancheria, CA",4680
22036.0,,558.0,,12235.0,,462.0,,12225.0,,459.0,,10958.0,,441.0,,1267.0,,194.0,,10.0,,16.0,,9801.0,,467.0,,"Yakama Nation Reservation and Off-Reservation Trust Land, WA",4690
4601.0,,140.0,,2670.0,,124.0,,2660.0,,130.0,,2453.0,,128.0,,207.0,,55.0,,10.0,,11.0,,1931.0,,142.0,,"Yankton Reservation, SD",4700
738.0,,181.0,,410.0,,125.0,,410.0,,125.0,,312.0,,108.0,,98.0,,60.0,,0.0,,12.0,,328.0,,85.0,,"Yavapai-Apache Nation Reservation, AZ",4708
113.0,,69.0,,57.0,,43.0,,57.0,,43.0,,54.0,,41.0,,3.0,,6.0,,0.0,,12.0,,56.0,,35.0,,"Yavapai-Prescott Reservation, AZ",4710
195.0,,93.0,,105.0,,61.0,,105.0,,61.0,,58.0,,38.0,,47.0,,38.0,,0.0,,12.0,,90.0,,55.0,,"Yerington Colony, NV",4725
99.0,,55.0,,48.0,,28.0,,48.0,,28.0,,36.0,,23.0,,12.0,,17.0,,0.0,,12.0,,51.0,,38.0,,"Yomba Reservation, NV",4740
636.0,,110.0,,426.0,,87.0,,426.0,,87.0,,399.0,,84.0,,27.0,,13.0,,0.0,,13.0,,210.0,,44.0,,"Ysleta del Sur Pueblo and Off-Reservation Trust Land, TX",4755
1069.0,,148.0,,484.0,,86.0,,484.0,,86.0,,342.0,,71.0,,142.0,,48.0,,0.0,,12.0,,585.0,,97.0,,"Yurok Reservation, CA",4760
646.0,,80.0,,418.0,,60.0,,418.0,,60.0,,310.0,,43.0,,108.0,,35.0,,0.0,,11.0,,228.0,,43.0,,"Zia Pueblo and Off-Reservation Trust Land, NM",4770
8770.0,,607.0,,5014.0,,454.0,,5014.0,,454.0,,4147.0,,427.0,,867.0,,203.0,,0.0,,18.0,,3756.0,,476.0,,"Zuni Reservation and Off-Reservation Trust Land, NM--AZ",4785
0.0,,10.0,,0.0,,10.0,,0.0,,10.0,,0.0,,10.0,,0.0,,10.0,,0.0,,10.0,,0.0,,10.0,,"Kickapoo (KS) Reservation/Sac and Fox Nation Trust Land joint-use area, KS",4910
0.0,,11.0,,0.0,,11.0,,0.0,,11.0,,0.0,,11.0,,0.0,,11.0,,0.0,,11.0,,0.0,,11.0,,"San Felipe Pueblo/Santa Ana Pueblo joint-use area, NM",4930
0.0,,11.0,,0.0,,11.0,,0.0,,11.0,,0.0,,11.0,,0.0,,11.0,,0.0,,11.0,,0.0,,11.0,,"San Felipe Pueblo/Santo Domingo Pueblo joint-use area, NM",4940
138.0,,51.0,,74.0,,32.0,,74.0,,32.0,,68.0,,25.0,,6.0,,9.0,,0.0,,11.0,,64.0,,26.0,,"Anahola (Agricultural) Hawaiian Home Land, HI",5003
1191.0,,168.0,,683.0,,117.0,,683.0,,117.0,,631.0,,106.0,,52.0,,25.0,,0.0,,11.0,,508.0,,91.0,,"Anahola (Residential) Hawaiian Home Land, HI",5004
0.0,,11.0,,0.0,,11.0,,0.0,,11.0,,0.0,,11.0,,0.0,,11.0,,0.0,,11.0,,0.0,,11.0,,"East Kapolei Hawaiian Home Land, HI",5008
0.0,,11.0,,0.0,,11.0,,0.0,,11.0,,0.0,,11.0,,0.0,,11.0,,0.0,,11.0,,0.0,,11.0,,"Haiku Hawaiian Home Land, HI",5009
23.0,,12.0,,12.0,,12.0,,11.0,,12.0,,11.0,,12.0,,0.0,,11.0,,1.0,,3.0,,11.0,,8.0,,"Hanapepe Hawaiian Home Land, HI",5011
5.0,,5.0,,2.0,,3.0,,2.0,,3.0,,2.0,,3.0,,0.0,,11.0,,0.0,,11.0,,3.0,,3.0,,"Homuula-Upper Piihonua Hawaiian Home Land, HI",5018
0.0,,11.0,,0.0,,11.0,,0.0,,11.0,,0.0,,11.0,,0.0,,11.0,,0.0,,11.0,,0.0,,11.0,,"Honokaia Hawaiian Home Land, HI",5026
0.0,,11.0,,0.0,,11.0,,0.0,,11.0,,0.0,,11.0,,0.0,,11.0,,0.0,,11.0,,0.0,,11.0,,"Honokowai Hawaiian Home Land, HI",5029
0.0,,11.0,,0.0,,11.0,,0.0,,11.0,,0.0,,11.0,,0.0,,11.0,,0.0,,11.0,,0.0,,11.0,,"Honolulu Makai Hawaiian Home Land, HI",5030
0.0,,11.0,,0.0,,11.0,,0.0,,11.0,,0.0,,11.0,,0.0,,11.0,,0.0,,11.0,,0.0,,11.0,,"Honomu Hawaiian Home Land, HI",5031
902.0,,144.0,,529.0,,102.0,,529.0,,102.0,,460.0,,87.0,,69.0,,34.0,,0.0,,11.0,,373.0,,76.0,,"Hoolehua-Palaau Hawaiian Home Land, HI",5033
0.0,,11.0,,0.0,,11.0,,0.0,,11.0,,0.0,,11.0,,0.0,,11.0,,0.0,,11.0,,0.0,,11.0,,"Kahikinui Hawaiian Home Land, HI",5041
170.0,,232.0,,64.0,,73.0,,64.0,,73.0,,64.0,,73.0,,0.0,,11.0,,0.0,,11.0,,106.0,,167.0,,"Kakaina-Kumuhau Hawaiian Home Land, HI",5043
10.0,,17.0,,0.0,,11.0,,0.0,,11.0,,0.0,,11.0,,0.0,,11.0,,0.0,,11.0,,10.0,,17.0,,"Kalaeloa Hawaiian Home Land, HI",5044
281.0,,65.0,,172.0,,45.0,,172.0,,45.0,,160.0,,45.0,,12.0,,12.0,,0.0,,11.0,,109.0,,32.0,,"Kalamaula Hawaiian Home Land, HI",5046
84.0,,22.0,,69.0,,19.0,,64.0,,20.0,,64.0,,20.0,,0.0,,11.0,,5.0,,4.0,,15.0,,14.0,,"Kalaupapa Hawaiian Home Land, HI",5051
279.0,,56.0,,197.0,,47.0,,197.0,,47.0,,193.0,,47.0,,4.0,,3.0,,0.0,,11.0,,82.0,,28.0,,"Kalawahine Hawaiian Home Land, HI",5053
9.0,,8.0,,4.0,,6.0,,4.0,,6.0,,3.0,,5.0,,1.0,,2.0,,0.0,,11.0,,5.0,,5.0,,"Kamaoa-Puueo Hawaiian Home Land, HI",5056
52.0,,30.0,,21.0,,16.0,,21.0,,16.0,,16.0,,15.0,,5.0,,7.0,,0.0,,11.0,,31.0,,18.0,,"Kamiloloa-Makakupaia Hawaiian Home Land, HI",5061
28.0,,13.0,,16.0,,11.0,,16.0,,11.0,,14.0,,11.0,,2.0,,3.0,,0.0,,11.0,,12.0,,8.0,,"Kamoku-Kapulena Hawaiian Home Land, HI",5066
371.0,,238.0,,312.0,,189.0,,298.0,,195.0,,241.0,,148.0,,57.0,,83.0,,14.0,,22.0,,59.0,,70.0,,"Kanehili Hawaiian Home Land, HI",5067
0.0,,11.0,,0.0,,11.0,,0.0,,11.0,,0.0,,11.0,,0.0,,11.0,,0.0,,11.0,,0.0,,11.0,,"Kaohe-Olaa Hawaiian Home Land, HI",5069
0.0,,11.0,,0.0,,11.0,,0.0,,11.0,,0.0,,11.0,,0.0,,11.0,,0.0,,11.0,,0.0,,11.0,,"Kapaa Hawaiian Home Land, HI",5071
151.0,,42.0,,87.0,,30.0,,87.0,,30.0,,76.0,,28.0,,11.0,,9.0,,0.0,,11.0,,64.0,,29.0,,"Kapaakea Hawaiian Home Land, HI",5076
0.0,,11.0,,0.0,,11.0,,0.0,,11.0,,0.0,,11.0,,0.0,,11.0,,0.0,,11.0,,0.0,,11.0,,"Kapolei Hawaiian Home Land, HI",5083
100.0,,43.0,,80.0,,36.0,,80.0,,36.0,,76.0,,36.0,,4.0,,5.0,,0.0,,11.0,,20.0,,14.0,,"Kaumana Hawaiian Home Land, HI",5086
883.0,,131.0,,666.0,,100.0,,666.0,,100.0,,617.0,,97.0,,49.0,,19.0,,0.0,,11.0,,217.0,,53.0,,"Kaupea Hawaiian Home Land, HI",5088
409.0,,85.0,,296.0,,70.0,,296.0,,70.0,,267.0,,64.0,,29.0,,18.0,,0.0,,11.0,,113.0,,30.0,,"Kawaihae Hawaiian Home Land, HI",5091
0.0,,11.0,,0.0,,11.0,,0.0,,11.0,,0.0,,11.0,,0.0,,11.0,,0.0,,11.0,,0.0,,11.0,,"Keahuolu Hawaiian Home Land, HI",5098
942.0,,195.0,,646.0,,151.0,,646.0,,151.0,,590.0,,139.0,,56.0,,36.0,,0.0,,11.0,,296.0,,67.0,,"Kealakehe Hawaiian Home Land, HI",5101
6.0,,8.0,,2.0,,4.0,,2.0,,4.0,,2.0,,4.0,,0.0,,11.0,,0.0,,11.0,,4.0,,7.0,,"Keanae-Wailua Hawaiian Home Land, HI",5104
1355.0,,147.0,,697.0,,87.0,,697.0,,87.0,,594.0,,78.0,,103.0,,33.0,,0.0,,11.0,,658.0,,103.0,,"Keaukaha Hawaiian Home Land, HI",5106
429.0,,114.0,,294.0,,97.0,,294.0,,97.0,,271.0,,96.0,,23.0,,18.0,,0.0,,11.0,,135.0,,52.0,,"Kekaha Hawaiian Home Land, HI",5111
88.0,,81.0,,23.0,,21.0,,23.0,,21.0,,23.0,,21.0,,0.0,,11.0,,0.0,,11.0,,65.0,,73.0,,"Keokea (Agricultural) Hawaiian Home Land, HI",5114
0.0,,11.0,,0.0,,11.0,,0.0,,11.0,,0.0,,11.0,,0.0,,11.0,,0.0,,11.0,,0.0,,11.0,,"Keoniki Hawaiian Home Land, HI",5116
241.0,,81.0,,163.0,,63.0,,163.0,,63.0,,153.0,,61.0,,10.0,,10.0,,0.0,,11.0,,78.0,,27.0,,"Kewalo Hawaiian Home Land, HI",5120
0.0,,11.0,,0.0,,11.0,,0.0,,11.0,,0.0,,11.0,,0.0,,11.0,,0.0,,11.0,,0.0,,11.0,,"Kolaoa Hawaiian Home Land, HI",5123
87.0,,63.0,,38.0,,26.0,,38.0,,26.0,,37.0,,25.0,,1.0,,3.0,,0.0,,11.0,,49.0,,60.0,,"Lalamilo Hawaiian Home Land, HI",5133
40.0,,36.0,,37.0,,37.0,,37.0,,37.0,,37.0,,37.0,,0.0,,11.0,,0.0,,11.0,,3.0,,5.0,,"Lanai City Hawaiian Home Land, HI",5134
415.0,,142.0,,324.0,,118.0,,324.0,,118.0,,287.0,,92.0,,37.0,,32.0,,0.0,,11.0,,91.0,,37.0,,"Leialii Hawaiian Home Land, HI",5135
55.0,,49.0,,45.0,,53.0,,45.0,,53.0,,45.0,,53.0,,0.0,,11.0,,0.0,,11.0,,10.0,,15.0,,"Lualualei Hawaiian Home Land, HI",5136
324.0,,179.0,,126.0,,92.0,,126.0,,92.0,,72.0,,121.0,,54.0,,67.0,,0.0,,11.0,,198.0,,97.0,,"Maili Hawaiian Home Land, HI",5138
0.0,,11.0,,0.0,,11.0,,0.0,,11.0,,0.0,,11.0,,0.0,,11.0,,0.0,,11.0,,0.0,,11.0,,"Makaha Valley Hawaiian Home Land, HI",5139
63.0,,24.0,,30.0,,17.0,,30.0,,17.0,,24.0,,15.0,,6.0,,5.0,,0.0,,11.0,,33.0,,17.0,,"Makuu Hawaiian Home Land, HI",5146
759.0,,137.0,,540.0,,113.0,,534.0,,112.0,,491.0,,106.0,,43.0,,19.0,,6.0,,6.0,,219.0,,48.0,,"Maluohai Hawaiian Home Land, HI",5148
3.0,,5.0,,3.0,,5.0,,3.0,,5.0,,3.0,,5.0,,0.0,,11.0,,0.0,,11.0,,0.0,,11.0,,"Moloaa Hawaiian Home Land, HI",5156
3842.0,,311.0,,2320.0,,230.0,,2314.0,,230.0,,2003.0,,213.0,,311.0,,86.0,,6.0,,9.0,,1522.0,,159.0,,"Nanakuli Hawaiian Home Land, HI",5161
18.0,,29.0,,18.0,,29.0,,18.0,,29.0,,18.0,,29.0,,0.0,,11.0,,0.0,,11.0,,0.0,,11.0,,"Nienie Hawaiian Home Land, HI",5166
575.0,,107.0,,342.0,,74.0,,342.0,,74.0,,316.0,,69.0,,26.0,,15.0,,0.0,,11.0,,233.0,,54.0,,"Panaewa (Agricultural) Hawaiian Home Land, HI",5176
1076.0,,157.0,,550.0,,87.0,,550.0,,87.0,,485.0,,75.0,,65.0,,27.0,,0.0,,11.0,,526.0,,107.0,,"Panaewa (Residential) Hawaiian Home Land, HI",5177
1142.0,,216.0,,726.0,,150.0,,723.0,,150.0,,664.0,,140.0,,59.0,,26.0,,3.0,,4.0,,416.0,,95.0,,"Papakolea Hawaiian Home Land, HI",5179
0.0,,11.0,,0.0,,11.0,,0.0,,11.0,,0.0,,11.0,,0.0,,11.0,,0.0,,11.0,,0.0,,11.0,,"Pauahi Hawaiian Home Land, HI",5181
673.0,,173.0,,417.0,,121.0,,417.0,,121.0,,377.0,,110.0,,40.0,,20.0,,0.0,,11.0,,256.0,,66.0,,"Paukukalo Hawaiian Home Land, HI",5186
18.0,,10.0,,13.0,,8.0,,5.0,,6.0,,4.0,,5.0,,1.0,,3.0,,8.0,,5.0,,5.0,,4.0,,"Pearl City Hawaiian Home Land, HI",5188
37.0,,18.0,,16.0,,9.0,,16.0,,9.0,,16.0,,9.0,,0.0,,11.0,,0.0,,11.0,,21.0,,14.0,,"Piihonua Hawaiian Home Land, HI",5193
4.0,,7.0,,4.0,,7.0,,4.0,,7.0,,4.0,,7.0,,0.0,,11.0,,0.0,,11.0,,0.0,,11.0,,"Ponohawaii Hawaiian Home Land, HI",5196
943.0,,161.0,,641.0,,130.0,,639.0,,130.0,,596.0,,125.0,,43.0,,16.0,,2.0,,4.0,,302.0,,62.0,,"Princess Kahanu Estates Hawaiian Home Land, HI",5198
0.0,,11.0,,0.0,,11.0,,0.0,,11.0,,0.0,,11.0,,0.0,,11.0,,0.0,,11.0,,0.0,,11.0,,"Pulehunui Hawaiian Home Land, HI",5199
731.0,,155.0,,456.0,,110.0,,456.0,,110.0,,436.0,,105.0,,20.0,,15.0,,0.0,,11.0,,275.0,,73.0,,"Puukapu Hawaiian Home Land, HI",5201
0.0,,11.0,,0.0,,11.0,,0.0,,11.0,,0.0,,11.0,,0.0,,11.0,,0.0,,11.0,,0.0,,11.0,,"South Maui Hawaiian Home Land, HI",5213
10.0,,10.0,,4.0,,5.0,,4.0,,5.0,,4.0,,5.0,,0.0,,11.0,,0.0,,11.0,,6.0,,8.0,,"Ualapue Hawaiian Home Land, HI",5216
0.0,,11.0,,0.0,,11.0,,0.0,,11.0,,0.0,,11.0,,0.0,,11.0,,0.0,,11.0,,0.0,,11.0,,"Upolu Hawaiian Home Land, HI",5222
22.0,,17.0,,14.0,,13.0,,14.0,,13.0,,14.0,,13.0,,0.0,,11.0,,0.0,,11.0,,8.0,,9.0,,"Waiahole Hawaiian Home Land, HI",5223
0.0,,11.0,,0.0,,11.0,,0.0,,11.0,,0.0,,11.0,,0.0,,11.0,,0.0,,11.0,,0.0,,11.0,,"Waiakea Hawaiian Home Land, HI",5236
1889.0,,252.0,,1114.0,,160.0,,1114.0,,160.0,,971.0,,150.0,,143.0,,33.0,,0.0,,11.0,,775.0,,126.0,,"Waianae Hawaiian Home Land, HI",5238
477.0,,91.0,,310.0,,70.0,,310.0,,70.0,,274.0,,65.0,,36.0,,20.0,,0.0,,11.0,,167.0,,41.0,,"Waianae Kai Hawaiian Home Land, HI",5239
1293.0,,210.0,,919.0,,145.0,,919.0,,145.0,,828.0,,134.0,,91.0,,37.0,,0.0,,11.0,,374.0,,99.0,,"Waiehu Hawaiian Home Land, HI",5241
0.0,,11.0,,0.0,,11.0,,0.0,,11.0,,0.0,,11.0,,0.0,,11.0,,0.0,,11.0,,0.0,,11.0,,"Waiku-Hana Hawaiian Home Land, HI",5248
0.0,,11.0,,0.0,,11.0,,0.0,,11.0,,0.0,,11.0,,0.0,,11.0,,0.0,,11.0,,0.0,,11.0,,"Wailau Hawaiian Home Land, HI",5251
0.0,,11.0,,0.0,,11.0,,0.0,,11.0,,0.0,,11.0,,0.0,,11.0,,0.0,,11.0,,0.0,,11.0,,"Wailua Hawaiian Home Land, HI",5256
2182.0,,187.0,,1198.0,,125.0,,1198.0,,125.0,,1135.0,,127.0,,63.0,,25.0,,0.0,,11.0,,984.0,,116.0,,"Waimanalo Hawaiian Home Land, HI",5271
0.0,,11.0,,0.0,,11.0,,0.0,,11.0,,0.0,,11.0,,0.0,,11.0,,0.0,,11.0,,0.0,,11.0,,"Waimanu Hawaiian Home Land, HI",5276
0.0,,11.0,,0.0,,11.0,,0.0,,11.0,,0.0,,11.0,,0.0,,11.0,,0.0,,11.0,,0.0,,11.0,,"Waimea Hawaiian Home Land, HI",5281
0.0,,11.0,,0.0,,11.0,,0.0,,11.0,,0.0,,11.0,,0.0,,11.0,,0.0,,11.0,,0.0,,11.0,,"Waiohinu Hawaiian Home Land, HI",5283
776.0,,132.0,,537.0,,92.0,,537.0,,92.0,,503.0,,87.0,,34.0,,21.0,,0.0,,11.0,,239.0,,70.0,,"Waiohuli (Residential) Hawaiian Home Land, HI",5286
11751.0,,277.0,,6437.0,,298.0,,6429.0,,298.0,,6075.0,,282.0,,354.0,,66.0,,8.0,,9.0,,5314.0,,343.0,,"Caddo-Wichita-Delaware OTSA, OK",5540
397760.0,,1195.0,,232830.0,,1392.0,,232530.0,,1401.0,,214468.0,,1674.0,,18062.0,,803.0,,300.0,,104.0,,164930.0,,1422.0,,"Cherokee OTSA, OK",5550
140104.0,,1016.0,,88327.0,,1272.0,,88286.0,,1277.0,,84808.0,,1271.0,,3478.0,,333.0,,41.0,,29.0,,51777.0,,1067.0,,"Cheyenne-Arapaho OTSA, OK",5560
240816.0,,659.0,,140168.0,,1304.0,,139988.0,,1319.0,,132217.0,,1366.0,,7771.0,,467.0,,180.0,,75.0,,100648.0,,1214.0,,"Chickasaw OTSA, OK",5580
183123.0,,489.0,,96576.0,,856.0,,96522.0,,861.0,,88648.0,,871.0,,7874.0,,462.0,,54.0,,27.0,,86547.0,,842.0,,"Choctaw OTSA, OK",5590
95305.0,,1262.0,,54181.0,,1267.0,,53628.0,,1281.0,,50541.0,,1230.0,,3087.0,,297.0,,553.0,,139.0,,41124.0,,982.0,,"Citizen Potawatomi Nation-Absentee Shawnee OTSA, OK",5600
605273.0,,1168.0,,386516.0,,1568.0,,386165.0,,1580.0,,362022.0,,1770.0,,24143.0,,805.0,,351.0,,109.0,,218757.0,,1484.0,,"Creek OTSA, OK",5620
663.0,,56.0,,357.0,,38.0,,357.0,,38.0,,333.0,,36.0,,24.0,,9.0,,0.0,,9.0,,306.0,,37.0,,"Eastern Shawnee OTSA, OK",5640
4978.0,,283.0,,2886.0,,203.0,,2882.0,,202.0,,2617.0,,180.0,,265.0,,85.0,,4.0,,6.0,,2092.0,,187.0,,"Iowa OTSA, OK",5670
4542.0,,176.0,,2533.0,,123.0,,2533.0,,123.0,,2373.0,,109.0,,160.0,,37.0,,0.0,,13.0,,2009.0,,116.0,,"Kaw OTSA, OK",5690
15811.0,,466.0,,9193.0,,382.0,,9183.0,,382.0,,8374.0,,354.0,,809.0,,129.0,,10.0,,8.0,,6618.0,,318.0,,"Kickapoo OTSA, OK",5700
154370.0,,577.0,,96698.0,,1202.0,,85786.0,,1221.0,,78873.0,,1244.0,,6913.0,,668.0,,10912.0,,570.0,,57672.0,,1154.0,,"Kiowa-Comanche-Apache-Fort Sill Apache OTSA, OK",5720
186.0,,30.0,,119.0,,24.0,,119.0,,24.0,,114.0,,24.0,,5.0,,4.0,,0.0,,9.0,,67.0,,16.0,,"Miami OTSA, OK",5730
188.0,,34.0,,112.0,,24.0,,112.0,,24.0,,98.0,,20.0,,14.0,,9.0,,0.0,,9.0,,76.0,,21.0,,"Modoc OTSA, OK",5740
659.0,,104.0,,427.0,,69.0,,427.0,,69.0,,398.0,,68.0,,29.0,,18.0,,0.0,,9.0,,232.0,,51.0,,"Otoe-Missouria OTSA, OK",5760
4580.0,,205.0,,2534.0,,158.0,,2534.0,,158.0,,2232.0,,143.0,,302.0,,68.0,,0.0,,13.0,,2046.0,,164.0,,"Ottawa OTSA, OK",5770
12801.0,,56.0,,7266.0,,193.0,,7266.0,,193.0,,6802.0,,212.0,,464.0,,78.0,,0.0,,15.0,,5535.0,,186.0,,"Pawnee OTSA, OK",5780
3969.0,,155.0,,2336.0,,110.0,,2336.0,,110.0,,2222.0,,111.0,,114.0,,33.0,,0.0,,9.0,,1633.0,,111.0,,"Peoria OTSA, OK",5795
1538.0,,121.0,,866.0,,94.0,,866.0,,94.0,,745.0,,79.0,,121.0,,35.0,,0.0,,9.0,,672.0,,69.0,,"Ponca OTSA, OK",5800
4238.0,,177.0,,2334.0,,115.0,,2334.0,,115.0,,2005.0,,110.0,,329.0,,71.0,,0.0,,13.0,,1904.0,,131.0,,"Quapaw OTSA, OK",5810
45546.0,,588.0,,26725.0,,587.0,,26684.0,,585.0,,25002.0,,573.0,,1682.0,,202.0,,41.0,,30.0,,18821.0,,514.0,,"Sac and Fox OTSA, OK",5820
18186.0,,125.0,,9538.0,,204.0,,9538.0,,204.0,,8730.0,,248.0,,808.0,,127.0,,0.0,,17.0,,8648.0,,207.0,,"Seminole OTSA, OK",5830
3821.0,,157.0,,1750.0,,112.0,,1750.0,,112.0,,1566.0,,99.0,,184.0,,43.0,,0.0,,9.0,,2071.0,,105.0,,"Seneca-Cayuga OTSA, OK",5835
3110.0,,82.0,,1985.0,,79.0,,1985.0,,79.0,,1843.0,,80.0,,142.0,,25.0,,0.0,,9.0,,1125.0,,70.0,,"Tonkawa OTSA, OK",5860
1389.0,,79.0,,781.0,,65.0,,781.0,,65.0,,694.0,,66.0,,87.0,,19.0,,0.0,,9.0,,608.0,,63.0,,"Wyandotte OTSA, OK",5890
1570.0,,118.0,,703.0,,83.0,,701.0,,83.0,,649.0,,78.0,,52.0,,19.0,,2.0,,3.0,,867.0,,75.0,,"Creek/Seminole joint-use OTSA, OK",5915
20740.0,,266.0,,12474.0,,360.0,,12474.0,,360.0,,11485.0,,377.0,,989.0,,200.0,,0.0,,17.0,,8266.0,,354.0,,"Kaw/Ponca joint-use OTSA, OK",5950
8852.0,,313.0,,4979.0,,306.0,,4979.0,,306.0,,4332.0,,290.0,,647.0,,158.0,,0.0,,15.0,,3873.0,,278.0,,"Kiowa-Comanche-Apache-Ft Sill Apache/Caddo-Wichita-Delaware joint-use OTSA, OK",5955
3329.0,,130.0,,1958.0,,112.0,,1958.0,,112.0,,1789.0,,105.0,,169.0,,40.0,,0.0,,9.0,,1371.0,,92.0,,"Miami/Peoria joint-use OTSA, OK",5970
56.0,,32.0,,29.0,,27.0,,29.0,,27.0,,21.0,,22.0,,8.0,,8.0,,0.0,,9.0,,27.0,,16.0,,"Akhiok ANVSA, AK",6015
362.0,,36.0,,191.0,,33.0,,191.0,,33.0,,145.0,,25.0,,46.0,,15.0,,0.0,,9.0,,171.0,,27.0,,"Akiachak ANVSA, AK",6020
253.0,,31.0,,163.0,,24.0,,163.0,,24.0,,113.0,,22.0,,50.0,,13.0,,0.0,,9.0,,90.0,,18.0,,"Akiak ANVSA, AK",6025
863.0,,209.0,,849.0,,209.0,,849.0,,209.0,,843.0,,205.0,,6.0,,11.0,,0.0,,9.0,,14.0,,8.0,,"Akutan ANVSA, AK",6030
481.0,,42.0,,229.0,,30.0,,229.0,,30.0,,172.0,,26.0,,57.0,,18.0,,0.0,,9.0,,252.0,,35.0,,"Alakanuk ANVSA, AK",6035
1.0,,2.0,,1.0,,2.0,,1.0,,2.0,,1.0,,2.0,,0.0,,9.0,,0.0,,9.0,,0.0,,9.0,,"Alatna ANVSA, AK",6040
164.0,,31.0,,79.0,,19.0,,79.0,,19.0,,59.0,,13.0,,20.0,,12.0,,0.0,,9.0,,85.0,,19.0,,"Aleknagik ANVSA, AK",6045
332.0,,49.0,,234.0,,46.0,,234.0,,46.0,,188.0,,46.0,,46.0,,13.0,,0.0,,9.0,,98.0,,17.0,,"Algaaciq ANVSA, AK",6065
111.0,,27.0,,73.0,,23.0,,73.0,,23.0,,49.0,,22.0,,24.0,,9.0,,0.0,,9.0,,38.0,,12.0,,"Allakaket ANVSA, AK",6070
179.0,,26.0,,119.0,,18.0,,119.0,,18.0,,98.0,,19.0,,21.0,,9.0,,0.0,,9.0,,60.0,,20.0,,"Ambler ANVSA, AK",6075
175.0,,69.0,,126.0,,65.0,,126.0,,65.0,,79.0,,43.0,,47.0,,50.0,,0.0,,9.0,,49.0,,15.0,,"Anaktuvuk Pass ANVSA, AK",6080
73.0,,18.0,,48.0,,13.0,,48.0,,13.0,,36.0,,12.0,,12.0,,6.0,,0.0,,9.0,,25.0,,11.0,,"Andreafsky ANVSA, AK",6095
321.0,,88.0,,240.0,,91.0,,240.0,,91.0,,204.0,,92.0,,36.0,,15.0,,0.0,,9.0,,81.0,,24.0,,"Angoon ANVSA, AK",6100
377.0,,47.0,,263.0,,38.0,,263.0,,38.0,,224.0,,33.0,,39.0,,12.0,,0.0,,9.0,,114.0,,22.0,,"Aniak ANVSA, AK",6105
61.0,,16.0,,41.0,,14.0,,41.0,,14.0,,40.0,,15.0,,1.0,,3.0,,0.0,,9.0,,20.0,,9.0,,"Anvik ANVSA, AK",6125
101.0,,28.0,,59.0,,22.0,,59.0,,22.0,,46.0,,22.0,,13.0,,10.0,,0.0,,9.0,,42.0,,15.0,,"Arctic Village ANVSA, AK",6140
61.0,,16.0,,37.0,,13.0,,35.0,,13.0,,35.0,,13.0,,0.0,,9.0,,2.0,,2.0,,24.0,,12.0,,"Atka ANVSA, AK",6150
161.0,,27.0,,112.0,,21.0,,112.0,,21.0,,80.0,,18.0,,32.0,,12.0,,0.0,,9.0,,49.0,,13.0,,"Atmautluak ANVSA, AK",6160
117.0,,32.0,,60.0,,21.0,,60.0,,21.0,,54.0,,18.0,,6.0,,5.0,,0.0,,9.0,,57.0,,18.0,,"Atqasuk ANVSA, AK",6165
2857.0,,258.0,,2079.0,,271.0,,2079.0,,271.0,,1785.0,,268.0,,294.0,,82.0,,0.0,,9.0,,778.0,,126.0,,"Barrow ANVSA, AK",6175
57.0,,16.0,,43.0,,15.0,,43.0,,15.0,,38.0,,16.0,,5.0,,4.0,,0.0,,9.0,,14.0,,8.0,,"Beaver ANVSA, AK",6190
0.0,,9.0,,0.0,,9.0,,0.0,,9.0,,0.0,,9.0,,0.0,,9.0,,0.0,,9.0,,0.0,,9.0,,"Belkofski ANVSA, AK",6195
4589.0,,128.0,,3345.0,,192.0,,3345.0,,192.0,,3058.0,,187.0,,287.0,,108.0,,0.0,,12.0,,1244.0,,206.0,,"Bethel ANVSA, AK",6205
0.0,,9.0,,0.0,,9.0,,0.0,,9.0,,0.0,,9.0,,0.0,,9.0,,0.0,,9.0,,0.0,,9.0,,"Bill Moore's ANVSA, AK",6225
1.0,,4.0,,0.0,,9.0,,0.0,,9.0,,0.0,,9.0,,0.0,,9.0,,0.0,,9.0,,1.0,,4.0,,"Birch Creek ANVSA, AK",6235
267.0,,34.0,,159.0,,28.0,,159.0,,28.0,,105.0,,21.0,,54.0,,16.0,,0.0,,9.0,,108.0,,22.0,,"Brevig Mission ANVSA, AK",6240
377.0,,35.0,,210.0,,26.0,,210.0,,26.0,,140.0,,25.0,,70.0,,20.0,,0.0,,9.0,,167.0,,25.0,,"Buckland ANVSA, AK",6250
165.0,,34.0,,111.0,,25.0,,111.0,,25.0,,111.0,,25.0,,0.0,,9.0,,0.0,,9.0,,54.0,,18.0,,"Cantwell ANVSA, AK",6255
0.0,,9.0,,0.0,,9.0,,0.0,,9.0,,0.0,,9.0,,0.0,,9.0,,0.0,,9.0,,0.0,,9.0,,"Canyon Village ANVSA, AK",6257
62.0,,16.0,,39.0,,13.0,,39.0,,13.0,,27.0,,10.0,,12.0,,9.0,,0.0,,9.0,,23.0,,9.0,,"Chalkyitsik ANVSA, AK",6265
337.0,,46.0,,192.0,,36.0,,192.0,,36.0,,147.0,,31.0,,45.0,,15.0,,0.0,,9.0,,145.0,,30.0,,"Chefornak ANVSA, AK",6275
45.0,,31.0,,15.0,,12.0,,15.0,,12.0,,15.0,,12.0,,0.0,,9.0,,0.0,,9.0,,30.0,,25.0,,"Chenega ANVSA, AK",6280
730.0,,85.0,,427.0,,62.0,,427.0,,62.0,,333.0,,56.0,,94.0,,19.0,,0.0,,9.0,,303.0,,42.0,,"Chevak ANVSA, AK",6285
19108.0,,438.0,,12043.0,,347.0,,11891.0,,344.0,,10881.0,,336.0,,1010.0,,109.0,,152.0,,34.0,,7065.0,,311.0,,"Chickaloon ANVSA, AK",6290
50.0,,21.0,,39.0,,17.0,,39.0,,17.0,,39.0,,17.0,,0.0,,9.0,,0.0,,9.0,,11.0,,7.0,,"Chignik ANVSA, AK",6295
61.0,,18.0,,29.0,,13.0,,29.0,,13.0,,29.0,,13.0,,0.0,,9.0,,0.0,,9.0,,32.0,,10.0,,"Chignik Lagoon ANVSA, AK",6300
55.0,,17.0,,43.0,,13.0,,43.0,,13.0,,38.0,,12.0,,5.0,,4.0,,0.0,,9.0,,12.0,,8.0,,"Chignik Lake ANVSA, AK",6305
65.0,,19.0,,40.0,,17.0,,40.0,,17.0,,35.0,,16.0,,5.0,,4.0,,0.0,,9.0,,25.0,,10.0,,"Chilkat ANVSA, AK",6310
307.0,,63.0,,191.0,,46.0,,191.0,,46.0,,182.0,,45.0,,9.0,,8.0,,0.0,,9.0,,116.0,,30.0,,"Chilkoot ANVSA, AK",6315
56.0,,41.0,,30.0,,26.0,,30.0,,26.0,,22.0,,22.0,,8.0,,12.0,,0.0,,9.0,,26.0,,23.0,,"Chistochina ANVSA, AK",6325
39.0,,19.0,,22.0,,13.0,,22.0,,13.0,,16.0,,11.0,,6.0,,6.0,,0.0,,9.0,,17.0,,14.0,,"Chitina ANVSA, AK",6330
70.0,,19.0,,50.0,,19.0,,50.0,,19.0,,35.0,,14.0,,15.0,,8.0,,0.0,,9.0,,20.0,,10.0,,"Chuathbaluk ANVSA, AK",6335
0.0,,9.0,,0.0,,9.0,,0.0,,9.0,,0.0,,9.0,,0.0,,9.0,,0.0,,9.0,,0.0,,9.0,,"Chulloonawick ANVSA, AK",6340
79.0,,24.0,,39.0,,19.0,,39.0,,19.0,,37.0,,19.0,,2.0,,3.0,,0.0,,9.0,,40.0,,14.0,,"Circle ANVSA, AK",6350
39.0,,16.0,,24.0,,12.0,,24.0,,12.0,,21.0,,11.0,,3.0,,3.0,,0.0,,9.0,,15.0,,8.0,,"Clarks Point ANVSA, AK",6360
430.0,,100.0,,264.0,,71.0,,264.0,,71.0,,222.0,,64.0,,42.0,,18.0,,0.0,,9.0,,166.0,,57.0,,"Copper Center ANVSA, AK",6365
0.0,,9.0,,0.0,,9.0,,0.0,,9.0,,0.0,,9.0,,0.0,,9.0,,0.0,,9.0,,0.0,,9.0,,"Council ANVSA, AK",6380
1311.0,,91.0,,924.0,,80.0,,924.0,,80.0,,833.0,,77.0,,91.0,,22.0,,0.0,,9.0,,387.0,,48.0,,"Craig ANVSA, AK",6385
66.0,,16.0,,48.0,,14.0,,48.0,,14.0,,33.0,,12.0,,15.0,,8.0,,0.0,,9.0,,18.0,,8.0,,"Crooked Creek ANVSA, AK",6390
101.0,,21.0,,66.0,,23.0,,66.0,,23.0,,53.0,,17.0,,13.0,,10.0,,0.0,,9.0,,35.0,,16.0,,"Deering ANVSA, AK",6400
1708.0,,121.0,,1169.0,,91.0,,1169.0,,91.0,,1092.0,,93.0,,77.0,,25.0,,0.0,,9.0,,539.0,,75.0,,"Dillingham ANVSA, AK",6405
44.0,,21.0,,28.0,,16.0,,28.0,,16.0,,8.0,,7.0,,20.0,,12.0,,0.0,,9.0,,16.0,,10.0,,"Dot Lake ANVSA, AK",6415
4797.0,,206.0,,3729.0,,202.0,,3668.0,,195.0,,3480.0,,182.0,,188.0,,56.0,,61.0,,27.0,,1068.0,,110.0,,"Douglas ANVSA, AK",6420
17.0,,10.0,,8.0,,6.0,,8.0,,6.0,,2.0,,3.0,,6.0,,5.0,,0.0,,9.0,,9.0,,7.0,,"Eagle ANVSA, AK",6430
282.0,,29.0,,148.0,,29.0,,148.0,,29.0,,109.0,,20.0,,39.0,,17.0,,0.0,,9.0,,134.0,,19.0,,"Eek ANVSA, AK",6440
58.0,,19.0,,34.0,,21.0,,34.0,,21.0,,32.0,,23.0,,2.0,,3.0,,0.0,,9.0,,24.0,,16.0,,"Egegik ANVSA, AK",6445
25.0,,9.0,,14.0,,8.0,,14.0,,8.0,,9.0,,8.0,,5.0,,4.0,,0.0,,9.0,,11.0,,8.0,,"Eklutna ANVSA, AK",6450
0.0,,9.0,,0.0,,9.0,,0.0,,9.0,,0.0,,9.0,,0.0,,9.0,,0.0,,9.0,,0.0,,9.0,,"Ekuk ANVSA, AK",6455
58.0,,16.0,,37.0,,13.0,,37.0,,13.0,,30.0,,12.0,,7.0,,7.0,,0.0,,9.0,,21.0,,8.0,,"Ekwok ANVSA, AK",6460
220.0,,24.0,,126.0,,18.0,,126.0,,18.0,,101.0,,17.0,,25.0,,8.0,,0.0,,9.0,,94.0,,18.0,,"Elim ANVSA, AK",6470
585.0,,44.0,,344.0,,46.0,,341.0,,48.0,,247.0,,53.0,,94.0,,23.0,,3.0,,4.0,,241.0,,36.0,,"Emmonak ANVSA, AK",6480
36.0,,24.0,,26.0,,24.0,,26.0,,24.0,,26.0,,24.0,,0.0,,9.0,,0.0,,9.0,,10.0,,5.0,,"Evansville ANVSA, AK",6490
165.0,,75.0,,134.0,,66.0,,134.0,,66.0,,120.0,,61.0,,14.0,,18.0,,0.0,,9.0,,31.0,,18.0,,"Eyak ANVSA, AK",6495
35.0,,16.0,,33.0,,14.0,,33.0,,14.0,,33.0,,14.0,,0.0,,9.0,,0.0,,9.0,,2.0,,3.0,,"False Pass ANVSA, AK",6500
407.0,,37.0,,243.0,,34.0,,243.0,,34.0,,212.0,,31.0,,31.0,,14.0,,0.0,,9.0,,164.0,,26.0,,"Fort Yukon ANVSA, AK",6515
78.0,,30.0,,41.0,,18.0,,41.0,,18.0,,35.0,,16.0,,6.0,,7.0,,0.0,,9.0,,37.0,,22.0,,"Gakona ANVSA, AK",6520
406.0,,37.0,,264.0,,28.0,,264.0,,28.0,,244.0,,27.0,,20.0,,9.0,,0.0,,9.0,,142.0,,21.0,,"Galena ANVSA, AK",6525
508.0,,90.0,,297.0,,87.0,,297.0,,87.0,,206.0,,85.0,,91.0,,19.0,,0.0,,9.0,,211.0,,33.0,,"Gambell ANVSA, AK",6530
0.0,,9.0,,0.0,,9.0,,0.0,,9.0,,0.0,,9.0,,0.0,,9.0,,0.0,,9.0,,0.0,,9.0,,"Georgetown ANVSA, AK",6535
87.0,,18.0,,72.0,,17.0,,72.0,,17.0,,57.0,,14.0,,15.0,,9.0,,0.0,,9.0,,15.0,,8.0,,"Golovin ANVSA, AK",6540
148.0,,28.0,,67.0,,14.0,,67.0,,14.0,,53.0,,12.0,,14.0,,6.0,,0.0,,9.0,,81.0,,20.0,,"Goodnews Bay ANVSA, AK",6545
116.0,,35.0,,67.0,,20.0,,67.0,,20.0,,41.0,,17.0,,26.0,,10.0,,0.0,,9.0,,49.0,,21.0,,"Grayling ANVSA, AK",6550
90.0,,46.0,,49.0,,32.0,,49.0,,32.0,,40.0,,22.0,,9.0,,13.0,,0.0,,9.0,,41.0,,27.0,,"Gulkana ANVSA, AK",6560
0.0,,9.0,,0.0,,9.0,,0.0,,9.0,,0.0,,9.0,,0.0,,9.0,,0.0,,9.0,,0.0,,9.0,,"Hamilton ANVSA, AK",6570
0.0,,9.0,,0.0,,9.0,,0.0,,9.0,,0.0,,9.0,,0.0,,9.0,,0.0,,9.0,,0.0,,9.0,,"Healy Lake ANVSA, AK",6575
162.0,,39.0,,111.0,,26.0,,111.0,,26.0,,83.0,,17.0,,28.0,,17.0,,0.0,,9.0,,51.0,,21.0,,"Holy Cross ANVSA, AK",6585
662.0,,63.0,,449.0,,53.0,,449.0,,53.0,,376.0,,52.0,,73.0,,25.0,,0.0,,9.0,,213.0,,37.0,,"Hoonah ANVSA, AK",6590
617.0,,46.0,,373.0,,35.0,,373.0,,35.0,,226.0,,32.0,,147.0,,26.0,,0.0,,9.0,,244.0,,30.0,,"Hooper Bay ANVSA, AK",6595
38.0,,22.0,,24.0,,17.0,,24.0,,17.0,,21.0,,14.0,,3.0,,4.0,,0.0,,9.0,,14.0,,9.0,,"Hughes ANVSA, AK",6605
264.0,,32.0,,153.0,,24.0,,153.0,,24.0,,135.0,,23.0,,18.0,,9.0,,0.0,,9.0,,111.0,,21.0,,"Huslia ANVSA, AK",6610
217.0,,43.0,,121.0,,28.0,,121.0,,28.0,,95.0,,25.0,,26.0,,14.0,,0.0,,9.0,,96.0,,28.0,,"Hydaburg ANVSA, AK",6615
33.0,,12.0,,24.0,,11.0,,24.0,,11.0,,22.0,,11.0,,2.0,,3.0,,0.0,,9.0,,9.0,,6.0,,"Igiugig ANVSA, AK",6620
62.0,,19.0,,39.0,,14.0,,39.0,,14.0,,37.0,,12.0,,2.0,,4.0,,0.0,,9.0,,23.0,,11.0,,"Iliamna ANVSA, AK",6625
26.0,,14.0,,20.0,,11.0,,20.0,,11.0,,20.0,,11.0,,0.0,,9.0,,0.0,,9.0,,6.0,,6.0,,"Inalik ANVSA, AK",6630
0.0,,9.0,,0.0,,9.0,,0.0,,9.0,,0.0,,9.0,,0.0,,9.0,,0.0,,9.0,,0.0,,9.0,,"Ivanof Bay ANVSA, AK",6650
482.0,,69.0,,293.0,,56.0,,293.0,,56.0,,211.0,,42.0,,82.0,,31.0,,0.0,,9.0,,189.0,,38.0,,"Kake ANVSA, AK",6670
115.0,,31.0,,75.0,,19.0,,66.0,,17.0,,57.0,,16.0,,9.0,,8.0,,9.0,,10.0,,40.0,,25.0,,"Kaktovik ANVSA, AK",6680
170.0,,24.0,,89.0,,19.0,,89.0,,19.0,,69.0,,15.0,,20.0,,10.0,,0.0,,9.0,,81.0,,18.0,,"Kalskag ANVSA, AK",6685
158.0,,38.0,,93.0,,32.0,,93.0,,32.0,,61.0,,24.0,,32.0,,12.0,,0.0,,9.0,,65.0,,16.0,,"Kaltag ANVSA, AK",6690
33.0,,24.0,,14.0,,14.0,,14.0,,14.0,,12.0,,12.0,,2.0,,4.0,,0.0,,9.0,,19.0,,14.0,,"Karluk ANVSA, AK",6700
54.0,,31.0,,38.0,,22.0,,38.0,,22.0,,38.0,,22.0,,0.0,,9.0,,0.0,,9.0,,16.0,,13.0,,"Kasaan ANVSA, AK",6705
387.0,,36.0,,203.0,,25.0,,203.0,,25.0,,142.0,,20.0,,61.0,,13.0,,0.0,,9.0,,184.0,,26.0,,"Kasigluk ANVSA, AK",6710
26667.0,,555.0,,16877.0,,551.0,,16798.0,,570.0,,15259.0,,614.0,,1539.0,,235.0,,79.0,,62.0,,9790.0,,504.0,,"Kenaitze ANVSA, AK",6720
10488.0,,82.0,,7202.0,,214.0,,7011.0,,212.0,,6471.0,,224.0,,540.0,,103.0,,191.0,,63.0,,3286.0,,199.0,,"Ketchikan ANVSA, AK",6725
263.0,,52.0,,147.0,,36.0,,147.0,,36.0,,94.0,,27.0,,53.0,,17.0,,0.0,,9.0,,116.0,,26.0,,"Kiana ANVSA, AK",6730
952.0,,168.0,,798.0,,182.0,,798.0,,182.0,,780.0,,184.0,,18.0,,10.0,,0.0,,9.0,,154.0,,41.0,,"King Cove ANVSA, AK",6735
131.0,,31.0,,96.0,,27.0,,96.0,,27.0,,88.0,,26.0,,8.0,,7.0,,0.0,,9.0,,35.0,,14.0,,"King Salmon ANVSA, AK",6740
473.0,,44.0,,235.0,,32.0,,235.0,,32.0,,165.0,,29.0,,70.0,,14.0,,0.0,,9.0,,238.0,,36.0,,"Kipnuk ANVSA, AK",6750
376.0,,39.0,,198.0,,28.0,,198.0,,28.0,,146.0,,26.0,,52.0,,17.0,,0.0,,9.0,,178.0,,26.0,,"Kivalina ANVSA, AK",6755
524.0,,66.0,,344.0,,54.0,,344.0,,54.0,,277.0,,42.0,,67.0,,20.0,,0.0,,9.0,,180.0,,35.0,,"Klawock ANVSA, AK",6765
53085.0,,464.0,,33598.0,,661.0,,33301.0,,653.0,,29932.0,,660.0,,3369.0,,374.0,,297.0,,79.0,,19487.0,,655.0,,"Knik ANVSA, AK",6785
85.0,,22.0,,58.0,,18.0,,58.0,,18.0,,41.0,,14.0,,17.0,,8.0,,0.0,,9.0,,27.0,,12.0,,"Kobuk ANVSA, AK",6790
0.0,,9.0,,0.0,,9.0,,0.0,,9.0,,0.0,,9.0,,0.0,,9.0,,0.0,,9.0,,0.0,,9.0,,"Kodiak ANVSA, AK",6795
113.0,,24.0,,70.0,,19.0,,70.0,,19.0,,52.0,,15.0,,18.0,,8.0,,0.0,,9.0,,43.0,,14.0,,"Kokhanok ANVSA, AK",6800
283.0,,38.0,,167.0,,31.0,,167.0,,31.0,,113.0,,20.0,,54.0,,18.0,,0.0,,9.0,,116.0,,20.0,,"Kongiganak ANVSA, AK",6810
429.0,,38.0,,241.0,,31.0,,241.0,,31.0,,199.0,,32.0,,42.0,,14.0,,0.0,,9.0,,188.0,,26.0,,"Kotlik ANVSA, AK",6815
2369.0,,58.0,,1654.0,,87.0,,1654.0,,87.0,,1420.0,,87.0,,234.0,,42.0,,0.0,,9.0,,715.0,,77.0,,"Kotzebue ANVSA, AK",6820
158.0,,22.0,,96.0,,18.0,,96.0,,18.0,,67.0,,14.0,,29.0,,11.0,,0.0,,9.0,,62.0,,14.0,,"Koyuk ANVSA, AK",6825
54.0,,17.0,,25.0,,8.0,,25.0,,8.0,,19.0,,7.0,,6.0,,4.0,,0.0,,9.0,,29.0,,13.0,,"Koyukuk ANVSA, AK",6830
523.0,,41.0,,263.0,,27.0,,263.0,,27.0,,192.0,,24.0,,71.0,,14.0,,0.0,,9.0,,260.0,,33.0,,"Kwethluk ANVSA, AK",6835
225.0,,35.0,,114.0,,27.0,,114.0,,27.0,,92.0,,30.0,,22.0,,13.0,,0.0,,9.0,,111.0,,21.0,,"Kwigillingok ANVSA, AK",6840
457.0,,54.0,,243.0,,51.0,,243.0,,51.0,,168.0,,45.0,,75.0,,13.0,,0.0,,9.0,,214.0,,46.0,,"Kwinhagak ANVSA, AK",6845
16.0,,10.0,,12.0,,8.0,,12.0,,8.0,,12.0,,8.0,,0.0,,9.0,,0.0,,9.0,,4.0,,4.0,,"Lake Minchumina ANVSA, AK",6850
49.0,,24.0,,34.0,,20.0,,34.0,,20.0,,33.0,,19.0,,1.0,,3.0,,0.0,,9.0,,15.0,,12.0,,"Larsen Bay ANVSA, AK",6855
0.0,,9.0,,0.0,,9.0,,0.0,,9.0,,0.0,,9.0,,0.0,,9.0,,0.0,,9.0,,0.0,,9.0,,"Lesnoi ANVSA, AK",6860
70.0,,18.0,,49.0,,13.0,,49.0,,13.0,,45.0,,12.0,,4.0,,4.0,,0.0,,9.0,,21.0,,11.0,,"Levelock ANVSA, AK",6865
7.0,,6.0,,0.0,,9.0,,0.0,,9.0,,0.0,,9.0,,0.0,,9.0,,0.0,,9.0,,7.0,,6.0,,"Lime Village ANVSA, AK",6875
228.0,,39.0,,135.0,,33.0,,135.0,,33.0,,105.0,,30.0,,30.0,,11.0,,0.0,,9.0,,93.0,,17.0,,"Lower Kalskag ANVSA, AK",6890
243.0,,32.0,,177.0,,25.0,,177.0,,25.0,,147.0,,23.0,,30.0,,12.0,,0.0,,9.0,,66.0,,18.0,,"McGrath ANVSA, AK",6895
65.0,,21.0,,45.0,,16.0,,45.0,,16.0,,41.0,,15.0,,4.0,,4.0,,0.0,,9.0,,20.0,,10.0,,"Manley Hot Springs ANVSA, AK",6900
520.0,,127.0,,292.0,,119.0,,292.0,,119.0,,255.0,,119.0,,37.0,,11.0,,0.0,,9.0,,228.0,,41.0,,"Manokotak ANVSA, AK",6905
222.0,,33.0,,143.0,,30.0,,143.0,,30.0,,99.0,,23.0,,44.0,,15.0,,0.0,,9.0,,79.0,,16.0,,"Marshall ANVSA, AK",6910
0.0,,9.0,,0.0,,9.0,,0.0,,9.0,,0.0,,9.0,,0.0,,9.0,,0.0,,9.0,,0.0,,9.0,,"Mary's Igloo ANVSA, AK",6915
132.0,,23.0,,90.0,,21.0,,90.0,,21.0,,65.0,,17.0,,25.0,,10.0,,0.0,,9.0,,42.0,,11.0,,"Mekoryuk ANVSA, AK",6935
127.0,,51.0,,58.0,,29.0,,58.0,,29.0,,44.0,,24.0,,14.0,,14.0,,0.0,,9.0,,69.0,,37.0,,"Mentasta Lake ANVSA, AK",6945
200.0,,36.0,,130.0,,28.0,,130.0,,28.0,,79.0,,21.0,,51.0,,20.0,,0.0,,9.0,,70.0,,20.0,,"Minto ANVSA, AK",6965
473.0,,42.0,,275.0,,32.0,,275.0,,32.0,,193.0,,27.0,,82.0,,21.0,,0.0,,9.0,,198.0,,28.0,,"Mountain Village ANVSA, AK",6975
451.0,,57.0,,326.0,,49.0,,326.0,,49.0,,312.0,,49.0,,14.0,,7.0,,0.0,,9.0,,125.0,,28.0,,"Naknek ANVSA, AK",6990
131.0,,29.0,,106.0,,24.0,,106.0,,24.0,,77.0,,20.0,,29.0,,16.0,,0.0,,9.0,,25.0,,16.0,,"Nanwalek ANVSA, AK",6995
0.0,,9.0,,0.0,,9.0,,0.0,,9.0,,0.0,,9.0,,0.0,,9.0,,0.0,,9.0,,0.0,,9.0,,"Napaimute ANVSA, AK",7005
211.0,,27.0,,127.0,,24.0,,127.0,,24.0,,97.0,,20.0,,30.0,,11.0,,0.0,,9.0,,84.0,,20.0,,"Napakiak ANVSA, AK",7010
264.0,,31.0,,124.0,,24.0,,124.0,,24.0,,98.0,,20.0,,26.0,,9.0,,0.0,,9.0,,140.0,,20.0,,"Napaskiak ANVSA, AK",7020
42.0,,20.0,,31.0,,14.0,,31.0,,14.0,,29.0,,14.0,,2.0,,2.0,,0.0,,9.0,,11.0,,9.0,,"Nelson Lagoon ANVSA, AK",7025
334.0,,41.0,,211.0,,31.0,,211.0,,31.0,,166.0,,28.0,,45.0,,16.0,,0.0,,9.0,,123.0,,25.0,,"Nenana ANVSA, AK",7030
102.0,,24.0,,71.0,,18.0,,71.0,,18.0,,67.0,,17.0,,4.0,,4.0,,0.0,,9.0,,31.0,,12.0,,"Newhalen ANVSA, AK",7035
82.0,,23.0,,39.0,,11.0,,39.0,,11.0,,31.0,,10.0,,8.0,,6.0,,0.0,,9.0,,43.0,,17.0,,"New Koliganek ANVSA, AK",7040
402.0,,44.0,,214.0,,31.0,,214.0,,31.0,,152.0,,30.0,,62.0,,22.0,,0.0,,9.0,,188.0,,31.0,,"New Stuyahok ANVSA, AK",7050
240.0,,28.0,,123.0,,18.0,,123.0,,18.0,,89.0,,20.0,,34.0,,14.0,,0.0,,9.0,,117.0,,21.0,,"Newtok ANVSA, AK",7055
169.0,,35.0,,87.0,,19.0,,87.0,,19.0,,71.0,,17.0,,16.0,,8.0,,0.0,,9.0,,82.0,,24.0,,"Nightmute ANVSA, AK",7065
98.0,,28.0,,42.0,,15.0,,42.0,,15.0,,27.0,,12.0,,15.0,,7.0,,0.0,,9.0,,56.0,,23.0,,"Nikolai ANVSA, AK",7070
32.0,,10.0,,19.0,,7.0,,19.0,,7.0,,19.0,,7.0,,0.0,,9.0,,0.0,,9.0,,13.0,,6.0,,"Nikolski ANVSA, AK",7075
11926.0,,369.0,,7296.0,,295.0,,7251.0,,293.0,,6587.0,,301.0,,664.0,,94.0,,45.0,,16.0,,4630.0,,227.0,,"Ninilchik ANVSA, AK",7080
296.0,,37.0,,158.0,,24.0,,158.0,,24.0,,124.0,,22.0,,34.0,,10.0,,0.0,,9.0,,138.0,,22.0,,"Noatak ANVSA, AK",7085
2796.0,,95.0,,2044.0,,96.0,,2040.0,,96.0,,1852.0,,91.0,,188.0,,40.0,,4.0,,7.0,,752.0,,85.0,,"Nome ANVSA, AK",7095
130.0,,30.0,,90.0,,25.0,,90.0,,25.0,,68.0,,24.0,,22.0,,9.0,,0.0,,9.0,,40.0,,13.0,,"Nondalton ANVSA, AK",7100
392.0,,46.0,,214.0,,29.0,,214.0,,29.0,,133.0,,24.0,,81.0,,19.0,,0.0,,9.0,,178.0,,30.0,,"Noorvik ANVSA, AK",7110
221.0,,54.0,,100.0,,31.0,,100.0,,31.0,,67.0,,21.0,,33.0,,17.0,,0.0,,9.0,,121.0,,45.0,,"Northway ANVSA, AK",7115
236.0,,61.0,,148.0,,43.0,,148.0,,43.0,,117.0,,31.0,,31.0,,20.0,,0.0,,9.0,,88.0,,26.0,,"Nuiqsut ANVSA, AK",7125
224.0,,33.0,,119.0,,19.0,,119.0,,19.0,,93.0,,18.0,,26.0,,10.0,,0.0,,9.0,,105.0,,22.0,,"Nulato ANVSA, AK",7130
98.0,,27.0,,50.0,,21.0,,50.0,,21.0,,42.0,,18.0,,8.0,,9.0,,0.0,,9.0,,48.0,,19.0,,"Nunam Iqua ANVSA, AK",7133
329.0,,41.0,,205.0,,30.0,,205.0,,30.0,,161.0,,31.0,,44.0,,12.0,,0.0,,9.0,,124.0,,24.0,,"Nunapitchuk ANVSA, AK",7135
0.0,,9.0,,0.0,,9.0,,0.0,,9.0,,0.0,,9.0,,0.0,,9.0,,0.0,,9.0,,0.0,,9.0,,"Ohogamiut ANVSA, AK",7145
211.0,,55.0,,116.0,,35.0,,116.0,,35.0,,107.0,,32.0,,9.0,,10.0,,0.0,,9.0,,95.0,,35.0,,"Old Harbor ANVSA, AK",7150
14.0,,9.0,,7.0,,4.0,,7.0,,4.0,,5.0,,4.0,,2.0,,2.0,,0.0,,9.0,,7.0,,6.0,,"Oscarville ANVSA, AK",7175
195.0,,57.0,,113.0,,40.0,,109.0,,38.0,,71.0,,26.0,,38.0,,24.0,,4.0,,8.0,,82.0,,29.0,,"Ouzinkie ANVSA, AK",7180
0.0,,9.0,,0.0,,9.0,,0.0,,9.0,,0.0,,9.0,,0.0,,9.0,,0.0,,9.0,,0.0,,9.0,,"Paimiut ANVSA, AK",7185
12.0,,8.0,,10.0,,7.0,,10.0,,7.0,,10.0,,7.0,,0.0,,9.0,,0.0,,9.0,,2.0,,3.0,,"Pedro Bay ANVSA, AK",7205
63.0,,18.0,,28.0,,11.0,,28.0,,11.0,,21.0,,10.0,,7.0,,6.0,,0.0,,9.0,,35.0,,12.0,,"Perryville ANVSA, AK",7215
2035.0,,122.0,,1454.0,,128.0,,1437.0,,127.0,,1362.0,,121.0,,75.0,,22.0,,17.0,,8.0,,581.0,,68.0,,"Petersburg ANVSA, AK",7220
37.0,,12.0,,24.0,,10.0,,24.0,,10.0,,21.0,,9.0,,3.0,,5.0,,0.0,,9.0,,13.0,,7.0,,"Pilot Point ANVSA, AK",7225
359.0,,30.0,,218.0,,25.0,,218.0,,25.0,,128.0,,21.0,,90.0,,16.0,,0.0,,9.0,,141.0,,21.0,,"Pilot Station ANVSA, AK",7230
91.0,,20.0,,59.0,,15.0,,59.0,,15.0,,35.0,,10.0,,24.0,,9.0,,0.0,,9.0,,32.0,,10.0,,"Pitkas Point ANVSA, AK",7235
22.0,,10.0,,11.0,,6.0,,11.0,,6.0,,11.0,,6.0,,0.0,,9.0,,0.0,,9.0,,11.0,,6.0,,"Platinum ANVSA, AK",7245
356.0,,98.0,,242.0,,68.0,,242.0,,68.0,,176.0,,52.0,,66.0,,22.0,,0.0,,9.0,,114.0,,35.0,,"Point Hope ANVSA, AK",7250
164.0,,49.0,,110.0,,35.0,,110.0,,35.0,,92.0,,30.0,,18.0,,8.0,,0.0,,9.0,,54.0,,19.0,,"Point Lay ANVSA, AK",7255
0.0,,9.0,,0.0,,9.0,,0.0,,9.0,,0.0,,9.0,,0.0,,9.0,,0.0,,9.0,,0.0,,9.0,,"Portage Creek ANVSA, AK",7260
94.0,,18.0,,76.0,,16.0,,76.0,,16.0,,74.0,,17.0,,2.0,,5.0,,0.0,,9.0,,18.0,,9.0,,"Port Alsworth ANVSA, AK",7263
150.0,,37.0,,109.0,,30.0,,109.0,,30.0,,86.0,,26.0,,23.0,,15.0,,0.0,,9.0,,41.0,,16.0,,"Port Graham ANVSA, AK",7265
65.0,,19.0,,43.0,,16.0,,43.0,,16.0,,43.0,,16.0,,0.0,,9.0,,0.0,,9.0,,22.0,,9.0,,"Port Heiden ANVSA, AK",7270
201.0,,38.0,,91.0,,20.0,,89.0,,19.0,,73.0,,19.0,,16.0,,9.0,,2.0,,4.0,,110.0,,29.0,,"Port Lions ANVSA, AK",7275
7.0,,7.0,,5.0,,6.0,,5.0,,6.0,,5.0,,6.0,,0.0,,9.0,,0.0,,9.0,,2.0,,3.0,,"Rampart ANVSA, AK",7300
19.0,,9.0,,14.0,,9.0,,14.0,,9.0,,14.0,,9.0,,0.0,,9.0,,0.0,,9.0,,5.0,,4.0,,"Red Devil ANVSA, AK",7305
136.0,,26.0,,80.0,,17.0,,80.0,,17.0,,55.0,,14.0,,25.0,,12.0,,0.0,,9.0,,56.0,,16.0,,"Ruby ANVSA, AK",7310
271.0,,42.0,,140.0,,27.0,,140.0,,27.0,,84.0,,20.0,,56.0,,16.0,,0.0,,9.0,,131.0,,26.0,,"Russian Mission ANVSA, AK",7315
47.0,,14.0,,27.0,,11.0,,27.0,,11.0,,27.0,,11.0,,0.0,,9.0,,0.0,,9.0,,20.0,,9.0,,"St. George ANVSA, AK",7340
228.0,,29.0,,149.0,,23.0,,149.0,,23.0,,121.0,,24.0,,28.0,,16.0,,0.0,,9.0,,79.0,,22.0,,"St. Michael ANVSA, AK",7375
475.0,,79.0,,302.0,,73.0,,287.0,,72.0,,266.0,,71.0,,21.0,,9.0,,15.0,,16.0,,173.0,,29.0,,"St. Paul ANVSA, AK",7390
933.0,,115.0,,340.0,,62.0,,340.0,,62.0,,306.0,,55.0,,34.0,,28.0,,0.0,,9.0,,593.0,,104.0,,"Salamatof ANVSA, AK",7400
965.0,,150.0,,808.0,,135.0,,808.0,,135.0,,760.0,,127.0,,48.0,,34.0,,0.0,,9.0,,157.0,,37.0,,"Sand Point ANVSA, AK",7410
569.0,,48.0,,327.0,,35.0,,327.0,,35.0,,213.0,,33.0,,114.0,,22.0,,0.0,,9.0,,242.0,,34.0,,"Savoonga ANVSA, AK",7415
337.0,,56.0,,195.0,,44.0,,193.0,,43.0,,161.0,,38.0,,32.0,,17.0,,2.0,,3.0,,142.0,,31.0,,"Saxman ANVSA, AK",7420
279.0,,27.0,,113.0,,16.0,,113.0,,16.0,,82.0,,14.0,,31.0,,10.0,,0.0,,9.0,,166.0,,27.0,,"Scammon Bay ANVSA, AK",7425
484.0,,40.0,,265.0,,30.0,,265.0,,30.0,,168.0,,26.0,,97.0,,28.0,,0.0,,9.0,,219.0,,26.0,,"Selawik ANVSA, AK",7430
394.0,,60.0,,231.0,,48.0,,231.0,,48.0,,216.0,,44.0,,15.0,,14.0,,0.0,,9.0,,163.0,,27.0,,"Seldovia ANVSA, AK",7435
35.0,,14.0,,30.0,,16.0,,30.0,,16.0,,27.0,,15.0,,3.0,,3.0,,0.0,,9.0,,5.0,,5.0,,"Shageluk ANVSA, AK",7440
156.0,,23.0,,95.0,,18.0,,95.0,,18.0,,75.0,,18.0,,20.0,,8.0,,0.0,,9.0,,61.0,,17.0,,"Shaktoolik ANVSA, AK",7450
360.0,,33.0,,169.0,,27.0,,169.0,,27.0,,139.0,,22.0,,30.0,,11.0,,0.0,,9.0,,191.0,,33.0,,"Shishmaref ANVSA, AK",7465
211.0,,30.0,,133.0,,21.0,,133.0,,21.0,,85.0,,21.0,,48.0,,20.0,,0.0,,9.0,,78.0,,24.0,,"Shungnak ANVSA, AK",7470
3967.0,,242.0,,2770.0,,185.0,,2718.0,,182.0,,2610.0,,172.0,,108.0,,39.0,,52.0,,27.0,,1197.0,,120.0,,"Sitka ANVSA, AK",7475
862.0,,110.0,,733.0,,113.0,,733.0,,113.0,,676.0,,117.0,,57.0,,24.0,,0.0,,9.0,,129.0,,26.0,,"Skagway ANVSA, AK",7485
58.0,,18.0,,34.0,,12.0,,34.0,,12.0,,26.0,,11.0,,8.0,,6.0,,0.0,,9.0,,24.0,,14.0,,"Sleetmute ANVSA, AK",7495
0.0,,9.0,,0.0,,9.0,,0.0,,9.0,,0.0,,9.0,,0.0,,9.0,,0.0,,9.0,,0.0,,9.0,,"Solomon ANVSA, AK",7500
59.0,,18.0,,40.0,,17.0,,40.0,,17.0,,33.0,,14.0,,7.0,,5.0,,0.0,,9.0,,19.0,,7.0,,"South Naknek ANVSA, AK",7505
358.0,,40.0,,172.0,,27.0,,172.0,,27.0,,130.0,,25.0,,42.0,,13.0,,0.0,,9.0,,186.0,,31.0,,"Stebbins ANVSA, AK",7510
23.0,,13.0,,8.0,,7.0,,8.0,,7.0,,8.0,,7.0,,0.0,,9.0,,0.0,,9.0,,15.0,,10.0,,"Stevens Village ANVSA, AK",7520
25.0,,14.0,,12.0,,6.0,,12.0,,6.0,,8.0,,6.0,,4.0,,4.0,,0.0,,9.0,,13.0,,11.0,,"Stony River ANVSA, AK",7525
31.0,,14.0,,20.0,,8.0,,20.0,,8.0,,15.0,,7.0,,5.0,,5.0,,0.0,,9.0,,11.0,,12.0,,"Takotna ANVSA, AK",7530
102.0,,26.0,,40.0,,17.0,,40.0,,17.0,,23.0,,12.0,,17.0,,10.0,,0.0,,9.0,,62.0,,23.0,,"Tanacross ANVSA, AK",7535
221.0,,50.0,,125.0,,30.0,,125.0,,30.0,,118.0,,30.0,,7.0,,7.0,,0.0,,9.0,,96.0,,30.0,,"Tanana ANVSA, AK",7540
77.0,,33.0,,51.0,,28.0,,51.0,,28.0,,51.0,,28.0,,0.0,,9.0,,0.0,,9.0,,26.0,,13.0,,"Tatitlek ANVSA, AK",7555
320.0,,103.0,,209.0,,72.0,,209.0,,72.0,,154.0,,54.0,,55.0,,34.0,,0.0,,9.0,,111.0,,47.0,,"Tazlina ANVSA, AK",7560
3.0,,3.0,,1.0,,2.0,,1.0,,2.0,,1.0,,2.0,,0.0,,9.0,,0.0,,9.0,,2.0,,3.0,,"Telida ANVSA, AK",7565
118.0,,29.0,,69.0,,19.0,,69.0,,19.0,,58.0,,15.0,,11.0,,8.0,,0.0,,9.0,,49.0,,16.0,,"Teller ANVSA, AK",7570
71.0,,36.0,,33.0,,15.0,,33.0,,15.0,,25.0,,13.0,,8.0,,7.0,,0.0,,9.0,,38.0,,30.0,,"Tetlin ANVSA, AK",7580
534.0,,61.0,,233.0,,38.0,,233.0,,38.0,,184.0,,33.0,,49.0,,15.0,,0.0,,9.0,,301.0,,43.0,,"Togiak ANVSA, AK",7605
362.0,,45.0,,231.0,,31.0,,231.0,,31.0,,185.0,,26.0,,46.0,,14.0,,0.0,,9.0,,131.0,,25.0,,"Toksook Bay ANVSA, AK",7625
256.0,,92.0,,167.0,,92.0,,167.0,,92.0,,135.0,,91.0,,32.0,,10.0,,0.0,,9.0,,89.0,,18.0,,"Tuluksak ANVSA, AK",7630
300.0,,31.0,,169.0,,21.0,,169.0,,21.0,,118.0,,18.0,,51.0,,13.0,,0.0,,9.0,,131.0,,21.0,,"Tuntutuliak ANVSA, AK",7640
201.0,,28.0,,113.0,,17.0,,113.0,,17.0,,82.0,,13.0,,31.0,,12.0,,0.0,,9.0,,88.0,,20.0,,"Tununak ANVSA, AK",7645
62.0,,16.0,,31.0,,11.0,,31.0,,11.0,,30.0,,12.0,,1.0,,2.0,,0.0,,9.0,,31.0,,10.0,,"Twin Hills ANVSA, AK",7650
186.0,,57.0,,123.0,,53.0,,123.0,,53.0,,94.0,,42.0,,29.0,,23.0,,0.0,,9.0,,63.0,,25.0,,"Tyonek ANVSA, AK",7655
12.0,,11.0,,8.0,,9.0,,8.0,,9.0,,8.0,,9.0,,0.0,,9.0,,0.0,,9.0,,4.0,,4.0,,"Ugashik ANVSA, AK",7665
554.0,,79.0,,361.0,,73.0,,361.0,,73.0,,312.0,,78.0,,49.0,,21.0,,0.0,,9.0,,193.0,,30.0,,"Unalakleet ANVSA, AK",7690
3821.0,,126.0,,3273.0,,143.0,,3266.0,,144.0,,3211.0,,143.0,,55.0,,22.0,,7.0,,7.0,,548.0,,65.0,,"Unalaska ANVSA, AK",7695
116.0,,25.0,,56.0,,16.0,,56.0,,16.0,,47.0,,15.0,,9.0,,6.0,,0.0,,9.0,,60.0,,16.0,,"Venetie ANVSA, AK",7725
308.0,,73.0,,193.0,,44.0,,193.0,,44.0,,146.0,,34.0,,47.0,,16.0,,0.0,,9.0,,115.0,,41.0,,"Wainwright ANVSA, AK",7735
107.0,,22.0,,68.0,,16.0,,68.0,,16.0,,65.0,,16.0,,3.0,,4.0,,0.0,,9.0,,39.0,,12.0,,"Wales ANVSA, AK",7740
124.0,,21.0,,88.0,,17.0,,88.0,,17.0,,66.0,,14.0,,22.0,,10.0,,0.0,,9.0,,36.0,,18.0,,"White Mountain ANVSA, AK",7745
1022.0,,91.0,,671.0,,61.0,,671.0,,61.0,,614.0,,60.0,,57.0,,20.0,,0.0,,9.0,,351.0,,55.0,,"Wrangell ANVSA, AK",7755
463.0,,46.0,,361.0,,46.0,,361.0,,46.0,,329.0,,44.0,,32.0,,13.0,,0.0,,9.0,,102.0,,29.0,,"Yakutat ANVSA, AK",7765
2306.0,,182.0,,1422.0,,127.0,,1422.0,,127.0,,1337.0,,121.0,,85.0,,28.0,,0.0,,11.0,,884.0,,108.0,,"Cayuga Nation TDSA, NY",8100
18.0,,18.0,,9.0,,10.0,,9.0,,10.0,,9.0,,10.0,,0.0,,12.0,,0.0,,12.0,,9.0,,11.0,,"Ione Band of Miwok TDSA, CA",8300
2456.0,,314.0,,1541.0,,224.0,,1541.0,,224.0,,1348.0,,199.0,,193.0,,53.0,,0.0,,12.0,,915.0,,153.0,,"Mechoopda TDSA, CA",8450
31781.0,,209.0,,17826.0,,262.0,,17526.0,,260.0,,16467.0,,252.0,,1059.0,,99.0,,300.0,,56.0,,13955.0,,281.0,,"Samish TDSA, WA",8750
2.0,,4.0,,0.0,,12.0,,0.0,,12.0,,0.0,,12.0,,0.0,,12.0,,0.0,,12.0,,2.0,,4.0,,"Golden Hill Paugussett (state) Reservation, CT",9100
3.0,,5.0,,3.0,,5.0,,3.0,,5.0,,3.0,,5.0,,0.0,,12.0,,0.0,,12.0,,0.0,,12.0,,"Hassanamisco (state) Reservation, MA",9150
46.0,,26.0,,21.0,,19.0,,21.0,,19.0,,21.0,,19.0,,0.0,,12.0,,0.0,,12.0,,25.0,,15.0,,"Mattaponi (state) Reservation, VA",9230
112.0,,48.0,,56.0,,39.0,,56.0,,39.0,,33.0,,20.0,,23.0,,23.0,,0.0,,11.0,,56.0,,24.0,,"MOWA Choctaw (state) Reservation, AL",9240
75.0,,28.0,,41.0,,18.0,,41.0,,18.0,,34.0,,15.0,,7.0,,7.0,,0.0,,12.0,,34.0,,21.0,,"Pamunkey (state) Reservation, VA",9260
13.0,,12.0,,6.0,,11.0,,6.0,,11.0,,4.0,,6.0,,2.0,,5.0,,0.0,,12.0,,7.0,,8.0,,"Paucatuck Eastern Pequot (state) Reservation, CT",9280
348.0,,115.0,,176.0,,73.0,,176.0,,73.0,,162.0,,68.0,,14.0,,15.0,,0.0,,11.0,,172.0,,61.0,,"Poospatuck (state) Reservation, NY",9300
8.0,,12.0,,0.0,,12.0,,0.0,,12.0,,0.0,,12.0,,0.0,,12.0,,0.0,,12.0,,8.0,,12.0,,"Schaghticoke (state) Reservation, CT",9350
122.0,,74.0,,78.0,,46.0,,78.0,,46.0,,53.0,,32.0,,25.0,,21.0,,0.0,,11.0,,44.0,,36.0,,"Shinnecock (state) Reservation, NY",9370
18.0,,18.0,,11.0,,14.0,,11.0,,14.0,,11.0,,14.0,,0.0,,13.0,,0.0,,13.0,,7.0,,10.0,,"Tama (state) Reservation, GA",9400
1993.0,,238.0,,955.0,,152.0,,953.0,,150.0,,863.0,,146.0,,90.0,,31.0,,2.0,,5.0,,1038.0,,136.0,,"Adais Caddo SDTSA, LA",9510
5159.0,,283.0,,2654.0,,203.0,,2651.0,,204.0,,2321.0,,184.0,,330.0,,64.0,,3.0,,4.0,,2505.0,,169.0,,"Apache Choctaw SDTSA, LA",9515
887.0,,154.0,,447.0,,91.0,,445.0,,91.0,,397.0,,82.0,,48.0,,31.0,,2.0,,4.0,,440.0,,103.0,,"Beaver Creek SDTSA, SC",9525
67801.0,,587.0,,39748.0,,552.0,,39622.0,,547.0,,36175.0,,589.0,,3447.0,,200.0,,126.0,,49.0,,28053.0,,447.0,,"Cher-O-Creek SDTSA, AL",9550
10812.0,,457.0,,6084.0,,289.0,,6079.0,,289.0,,5482.0,,274.0,,597.0,,95.0,,5.0,,7.0,,4728.0,,298.0,,"Cherokee Tribe of Northeast Alabama SDTSA, AL",9560
3196.0,,147.0,,1993.0,,128.0,,1989.0,,128.0,,1809.0,,114.0,,180.0,,39.0,,4.0,,6.0,,1203.0,,82.0,,"Chickahominy SDTSA, VA",9580
299.0,,61.0,,162.0,,41.0,,162.0,,41.0,,141.0,,38.0,,21.0,,13.0,,0.0,,12.0,,137.0,,37.0,,"Clifton Choctaw SDTSA, LA",9630
48025.0,,1139.0,,27452.0,,873.0,,26291.0,,868.0,,23142.0,,777.0,,3149.0,,308.0,,1161.0,,178.0,,20573.0,,661.0,,"Coharie SDTSA, NC",9635
189.0,,53.0,,137.0,,49.0,,136.0,,49.0,,133.0,,49.0,,3.0,,6.0,,1.0,,3.0,,52.0,,25.0,,"Eastern Chickahominy SDTSA, VA",9675
42984.0,,1013.0,,25045.0,,921.0,,24990.0,,924.0,,23038.0,,934.0,,1952.0,,314.0,,55.0,,46.0,,17939.0,,806.0,,"Echota Cherokee SDTSA, AL",9680
24271.0,,755.0,,14415.0,,573.0,,13252.0,,547.0,,12242.0,,520.0,,1010.0,,151.0,,1163.0,,131.0,,9856.0,,390.0,,"Four Winds Cherokee SDTSA, LA",9720
6714.0,,435.0,,3477.0,,308.0,,3472.0,,309.0,,2928.0,,286.0,,544.0,,105.0,,5.0,,9.0,,3237.0,,263.0,,"Haliwa-Saponi SDTSA, NC",9745
454.0,,96.0,,231.0,,67.0,,230.0,,66.0,,206.0,,66.0,,24.0,,14.0,,1.0,,3.0,,223.0,,52.0,,"Lenape Indian Tribe of Delaware SDTSA, DE",9800
383981.0,,957.0,,228172.0,,1853.0,,209167.0,,1916.0,,182952.0,,2057.0,,26215.0,,977.0,,19005.0,,802.0,,155809.0,,1563.0,,"Lumbee SDTSA, NC",9815
17742.0,,437.0,,10097.0,,313.0,,9965.0,,319.0,,9233.0,,312.0,,732.0,,105.0,,132.0,,45.0,,7645.0,,326.0,,"MaChis Lower Creek SDTSA, AL",9820
6124.0,,318.0,,3058.0,,231.0,,3057.0,,231.0,,2527.0,,191.0,,530.0,,92.0,,1.0,,4.0,,3066.0,,205.0,,"Meherrin SDTSA, NC",9825
6338.0,,347.0,,3488.0,,241.0,,3488.0,,241.0,,3224.0,,234.0,,264.0,,42.0,,0.0,,16.0,,2850.0,,198.0,,"Nanticoke Indian Tribe SDTSA, DE",9830
4707.0,,251.0,,2775.0,,163.0,,2773.0,,163.0,,2382.0,,159.0,,391.0,,61.0,,2.0,,3.0,,1932.0,,181.0,,"Nanticoke Lenni Lenape SDTSA, NJ",9835
7074.0,,335.0,,4480.0,,242.0,,4476.0,,243.0,,4116.0,,224.0,,360.0,,62.0,,4.0,,6.0,,2594.0,,204.0,,"Occaneechi-Saponi SDTSA, NC",9838
2902.0,,251.0,,818.0,,145.0,,813.0,,147.0,,706.0,,126.0,,107.0,,43.0,,5.0,,9.0,,2084.0,,205.0,,"Pee Dee SDTSA, SC",9844
811.0,,118.0,,528.0,,110.0,,528.0,,110.0,,481.0,,104.0,,47.0,,19.0,,0.0,,12.0,,283.0,,63.0,,"Ramapough SDTSA, NJ",9850
2031.0,,232.0,,1194.0,,164.0,,1192.0,,163.0,,1051.0,,142.0,,141.0,,47.0,,2.0,,3.0,,837.0,,119.0,,"Sappony SDTSA, NC",9865
397.0,,87.0,,229.0,,62.0,,229.0,,62.0,,205.0,,59.0,,24.0,,16.0,,0.0,,12.0,,168.0,,48.0,,"Santee SDTSA, SC",9875
4608.0,,343.0,,2545.0,,243.0,,2545.0,,243.0,,2203.0,,213.0,,342.0,,87.0,,0.0,,16.0,,2063.0,,204.0,,"Star Muskogee Creek SDTSA, AL",9880
5043.0,,290.0,,2823.0,,204.0,,2823.0,,204.0,,2535.0,,188.0,,288.0,,69.0,,0.0,,16.0,,2220.0,,164.0,,"United Cherokee Ani-Yun-Wiya Nation SDTSA, AL",9950
160092.0,,1183.0,,97450.0,,1446.0,,97265.0,,1450.0,,90937.0,,1443.0,,6328.0,,579.0,,185.0,,83.0,,62642.0,,1481.0,,"United Houma Nation SDTSA, LA",9960
1094.0,,175.0,,628.0,,111.0,,628.0,,111.0,,549.0,,93.0,,79.0,,29.0,,0.0,,12.0,,466.0,,90.0,,"Upper South Carolina Pee Dee SDTSA, SC",9963
31.0,,21.0,,19.0,,15.0,,19.0,,15.0,,19.0,,15.0,,0.0,,12.0,,0.0,,12.0,,12.0,,10.0,,"Waccamaw SDTSA, SC",9967
1795.0,,217.0,,870.0,,144.0,,870.0,,144.0,,770.0,,128.0,,100.0,,41.0,,0.0,,12.0,,925.0,,128.0,,"Waccamaw Siouan SDTSA, NC",9970
1672.0,,242.0,,1055.0,,184.0,,1045.0,,183.0,,959.0,,173.0,,86.0,,31.0,,10.0,,9.0,,617.0,,99.0,,"Wassamasaw SDTSA, SC",9975
