B15002_001E,B15002_001EA,B15002_001M,B15002_001MA,B15002_002E,B15002_002EA,B15002_002M,B15002_002MA,B15002_003E,B15002_003EA,B15002_003M,B15002_003MA,B15002_004E,B15002_004EA,B15002_004M,B15002_004MA,B15002_005E,B15002_005EA,B15002_005M,B15002_005MA,B15002_006E,B15002_006EA,B15002_006M,B15002_006MA,B15002_007E,B15002_007EA,B15002_007M,B15002_007MA,B15002_008E,B15002_008EA,B15002_008M,B15002_008MA,B15002_009E,B15002_009EA,B15002_009M,B15002_009MA,B15002_010E,B15002_010EA,B15002_010M,B15002_010MA,B15002_011E,B15002_011EA,B15002_011M,B15002_011MA,B15002_012E,B15002_012EA,B15002_012M,B15002_012MA,B15002_013E,B15002_013EA,B15002_013M,B15002_013MA,B15002_014E,B15002_014EA,B15002_014M,B15002_014MA,B15002_015E,B15002_015EA,B15002_015M,B15002_015MA,B15002_016E,B15002_016EA,B15002_016M,B15002_016MA,B15002_017E,B15002_017EA,B15002_017M,B15002_017MA,B15002_018E,B15002_018EA,B15002_018M,B15002_018MA,B15002_019E,B15002_019EA,B15002_019M,B15002_019MA,B15002_020E,B15002_020EA,B15002_020M,B15002_020MA,B15002_021E,B15002_021EA,B15002_021M,B15002_021MA,B15002_022E,B15002_022EA,B15002_022M,B15002_022MA,B15002_023E,B15002_023EA,B15002_023M,B15002_023MA,B15002_024E,B15002_024EA,B15002_024M,B15002_024MA,B15002_025E,B15002_025EA,B15002_025M,B15002_025MA,B15002_026E,B15002_026EA,B15002_026M,B15002_026MA,B15002_027E,B15002_027EA,B15002_027M,B15002_027MA,B15002_028E,B15002_028EA,B15002_028M,B15002_028MA,B15002_029E,B15002_029EA,B15002_029M,B15002_029MA,B15002_030E,B15002_030EA,B15002_030M,B15002_030MA,B15002_031E,B15002_031EA,B15002_031M,B15002_031MA,B15002_032E,B15002_032EA,B15002_032M,B15002_032MA,B15002_033E,B15002_033EA,B15002_033M,B15002_033MA,B15002_034E,B15002_034EA,B15002_034M,B15002_034MA,B15002_035E,B15002_035EA,B15002_035M,B15002_035MA,NAME,combined new england city and town area
88329.0,,439.0,,42449.0,,321.0,,387.0,,128.0,,51.0,,31.0,,137.0,,71.0,,814.0,,173.0,,540.0,,125.0,,728.0,,191.0,,885.0,,189.0,,521.0,,130.0,,15788.0,,653.0,,2963.0,,324.0,,5441.0,,484.0,,3900.0,,395.0,,6442.0,,508.0,,2318.0,,269.0,,821.0,,146.0,,713.0,,156.0,,45880.0,,308.0,,247.0,,101.0,,102.0,,53.0,,229.0,,132.0,,813.0,,194.0,,577.0,,166.0,,633.0,,175.0,,547.0,,179.0,,318.0,,87.0,,15571.0,,579.0,,3477.0,,387.0,,6858.0,,436.0,,5037.0,,424.0,,7028.0,,451.0,,3514.0,,323.0,,474.0,,132.0,,455.0,,140.0,,"Augusta-Waterville, ME Combined NECTA",710
5347549.0,,1376.0,,2546583.0,,1069.0,,32162.0,,1242.0,,20730.0,,1157.0,,24856.0,,1355.0,,42003.0,,1521.0,,30571.0,,1351.0,,40975.0,,1464.0,,38558.0,,1798.0,,39585.0,,1258.0,,673000.0,,6036.0,,124771.0,,2499.0,,290018.0,,4087.0,,167495.0,,2811.0,,589734.0,,5368.0,,279372.0,,3466.0,,79229.0,,1509.0,,73524.0,,1599.0,,2800966.0,,1033.0,,38273.0,,1268.0,,23470.0,,1169.0,,26665.0,,1352.0,,45294.0,,1453.0,,31273.0,,1366.0,,38554.0,,1352.0,,37791.0,,1253.0,,36317.0,,1290.0,,688419.0,,5846.0,,145309.0,,2618.0,,327573.0,,3908.0,,254706.0,,3270.0,,631347.0,,5117.0,,360429.0,,3965.0,,64413.0,,1519.0,,51133.0,,1415.0,,"Boston-Worcester-Providence, MA-RI-NH-CT-ME Combined NECTA",715
1319278.0,,748.0,,624238.0,,579.0,,6566.0,,612.0,,5372.0,,654.0,,8873.0,,808.0,,10359.0,,833.0,,8019.0,,621.0,,9258.0,,693.0,,9277.0,,711.0,,9978.0,,701.0,,168419.0,,2474.0,,28585.0,,1276.0,,71802.0,,2022.0,,34073.0,,1100.0,,140848.0,,2318.0,,73839.0,,1700.0,,24261.0,,948.0,,14709.0,,646.0,,695040.0,,516.0,,7254.0,,565.0,,4848.0,,536.0,,7954.0,,598.0,,10069.0,,741.0,,8056.0,,640.0,,9555.0,,688.0,,11069.0,,682.0,,9296.0,,765.0,,178151.0,,2525.0,,34874.0,,1134.0,,83829.0,,1947.0,,54107.0,,1563.0,,151561.0,,2270.0,,96085.0,,1949.0,,18917.0,,738.0,,9415.0,,592.0,,"Bridgeport-New Haven-Stamford, CT Combined NECTA",720
78205.0,,371.0,,36844.0,,310.0,,436.0,,109.0,,72.0,,50.0,,146.0,,81.0,,586.0,,139.0,,488.0,,152.0,,784.0,,173.0,,791.0,,178.0,,565.0,,137.0,,12647.0,,578.0,,2337.0,,318.0,,3836.0,,319.0,,3162.0,,321.0,,6321.0,,423.0,,2825.0,,300.0,,1054.0,,164.0,,794.0,,133.0,,41361.0,,306.0,,313.0,,116.0,,130.0,,72.0,,184.0,,80.0,,611.0,,148.0,,417.0,,156.0,,688.0,,170.0,,676.0,,157.0,,557.0,,120.0,,12791.0,,642.0,,3251.0,,321.0,,5267.0,,446.0,,4275.0,,403.0,,7060.0,,481.0,,4036.0,,332.0,,632.0,,125.0,,473.0,,106.0,,"Pittsfield-North Adams, MA-VT Combined NECTA",770
391783.0,,823.0,,187293.0,,628.0,,852.0,,159.0,,356.0,,128.0,,687.0,,163.0,,3638.0,,399.0,,1848.0,,310.0,,2667.0,,305.0,,2794.0,,324.0,,2311.0,,305.0,,57295.0,,1380.0,,11427.0,,676.0,,24873.0,,942.0,,16640.0,,826.0,,40091.0,,1015.0,,13134.0,,742.0,,5537.0,,455.0,,3143.0,,284.0,,204490.0,,658.0,,1309.0,,246.0,,400.0,,121.0,,784.0,,161.0,,3252.0,,344.0,,2131.0,,283.0,,2346.0,,287.0,,2013.0,,318.0,,1510.0,,205.0,,57537.0,,1308.0,,12227.0,,752.0,,26381.0,,970.0,,20959.0,,958.0,,47753.0,,1259.0,,20236.0,,873.0,,3604.0,,338.0,,2048.0,,243.0,,"Portland-Lewiston-South Portland, ME Combined NECTA",775
1327078.0,,961.0,,628808.0,,868.0,,7633.0,,541.0,,4232.0,,498.0,,5810.0,,595.0,,10034.0,,657.0,,8678.0,,700.0,,12916.0,,689.0,,12335.0,,814.0,,11062.0,,676.0,,186339.0,,2195.0,,34852.0,,1153.0,,78889.0,,1980.0,,45084.0,,1324.0,,120790.0,,2128.0,,59469.0,,1486.0,,18438.0,,843.0,,12247.0,,590.0,,698270.0,,798.0,,7915.0,,494.0,,5154.0,,515.0,,6637.0,,558.0,,11348.0,,664.0,,10227.0,,739.0,,11276.0,,707.0,,11594.0,,688.0,,9512.0,,625.0,,187960.0,,2723.0,,41205.0,,1181.0,,85074.0,,2041.0,,69534.0,,1454.0,,134476.0,,2226.0,,84496.0,,1693.0,,13451.0,,707.0,,8411.0,,598.0,,"Springfield-Hartford-West Hartford, MA-CT Combined NECTA",790
