B23025_001E,B23025_001EA,B23025_001M,B23025_001MA,B23025_002E,B23025_002EA,B23025_002M,B23025_002MA,B23025_003E,B23025_003EA,B23025_003M,B23025_003MA,B23025_004E,B23025_004EA,B23025_004M,B23025_004MA,B23025_005E,B23025_005EA,B23025_005M,B23025_005MA,B23025_006E,B23025_006EA,B23025_006M,B23025_006MA,B23025_007E,B23025_007EA,B23025_007M,B23025_007MA,NAME,division
11955631.0,,2478.0,,8019443.0,,11397.0,,7999852.0,,11357.0,,7389791.0,,12925.0,,610061.0,,5883.0,,19591.0,,827.0,,3936188.0,,11403.0,,New England Division,1
33426902.0,,3452.0,,21331545.0,,20801.0,,21295704.0,,20621.0,,19538227.0,,22930.0,,1757477.0,,9677.0,,35841.0,,1066.0,,12095357.0,,20600.0,,Middle Atlantic Division,2
37101889.0,,4522.0,,23799579.0,,23387.0,,23764584.0,,23298.0,,21748569.0,,29301.0,,2016015.0,,11394.0,,34995.0,,1175.0,,13302310.0,,22838.0,,East North Central Division,3
16467632.0,,3072.0,,11094200.0,,10930.0,,11040368.0,,10731.0,,10396601.0,,13255.0,,643767.0,,5895.0,,53832.0,,1335.0,,5373432.0,,10193.0,,West North Central Division,4
49639270.0,,6360.0,,30933445.0,,35674.0,,30573506.0,,33757.0,,27867769.0,,36828.0,,2705737.0,,11638.0,,359939.0,,5048.0,,18705825.0,,34224.0,,South Atlantic Division,5
14848052.0,,2922.0,,8848350.0,,14803.0,,8792509.0,,14663.0,,8006362.0,,15444.0,,786147.0,,6038.0,,55841.0,,1576.0,,5999702.0,,14034.0,,East South Central Division,6
29206895.0,,4967.0,,18530509.0,,19205.0,,18397072.0,,18372.0,,17085933.0,,20253.0,,1311139.0,,9932.0,,133437.0,,2645.0,,10676386.0,,19067.0,,West South Central Division,7
17820597.0,,3390.0,,11388177.0,,12776.0,,11307317.0,,12880.0,,10414091.0,,13642.0,,893226.0,,6679.0,,80860.0,,2028.0,,6432420.0,,12918.0,,Mountain Division,8
40754441.0,,4071.0,,25968040.0,,19458.0,,25726912.0,,19588.0,,23300436.0,,20317.0,,2426476.0,,10656.0,,241128.0,,3431.0,,14786401.0,,19374.0,,Pacific Division,9
