B23025_001E,B23025_001EA,B23025_001M,B23025_001MA,B23025_002E,B23025_002EA,B23025_002M,B23025_002MA,B23025_003E,B23025_003EA,B23025_003M,B23025_003MA,B23025_004E,B23025_004EA,B23025_004M,B23025_004MA,B23025_005E,B23025_005EA,B23025_005M,B23025_005MA,B23025_006E,B23025_006EA,B23025_006M,B23025_006MA,B23025_007E,B23025_007EA,B23025_007M,B23025_007MA,NAME,state
3846845.0,,1679.0,,2242401.0,,6887.0,,2229422.0,,6816.0,,2022325.0,,6345.0,,207097.0,,3167.0,,12979.0,,816.0,,1604444.0,,6881.0,,Alabama,01
565212.0,,516.0,,399077.0,,2179.0,,382393.0,,2182.0,,351108.0,,2476.0,,31285.0,,1163.0,,16684.0,,707.0,,166135.0,,2160.0,,Alaska,02
5207123.0,,1676.0,,3106324.0,,8229.0,,3089118.0,,8256.0,,2813406.0,,7893.0,,275712.0,,3860.0,,17206.0,,938.0,,2100799.0,,8647.0,,Arizona,04
2328384.0,,1298.0,,1365791.0,,5080.0,,1361024.0,,5024.0,,1256081.0,,5363.0,,104943.0,,2439.0,,4767.0,,521.0,,962593.0,,5368.0,,Arkansas,05
30312429.0,,3888.0,,19269449.0,,17452.0,,19137441.0,,17615.0,,17246360.0,,16422.0,,1891081.0,,9738.0,,132008.0,,2424.0,,11042980.0,,16892.0,,California,06
4168824.0,,1477.0,,2852439.0,,5555.0,,2820014.0,,5598.0,,2624436.0,,6429.0,,195578.0,,3191.0,,32425.0,,1108.0,,1316385.0,,5594.0,,Colorado,08
2906229.0,,1192.0,,1962170.0,,5054.0,,1953709.0,,5103.0,,1781417.0,,5291.0,,172292.0,,2718.0,,8461.0,,458.0,,944059.0,,5060.0,,Connecticut,09
744949.0,,682.0,,473007.0,,2269.0,,470039.0,,2334.0,,433816.0,,2431.0,,36223.0,,1425.0,,2968.0,,344.0,,271942.0,,2400.0,,Delaware,10
546805.0,,338.0,,377072.0,,1977.0,,373626.0,,1936.0,,337815.0,,2160.0,,35811.0,,1360.0,,3446.0,,283.0,,169733.0,,2054.0,,District of Columbia,11
16077778.0,,3448.0,,9510681.0,,16948.0,,9457267.0,,16411.0,,8541291.0,,17071.0,,915976.0,,6814.0,,53414.0,,1839.0,,6567097.0,,17026.0,,Florida,12
7792052.0,,2420.0,,4906258.0,,11371.0,,4857206.0,,11283.0,,4388274.0,,10737.0,,468932.0,,6051.0,,49052.0,,1715.0,,2885794.0,,10867.0,,Georgia,13
1130491.0,,829.0,,736939.0,,3228.0,,695572.0,,3632.0,,653284.0,,3708.0,,42288.0,,1537.0,,41367.0,,1046.0,,393552.0,,3103.0,,Hawaii,15
1232564.0,,1008.0,,774526.0,,3805.0,,771173.0,,3854.0,,715861.0,,3976.0,,55312.0,,1628.0,,3353.0,,454.0,,458038.0,,3905.0,,Idaho,16
10201787.0,,2599.0,,6712162.0,,10380.0,,6694742.0,,10482.0,,6086226.0,,11241.0,,608516.0,,5896.0,,17420.0,,765.0,,3489625.0,,10294.0,,Illinois,17
5160786.0,,1831.0,,3300531.0,,6061.0,,3297501.0,,6069.0,,3038762.0,,7192.0,,258739.0,,4350.0,,3030.0,,473.0,,1860255.0,,6208.0,,Indiana,18
2447401.0,,1027.0,,1656968.0,,3827.0,,1655245.0,,3856.0,,1573510.0,,4291.0,,81735.0,,1961.0,,1723.0,,281.0,,790433.0,,3645.0,,Iowa,19
2247842.0,,1271.0,,1507080.0,,4191.0,,1489651.0,,4128.0,,1401197.0,,4335.0,,88454.0,,1906.0,,17429.0,,849.0,,740762.0,,3890.0,,Kansas,20
3493098.0,,1623.0,,2080437.0,,6278.0,,2065689.0,,6202.0,,1891381.0,,6734.0,,174308.0,,2703.0,,14748.0,,574.0,,1412661.0,,6214.0,,Kentucky,21
3634163.0,,1380.0,,2208869.0,,6434.0,,2194199.0,,6156.0,,2016049.0,,6304.0,,178150.0,,3612.0,,14670.0,,810.0,,1425294.0,,6366.0,,Louisiana,22
1098075.0,,647.0,,697913.0,,2749.0,,696184.0,,2783.0,,648687.0,,2995.0,,47497.0,,1770.0,,1729.0,,297.0,,400162.0,,2762.0,,Maine,23
4737405.0,,1416.0,,3241222.0,,5545.0,,3214531.0,,5567.0,,2976504.0,,5512.0,,238027.0,,3541.0,,26691.0,,1155.0,,1496183.0,,5999.0,,Maryland,24
5479502.0,,1434.0,,3700701.0,,7935.0,,3696139.0,,7900.0,,3415975.0,,8786.0,,280164.0,,4046.0,,4562.0,,488.0,,1778801.0,,7950.0,,Massachusetts,25
7925988.0,,1823.0,,4855005.0,,7815.0,,4851264.0,,7801.0,,4373518.0,,9697.0,,477746.0,,4500.0,,3741.0,,377.0,,3070983.0,,7824.0,,Michigan,26
4281141.0,,1438.0,,2996985.0,,4310.0,,2994959.0,,4262.0,,2827195.0,,4904.0,,167764.0,,2904.0,,2026.0,,273.0,,1284156.0,,4375.0,,Minnesota,27
2333154.0,,1449.0,,1352993.0,,5522.0,,1342359.0,,5509.0,,1203914.0,,5777.0,,138445.0,,3244.0,,10634.0,,726.0,,980161.0,,5598.0,,Mississippi,28
4803676.0,,1761.0,,3053938.0,,5180.0,,3034524.0,,5115.0,,2807996.0,,5535.0,,226528.0,,3019.0,,19414.0,,700.0,,1749738.0,,5069.0,,Missouri,29
814661.0,,698.0,,521330.0,,2728.0,,517807.0,,2737.0,,485446.0,,2893.0,,32361.0,,1284.0,,3523.0,,430.0,,293331.0,,2702.0,,Montana,30
1454157.0,,731.0,,1020419.0,,3027.0,,1015736.0,,3038.0,,968134.0,,3220.0,,47602.0,,1166.0,,4683.0,,374.0,,433738.0,,2996.0,,Nebraska,31
2210559.0,,1028.0,,1424596.0,,5161.0,,1415779.0,,5191.0,,1267312.0,,5125.0,,148467.0,,2731.0,,8817.0,,615.0,,785963.0,,5249.0,,Nevada,32
1087512.0,,683.0,,742874.0,,2625.0,,741543.0,,2596.0,,698810.0,,3176.0,,42733.0,,1495.0,,1331.0,,217.0,,344638.0,,2622.0,,New Hampshire,33
7120154.0,,1598.0,,4702508.0,,8087.0,,4695103.0,,8127.0,,4281760.0,,8024.0,,413343.0,,4305.0,,7405.0,,552.0,,2417646.0,,8147.0,,New Jersey,34
1633310.0,,973.0,,973891.0,,4049.0,,964959.0,,4044.0,,876035.0,,4065.0,,88924.0,,2279.0,,8932.0,,643.0,,659419.0,,4116.0,,New Mexico,35
15921937.0,,2722.0,,10107278.0,,13889.0,,10083719.0,,13917.0,,9254578.0,,14601.0,,829141.0,,7210.0,,23559.0,,880.0,,5814659.0,,13778.0,,New York,36
7812594.0,,2128.0,,4909108.0,,10056.0,,4826193.0,,10006.0,,4372773.0,,11414.0,,453420.0,,6080.0,,82915.0,,1801.0,,2903486.0,,10312.0,,North Carolina,37
575611.0,,547.0,,404820.0,,1660.0,,399180.0,,1745.0,,387716.0,,1820.0,,11464.0,,663.0,,5640.0,,475.0,,170791.0,,1738.0,,North Dakota,38
9229397.0,,1987.0,,5852224.0,,8657.0,,5843924.0,,8692.0,,5366673.0,,9749.0,,477251.0,,4652.0,,8300.0,,461.0,,3377173.0,,8798.0,,Ohio,39
3003180.0,,1017.0,,1854061.0,,3947.0,,1835519.0,,4072.0,,1719541.0,,4407.0,,115978.0,,1952.0,,18542.0,,673.0,,1149119.0,,4048.0,,Oklahoma,40
3177669.0,,1384.0,,1976314.0,,4800.0,,1973823.0,,4800.0,,1789807.0,,6425.0,,184016.0,,3981.0,,2491.0,,372.0,,1201355.0,,5151.0,,Oregon,41
10384811.0,,2020.0,,6521759.0,,10077.0,,6516882.0,,10033.0,,6001889.0,,11007.0,,514993.0,,4877.0,,4877.0,,392.0,,3863052.0,,10024.0,,Pennsylvania,42
865174.0,,614.0,,569623.0,,2788.0,,566588.0,,2853.0,,518170.0,,3085.0,,48418.0,,1582.0,,3035.0,,322.0,,295551.0,,2864.0,,Rhode Island,44
3816548.0,,1471.0,,2323906.0,,7366.0,,2293251.0,,7466.0,,2075274.0,,7519.0,,217977.0,,3486.0,,30655.0,,1082.0,,1492642.0,,7348.0,,South Carolina,45
657804.0,,510.0,,453990.0,,1831.0,,451073.0,,1906.0,,430853.0,,1972.0,,20220.0,,844.0,,2917.0,,315.0,,203814.0,,1819.0,,South Dakota,46
5174955.0,,1676.0,,3172519.0,,7206.0,,3155039.0,,7158.0,,2888742.0,,7662.0,,266297.0,,3774.0,,17480.0,,835.0,,2002436.0,,6960.0,,Tennessee,47
20241168.0,,4295.0,,13101788.0,,14797.0,,13006330.0,,14643.0,,12094262.0,,15903.0,,912068.0,,8209.0,,95458.0,,2200.0,,7139380.0,,15112.0,,Texas,48
2096916.0,,1127.0,,1423700.0,,3650.0,,1419516.0,,3644.0,,1337646.0,,4011.0,,81870.0,,1983.0,,4184.0,,490.0,,673216.0,,3508.0,,Utah,49
519139.0,,409.0,,346162.0,,1767.0,,345689.0,,1782.0,,326732.0,,1906.0,,18957.0,,906.0,,473.0,,132.0,,172977.0,,1865.0,,Vermont,50
6598956.0,,2131.0,,4376786.0,,7849.0,,4266800.0,,8162.0,,3990770.0,,9377.0,,276030.0,,4649.0,,109986.0,,2113.0,,2222170.0,,7874.0,,Virginia,51
5568640.0,,1716.0,,3586261.0,,6942.0,,3537683.0,,6829.0,,3259877.0,,8378.0,,277806.0,,4003.0,,48578.0,,1352.0,,1982379.0,,7586.0,,Washington,53
1512183.0,,1026.0,,815405.0,,3803.0,,814593.0,,3796.0,,751252.0,,4164.0,,63341.0,,1837.0,,812.0,,195.0,,696778.0,,3990.0,,West Virginia,54
4583931.0,,1252.0,,3079657.0,,5410.0,,3077153.0,,5366.0,,2883390.0,,6149.0,,193763.0,,2783.0,,2504.0,,315.0,,1504274.0,,5479.0,,Wisconsin,55
456640.0,,600.0,,311371.0,,1742.0,,308951.0,,1750.0,,293949.0,,1832.0,,15002.0,,826.0,,2420.0,,332.0,,145269.0,,1698.0,,Wyoming,56
2884153.0,,1265.0,,1300388.0,,4959.0,,1299122.0,,4968.0,,1063350.0,,5546.0,,235772.0,,3935.0,,1266.0,,270.0,,1583765.0,,4969.0,,Puerto Rico,72
