B15002_001E,B15002_001EA,B15002_001M,B15002_001MA,B15002_002E,B15002_002EA,B15002_002M,B15002_002MA,B15002_003E,B15002_003EA,B15002_003M,B15002_003MA,B15002_004E,B15002_004EA,B15002_004M,B15002_004MA,B15002_005E,B15002_005EA,B15002_005M,B15002_005MA,B15002_006E,B15002_006EA,B15002_006M,B15002_006MA,B15002_007E,B15002_007EA,B15002_007M,B15002_007MA,B15002_008E,B15002_008EA,B15002_008M,B15002_008MA,B15002_009E,B15002_009EA,B15002_009M,B15002_009MA,B15002_010E,B15002_010EA,B15002_010M,B15002_010MA,B15002_011E,B15002_011EA,B15002_011M,B15002_011MA,B15002_012E,B15002_012EA,B15002_012M,B15002_012MA,B15002_013E,B15002_013EA,B15002_013M,B15002_013MA,B15002_014E,B15002_014EA,B15002_014M,B15002_014MA,B15002_015E,B15002_015EA,B15002_015M,B15002_015MA,B15002_016E,B15002_016EA,B15002_016M,B15002_016MA,B15002_017E,B15002_017EA,B15002_017M,B15002_017MA,B15002_018E,B15002_018EA,B15002_018M,B15002_018MA,B15002_019E,B15002_019EA,B15002_019M,B15002_019MA,B15002_020E,B15002_020EA,B15002_020M,B15002_020MA,B15002_021E,B15002_021EA,B15002_021M,B15002_021MA,B15002_022E,B15002_022EA,B15002_022M,B15002_022MA,B15002_023E,B15002_023EA,B15002_023M,B15002_023MA,B15002_024E,B15002_024EA,B15002_024M,B15002_024MA,B15002_025E,B15002_025EA,B15002_025M,B15002_025MA,B15002_026E,B15002_026EA,B15002_026M,B15002_026MA,B15002_027E,B15002_027EA,B15002_027M,B15002_027MA,B15002_028E,B15002_028EA,B15002_028M,B15002_028MA,B15002_029E,B15002_029EA,B15002_029M,B15002_029MA,B15002_030E,B15002_030EA,B15002_030M,B15002_030MA,B15002_031E,B15002_031EA,B15002_031M,B15002_031MA,B15002_032E,B15002_032EA,B15002_032M,B15002_032MA,B15002_033E,B15002_033EA,B15002_033M,B15002_033MA,B15002_034E,B15002_034EA,B15002_034M,B15002_034MA,B15002_035E,B15002_035EA,B15002_035M,B15002_035MA,NAME,region
38449987.0,,1727.0,,18308257.0,,1543.0,,247285.0,,3834.0,,121447.0,,2910.0,,233542.0,,4650.0,,333375.0,,4460.0,,261269.0,,3931.0,,349154.0,,4625.0,,365055.0,,4719.0,,346164.0,,4553.0,,5486955.0,,20161.0,,912189.0,,7986.0,,2147585.0,,11181.0,,1272072.0,,6653.0,,3692097.0,,13144.0,,1641900.0,,11343.0,,542612.0,,5692.0,,355556.0,,3714.0,,20141730.0,,1348.0,,280566.0,,3964.0,,143962.0,,3196.0,,244798.0,,4257.0,,357933.0,,4558.0,,252017.0,,3889.0,,337675.0,,4765.0,,378269.0,,4936.0,,328218.0,,4399.0,,5806095.0,,22589.0,,1028768.0,,7896.0,,2304061.0,,12416.0,,1773064.0,,8460.0,,4012187.0,,15740.0,,2248257.0,,15329.0,,396988.0,,4651.0,,248872.0,,3310.0,,Northeast Region,1
45098546.0,,5934.0,,21806927.0,,3711.0,,217265.0,,3209.0,,78015.0,,1983.0,,180395.0,,3817.0,,386278.0,,4828.0,,285029.0,,4146.0,,424124.0,,4439.0,,488303.0,,5750.0,,376272.0,,4183.0,,6818494.0,,25765.0,,1482225.0,,11276.0,,3234218.0,,11649.0,,1706208.0,,8534.0,,3876784.0,,20971.0,,1474058.0,,11147.0,,473078.0,,5116.0,,306181.0,,3818.0,,23291619.0,,3455.0,,218077.0,,2977.0,,79917.0,,2040.0,,165388.0,,3121.0,,386188.0,,4674.0,,260510.0,,3838.0,,413298.0,,4981.0,,476611.0,,5612.0,,322115.0,,3548.0,,6895994.0,,20402.0,,1688052.0,,10728.0,,3458020.0,,17224.0,,2244854.0,,10083.0,,4274562.0,,18754.0,,1900930.0,,14720.0,,304625.0,,3891.0,,202478.0,,3290.0,,Midwest Region,2
78880023.0,,8780.0,,37834365.0,,4759.0,,544632.0,,7501.0,,341550.0,,6212.0,,686930.0,,9475.0,,881685.0,,9203.0,,848703.0,,9222.0,,964792.0,,8691.0,,1024434.0,,11074.0,,701512.0,,9074.0,,11095399.0,,36915.0,,2214278.0,,20339.0,,5602911.0,,24330.0,,2491649.0,,13034.0,,6485795.0,,30053.0,,2534998.0,,21210.0,,837686.0,,8318.0,,577411.0,,6185.0,,41045658.0,,5057.0,,553641.0,,7844.0,,310812.0,,5424.0,,628649.0,,8116.0,,854008.0,,8495.0,,762447.0,,9422.0,,919216.0,,8860.0,,990491.0,,10902.0,,657019.0,,7383.0,,11516360.0,,36690.0,,2674519.0,,23020.0,,6316225.0,,28835.0,,3474524.0,,13160.0,,7210737.0,,33107.0,,3210699.0,,24455.0,,580789.0,,6458.0,,385522.0,,4541.0,,South Region,3
49033966.0,,3130.0,,24057962.0,,2434.0,,423820.0,,5606.0,,287752.0,,4217.0,,643683.0,,8440.0,,396074.0,,4936.0,,419561.0,,5983.0,,382527.0,,5615.0,,514045.0,,5545.0,,567522.0,,6534.0,,5551986.0,,24853.0,,1493226.0,,12833.0,,4034302.0,,16790.0,,1830708.0,,7530.0,,4666828.0,,18097.0,,1819155.0,,12656.0,,589556.0,,6721.0,,437217.0,,4904.0,,24976004.0,,2199.0,,489162.0,,4898.0,,309383.0,,4298.0,,668161.0,,8103.0,,399496.0,,5822.0,,407049.0,,5312.0,,355876.0,,4165.0,,460822.0,,5559.0,,495126.0,,5038.0,,5551245.0,,21418.0,,1720369.0,,15210.0,,4218213.0,,19862.0,,2236388.0,,9697.0,,4947057.0,,18072.0,,2010912.0,,14363.0,,435746.0,,5294.0,,270999.0,,2947.0,,West Region,4
