B05002_001E,B05002_001EA,B05002_001M,B05002_001MA,B05002_002E,B05002_002EA,B05002_002M,B05002_002MA,B05002_013E,B05002_013EA,B05002_013M,B05002_013MA,NAME,combined statistical area
1172306.0,,-555555555.0,*****,1100340.0,,2378.0,,71966.0,,2378.0,,"Albany-Schenectady, NY CSA",104
1163777.0,,-555555555.0,*****,1050539.0,,3346.0,,113238.0,,3346.0,,"Albuquerque-Santa Fe-Las Vegas, NM CSA",106
281074.0,,88.0,,256887.0,,962.0,,24187.0,,971.0,,"Amarillo-Borger, TX CSA",108
399112.0,,-555555555.0,*****,385111.0,,668.0,,14001.0,,668.0,,"Appleton-Oshkosh-Neenah, WI CSA",118
470180.0,,-555555555.0,*****,444748.0,,1181.0,,25432.0,,1181.0,,"Asheville-Brevard, NC CSA",120
6175897.0,,-555555555.0,*****,5373812.0,,7959.0,,802085.0,,7959.0,,"Atlanta--Athens-Clarke County--Sandy Springs, GA CSA",122
187578.0,,-555555555.0,*****,179802.0,,757.0,,7776.0,,757.0,,"Bend-Redmond-Prineville, OR CSA",140
1311905.0,,-555555555.0,*****,1263249.0,,1597.0,,48656.0,,1597.0,,"Birmingham-Hoover-Talladega, AL CSA",142
209410.0,,-555555555.0,*****,196896.0,,840.0,,12514.0,,840.0,,"Bloomington-Bedford, IN CSA",144
227191.0,,-555555555.0,*****,215211.0,,638.0,,11980.0,,638.0,,"Bloomington-Pontiac, IL CSA",145
264430.0,,-555555555.0,*****,259119.0,,363.0,,5311.0,,362.0,,"Bloomsburg-Berwick-Sunbury, PA CSA",146
730828.0,,-555555555.0,*****,678216.0,,2093.0,,52612.0,,2094.0,,"Boise City-Mountain Home-Ontario, ID-OR CSA",147
8055793.0,,-555555555.0,*****,6874515.0,,8021.0,,1181278.0,,8021.0,,"Boston-Worcester-Providence, MA-RI-NH-CT CSA",148
217155.0,,-555555555.0,*****,205138.0,,833.0,,12017.0,,833.0,,"Bowling Green-Glasgow, KY CSA",150
439949.0,,-555555555.0,*****,334306.0,,2470.0,,105643.0,,2470.0,,"Brownsville-Harlingen-Raymondville, TX CSA",154
1214696.0,,-555555555.0,*****,1143212.0,,2127.0,,71484.0,,2127.0,,"Buffalo-Cheektowaga, NY CSA",160
1004766.0,,-555555555.0,*****,822906.0,,3807.0,,181860.0,,3807.0,,"Cape Coral-Fort Myers-Naples, FL CSA",162
136387.0,,-555555555.0,*****,134052.0,,283.0,,2335.0,,283.0,,"Cape Girardeau-Sikeston, MO-IL CSA",164
424456.0,,-555555555.0,*****,402275.0,,1142.0,,22181.0,,1142.0,,"Cedar Rapids-Iowa City, IA CSA",168
701399.0,,-555555555.0,*****,693163.0,,613.0,,8236.0,,613.0,,"Charleston-Huntington-Ashland, WV-OH-KY CSA",170
2496556.0,,-555555555.0,*****,2270438.0,,3353.0,,226118.0,,3353.0,,"Charlotte-Concord, NC-SC CSA",172
940490.0,,-555555555.0,*****,889643.0,,1693.0,,50847.0,,1693.0,,"Chattanooga-Cleveland-Dalton, TN-GA-AL CSA",174
9910025.0,,-555555555.0,*****,8201797.0,,10458.0,,1708228.0,,10458.0,,"Chicago-Naperville, IL-IN-WI CSA",176
2198654.0,,-555555555.0,*****,2106857.0,,2345.0,,91797.0,,2345.0,,"Cincinnati-Wilmington-Maysville, OH-KY-IN CSA",178
3499119.0,,-555555555.0,*****,3336714.0,,3452.0,,162405.0,,3452.0,,"Cleveland-Akron-Canton, OH CSA",184
61714.0,,-555555555.0,*****,60943.0,,211.0,,771.0,,211.0,,"Cleveland-Indianola, MS CSA",185
70405.0,,-555555555.0,*****,64142.0,,731.0,,6263.0,,731.0,,"Clovis-Portales, NM CSA",188
221688.0,,-555555555.0,*****,210921.0,,614.0,,10767.0,,614.0,,"Columbia-Moberly-Mexico, MO CSA",190
920795.0,,-555555555.0,*****,877664.0,,1687.0,,43131.0,,1687.0,,"Columbia-Orangeburg-Newberry, SC CSA",192
497077.0,,-555555555.0,*****,474105.0,,1393.0,,22972.0,,1393.0,,"Columbus-Auburn-Opelika, GA-AL CSA",194
2376551.0,,-555555555.0,*****,2231060.0,,2746.0,,145491.0,,2746.0,,"Columbus-Marion-Zanesville, OH CSA",198
516477.0,,208.0,,477719.0,,1996.0,,38758.0,,1959.0,,"Corpus Christi-Kingsville-Alice, TX CSA",204
7229664.0,,-555555555.0,*****,5997420.0,,8755.0,,1232244.0,,8755.0,,"Dallas-Fort Worth, TX-OK CSA",206
474423.0,,-555555555.0,*****,451510.0,,975.0,,22913.0,,975.0,,"Davenport-Moline, IA-IL CSA",209
1079115.0,,-555555555.0,*****,1042930.0,,1537.0,,36185.0,,1537.0,,"Dayton-Springfield-Sidney, OH CSA",212
3284952.0,,-555555555.0,*****,2898980.0,,4802.0,,385972.0,,4802.0,,"Denver-Aurora, CO CSA",216
88735.0,,-555555555.0,*****,85757.0,,352.0,,2978.0,,352.0,,"DeRidder-Fort Polk South, LA CSA",217
757900.0,,-555555555.0,*****,703310.0,,1728.0,,54590.0,,1728.0,,"Des Moines-Ames-West Des Moines, IA CSA",218
5315720.0,,-555555555.0,*****,4867632.0,,5295.0,,448088.0,,5295.0,,"Detroit-Warren-Ann Arbor, MI CSA",220
92552.0,,-555555555.0,*****,89854.0,,312.0,,2698.0,,312.0,,"Dixon-Sterling, IL CSA",221
248351.0,,-555555555.0,*****,241125.0,,680.0,,7226.0,,680.0,,"Dothan-Enterprise-Ozark, AL CSA",222
208649.0,,-555555555.0,*****,203479.0,,438.0,,5170.0,,438.0,,"Eau Claire-Menomonie, WI CSA",232
127072.0,,-555555555.0,*****,106633.0,,958.0,,20439.0,,958.0,,"Edwards-Glenwood Springs, CO CSA",233
186932.0,,-555555555.0,*****,182117.0,,378.0,,4815.0,,378.0,,"Elmira-Corning, NY CSA",236
1048388.0,,-555555555.0,*****,799623.0,,3316.0,,248765.0,,3316.0,,"El Paso-Las Cruces, TX-NM CSA",238
367201.0,,-555555555.0,*****,354029.0,,918.0,,13172.0,,918.0,,"Erie-Meadville, PA CSA",240
246222.0,,-555555555.0,*****,233593.0,,805.0,,12629.0,,805.0,,"Fargo-Wahpeton, ND-MN CSA",244
546481.0,,-555555555.0,*****,517157.0,,1267.0,,29324.0,,1267.0,,"Fayetteville-Lumberton-Laurinburg, NC CSA",246
131357.0,,-555555555.0,*****,128553.0,,388.0,,2804.0,,388.0,,"Findlay-Tiffin, OH CSA",248
620346.0,,-555555555.0,*****,592456.0,,1112.0,,27890.0,,1112.0,,"Fort Wayne-Huntington-Auburn, IN CSA",258
1109936.0,,-555555555.0,*****,872067.0,,3737.0,,237869.0,,3737.0,,"Fresno-Madera, CA CSA",260
339016.0,,-555555555.0,*****,309830.0,,1273.0,,29186.0,,1273.0,,"Gainesville-Lake City, FL CSA",264
1409562.0,,-555555555.0,*****,1335050.0,,1964.0,,74512.0,,1964.0,,"Grand Rapids-Wyoming-Muskegon, MI CSA",266
358690.0,,-555555555.0,*****,342987.0,,782.0,,15703.0,,782.0,,"Green Bay-Shawano, WI CSA",267
1621491.0,,-555555555.0,*****,1497702.0,,2378.0,,123789.0,,2378.0,,"Greensboro--Winston-Salem--High Point, NC CSA",268
1397576.0,,-555555555.0,*****,1323110.0,,2142.0,,74466.0,,2142.0,,"Greenville-Spartanburg-Anderson, SC CSA",273
221359.0,,-555555555.0,*****,211484.0,,866.0,,9875.0,,866.0,,"Greenville-Washington, NC CSA",274
1235401.0,,-555555555.0,*****,1177436.0,,1845.0,,57965.0,,1845.0,,"Harrisburg-York-Lebanon, PA CSA",276
248569.0,,-555555555.0,*****,233115.0,,826.0,,15454.0,,826.0,,"Harrisonburg-Staunton-Waynesboro, VA CSA",277
1487241.0,,-555555555.0,*****,1306240.0,,3211.0,,181001.0,,3211.0,,"Hartford-West Hartford, CT CSA",278
408035.0,,-555555555.0,*****,387091.0,,889.0,,20944.0,,889.0,,"Hickory-Lenoir, NC CSA",280
130270.0,,-555555555.0,*****,126847.0,,429.0,,3423.0,,429.0,,"Hot Springs-Malvern, AR CSA",284
6542486.0,,-555555555.0,*****,5087937.0,,10600.0,,1454549.0,,10600.0,,"Houston-The Woodlands, TX CSA",288
682933.0,,-555555555.0,*****,646971.0,,1302.0,,35962.0,,1302.0,,"Huntsville-Decatur-Albertville, AL CSA",290
233501.0,,-555555555.0,*****,220989.0,,731.0,,12512.0,,731.0,,"Idaho Falls-Rexburg-Blackfoot, ID CSA",292
1525741.0,,-555555555.0,*****,1403888.0,,3062.0,,121853.0,,3062.0,,"Jacksonville-St. Marys-Palatka, FL-GA CSA",300
2332639.0,,-555555555.0,*****,2199415.0,,3143.0,,133224.0,,3143.0,,"Indianapolis-Carmel-Muncie, IN CSA",294
152898.0,,-555555555.0,*****,138728.0,,776.0,,14170.0,,776.0,,"Ithaca-Cortland, NY CSA",296
669185.0,,-555555555.0,*****,653724.0,,1141.0,,15461.0,,1141.0,,"Jackson-Vicksburg-Brookhaven, MS CSA",298
508527.0,,-555555555.0,*****,498527.0,,709.0,,10000.0,,709.0,,"Johnson City-Kingsport-Bristol, TN-VA CSA",304
215998.0,,-555555555.0,*****,213771.0,,186.0,,2227.0,,186.0,,"Johnstown-Somerset, PA CSA",306
169001.0,,-555555555.0,*****,164557.0,,444.0,,4444.0,,444.0,,"Jonesboro-Paragould, AR CSA",308
208046.0,,-555555555.0,*****,200871.0,,462.0,,7175.0,,462.0,,"Joplin-Miami, MO-OK CSA",309
527915.0,,-555555555.0,*****,506040.0,,1291.0,,21875.0,,1291.0,,"Kalamazoo-Battle Creek-Portage, MI CSA",310
2394713.0,,-555555555.0,*****,2248372.0,,2908.0,,146341.0,,2909.0,,"Kansas City-Overland Park-Kansas City, MO-KS CSA",312
1096586.0,,-555555555.0,*****,1052670.0,,1399.0,,43916.0,,1399.0,,"Knoxville-Morristown-Sevierville, TN CSA",314
118976.0,,-555555555.0,*****,116853.0,,256.0,,2123.0,,256.0,,"Kokomo-Peru, IN CSA",316
617202.0,,-555555555.0,*****,597809.0,,1078.0,,19393.0,,1078.0,,"Lafayette-Opelousas-Morgan City, LA CSA",318
242553.0,,-555555555.0,*****,219744.0,,840.0,,22809.0,,840.0,,"Lafayette-West Lafayette-Frankfort, IN CSA",320
537850.0,,-555555555.0,*****,506678.0,,1138.0,,31172.0,,1138.0,,"Lansing-East Lansing-Owosso, MI CSA",330
2281559.0,,-555555555.0,*****,1818018.0,,5114.0,,463541.0,,5114.0,,"Las Vegas-Henderson, NV-AZ CSA",332
709606.0,,-555555555.0,*****,671763.0,,1325.0,,37843.0,,1325.0,,"Lexington-Fayette--Richmond--Frankfort, KY CSA",336
283148.0,,-555555555.0,*****,263124.0,,771.0,,20024.0,,771.0,,"Longview-Marshall, TX CSA",346
220508.0,,-555555555.0,*****,218166.0,,296.0,,2342.0,,296.0,,"Lima-Van Wert-Celina, OH CSA",338
336896.0,,-555555555.0,*****,314516.0,,1054.0,,22380.0,,1054.0,,"Lincoln-Beatrice, NE CSA",339
897464.0,,-555555555.0,*****,865496.0,,1489.0,,31968.0,,1489.0,,"Little Rock-North Little Rock, AR CSA",340
18388091.0,,-555555555.0,*****,12808378.0,,17089.0,,5579713.0,,17089.0,,"Los Angeles-Long Beach, CA CSA",348
1489729.0,,-555555555.0,*****,1419699.0,,1938.0,,70030.0,,1938.0,,"Louisville/Jefferson County--Elizabethtown--Madison, KY-IN CSA",350
325875.0,,-555555555.0,*****,307053.0,,999.0,,18822.0,,999.0,,"Lubbock-Levelland, TX CSA",352
417763.0,,-555555555.0,*****,400694.0,,979.0,,17069.0,,979.0,,"Macon-Warner Robins, GA CSA",356
851337.0,,-555555555.0,*****,798651.0,,1531.0,,52686.0,,1531.0,,"Madison-Janesville-Beloit, WI CSA",357
134434.0,,-555555555.0,*****,125626.0,,586.0,,8808.0,,586.0,,"Manhattan-Junction City, KS CSA",358
123602.0,,-555555555.0,*****,119548.0,,392.0,,4054.0,,392.0,,"Mankato-New Ulm-North Mankato, MN CSA",359
218226.0,,-555555555.0,*****,215041.0,,344.0,,3185.0,,344.0,,"Mansfield-Ashland-Bucyrus, OH CSA",360
71966.0,,-555555555.0,*****,70821.0,,240.0,,1145.0,,240.0,,"Martin-Union City, TN-KY CSA",362
233797.0,,-555555555.0,*****,231152.0,,365.0,,2645.0,,365.0,,"Mayaguez-San German, PR CSA",364
881865.0,,-555555555.0,*****,625262.0,,4567.0,,256603.0,,4567.0,,"McAllen-Edinburg, TX CSA",365
291772.0,,-555555555.0,*****,276803.0,,932.0,,14969.0,,932.0,,"Medford-Grants Pass, OR CSA",366
1367681.0,,-555555555.0,*****,1298498.0,,2142.0,,69183.0,,2142.0,,"Memphis-Forrest City, TN-MS-AR CSA",368
6482713.0,,-555555555.0,*****,4125038.0,,10266.0,,2357675.0,,10266.0,,"Miami-Fort Lauderdale-Port St. Lucie, FL CSA",370
306099.0,,-555555555.0,*****,268815.0,,1721.0,,37284.0,,1721.0,,"Midland-Odessa, TX CSA",372
2040832.0,,-555555555.0,*****,1908886.0,,2474.0,,131946.0,,2474.0,,"Milwaukee-Racine-Waukesha, WI CSA",376
3797915.0,,-555555555.0,*****,3438226.0,,4489.0,,359689.0,,4489.0,,"Minneapolis-St. Paul, MN-WI CSA",378
609372.0,,-555555555.0,*****,589691.0,,1162.0,,19681.0,,1162.0,,"Mobile-Daphne-Fairhope, AL CSA",380
791252.0,,-555555555.0,*****,615201.0,,2806.0,,176051.0,,2806.0,,"Modesto-Merced, CA CSA",382
252663.0,,-555555555.0,*****,247591.0,,436.0,,5072.0,,436.0,,"Monroe-Ruston-Bastrop, LA CSA",384
192267.0,,-555555555.0,*****,186193.0,,650.0,,6074.0,,650.0,,"Morgantown-Fairmont, WV CSA",390
111151.0,,-555555555.0,*****,89032.0,,944.0,,22119.0,,944.0,,"Moses Lake-Othello, WA CSA",393
112547.0,,-555555555.0,*****,109602.0,,351.0,,2945.0,,351.0,,"Mount Pleasant-Alma, MI CSA",394
467228.0,,-555555555.0,*****,442170.0,,1374.0,,25058.0,,1374.0,,"Myrtle Beach-Conway, SC-NC CSA",396
1881219.0,,-555555555.0,*****,1741974.0,,3054.0,,139245.0,,3054.0,,"Nashville-Davidson--Murfreesboro, TN CSA",400
195826.0,,-555555555.0,*****,187253.0,,684.0,,8573.0,,684.0,,"New Bern-Morehead City, NC CSA",404
1466935.0,,-555555555.0,*****,1372135.0,,2021.0,,94800.0,,2021.0,,"New Orleans-Metairie-Hammond, LA-MS CSA",406
23516086.0,,-555555555.0,*****,17301001.0,,18515.0,,6215085.0,,18515.0,,"New York-Newark, NY-NJ-CT-PA CSA",408
936507.0,,-555555555.0,*****,822210.0,,2792.0,,114297.0,,2792.0,,"North Port-Sarasota, FL CSA",412
1389544.0,,-555555555.0,*****,1280320.0,,1887.0,,109224.0,,1887.0,,"Oklahoma City-Shawnee, OK CSA",416
932644.0,,-555555555.0,*****,868488.0,,1561.0,,64156.0,,1561.0,,"Omaha-Council Bluffs-Fremont, NE-IA CSA",420
2990819.0,,-555555555.0,*****,2554908.0,,6033.0,,435911.0,,6033.0,,"Orlando-Deltona-Daytona Beach, FL CSA",422
135576.0,,-555555555.0,*****,132434.0,,360.0,,3142.0,,360.0,,"Paducah-Mayfield, KY-IL CSA",424
153751.0,,-555555555.0,*****,152142.0,,249.0,,1609.0,,249.0,,"Parkersburg-Marietta-Vienna, WV-OH CSA",425
416270.0,,-555555555.0,*****,401904.0,,788.0,,14366.0,,788.0,,"Peoria-Canton, IL CSA",426
7147370.0,,-555555555.0,*****,6433287.0,,5900.0,,714083.0,,5900.0,,"Philadelphia-Reading-Camden, PA-NJ-DE-MD CSA",428
3028650.0,,-555555555.0,*****,2672001.0,,4971.0,,356649.0,,4971.0,,"Portland-Vancouver-Salem, OR-WA CSA",440
2657902.0,,-555555555.0,*****,2568317.0,,1764.0,,89585.0,,1764.0,,"Pittsburgh-New Castle-Weirton, PA-OH-WV CSA",430
413059.0,,-555555555.0,*****,410217.0,,363.0,,2842.0,,363.0,,"Ponce-Coamo-Santa Isabel, PR CSA",434
628286.0,,-555555555.0,*****,600622.0,,1028.0,,27664.0,,1028.0,,"Portland-Lewiston-South Portland, ME CSA",438
208328.0,,-555555555.0,*****,200436.0,,705.0,,7892.0,,705.0,,"Pueblo-Ca?on City, CO CSA",444
85076.0,,-555555555.0,*****,78704.0,,502.0,,6372.0,,502.0,,"Pullman-Moscow, WA-ID CSA",446
116336.0,,-555555555.0,*****,114748.0,,234.0,,1588.0,,234.0,,"Quincy-Hannibal, IL-MO CSA",448
2037541.0,,-555555555.0,*****,1811628.0,,3792.0,,225913.0,,3792.0,,"Raleigh-Durham-Chapel Hill, NC CSA",450
165505.0,,-555555555.0,*****,161999.0,,355.0,,3506.0,,355.0,,"Rapid City-Spearfish, SD CSA",452
242094.0,,-555555555.0,*****,228031.0,,1051.0,,14063.0,,1051.0,,"Redding-Red Bluff, CA CSA",454
592346.0,,-555555555.0,*****,514321.0,,1797.0,,78025.0,,1797.0,,"Reno-Carson City-Fernley, NV CSA",456
91639.0,,-555555555.0,*****,90069.0,,262.0,,1570.0,,262.0,,"Richmond-Connersville, IN CSA",458
250477.0,,-555555555.0,*****,230901.0,,943.0,,19576.0,,943.0,,"Rochester-Austin, MN CSA",462
1177758.0,,-555555555.0,*****,1102810.0,,2320.0,,74948.0,,2320.0,,"Rochester-Batavia-Seneca Falls, NY CSA",464
443312.0,,-555555555.0,*****,409979.0,,1596.0,,33333.0,,1596.0,,"Rockford-Freeport-Rochelle, IL CSA",466
306001.0,,-555555555.0,*****,293474.0,,758.0,,12527.0,,758.0,,"Rocky Mount-Wilson-Roanoke Rapids, NC CSA",468
121410.0,,-555555555.0,*****,114362.0,,454.0,,7048.0,,454.0,,"Rome-Summerville, GA CSA",470
2488779.0,,-555555555.0,*****,2051361.0,,4993.0,,437418.0,,4993.0,,"Sacramento-Roseville, CA CSA",472
386801.0,,-555555555.0,*****,377398.0,,622.0,,9403.0,,622.0,,"Saginaw-Midland-Bay City, MI CSA",474
2906589.0,,-555555555.0,*****,2780545.0,,2735.0,,126044.0,,2735.0,,"St. Louis-St. Charles-Farmington, MO-IL CSA",476
2390713.0,,-555555555.0,*****,2173378.0,,3672.0,,217335.0,,3672.0,,"Salt Lake City-Provo-Orem, UT CSA",482
8493558.0,,-555555555.0,*****,6002479.0,,10915.0,,2491079.0,,10915.0,,"San Jose-San Francisco-Oakland, CA CSA",488
2568098.0,,-555555555.0,*****,2478003.0,,2593.0,,90095.0,,2593.0,,"San Juan-Carolina, PR CSA",490
520472.0,,-555555555.0,*****,491009.0,,1467.0,,29463.0,,1467.0,,"Savannah-Hinesville-Statesboro, GA CSA",496
4467503.0,,-555555555.0,*****,3782229.0,,6077.0,,685274.0,,6077.0,,"Seattle-Tacoma, WA CSA",500
182900.0,,-555555555.0,*****,167565.0,,695.0,,15335.0,,695.0,,"Sioux City-Vermillion, IA-SD-NE CSA",512
699944.0,,-555555555.0,*****,642193.0,,2033.0,,57751.0,,2033.0,,"Springfield-Greenfield Town, MA CSA",521
722410.0,,-555555555.0,*****,677114.0,,1556.0,,45296.0,,1556.0,,"South Bend-Elkhart-Mishawaka, IN-MI CSA",515
682394.0,,-555555555.0,*****,650188.0,,1610.0,,32206.0,,1610.0,,"Spokane-Spokane Valley-Coeur d'Alene, WA-ID CSA",518
533401.0,,-555555555.0,*****,518886.0,,1014.0,,14515.0,,1014.0,,"Springfield-Branson, MO CSA",520
316110.0,,-555555555.0,*****,308207.0,,572.0,,7903.0,,572.0,,"Springfield-Jacksonville-Lincoln, IL CSA",522
239166.0,,-555555555.0,*****,224378.0,,796.0,,14788.0,,796.0,,"State College-DuBois, PA CSA",524
36723.0,,-555555555.0,*****,34562.0,,427.0,,2161.0,,427.0,,"Steamboat Springs-Craig, CO CSA",525
741087.0,,-555555555.0,*****,700455.0,,1163.0,,40632.0,,1163.0,,"Syracuse-Auburn, NY CSA",532
402068.0,,-555555555.0,*****,377529.0,,1511.0,,24539.0,,1511.0,,"Tallahassee-Bainbridge, FL-GA CSA",533
648793.0,,-555555555.0,*****,628459.0,,1134.0,,20334.0,,1134.0,,"Toledo-Port Clinton, OH CSA",534
1045610.0,,-555555555.0,*****,900726.0,,2839.0,,144884.0,,2839.0,,"Tucson-Nogales, AZ CSA",536
1132757.0,,-555555555.0,*****,1069660.0,,1322.0,,63097.0,,1322.0,,"Tulsa-Muskogee-Bartlesville, OK CSA",538
268719.0,,-555555555.0,*****,246285.0,,1074.0,,22434.0,,1074.0,,"Tyler-Jacksonville, TX CSA",540
119175.0,,-555555555.0,*****,111448.0,,633.0,,7727.0,,633.0,,"Victoria-Port Lavaca, TX CSA",544
1809570.0,,-555555555.0,*****,1697807.0,,2519.0,,111763.0,,2519.0,,"Virginia Beach-Norfolk, VA-NC CSA",545
605031.0,,-555555555.0,*****,474620.0,,2792.0,,130411.0,,2792.0,,"Visalia-Porterville-Hanford, CA CSA",546
9441497.0,,-555555555.0,*****,7826376.0,,9721.0,,1615121.0,,9721.0,,"Washington-Baltimore-Arlington, DC-MD-VA-WV-PA CSA",548
307907.0,,-555555555.0,*****,298276.0,,591.0,,9631.0,,591.0,,"Wausau-Stevens Point-Wisconsin Rapids, WI CSA",554
674963.0,,-555555555.0,*****,626368.0,,1503.0,,48595.0,,1503.0,,"Wichita-Arkansas City-Winfield, KS CSA",556
156270.0,,-555555555.0,*****,153910.0,,332.0,,2360.0,,332.0,,"Williamsport-Lock Haven, PA CSA",558
662230.0,,-555555555.0,*****,649528.0,,885.0,,12702.0,,885.0,,"Youngstown-Warren, OH-PA CSA",566
