geoid,name,universe,universe_annotation,universe_moe,universe_moe_annotation,in_labor_force,in_labor_force_annotation,in_labor_force_moe,in_labor_force_moe_annotation,civilian,civilian_annotation,civilian_moe,civilian_moe_annotation,civilian_employed,civilian_employed_annotation,civilian_employed_moe,civilian_employed_moe_annotation,civilian_unemployed,civilian_unemployed_annotation,civilian_unemployed_moe,civilian_unemployed_moe_annotation,armed_forces,armed_forces_annotation,armed_forces_moe,armed_forces_moe_annotation,not_in_labor_force,not_in_labor_force_annotation,not_in_labor_force_moe,not_in_labor_force_moe_annotation,combined new england city and town area
710,"Augusta-Waterville, ME Combined NECTA",104232.0,,447.0,,67332.0,,975.0,,67098.0,,999.0,,61826.0,,1081.0,,5272.0,,511.0,,234.0,,118.0,,36900.0,,957.0,,710
715,"Boston-Worcester-Manchester, MA-NH-CT-ME Combined NECTA",4592147.0,,1764.0,,3187442.0,,6520.0,,3182113.0,,6517.0,,2938736.0,,7593.0,,243377.0,,3486.0,,5329.0,,531.0,,1404705.0,,6546.0,,715
720,"Bridgeport-New Haven-Stamford, CT Combined NECTA",1491465.0,,989.0,,1016569.0,,3527.0,,1015929.0,,3509.0,,927131.0,,3854.0,,88798.0,,2110.0,,640.0,,174.0,,474896.0,,3427.0,,720
725,"Claremont-Lebanon, NH-VT Combined NECTA",77830.0,,723.0,,50826.0,,922.0,,50824.0,,922.0,,48238.0,,966.0,,2586.0,,404.0,,2.0,,4.0,,27004.0,,974.0,,725
735,"Hartford-West Hartford-Torrington, CT Combined NECTA",923133.0,,1143.0,,634287.0,,2502.0,,633168.0,,2525.0,,580452.0,,2837.0,,52716.0,,1742.0,,1119.0,,292.0,,288846.0,,2348.0,,735
740,"Laconia-Franklin, NH Combined NECTA",46577.0,,425.0,,30449.0,,668.0,,30428.0,,669.0,,28514.0,,637.0,,1914.0,,304.0,,21.0,,24.0,,16128.0,,657.0,,740
770,"Pittsfield-North Adams, MA-VT Combined NECTA",87147.0,,399.0,,54578.0,,821.0,,54487.0,,823.0,,49572.0,,842.0,,4915.0,,459.0,,91.0,,50.0,,32569.0,,777.0,,770
775,"Portland-South Portland-Sanford, ME Combined NECTA",308169.0,,733.0,,214638.0,,1668.0,,214122.0,,1663.0,,201431.0,,1681.0,,12691.0,,791.0,,516.0,,164.0,,93531.0,,1691.0,,775
780,"Providence-New Bedford-Fall River, RI-MA Combined NECTA",1198019.0,,1312.0,,796544.0,,3464.0,,792611.0,,3427.0,,719776.0,,3559.0,,72835.0,,1865.0,,3933.0,,445.0,,401475.0,,3274.0,,780
790,"Springfield-Amherst Center-Greenfield, MA-CT Combined NECTA",625981.0,,829.0,,398538.0,,2535.0,,397819.0,,2556.0,,361717.0,,2628.0,,36102.0,,1446.0,,719.0,,186.0,,227443.0,,2531.0,,790
