geoid,name,universe,universe_annotation,universe_moe,universe_moe_annotation,male_total,male_total_annotation,male_total_moe,male_total_moe_annotation,male_private_for_profit_wage_and_salary,male_private_for_profit_wage_and_salary_annotation,male_private_for_profit_wage_and_salary_moe,male_private_for_profit_wage_and_salary_moe_annotation,male_employee_of_private_company,male_employee_of_private_company_annotation,male_employee_of_private_company_moe,male_employee_of_private_company_moe_annotation,male_selfemployed_in_own_incorporated_business,male_selfemployed_in_own_incorporated_business_annotation,male_selfemployed_in_own_incorporated_business_moe,male_selfemployed_in_own_incorporated_business_moe_annotation,male_private_not_for_profit_wage_and_salary,male_private_not_for_profit_wage_and_salary_annotation,male_private_not_for_profit_wage_and_salary_moe,male_private_not_for_profit_wage_and_salary_moe_annotation,male_local_government,male_local_government_annotation,male_local_government_moe,male_local_government_moe_annotation,male_state_government,male_state_government_annotation,male_state_government_moe,male_state_government_moe_annotation,male_federal_government,male_federal_government_annotation,male_federal_government_moe,male_federal_government_moe_annotation,male_selfemployed_in_own_not_incorporated_business,male_selfemployed_in_own_not_incorporated_business_annotation,male_selfemployed_in_own_not_incorporated_business_moe,male_selfemployed_in_own_not_incorporated_business_moe_annotation,male_unpaid_family_workers,male_unpaid_family_workers_annotation,male_unpaid_family_workers_moe,male_unpaid_family_workers_moe_annotation,female_total,female_total_annotation,female_total_moe,female_total_moe_annotation,female_private_for_profit_wage_and_salary,female_private_for_profit_wage_and_salary_annotation,female_private_for_profit_wage_and_salary_moe,female_private_for_profit_wage_and_salary_moe_annotation,female_employee_of_private_company,female_employee_of_private_company_annotation,female_employee_of_private_company_moe,female_employee_of_private_company_moe_annotation,female_selfemployed_in_own_incorporated_business,female_selfemployed_in_own_incorporated_business_annotation,female_selfemployed_in_own_incorporated_business_moe,female_selfemployed_in_own_incorporated_business_moe_annotation,female_private_not_for_profit_wage_and_salary,female_private_not_for_profit_wage_and_salary_annotation,female_private_not_for_profit_wage_and_salary_moe,female_private_not_for_profit_wage_and_salary_moe_annotation,female_local_government,female_local_government_annotation,female_local_government_moe,female_local_government_moe_annotation,female_state_government,female_state_government_annotation,female_state_government_moe,female_state_government_moe_annotation,female_federal_government,female_federal_government_annotation,female_federal_government_moe,female_federal_government_moe_annotation,female_selfemployed_in_own_not_incorporated_business,female_selfemployed_in_own_not_incorporated_business_annotation,female_selfemployed_in_own_not_incorporated_business_moe,female_selfemployed_in_own_not_incorporated_business_moe_annotation,female_unpaid_family_workers,female_unpaid_family_workers_annotation,female_unpaid_family_workers_moe,female_unpaid_family_workers_moe_annotation,combined new england city and town area
710,"Augusta-Waterville, ME Combined NECTA",61826.0,,1081.0,,31104.0,,624.0,,20758.0,,626.0,,19632.0,,621.0,,1126.0,,216.0,,2447.0,,299.0,,1735.0,,265.0,,1910.0,,237.0,,750.0,,164.0,,3458.0,,326.0,,46.0,,38.0,,30722.0,,748.0,,16441.0,,792.0,,15772.0,,763.0,,669.0,,157.0,,5049.0,,405.0,,3015.0,,348.0,,3131.0,,312.0,,963.0,,162.0,,2059.0,,312.0,,64.0,,34.0,,710
715,"Boston-Worcester-Manchester, MA-NH-CT-ME Combined NECTA",2938736.0,,7593.0,,1507303.0,,4707.0,,1115987.0,,5246.0,,1048360.0,,4967.0,,67627.0,,1844.0,,125706.0,,2656.0,,78091.0,,1948.0,,45213.0,,1617.0,,32559.0,,1185.0,,108071.0,,2358.0,,1676.0,,263.0,,1431433.0,,5083.0,,921173.0,,4960.0,,898458.0,,4980.0,,22715.0,,1064.0,,228475.0,,3177.0,,131055.0,,2333.0,,52882.0,,1591.0,,22758.0,,1012.0,,73574.0,,1930.0,,1516.0,,267.0,,715
720,"Bridgeport-New Haven-Stamford, CT Combined NECTA",927131.0,,3854.0,,480449.0,,2447.0,,360109.0,,2948.0,,332511.0,,2911.0,,27598.0,,1024.0,,32821.0,,1122.0,,26267.0,,1121.0,,12353.0,,930.0,,6660.0,,557.0,,41782.0,,1353.0,,457.0,,157.0,,446682.0,,3069.0,,294538.0,,2813.0,,284707.0,,2652.0,,9831.0,,689.0,,61860.0,,1903.0,,44410.0,,1569.0,,14469.0,,986.0,,4765.0,,524.0,,26122.0,,1169.0,,518.0,,119.0,,720
725,"Claremont-Lebanon, NH-VT Combined NECTA",48238.0,,966.0,,25079.0,,661.0,,15666.0,,656.0,,14537.0,,617.0,,1129.0,,200.0,,3994.0,,432.0,,1182.0,,200.0,,392.0,,99.0,,611.0,,134.0,,3154.0,,349.0,,80.0,,50.0,,23159.0,,663.0,,11744.0,,547.0,,11384.0,,561.0,,360.0,,97.0,,5859.0,,450.0,,2546.0,,299.0,,703.0,,193.0,,610.0,,155.0,,1663.0,,240.0,,34.0,,29.0,,725
735,"Hartford-West Hartford-Torrington, CT Combined NECTA",580452.0,,2837.0,,296133.0,,1893.0,,219298.0,,2074.0,,205919.0,,2233.0,,13379.0,,787.0,,17702.0,,992.0,,16674.0,,797.0,,16850.0,,847.0,,4684.0,,495.0,,20447.0,,1049.0,,478.0,,196.0,,284319.0,,2214.0,,184901.0,,2239.0,,180395.0,,2249.0,,4506.0,,479.0,,36375.0,,1329.0,,28451.0,,1086.0,,19947.0,,884.0,,2557.0,,339.0,,11613.0,,739.0,,475.0,,132.0,,735
740,"Laconia-Franklin, NH Combined NECTA",28514.0,,637.0,,14518.0,,463.0,,10153.0,,480.0,,9599.0,,493.0,,554.0,,140.0,,669.0,,158.0,,857.0,,175.0,,601.0,,146.0,,153.0,,86.0,,2085.0,,313.0,,0.0,,85.0,,13996.0,,389.0,,8138.0,,498.0,,8016.0,,498.0,,122.0,,64.0,,2501.0,,354.0,,1443.0,,241.0,,903.0,,184.0,,137.0,,87.0,,810.0,,210.0,,64.0,,57.0,,740
770,"Pittsfield-North Adams, MA-VT Combined NECTA",49572.0,,842.0,,24534.0,,487.0,,17155.0,,569.0,,16165.0,,556.0,,990.0,,171.0,,2446.0,,286.0,,1668.0,,315.0,,766.0,,176.0,,320.0,,118.0,,2131.0,,277.0,,48.0,,42.0,,25038.0,,714.0,,15341.0,,702.0,,15081.0,,684.0,,260.0,,83.0,,4583.0,,381.0,,2561.0,,286.0,,1076.0,,215.0,,286.0,,93.0,,1136.0,,182.0,,55.0,,46.0,,770
775,"Portland-South Portland-Sanford, ME Combined NECTA",201431.0,,1681.0,,101570.0,,1125.0,,73327.0,,1350.0,,66504.0,,1311.0,,6823.0,,517.0,,7758.0,,514.0,,5505.0,,439.0,,2757.0,,431.0,,2752.0,,322.0,,9385.0,,615.0,,86.0,,45.0,,99861.0,,1019.0,,63379.0,,1227.0,,60709.0,,1207.0,,2670.0,,358.0,,16609.0,,805.0,,9349.0,,545.0,,2555.0,,307.0,,1467.0,,269.0,,6357.0,,497.0,,145.0,,85.0,,775
780,"Providence-New Bedford-Fall River, RI-MA Combined NECTA",719776.0,,3559.0,,362492.0,,2800.0,,267523.0,,2726.0,,250558.0,,2756.0,,16965.0,,838.0,,25416.0,,956.0,,21581.0,,981.0,,13301.0,,821.0,,10107.0,,656.0,,24166.0,,1101.0,,398.0,,144.0,,357284.0,,2398.0,,239738.0,,2637.0,,233175.0,,2731.0,,6563.0,,550.0,,51887.0,,1569.0,,30300.0,,1106.0,,14739.0,,791.0,,5478.0,,496.0,,14691.0,,869.0,,451.0,,180.0,,780
790,"Springfield-Amherst Center-Greenfield, MA-CT Combined NECTA",361717.0,,2628.0,,179008.0,,1617.0,,126200.0,,1616.0,,120006.0,,1555.0,,6194.0,,541.0,,12663.0,,696.0,,10689.0,,744.0,,10514.0,,646.0,,5109.0,,441.0,,13603.0,,681.0,,230.0,,118.0,,182709.0,,1830.0,,110306.0,,1566.0,,108027.0,,1530.0,,2279.0,,285.0,,28584.0,,1102.0,,19740.0,,921.0,,12040.0,,774.0,,2796.0,,299.0,,9013.0,,639.0,,230.0,,97.0,,790
