geoid,name,universe,universe_annotation,universe_moe,universe_moe_annotation,native,native_annotation,native_moe,native_moe_annotation,foreign_born,foreign_born_annotation,foreign_born_moe,foreign_born_moe_annotation,region
1,Northeast Region,55110021.0,,-555555555.0,*****,46662282.0,,27415.0,,8447739.0,,27415.0,,1
2,Midwest Region,66740270.0,,-555555555.0,*****,62322811.0,,24250.0,,4417459.0,,24270.0,,2
3,South Region,113465305.0,,-555555555.0,*****,101052778.0,,38547.0,,12412527.0,,38547.0,,3
4,West Region,71288176.0,,-555555555.0,*****,57297063.0,,46405.0,,13991113.0,,46418.0,,4
