geoid,name,universe,universe_annotation,universe_moe,universe_moe_annotation,native,native_annotation,native_moe,native_moe_annotation,foreign_born,foreign_born_annotation,foreign_born_moe,foreign_born_moe_annotation,state
01,Alabama,4777326.0,,-555555555.0,*****,4610592.0,,2629.0,,166734.0,,2629.0,,01
02,Alaska,711139.0,,-555555555.0,*****,661798.0,,1339.0,,49341.0,,1339.0,,02
04,Arizona,6410979.0,,-555555555.0,*****,5542160.0,,8578.0,,868819.0,,8578.0,,04
05,Arkansas,2916372.0,,-555555555.0,*****,2787223.0,,2349.0,,129149.0,,2349.0,,05
06,California,37325068.0,,-555555555.0,*****,27220329.0,,30372.0,,10104739.0,,30372.0,,06
08,Colorado,5042853.0,,-555555555.0,*****,4552899.0,,6642.0,,489954.0,,6642.0,,08
09,Connecticut,3572213.0,,-555555555.0,*****,3090333.0,,5347.0,,481880.0,,5347.0,,09
10,Delaware,900131.0,,-555555555.0,*****,825226.0,,1942.0,,74905.0,,1942.0,,10
11,District of Columbia,605759.0,,-555555555.0,*****,523711.0,,1856.0,,82048.0,,1856.0,,11
12,Florida,18885152.0,,-555555555.0,*****,15240820.0,,13313.0,,3644332.0,,13313.0,,12
13,Georgia,9714569.0,,-555555555.0,*****,8775005.0,,6981.0,,939564.0,,6981.0,,13
15,Hawaii,1362730.0,,-555555555.0,*****,1115928.0,,4302.0,,246802.0,,4302.0,,15
16,Idaho,1567803.0,,-555555555.0,*****,1473789.0,,2677.0,,94014.0,,2677.0,,16
17,Illinois,12823860.0,,-555555555.0,*****,11055555.0,,10969.0,,1768305.0,,10972.0,,17
18,Indiana,6485530.0,,-555555555.0,*****,6187567.0,,3965.0,,297963.0,,3966.0,,18
19,Iowa,3047646.0,,-555555555.0,*****,2915316.0,,2453.0,,132330.0,,2454.0,,19
20,Kansas,2851183.0,,-555555555.0,*****,2664659.0,,3147.0,,186524.0,,3149.0,,20
21,Kentucky,4340167.0,,-555555555.0,*****,4200381.0,,2568.0,,139786.0,,2568.0,,21
22,Louisiana,4529605.0,,-555555555.0,*****,4362369.0,,2905.0,,167236.0,,2905.0,,22
23,Maine,1329084.0,,-555555555.0,*****,1284935.0,,1200.0,,44149.0,,1200.0,,23
24,Maryland,5785496.0,,-555555555.0,*****,4989092.0,,6231.0,,796404.0,,6231.0,,24
25,Massachusetts,6560595.0,,-555555555.0,*****,5589130.0,,7890.0,,971465.0,,7890.0,,25
26,Michigan,9897264.0,,-555555555.0,*****,9299509.0,,6192.0,,597755.0,,6192.0,,26
27,Minnesota,5313081.0,,-555555555.0,*****,4930349.0,,4387.0,,382732.0,,4389.0,,27
28,Mississippi,2967620.0,,-555555555.0,*****,2902302.0,,2045.0,,65318.0,,2045.0,,28
29,Missouri,5982413.0,,-555555555.0,*****,5751328.0,,4355.0,,231085.0,,4355.0,,29
30,Montana,990785.0,,-555555555.0,*****,971286.0,,1009.0,,19499.0,,1009.0,,30
31,Nebraska,1827306.0,,-555555555.0,*****,1714837.0,,2514.0,,112469.0,,2514.0,,31
32,Nevada,2704204.0,,-555555555.0,*****,2185290.0,,5565.0,,518914.0,,5565.0,,32
33,New Hampshire,1317474.0,,-555555555.0,*****,1247849.0,,1688.0,,69625.0,,1688.0,,33
34,New Jersey,8793888.0,,-555555555.0,*****,6960812.0,,10793.0,,1833076.0,,10793.0,,34
35,New Mexico,2055287.0,,-555555555.0,*****,1854749.0,,3533.0,,200538.0,,3533.0,,35
36,New York,19398125.0,,-555555555.0,*****,15130105.0,,14973.0,,4268020.0,,14973.0,,36
37,North Carolina,9544249.0,,-555555555.0,*****,8825455.0,,5624.0,,718794.0,,5625.0,,37
38,North Dakota,676253.0,,-555555555.0,*****,659217.0,,961.0,,17036.0,,961.0,,38
39,Ohio,11533561.0,,-555555555.0,*****,11078974.0,,5246.0,,454587.0,,5246.0,,39
40,Oklahoma,3749005.0,,-555555555.0,*****,3544650.0,,3345.0,,204355.0,,3345.0,,40
41,Oregon,3836628.0,,-555555555.0,*****,3460620.0,,4882.0,,376008.0,,4883.0,,41
42,Pennsylvania,12699589.0,,-555555555.0,*****,11961411.0,,6679.0,,738178.0,,6679.0,,42
44,Rhode Island,1052471.0,,-555555555.0,*****,916115.0,,2662.0,,136356.0,,2662.0,,44
45,South Carolina,4630351.0,,-555555555.0,*****,4408245.0,,3708.0,,222106.0,,3708.0,,45
46,South Dakota,815871.0,,-555555555.0,*****,794383.0,,950.0,,21488.0,,950.0,,46
47,Tennessee,6353226.0,,-555555555.0,*****,6064180.0,,4162.0,,289046.0,,4162.0,,47
48,Texas,25208897.0,,-555555555.0,*****,21109883.0,,17115.0,,4099014.0,,17115.0,,48
49,Utah,2766233.0,,-555555555.0,*****,2537344.0,,3874.0,,228889.0,,3874.0,,49
50,Vermont,625498.0,,-555555555.0,*****,600213.0,,885.0,,25285.0,,885.0,,50
51,Virginia,8014955.0,,-555555555.0,*****,7121778.0,,6612.0,,893177.0,,6612.0,,51
53,Washington,6738714.0,,-555555555.0,*****,5861833.0,,7243.0,,876881.0,,7243.0,,53
54,West Virginia,1850481.0,,-555555555.0,*****,1825250.0,,1256.0,,25231.0,,1256.0,,54
55,Wisconsin,5687219.0,,-555555555.0,*****,5422799.0,,3242.0,,264420.0,,3242.0,,55
56,Wyoming,562803.0,,-555555555.0,*****,544823.0,,1114.0,,17980.0,,1114.0,,56
72,Puerto Rico,3716727.0,,-555555555.0,*****,3612230.0,,2762.0,,104497.0,,2762.0,,72
