geoid,name,universe,universe_annotation,universe_moe,universe_moe_annotation,alaska native regional corporation,state
0200590,"Ahtna Alaska Native Regional Corporation, Alaska",3277.0,,308.0,,00590,02
0201570,"Aleut Alaska Native Regional Corporation, Alaska",8621.0,,3.0,,01570,02
0203950,"Arctic Slope Alaska Native Regional Corporation, Alaska",9317.0,,14.0,,03950,02
0206370,"Bering Straits Alaska Native Regional Corporation, Alaska",9580.0,,-555555555.0,*****,06370,02
0209040,"Bristol Bay Alaska Native Regional Corporation, Alaska",7190.0,,244.0,,09040,02
0209800,"Calista Alaska Native Regional Corporation, Alaska",24740.0,,18.0,,09800,02
0214410,"Chugach Alaska Native Regional Corporation, Alaska",12136.0,,606.0,,14410,02
0217140,"Cook Inlet Alaska Native Regional Corporation, Alaska",430941.0,,515.0,,17140,02
0220010,"Doyon Alaska Native Regional Corporation, Alaska",111890.0,,230.0,,20010,02
0241640,"Koniag Alaska Native Regional Corporation, Alaska",13710.0,,16.0,,41640,02
0252120,"NANA Alaska Native Regional Corporation, Alaska",7601.0,,-555555555.0,*****,52120,02
0267940,"Sealaska Alaska Native Regional Corporation, Alaska",70512.0,,218.0,,67940,02
