geoid,name,universe,universe_annotation,universe_moe,universe_moe_annotation,native,native_annotation,native_moe,native_moe_annotation,foreign_born,foreign_born_annotation,foreign_born_moe,foreign_born_moe_annotation,school district (secondary),state
0400082,"Colorado River Union High School District, Arizona",64652.0,,1439.0,,58439.0,,1553.0,,6213.0,,691.0,,00082,04
0400450,"Agua Fria Union High School District, Arizona",120394.0,,2192.0,,106091.0,,2175.0,,14303.0,,1483.0,,00450,04
0400720,"Antelope Union High School District, Arizona",5838.0,,529.0,,4358.0,,441.0,,1480.0,,357.0,,00720,04
0401160,"Bicentennial Union High School District, Arizona",9528.0,,439.0,,8448.0,,391.0,,1080.0,,279.0,,01160,04
0401410,"Buckeye Union High School District, Arizona",64134.0,,1768.0,,57113.0,,1629.0,,7021.0,,1030.0,,01410,04
0401740,"Casa Grande Union High School District, Arizona",84541.0,,2096.0,,75090.0,,2110.0,,9451.0,,966.0,,01740,04
0403450,"Glendale Union High School District, Arizona",329556.0,,3817.0,,265857.0,,3356.0,,63699.0,,2912.0,,03450,04
0405070,"Mingus Union High School District, Arizona",34266.0,,1404.0,,30542.0,,1575.0,,3724.0,,983.0,,05070,04
0406030,"Patagonia Union High School District, Arizona",2905.0,,363.0,,2713.0,,352.0,,192.0,,68.0,,06030,04
0406330,"Phoenix Union High School District, Arizona",648748.0,,5277.0,,469890.0,,5317.0,,178858.0,,3871.0,,06330,04
0407530,"Santa Cruz Valley Union High School District, Arizona",17096.0,,862.0,,13824.0,,709.0,,3272.0,,599.0,,07530,04
0408340,"Tempe Union High School District, Arizona",300672.0,,2712.0,,261530.0,,2830.0,,39142.0,,2164.0,,08340,04
0408520,"Tolleson Union High School District, Arizona",166262.0,,3144.0,,131097.0,,3142.0,,35165.0,,1906.0,,08520,04
0408910,"Valley Union High School District, Arizona",4187.0,,426.0,,3815.0,,395.0,,372.0,,127.0,,08910,04
0409630,"Yuma Union High School District, Arizona",190582.0,,529.0,,143928.0,,1675.0,,46654.0,,1705.0,,09630,04
0499999,"Remainder of Arizona, Arizona",4367618.0,,5692.0,,3909425.0,,8670.0,,458193.0,,7411.0,,99999,04
0601650,"Acalanes Union High School District, California",109096.0,,1171.0,,91372.0,,1461.0,,17724.0,,1257.0,,01650,06
0602630,"Anaheim Union High School District, California",388637.0,,2692.0,,239317.0,,3203.0,,149320.0,,2951.0,,02630,06
0602670,"West Sonoma County Union High School District, California",47348.0,,1539.0,,43369.0,,1471.0,,3979.0,,581.0,,02670,06
0602700,"Anderson Union High School District, California",38757.0,,997.0,,37031.0,,1004.0,,1726.0,,408.0,,02700,06
0602820,"Antelope Valley Union Joint High School District, California",370008.0,,2332.0,,302517.0,,2893.0,,67491.0,,2115.0,,02820,06
0603030,"Northern Humboldt Union High School District, California",45838.0,,1018.0,,43471.0,,1124.0,,2367.0,,487.0,,03030,06
0605160,"Bishop Joint Union High School District, California",13527.0,,406.0,,12075.0,,517.0,,1452.0,,315.0,,05160,06
0605820,"Brawley Union High School District, California",28132.0,,309.0,,21169.0,,725.0,,6963.0,,722.0,,05820,06
0605940,"Bret Harte Union High School District, California",18441.0,,909.0,,17684.0,,916.0,,757.0,,229.0,,05940,06
0606001,"Yosemite Unified School District in Bass Lake, California",11575.0,,1110.0,,11167.0,,1084.0,,408.0,,169.0,,06001,06
0606002,"Yosemite Unified School District in Raymond-Knowles, California",1170.0,,247.0,,1122.0,,242.0,,48.0,,43.0,,06002,06
0606003,"Twin Rivers Unified School District in Elverta, California",2703.0,,397.0,,2479.0,,382.0,,224.0,,111.0,,06003,06
0606004,"Twin Rivers Unified School District in Robla, California",20273.0,,1654.0,,14726.0,,1298.0,,5547.0,,805.0,,06004,06
0606005,"Scott Valley Unified School District in Forks of Salmon, California",248.0,,112.0,,235.0,,112.0,,13.0,,12.0,,06005,06
0606006,"Trinity Alps Unified School District in Burnt Ranch, California",748.0,,190.0,,726.0,,187.0,,22.0,,20.0,,06006,06
0606007,"Trinity Alps Unified School District in Coffee Creek, California",236.0,,95.0,,236.0,,95.0,,0.0,,13.0,,06007,06
0606008,"Trinity Alps Unified School District in Cox Bar, California",207.0,,92.0,,205.0,,93.0,,2.0,,3.0,,06008,06
0606009,"Trinity Alps Unified School District in Douglas City, California",1018.0,,241.0,,974.0,,231.0,,44.0,,35.0,,06009,06
0606010,"Trinity Alps Unified School District in Junction City, California",1078.0,,272.0,,1042.0,,269.0,,36.0,,44.0,,06010,06
0606011,"Trinity Alps Unified School District in Lewiston, California",1989.0,,341.0,,1927.0,,329.0,,62.0,,50.0,,06011,06
0606012,"Trinity Alps Unified School District in Trinity Center, California",489.0,,168.0,,431.0,,129.0,,58.0,,66.0,,06012,06
0606013,"Turlock Unified School District in Chatom Union, California",4364.0,,657.0,,3340.0,,548.0,,1024.0,,221.0,,06013,06
0606014,"Turlock Unified School District in Keyes Union, California",6407.0,,678.0,,4803.0,,579.0,,1604.0,,348.0,,06014,06
0606015,"Santa Cruz City High School District (9-12) in Soquel, California",26645.0,,860.0,,23072.0,,831.0,,3573.0,,545.0,,06015,06
0606016,"Dinuba Unified (9-12) in Kings River Union, California",2286.0,,429.0,,1158.0,,255.0,,1128.0,,378.0,,06016,06
0606017,"Dinuba Unified (9-12) in Monson-Sultana Joint Union, California",1820.0,,413.0,,1296.0,,319.0,,524.0,,161.0,,06017,06
0606018,"Washington Unified School District (9-12), California",10014.0,,936.0,,7345.0,,702.0,,2669.0,,462.0,,06018,06
0606019,"Santa Barbara Unified School District (7-12), California",100971.0,,1401.0,,82199.0,,1733.0,,18772.0,,1267.0,,06019,06
0606020,"Lammersville Joint Unified School District (9-12), California",224.0,,98.0,,196.0,,90.0,,28.0,,27.0,,06020,06
0606037,"Alhambra Unified (9-12) School District, California",51226.0,,1553.0,,20449.0,,1110.0,,30777.0,,1217.0,,06037,06
0606053,"Gonzales Unified (9-12) School District, California",1880.0,,334.0,,1102.0,,219.0,,778.0,,182.0,,06053,06
0606107,"Porterville Unified (9-12) School District, California",48799.0,,1959.0,,36933.0,,1610.0,,11866.0,,1004.0,,06107,06
0607230,"Campbell Union High School District, California",222188.0,,2335.0,,160251.0,,2397.0,,61937.0,,2010.0,,07230,06
0607920,"Centinela Valley Union High School District, California",162812.0,,1649.0,,101539.0,,1705.0,,61273.0,,1668.0,,07920,06
0608010,"Central Union High School District, California",56890.0,,838.0,,38167.0,,1074.0,,18723.0,,935.0,,08010,06
0608160,"Chaffey Joint Union High School District, California",400703.0,,2296.0,,298245.0,,3267.0,,102458.0,,2873.0,,08160,06
0608550,"Chowchilla Union High School District, California",24559.0,,730.0,,20570.0,,770.0,,3989.0,,559.0,,08550,06
0609810,"Corning Union High School District, California",16799.0,,763.0,,14516.0,,858.0,,2283.0,,433.0,,09810,06
0610860,"Delano Joint Union High School District, California",69181.0,,1031.0,,42778.0,,1224.0,,26403.0,,916.0,,10860,06
0611700,"Dunsmuir Joint Union High School District, California",2492.0,,248.0,,2341.0,,252.0,,151.0,,65.0,,11700,06
0611780,"East Nicolaus Joint Union High School District, California",2706.0,,247.0,,2447.0,,246.0,,259.0,,76.0,,11780,06
0611820,"East Side Union High School District, California",522910.0,,4004.0,,291937.0,,3597.0,,230973.0,,3040.0,,11820,06
0612070,"El Dorado Union High School District, California",137610.0,,875.0,,127055.0,,1200.0,,10555.0,,970.0,,12070,06
0612120,"El Monte Union High School District, California",174510.0,,1216.0,,85740.0,,1754.0,,88770.0,,1796.0,,12120,06
0612910,"Escondido Union High School District, California",166180.0,,1477.0,,122127.0,,1974.0,,44053.0,,1796.0,,12910,06
0613230,"Exeter Union High School District, California",15755.0,,548.0,,13908.0,,627.0,,1847.0,,430.0,,13230,06
0613530,"Fallbrook Union High School District, California",81201.0,,2483.0,,68254.0,,2444.0,,12947.0,,1207.0,,13530,06
0614190,"Fortuna Union High School District, California",21909.0,,583.0,,20467.0,,579.0,,1442.0,,307.0,,14190,06
0614430,"Fremont Union High School District, California",225673.0,,1807.0,,120098.0,,1947.0,,105575.0,,1906.0,,14430,06
0614760,"Fullerton Joint Union High School District, California",250121.0,,2014.0,,172635.0,,2769.0,,77486.0,,2373.0,,14760,06
0614820,"Galt Joint Union High School District, California",37998.0,,1069.0,,31489.0,,1120.0,,6509.0,,752.0,,14820,06
0616230,"Grossmont Union High School District, California",454309.0,,3341.0,,378180.0,,3681.0,,76129.0,,2482.0,,16230,06
0616440,"Hamilton Union High School District, California",3562.0,,291.0,,2466.0,,262.0,,1096.0,,166.0,,16440,06
0616500,"Hanford Joint Union High School District, California",70427.0,,781.0,,58091.0,,1024.0,,12336.0,,891.0,,16500,06
0618060,"Huntington Beach Union High School District, California",313467.0,,1879.0,,235359.0,,2174.0,,78108.0,,2062.0,,18060,06
0618930,"Jefferson Union High School District, California",143438.0,,1172.0,,82696.0,,1672.0,,60742.0,,1856.0,,18930,06
0619110,"Julian Union High School District, California",4340.0,,563.0,,4039.0,,508.0,,301.0,,172.0,,19110,06
0619540,"Kern Union High School District, California",598833.0,,2209.0,,478010.0,,3032.0,,120823.0,,2733.0,,19540,06
0619650,"King City Joint Union High School District, California",36397.0,,788.0,,21733.0,,1079.0,,14664.0,,1001.0,,19650,06
0619830,"Kingsburg Joint Union High School District, California",18023.0,,989.0,,14283.0,,867.0,,3740.0,,601.0,,19830,06
0621060,"Lassen Union High School District, California",26740.0,,547.0,,25355.0,,569.0,,1385.0,,200.0,,21060,06
0621270,"Le Grand Union High School District, California",8448.0,,651.0,,5058.0,,547.0,,3390.0,,337.0,,21270,06
0621400,"Lemoore Union High School District, California",37677.0,,716.0,,31706.0,,972.0,,5971.0,,639.0,,21400,06
0621600,"Liberty Union High School District, California",104587.0,,1493.0,,89428.0,,1809.0,,15159.0,,1401.0,,21600,06
0622800,"Los Gatos-Saratoga Joint Union School District, California",54178.0,,1379.0,,41469.0,,1172.0,,12709.0,,821.0,,22800,06
0624660,"Merced Union High School District, California",166968.0,,1376.0,,127647.0,,1833.0,,39321.0,,1630.0,,24660,06
0625150,"Modesto City High School District, California",266672.0,,1727.0,,217634.0,,2187.0,,49038.0,,1814.0,,25150,06
0626310,"Mountain View-Los Altos Union School District, California",106307.0,,577.0,,70654.0,,1267.0,,35653.0,,1279.0,,26310,06
0626880,"Nevada Joint Union High School District, California",81969.0,,234.0,,78176.0,,701.0,,3793.0,,627.0,,26880,06
0629130,"Oroville Union High School District, California",53792.0,,1007.0,,49630.0,,888.0,,4162.0,,601.0,,29130,06
0629270,"Oxnard Union High School District, California",315196.0,,950.0,,221098.0,,2857.0,,94098.0,,2803.0,,29270,06
0630210,"Perris Union High School District, California",159628.0,,2705.0,,128900.0,,2243.0,,30728.0,,1678.0,,30210,06
0630250,"Petaluma Joint Union High School District, California",73871.0,,882.0,,61991.0,,1240.0,,11880.0,,1082.0,,30250,06
0630750,"Placer Union High School District, California",86104.0,,1390.0,,81090.0,,1382.0,,5014.0,,700.0,,30750,06
0631230,"Point Arena Joint Union High School District, California",4685.0,,404.0,,4125.0,,367.0,,560.0,,160.0,,31230,06
0632010,"Red Bluff Joint Union High School District, California",42745.0,,872.0,,39573.0,,992.0,,3172.0,,450.0,,32010,06
0633630,"Roseville Joint Union High School District, California",164599.0,,1600.0,,140885.0,,2145.0,,23714.0,,1536.0,,33630,06
0633980,"Salinas Union High School District, California",171348.0,,941.0,,112501.0,,1796.0,,58847.0,,1641.0,,33980,06
0634140,"San Benito High School District, California",50179.0,,562.0,,39432.0,,883.0,,10747.0,,981.0,,34140,06
0634380,"San Dieguito Union High School District, California",164505.0,,1749.0,,134330.0,,2298.0,,30175.0,,1415.0,,34380,06
0634980,"San Mateo Union High School District, California",226354.0,,791.0,,150851.0,,1716.0,,75503.0,,1890.0,,34980,06
0635110,"San Rafael City High School District, California",76224.0,,953.0,,55976.0,,1261.0,,20248.0,,1223.0,,35110,06
0635600,"Santa Cruz City High School District, California",90993.0,,1203.0,,79440.0,,1468.0,,11553.0,,1010.0,,35600,06
0635670,"Santa Maria Joint Union High School District, California",141629.0,,1135.0,,101651.0,,1720.0,,39978.0,,1372.0,,35670,06
0635760,"Santa Paula Union High School District, California",32720.0,,478.0,,22969.0,,1039.0,,9751.0,,987.0,,35760,06
0635830,"Santa Rosa High School District, California",208162.0,,1779.0,,168622.0,,2278.0,,39540.0,,1756.0,,35830,06
0635850,"Santa Ynez Valley Union High School District, California",20676.0,,602.0,,17575.0,,676.0,,3101.0,,478.0,,35850,06
0636390,"Sequoia Union High School District, California",245509.0,,1068.0,,175472.0,,1683.0,,70037.0,,1697.0,,36390,06
0636600,"Shasta Union High School District, California",102408.0,,1120.0,,96999.0,,1168.0,,5409.0,,670.0,,36600,06
0636940,"Siskiyou Union High School District, California",16117.0,,499.0,,15195.0,,547.0,,922.0,,200.0,,36940,06
0636972,"Victor Valley Union High School District, California",157965.0,,1871.0,,131809.0,,2188.0,,26156.0,,1683.0,,36972,06
0637260,"Sonora Union High School District, California",40246.0,,1044.0,,38050.0,,1101.0,,2196.0,,335.0,,37260,06
0638280,"Summerville Union High School District, California",9791.0,,994.0,,9488.0,,1006.0,,303.0,,119.0,,38280,06
0638610,"Sutter Union High School District, California",8193.0,,642.0,,7508.0,,603.0,,685.0,,219.0,,38610,06
0638640,"Sweetwater Union High School District, California",454392.0,,2737.0,,303243.0,,3424.0,,151149.0,,2836.0,,38640,06
0638730,"Taft Union High School District, California",19767.0,,815.0,,15923.0,,974.0,,3844.0,,766.0,,38730,06
0638790,"Tamalpais Union High School District, California",113359.0,,1060.0,,97907.0,,1391.0,,15452.0,,1070.0,,38790,06
0639930,"Tulare Joint Union High School District, California",77101.0,,854.0,,60310.0,,1118.0,,16791.0,,995.0,,39930,06
0640500,"Upper Lake Union High School District, California",7896.0,,770.0,,7548.0,,764.0,,348.0,,142.0,,40500,06
0641430,"Wasco Union High School District, California",29779.0,,481.0,,20788.0,,761.0,,8991.0,,597.0,,41430,06
0642350,"Wheatland Union High School District, California",11228.0,,764.0,,9997.0,,771.0,,1231.0,,281.0,,42350,06
0642480,"Whittier Union High School District, California",220800.0,,2722.0,,166544.0,,2774.0,,54256.0,,1943.0,,42480,06
0642510,"William S. Hart Union High School District, California",267389.0,,1926.0,,212582.0,,2658.0,,54807.0,,2121.0,,42510,06
0643050,"Woodlake Union High School District, California",12906.0,,719.0,,9604.0,,739.0,,3302.0,,425.0,,43050,06
0643410,"Yreka Union High School District, California",17804.0,,621.0,,17086.0,,619.0,,718.0,,117.0,,43410,06
0699999,"Remainder of California, California",26984315.0,,10237.0,,19491921.0,,24080.0,,7492394.0,,24276.0,,99999,06
0900005,"Regional High School District 19, Connecticut",36530.0,,34.0,,32916.0,,459.0,,3614.0,,454.0,,00005,09
0903570,"Regional High School District 11, Connecticut",5936.0,,131.0,,5793.0,,143.0,,143.0,,48.0,,03570,09
0903600,"Regional High School District 01, Connecticut",15396.0,,224.0,,14502.0,,342.0,,894.0,,216.0,,03600,09
0903630,"Regional High School District 04, Connecticut",15408.0,,46.0,,14390.0,,331.0,,1018.0,,328.0,,03630,09
0903660,"Regional High School District 05, Connecticut",28433.0,,33.0,,25184.0,,457.0,,3249.0,,455.0,,03660,09
0903720,"Regional High School District 07, Connecticut",13700.0,,185.0,,13056.0,,261.0,,644.0,,205.0,,03720,09
0903750,"Regional High School District 08, Connecticut",19216.0,,149.0,,18356.0,,261.0,,860.0,,233.0,,03750,09
0903780,"Regional High School District 09, Connecticut",16649.0,,36.0,,15035.0,,299.0,,1614.0,,301.0,,03780,09
0999999,"Remainder of Connecticut, Connecticut",3420945.0,,338.0,,2951101.0,,5237.0,,469844.0,,5241.0,,99999,09
1313053,"Chattahoochee County for Fort Benning, Georgia",8998.0,,382.0,,8417.0,,424.0,,581.0,,172.0,,13053,13
1313215,"Muscogee County for Fort Benning, Georgia",10939.0,,903.0,,10508.0,,896.0,,431.0,,129.0,,13215,13
1399999,"Remainder of Georgia, Georgia",9694632.0,,881.0,,8756080.0,,6895.0,,938552.0,,6976.0,,99999,13
1701384,"Illini West High School District 307, Illinois",8441.0,,278.0,,8390.0,,282.0,,51.0,,36.0,,01384,17
1703780,"Anna Jonesboro Community High School District 81, Illinois",11122.0,,480.0,,10935.0,,466.0,,187.0,,84.0,,03780,17
1703870,"Antioch Community High School District 117, Illinois",44846.0,,605.0,,41989.0,,736.0,,2857.0,,401.0,,03870,17
1704020,"Argo Community High School District 217, Illinois",40342.0,,511.0,,29656.0,,899.0,,10686.0,,970.0,,04020,17
1704170,"Township High School District 214, Illinois",251753.0,,551.0,,178708.0,,2246.0,,73045.0,,2238.0,,04170,17
1704230,"Armstrong Township High School District 225, Illinois",1315.0,,163.0,,1305.0,,165.0,,10.0,,10.0,,04230,17
1704770,"Central Community High School District 71, Illinois",16423.0,,550.0,,16296.0,,546.0,,127.0,,61.0,,04770,17
1705640,"Belleville Township High School District 201, Illinois",108596.0,,798.0,,106045.0,,864.0,,2551.0,,408.0,,05640,17
1705970,"Benton Consolidated High School District 103, Illinois",12657.0,,267.0,,12577.0,,264.0,,80.0,,47.0,,05970,17
1706420,"Bloom Township High School District 206, Illinois",65207.0,,1058.0,,59571.0,,1137.0,,5636.0,,725.0,,06420,17
1706540,"Community High School District 218, Illinois",121659.0,,1101.0,,105491.0,,1712.0,,16168.0,,1240.0,,06540,17
1706960,"Bradley-Bourbonnais Consolidated High School District 307, Illinois",39772.0,,235.0,,38298.0,,450.0,,1474.0,,364.0,,06960,17
1707050,"Bremen Community High School District 228, Illinois",94256.0,,790.0,,85997.0,,1006.0,,8259.0,,929.0,,07050,17
1708370,"Carbondale Community High School District 165, Illinois",37413.0,,426.0,,34234.0,,616.0,,3179.0,,402.0,,08370,17
1708400,"Consolidated High School District 230, Illinois",154708.0,,512.0,,131679.0,,1288.0,,23029.0,,1354.0,,08400,17
1709300,"Centralia High School District 200, Illinois",21582.0,,283.0,,21414.0,,295.0,,168.0,,80.0,,09300,17
1709780,"Chester Non-High School District 122, Illinois",809.0,,176.0,,803.0,,173.0,,6.0,,10.0,,09780,17
1711370,"Community High School District 155, Illinois",96837.0,,1170.0,,88055.0,,1500.0,,8782.0,,964.0,,11370,17
1712570,"Community High School District 99, Illinois",109533.0,,1244.0,,93138.0,,1627.0,,16395.0,,1118.0,,12570,17
1712870,"Dwight Township High School District 230, Illinois",6861.0,,396.0,,6720.0,,356.0,,141.0,,97.0,,12870,17
1712990,"East Alton-Wood River Community High School District 14, Illinois",13703.0,,498.0,,13557.0,,500.0,,146.0,,97.0,,12990,17
1713230,"East Peoria Community High School District 309, Illinois",26288.0,,331.0,,25836.0,,350.0,,452.0,,168.0,,13230,17
1713940,"DuPage High School District 88, Illinois",82688.0,,1205.0,,63497.0,,1628.0,,19191.0,,1236.0,,13940,17
1714490,"Evanston Township High School District 202, Illinois",82936.0,,559.0,,68080.0,,1045.0,,14856.0,,1063.0,,14490,17
1714580,"Evergreen Park Community High School District 231, Illinois",19852.0,,26.0,,18540.0,,374.0,,1312.0,,374.0,,14580,17
1715030,"Fenton Community High School District 100, Illinois",29827.0,,750.0,,20965.0,,882.0,,8862.0,,882.0,,15030,17
1715840,"Freeburg Community High School District 77, Illinois",12715.0,,362.0,,12610.0,,365.0,,105.0,,70.0,,15840,17
1716260,"Gardner-South Wilmington Township High School District, Illinois",4004.0,,298.0,,3950.0,,296.0,,54.0,,29.0,,16260,17
1716830,"Glenbard Township High School District 87, Illinois",166367.0,,1948.0,,133570.0,,2015.0,,32797.0,,1489.0,,16830,17
1717340,"Grant Community High School District 124, Illinois",36070.0,,550.0,,32109.0,,704.0,,3961.0,,510.0,,17340,17
1717550,"Grayslake Community High School District 127, Illinois",44111.0,,1086.0,,38124.0,,1052.0,,5987.0,,751.0,,17550,17
1717901,"Flanagan-Cornell District 74 in Cornell, Illinois",1018.0,,166.0,,994.0,,164.0,,24.0,,28.0,,17901,17
1717902,"Flanagan-Cornell District 74 in Pontiac, Illinois",54.0,,39.0,,54.0,,39.0,,0.0,,11.0,,17902,17
1717903,"Flanagan-Cornell District 74 in Rooks Creek, Illinois",3.0,,5.0,,3.0,,5.0,,0.0,,11.0,,17903,17
1718030,"Hall High School District 502, Illinois",9173.0,,114.0,,8787.0,,152.0,,386.0,,122.0,,18030,17
1719080,"Township High School District 113, Illinois",58731.0,,191.0,,51266.0,,884.0,,7465.0,,840.0,,19080,17
1719320,"Hinsdale Township High School District 86, Illinois",74930.0,,1110.0,,61439.0,,1288.0,,13491.0,,816.0,,19320,17
1719560,"Homewood-Flossmoor Community High School District 233, Illinois",38230.0,,1040.0,,36117.0,,1121.0,,2113.0,,589.0,,19560,17
1719620,"Hononegah Community High School District 207, Illinois",32082.0,,557.0,,31051.0,,571.0,,1031.0,,251.0,,19620,17
1720610,"Joliet Township High School District 204, Illinois",129192.0,,771.0,,110321.0,,1408.0,,18871.0,,1085.0,,20610,17
1721780,"Lake Forest Community High School District 115, Illinois",27370.0,,525.0,,24735.0,,712.0,,2635.0,,455.0,,21780,17
1721840,"Lake Park Community High School District 108, Illinois",50328.0,,1059.0,,40150.0,,964.0,,10178.0,,744.0,,21840,17
1722110,"LaSalle-Peru Township High School District 120, Illinois",29237.0,,451.0,,28314.0,,467.0,,923.0,,202.0,,22110,17
1722500,"Lemont Township High School District 210, Illinois",25392.0,,528.0,,21857.0,,714.0,,3535.0,,541.0,,22500,17
1722740,"Leyden Community High School District 212, Illinois",64152.0,,400.0,,41594.0,,1088.0,,22558.0,,1068.0,,22740,17
1722830,"Libertyville Community High School District 128, Illinois",49998.0,,802.0,,42035.0,,900.0,,7963.0,,636.0,,22830,17
1722950,"Limestone Community High School District 310, Illinois",22942.0,,678.0,,22600.0,,678.0,,342.0,,134.0,,22950,17
1723050,"Lincoln Community High School District 404, Illinois",24227.0,,643.0,,23710.0,,685.0,,517.0,,167.0,,23050,17
1723070,"Lincoln Way Community High School District 210, Illinois",103957.0,,295.0,,99977.0,,643.0,,3980.0,,612.0,,23070,17
1723350,"Lockport Township High School District 205, Illinois",75533.0,,761.0,,68293.0,,912.0,,7240.0,,836.0,,23350,17
1723880,"Lyons Township High School District 204, Illinois",68460.0,,711.0,,61607.0,,1015.0,,6853.0,,755.0,,23880,17
1724090,"Maine Township High School District 207, Illinois",144996.0,,580.0,,95805.0,,1707.0,,49191.0,,1799.0,,24090,17
1724570,"Marengo Community High School District 154, Illinois",14202.0,,393.0,,13092.0,,461.0,,1110.0,,284.0,,24570,17
1725320,"McHenry Community High School District 156, Illinois",46490.0,,691.0,,43091.0,,731.0,,3399.0,,397.0,,25320,17
1725650,"Mendota Township High School District 280, Illinois",10308.0,,392.0,,9411.0,,496.0,,897.0,,283.0,,25650,17
1725770,"Metamora Township High School District 122, Illinois",16099.0,,232.0,,15869.0,,263.0,,230.0,,125.0,,25770,17
1725980,"Milford Township High School District 233, Illinois",3908.0,,309.0,,3873.0,,306.0,,35.0,,22.0,,25980,17
1726180,"Fairfield Community High School District 225, Illinois",10231.0,,365.0,,10118.0,,366.0,,113.0,,61.0,,26180,17
1726340,"Minooka Community High School District 111, Illinois",37729.0,,598.0,,36087.0,,681.0,,1642.0,,369.0,,26340,17
1726640,"Morris Community High School District 101, Illinois",18146.0,,319.0,,17206.0,,354.0,,940.0,,270.0,,26640,17
1726880,"J. Sterling Morton High School District 201, Illinois",158414.0,,286.0,,104941.0,,1610.0,,53473.0,,1610.0,,26880,17
1727360,"Mount Vernon Township High School District 201, Illinois",29842.0,,363.0,,29283.0,,381.0,,559.0,,121.0,,27360,17
1727570,"Mundelein Consolidated High School District 120, Illinois",42938.0,,880.0,,31091.0,,1034.0,,11847.0,,1016.0,,27570,17
1727740,"Nashville Community High School District 99, Illinois",9049.0,,236.0,,8978.0,,245.0,,71.0,,41.0,,27740,17
1728200,"New Trier Township High School District 203, Illinois",59899.0,,243.0,,52100.0,,612.0,,7799.0,,632.0,,28200,17
1728260,"Newark Community High School District 18, Illinois",3566.0,,328.0,,3461.0,,324.0,,105.0,,64.0,,28260,17
1728530,"Niles Township Community High School District 219, Illinois",95129.0,,597.0,,55809.0,,1380.0,,39320.0,,1323.0,,28530,17
1729010,"Northfield Township High School District 225, Illinois",85444.0,,328.0,,66458.0,,1018.0,,18986.0,,967.0,,29010,17
1729220,"Oak Lawn Community High School District 229, Illinois",39686.0,,869.0,,33109.0,,1030.0,,6577.0,,733.0,,29220,17
1729280,"Oak Park and River Forest District 200, Illinois",62955.0,,44.0,,56560.0,,591.0,,6395.0,,584.0,,29280,17
1729730,"Ohio Community High School District 505, Illinois",832.0,,130.0,,827.0,,130.0,,5.0,,10.0,,29730,17
1729790,"O'Fallon Township High School District 203, Illinois",39357.0,,759.0,,37663.0,,739.0,,1694.0,,472.0,,29790,17
1730330,"Ottawa Township High School District 140, Illinois",31742.0,,481.0,,30883.0,,524.0,,859.0,,214.0,,30330,17
1730450,"Township High School District 211, Illinois",235114.0,,640.0,,175563.0,,1945.0,,59551.0,,1942.0,,30450,17
1731110,"Pekin Community High School District 303, Illinois",45803.0,,435.0,,45327.0,,436.0,,476.0,,139.0,,31110,17
1731620,"Pinckneyville Community High School District 101, Illinois",11188.0,,354.0,,10991.0,,357.0,,197.0,,75.0,,31620,17
1732220,"Pontiac Township High School District 90, Illinois",16096.0,,279.0,,15803.0,,351.0,,293.0,,157.0,,32220,17
1732580,"Adlai E. Stevenson High School District 125, Illinois",60968.0,,800.0,,45897.0,,1126.0,,15071.0,,948.0,,32580,17
1732700,"Princeton High School District 500, Illinois",12433.0,,300.0,,12338.0,,305.0,,95.0,,49.0,,32700,17
1732910,"Proviso Township High School District 209, Illinois",126620.0,,264.0,,102937.0,,1298.0,,23683.0,,1329.0,,32910,17
1733240,"Rantoul Township High School District 193, Illinois",17434.0,,243.0,,16405.0,,423.0,,1029.0,,333.0,,33240,17
1733270,"Reavis Township High School District 220, Illinois",33088.0,,237.0,,22372.0,,717.0,,10716.0,,745.0,,33270,17
1733420,"Rich Township High School District 227, Illinois",68652.0,,437.0,,66156.0,,564.0,,2496.0,,410.0,,33420,17
1733510,"Richmond-Burton Community High School District 157, Illinois",11628.0,,25.0,,11229.0,,212.0,,399.0,,213.0,,33510,17
1733720,"Ridgewood Community High School District 234, Illinois",19090.0,,615.0,,11889.0,,731.0,,7201.0,,813.0,,33720,17
1734020,"Riverside Brookfield Township School District 208, Illinois",29140.0,,397.0,,26203.0,,648.0,,2937.0,,427.0,,34020,17
1734290,"Rochelle Township High School District 212, Illinois",17208.0,,363.0,,15619.0,,434.0,,1589.0,,241.0,,34290,17
1734380,"Rock Falls Township High School District 301, Illinois",14683.0,,137.0,,14213.0,,206.0,,470.0,,150.0,,34380,17
1735190,"Salem Community High School District 600, Illinois",15160.0,,336.0,,15016.0,,325.0,,144.0,,68.0,,35190,17
1735850,"Seneca Township High School District 160, Illinois",7284.0,,442.0,,7218.0,,426.0,,66.0,,74.0,,35850,17
1737140,"St. Anne Community High School District 302, Illinois",4793.0,,334.0,,4657.0,,319.0,,136.0,,76.0,,37140,17
1737410,"St. Joseph-Ogden Community High School District 305, Illinois",7859.0,,250.0,,7617.0,,286.0,,242.0,,187.0,,37410,17
1738100,"Streator Township High School District 40, Illinois",18491.0,,384.0,,17301.0,,507.0,,1190.0,,399.0,,38100,17
1738940,"Thornton Fractional Township High School District 215, Illinois",61172.0,,1202.0,,55839.0,,1219.0,,5333.0,,739.0,,38940,17
1738970,"Thornton Township High School District 205, Illinois",114616.0,,984.0,,109456.0,,1194.0,,5160.0,,663.0,,38970,17
1739870,"United Township High School District 30, Illinois",41098.0,,696.0,,37551.0,,853.0,,3547.0,,576.0,,39870,17
1740290,"Vienna High School District 133, Illinois",9283.0,,294.0,,9075.0,,296.0,,208.0,,57.0,,40290,17
1740440,"Community High School District 94, Illinois",41209.0,,626.0,,30217.0,,892.0,,10992.0,,906.0,,40440,17
1740800,"Warren Township High School District 121, Illinois",68254.0,,400.0,,55355.0,,894.0,,12899.0,,847.0,,40800,17
1740980,"Washington Community High School District 308, Illinois",23440.0,,72.0,,22932.0,,208.0,,508.0,,197.0,,40980,17
1741370,"Webber Township High School District 204, Illinois",3066.0,,259.0,,3045.0,,261.0,,21.0,,15.0,,41370,17
1743200,"Woodlawn Community High School District 205, Illinois",3271.0,,342.0,,3243.0,,339.0,,28.0,,23.0,,43200,17
1743890,"Zion-Benton Township High School District 126, Illinois",44722.0,,456.0,,39836.0,,730.0,,4886.0,,617.0,,43890,17
1799999,"Remainder of Illinois, Illinois",8032333.0,,3755.0,,7011497.0,,7716.0,,1020836.0,,7666.0,,99999,17
2121001,"Laurel County School District for East Bernstadt ISD, Kentucky",1285.0,,223.0,,1285.0,,223.0,,0.0,,12.0,,21001,21
2121002,"Pulaski County School District for Science Hill ISD, Kentucky",1884.0,,286.0,,1884.0,,286.0,,0.0,,12.0,,21002,21
2121003,"Elizabethtown Independent School District for West Point ISD, Kentucky",971.0,,112.0,,971.0,,112.0,,0.0,,12.0,,21003,21
2199999,"Remainder of Kentucky, Kentucky",4336027.0,,316.0,,4196241.0,,2557.0,,139786.0,,2568.0,,99999,21
2300053,"Five Town Community School District, Maine",13696.0,,285.0,,13193.0,,317.0,,503.0,,146.0,,00053,23
2303480,"Bremen, Maine",784.0,,175.0,,761.0,,174.0,,23.0,,17.0,,03480,23
2304830,"Damariscotta, Maine",2170.0,,312.0,,2145.0,,317.0,,25.0,,27.0,,04830,23
2308400,"Moosabec Community School District, Maine",1761.0,,155.0,,1727.0,,150.0,,34.0,,35.0,,08400,23
2308500,"Mount Desert Community School District, Maine",10939.0,,393.0,,10413.0,,354.0,,526.0,,140.0,,08500,23
2308760,"Newcastle, Maine",1814.0,,228.0,,1735.0,,220.0,,79.0,,31.0,,08760,23
2399999,"Remainder of Maine, Maine",1297920.0,,632.0,,1254961.0,,1332.0,,42959.0,,1204.0,,99999,23
2500541,"Somerset-Berkley School District, Massachusetts",24642.0,,70.0,,22715.0,,332.0,,1927.0,,329.0,,00541,25
2501710,"Acton-Boxborough School District, Massachusetts",26994.0,,36.0,,21089.0,,487.0,,5905.0,,482.0,,01710,25
2501920,"Amherst-Pelham School District, Massachusetts",43287.0,,208.0,,37405.0,,610.0,,5882.0,,604.0,,01920,25
2502580,"Berlin-Boylston School District, Massachusetts",7197.0,,24.0,,6682.0,,169.0,,515.0,,168.0,,02580,25
2503870,"Concord-Carlisle School District, Massachusetts",22951.0,,35.0,,20674.0,,364.0,,2277.0,,359.0,,03870,25
2504290,"Dover-Sherborn School District, Massachusetts",9736.0,,60.0,,8839.0,,179.0,,897.0,,176.0,,04290,25
2504560,"Nauset School District, Massachusetts",23822.0,,294.0,,22674.0,,419.0,,1148.0,,261.0,,04560,25
2505100,"Frontier School District, Massachusetts",12187.0,,239.0,,11489.0,,319.0,,698.0,,205.0,,05100,25
2505740,"Hampshire School District, Massachusetts",12284.0,,214.0,,11669.0,,324.0,,615.0,,278.0,,05740,25
2506510,"King Philip School District, Massachusetts",30534.0,,27.0,,28919.0,,281.0,,1615.0,,278.0,,06510,25
2506930,"Lincoln-Sudbury School District, Massachusetts",24154.0,,61.0,,21712.0,,332.0,,2442.0,,332.0,,06930,25
2507380,"Martha's Vineyard School District, Massachusetts",16412.0,,74.0,,15016.0,,456.0,,1396.0,,455.0,,07380,25
2507410,"Masconomet School District, Massachusetts",23109.0,,21.0,,21316.0,,378.0,,1793.0,,377.0,,07410,25
2508160,"Mount Greylock School District, Massachusetts",11045.0,,63.0,,10557.0,,169.0,,488.0,,153.0,,08160,25
2508910,"Northborough-Southborough School District, Massachusetts",24152.0,,44.0,,21098.0,,458.0,,3054.0,,456.0,,08910,25
2509150,"Old Rochester School District, Massachusetts",16212.0,,48.0,,15442.0,,208.0,,770.0,,201.0,,09150,25
2509900,"Ralph C. Mahar School District, Massachusetts",11109.0,,279.0,,10762.0,,300.0,,347.0,,128.0,,09900,25
2510830,"Silver Lake School District, Massachusetts",22950.0,,29.0,,22381.0,,262.0,,569.0,,263.0,,10830,25
2511490,"Tantasqua School District, Massachusetts",20685.0,,192.0,,20063.0,,253.0,,622.0,,165.0,,11490,25
2522222,"Mohawk Trail Regional School District in Hawley and Charlemont towns, Massachusetts",1677.0,,158.0,,1611.0,,152.0,,66.0,,29.0,,22222,25
2525002,"North Adams School District in Clarksburg (9-12), Massachusetts",1805.0,,128.0,,1767.0,,132.0,,38.0,,17.0,,25002,25
2525003,"Gill-Montague School District in Erving (7-12), Massachusetts",1737.0,,139.0,,1707.0,,136.0,,30.0,,23.0,,25003,25
2525004,"Southwick-Tolland School District in Granville (9-12), Massachusetts",1481.0,,177.0,,1414.0,,177.0,,67.0,,49.0,,25004,25
2525005,"Swampscott School District in Nahant (7-12), Massachusetts",3438.0,,47.0,,3182.0,,114.0,,256.0,,109.0,,25005,25
2525006,"Pittsfield School District in Richmond (9-12), Massachusetts",1600.0,,140.0,,1525.0,,133.0,,75.0,,35.0,,25006,25
2525007,"Mohawk Trail School District in Rowe (7-12), Massachusetts",452.0,,69.0,,442.0,,70.0,,10.0,,7.0,,25007,25
2525008,"Adams-Cheshire School District in Savoy (7-12), Massachusetts",663.0,,91.0,,643.0,,90.0,,20.0,,27.0,,25008,25
2525009,"North Adams School District in Florida (9-12), Massachusetts",715.0,,108.0,,690.0,,105.0,,25.0,,16.0,,25009,25
2525010,"Fairhaven/New Bedford School Districts in Acushnet (9-12), Massachusetts",10302.0,,18.0,,9156.0,,267.0,,1146.0,,266.0,,25010,25
2525012,"Nauset/Provincetown School Districts in Turo (7-12), Massachusetts",1653.0,,287.0,,1553.0,,277.0,,100.0,,71.0,,25012,25
2525013,"Mount Greylock/New Lebanon (NY) School Districts in Hancock (7-12), Massachusetts",718.0,,144.0,,693.0,,142.0,,25.0,,21.0,,25013,25
2525014,"North Adams School District in Monroe (9-12), Massachusetts",105.0,,31.0,,96.0,,30.0,,9.0,,11.0,,25014,25
2525015,"Lee/Berkshire Hills in Farmington River Regional (7-12), Massachusetts",2195.0,,177.0,,2056.0,,164.0,,139.0,,61.0,,25015,25
2599999,"Remainder of Massachusetts, Massachusetts",6148592.0,,574.0,,5212093.0,,7596.0,,936499.0,,7693.0,,99999,25
3005190,"Browning High School District, Montana",9016.0,,312.0,,8898.0,,295.0,,118.0,,88.0,,05190,30
3005310,"Butte High School District, Montana",34143.0,,34.0,,33476.0,,241.0,,667.0,,237.0,,05310,30
3005610,"Carter County High School District, Montana",1261.0,,105.0,,1260.0,,105.0,,1.0,,2.0,,05610,30
3005910,"Cascade High School District, Montana",2570.0,,268.0,,2535.0,,267.0,,35.0,,25.0,,05910,30
3006115,"Charlo High School District, Montana",1910.0,,232.0,,1889.0,,233.0,,21.0,,20.0,,06115,30
3006270,"Chinook High School District, Montana",2267.0,,137.0,,2253.0,,140.0,,14.0,,18.0,,06270,30
3006330,"Choteau High School District, Montana",3203.0,,202.0,,3100.0,,215.0,,103.0,,74.0,,06330,30
3006810,"Circle High School District, Montana",1808.0,,144.0,,1806.0,,143.0,,2.0,,3.0,,06810,30
3007080,"Colstrip High School District, Montana",2674.0,,269.0,,2658.0,,271.0,,16.0,,21.0,,07080,30
3007140,"Columbia Falls High School District, Montana",14823.0,,950.0,,14552.0,,967.0,,271.0,,133.0,,07140,30
3007200,"Columbus High School District, Montana",3820.0,,270.0,,3784.0,,269.0,,36.0,,22.0,,07200,30
3007320,"Conrad High School District, Montana",3568.0,,157.0,,3451.0,,158.0,,117.0,,78.0,,07320,30
3007860,"Culbertson High School District, Montana",996.0,,194.0,,977.0,,193.0,,19.0,,25.0,,07860,30
3007930,"Custer County High School District, Montana",11706.0,,-555555555.0,*****,11479.0,,84.0,,227.0,,84.0,,07930,30
3008190,"Cut Bank High School District, Montana",4406.0,,312.0,,4216.0,,308.0,,190.0,,87.0,,08190,30
3008340,"Dawson High School District, Montana",8567.0,,69.0,,8519.0,,79.0,,48.0,,32.0,,08340,30
3008850,"Denton High School District, Montana",610.0,,135.0,,605.0,,134.0,,5.0,,6.0,,08850,30
3009210,"Drummond High School District, Montana",1526.0,,155.0,,1514.0,,155.0,,12.0,,14.0,,09210,30
3010170,"Fairfield High School District, Montana",1690.0,,157.0,,1666.0,,155.0,,24.0,,17.0,,10170,30
3010290,"Fairview High School District, Montana",1290.0,,141.0,,1290.0,,141.0,,0.0,,10.0,,10290,30
3010530,"Fergus High School District, Montana",9218.0,,291.0,,9142.0,,296.0,,76.0,,74.0,,10530,30
3011190,"Forsyth High School District, Montana",2588.0,,226.0,,2505.0,,220.0,,83.0,,45.0,,11190,30
3011260,"Fort Benton High School District, Montana",2149.0,,138.0,,2094.0,,135.0,,55.0,,61.0,,11260,30
3011460,"Frazer High School District, Montana",634.0,,115.0,,622.0,,112.0,,12.0,,23.0,,11460,30
3011580,"Froid High School District, Montana",445.0,,137.0,,443.0,,137.0,,2.0,,3.0,,11580,30
3011850,"Gardiner High School District, Montana",1615.0,,233.0,,1568.0,,231.0,,47.0,,24.0,,11850,30
3011880,"Garfield County High School District, Montana",1100.0,,110.0,,1098.0,,110.0,,2.0,,3.0,,11880,30
3012210,"Geraldine High School District, Montana",664.0,,117.0,,648.0,,114.0,,16.0,,17.0,,12210,30
3012300,"Geyser High School District, Montana",347.0,,80.0,,341.0,,79.0,,6.0,,6.0,,12300,30
3012990,"Grass Range High School District, Montana",444.0,,113.0,,444.0,,113.0,,0.0,,10.0,,12990,30
3013050,"Great Falls High School District, Montana",71447.0,,438.0,,69877.0,,553.0,,1570.0,,253.0,,13050,30
3013340,"Hardin High School District, Montana",8303.0,,398.0,,8182.0,,390.0,,121.0,,71.0,,13340,30
3013360,"Plenty Coups High School District, Montana",953.0,,210.0,,947.0,,210.0,,6.0,,11.0,,13360,30
3013400,"Harlem High School District, Montana",2728.0,,168.0,,2704.0,,168.0,,24.0,,14.0,,13400,30
3013470,"Harlowton High School District, Montana",1852.0,,86.0,,1852.0,,86.0,,0.0,,10.0,,13470,30
3013590,"Havre High School District, Montana",12675.0,,259.0,,12488.0,,256.0,,187.0,,83.0,,13590,30
3013830,"Helena High School District, Montana",61687.0,,187.0,,60701.0,,254.0,,986.0,,178.0,,13830,30
3014070,"Highwood High School District, Montana",466.0,,82.0,,460.0,,81.0,,6.0,,6.0,,14070,30
3014370,"Hinsdale High School District, Montana",438.0,,102.0,,435.0,,102.0,,3.0,,5.0,,14370,30
3014640,"Hot Springs High School District, Montana",1565.0,,143.0,,1542.0,,143.0,,23.0,,13.0,,14640,30
3015120,"Jefferson High School District, Montana",8101.0,,262.0,,7934.0,,253.0,,167.0,,71.0,,15120,30
3015260,"Joliet High School District, Montana",2338.0,,226.0,,2309.0,,226.0,,29.0,,28.0,,15260,30
3015390,"Judith Gap High School District, Montana",357.0,,84.0,,357.0,,84.0,,0.0,,10.0,,15390,30
3015420,"Flathead High School District, Montana",56804.0,,1221.0,,55343.0,,1238.0,,1461.0,,339.0,,15420,30
3016020,"Lambert High School District, Montana",295.0,,85.0,,291.0,,84.0,,4.0,,6.0,,16020,30
3016230,"Laurel High School District, Montana",10417.0,,433.0,,10289.0,,441.0,,128.0,,79.0,,16230,30
3016770,"Lincoln County High School District, Montana",6225.0,,518.0,,6043.0,,503.0,,182.0,,102.0,,16770,30
3017040,"Lodge Grass High School District, Montana",2019.0,,244.0,,2009.0,,241.0,,10.0,,21.0,,17040,30
3017640,"Manhattan High School District, Montana",4646.0,,346.0,,4597.0,,344.0,,49.0,,27.0,,17640,30
3018270,"Melstone High School District, Montana",250.0,,94.0,,250.0,,94.0,,0.0,,10.0,,18270,30
3018540,"Missoula High School District, Montana",100130.0,,756.0,,97431.0,,825.0,,2699.0,,336.0,,18540,30
3018900,"Moore High School District, Montana",460.0,,89.0,,457.0,,89.0,,3.0,,5.0,,18900,30
3019500,"Noxon High School District, Montana",2618.0,,300.0,,2601.0,,296.0,,17.0,,17.0,,19500,30
3020070,"Park City High School District, Montana",2154.0,,199.0,,2141.0,,194.0,,13.0,,16.0,,20070,30
3020100,"Park High School District, Montana",12435.0,,355.0,,12137.0,,361.0,,298.0,,94.0,,20100,30
3020850,"Plains High School District, Montana",3250.0,,301.0,,3208.0,,293.0,,42.0,,45.0,,20850,30
3021090,"Polson High School District, Montana",11057.0,,621.0,,10930.0,,627.0,,127.0,,76.0,,21090,30
3021270,"Poplar High School District, Montana",3344.0,,346.0,,3341.0,,346.0,,3.0,,4.0,,21270,30
3021450,"Powell County High School District, Montana",7234.0,,84.0,,7185.0,,81.0,,49.0,,27.0,,21450,30
3021540,"Power High School District, Montana",580.0,,130.0,,579.0,,129.0,,1.0,,2.0,,21540,30
3021900,"Rapelje High School District, Montana",438.0,,109.0,,431.0,,108.0,,7.0,,9.0,,21900,30
3022110,"Red Lodge High School District, Montana",3565.0,,346.0,,3473.0,,359.0,,92.0,,56.0,,22110,30
3022260,"Reedpoint High School District, Montana",641.0,,123.0,,641.0,,123.0,,0.0,,10.0,,22260,30
3022410,"Richey High School District, Montana",455.0,,69.0,,438.0,,67.0,,17.0,,16.0,,22410,30
3022800,"Ronan High School District, Montana",8775.0,,553.0,,8638.0,,537.0,,137.0,,95.0,,22800,30
3023070,"Roundup High School District, Montana",4330.0,,163.0,,4238.0,,168.0,,92.0,,49.0,,23070,30
3023400,"Saco High School District, Montana",488.0,,116.0,,486.0,,117.0,,2.0,,3.0,,23400,30
3023550,"Savage High School District, Montana",645.0,,131.0,,645.0,,131.0,,0.0,,10.0,,23550,30
3023910,"Shelby High School District, Montana",4048.0,,162.0,,3974.0,,161.0,,74.0,,62.0,,23910,30
3023970,"Shepherd High School District, Montana",3927.0,,409.0,,3873.0,,408.0,,54.0,,52.0,,23970,30
3024180,"Sheridan High School District, Montana",1622.0,,185.0,,1586.0,,175.0,,36.0,,28.0,,24180,30
3024230,"Sidney High School District, Montana",7731.0,,213.0,,7569.0,,218.0,,162.0,,93.0,,24230,30
3024330,"Simms High School District, Montana",3312.0,,302.0,,3242.0,,305.0,,70.0,,73.0,,24330,30
3025050,"Stevensville High School District, Montana",10559.0,,562.0,,10259.0,,539.0,,300.0,,151.0,,25050,30
3025140,"Centerville High School District, Montana",1683.0,,221.0,,1660.0,,217.0,,23.0,,21.0,,25140,30
3025560,"Sweet Grass County High School District, Montana",3533.0,,59.0,,3506.0,,60.0,,27.0,,15.0,,25560,30
3026100,"Thompson Falls High School District, Montana",3405.0,,351.0,,3349.0,,342.0,,56.0,,49.0,,26100,30
3026190,"Three Forks High School District, Montana",3076.0,,300.0,,3024.0,,300.0,,52.0,,44.0,,26190,30
3026580,"Troy High School District, Montana",3339.0,,282.0,,3274.0,,286.0,,65.0,,46.0,,26580,30
3026670,"Turner High School District, Montana",338.0,,79.0,,326.0,,74.0,,12.0,,11.0,,26670,30
3027090,"Valier High School District, Montana",1473.0,,157.0,,1411.0,,157.0,,62.0,,37.0,,27090,30
3027790,"Whitefish High School District, Montana",13999.0,,697.0,,13808.0,,711.0,,191.0,,110.0,,27790,30
3027840,"Whitehall High School District, Montana",3632.0,,291.0,,3593.0,,298.0,,39.0,,33.0,,27840,30
3028170,"Willow Creek High School District, Montana",375.0,,174.0,,375.0,,174.0,,0.0,,10.0,,28170,30
3028620,"Wolf Point High School District, Montana",4527.0,,359.0,,4483.0,,359.0,,44.0,,46.0,,28620,30
3028770,"White Sulphur Springs High School District, Montana",1900.0,,-555555555.0,*****,1831.0,,70.0,,69.0,,70.0,,28770,30
3028911,"Rocky Boy High School District, Montana",2052.0,,233.0,,2025.0,,230.0,,27.0,,30.0,,28911,30
3099999,"Remainder of Montana, Montana",112470.0,,1347.0,,110584.0,,1384.0,,1886.0,,266.0,,99999,30
3000095,"Lame Deer High School District, Montana",5174.0,,354.0,,5158.0,,355.0,,16.0,,17.0,,00095,30
3000097,"North Star High School District, Montana",967.0,,142.0,,943.0,,138.0,,24.0,,13.0,,00097,30
3000101,"Chester-Joplin-Inverness High School District, Montana",2451.0,,55.0,,2350.0,,76.0,,101.0,,48.0,,00101,30
3000933,"Shields Valley High School District, Montana",1893.0,,268.0,,1881.0,,265.0,,12.0,,13.0,,00933,30
3001740,"Absarokee High School District, Montana",2105.0,,237.0,,2086.0,,236.0,,19.0,,16.0,,01740,30
3002030,"Anaconda High School District, Montana",9110.0,,84.0,,8985.0,,108.0,,125.0,,67.0,,02030,30
3002250,"Arlee High School District, Montana",2290.0,,297.0,,2252.0,,293.0,,38.0,,30.0,,02250,30
3002450,"Augusta High School District, Montana",770.0,,133.0,,758.0,,134.0,,12.0,,11.0,,02450,30
3003090,"Beaverhead County High School District, Montana",8712.0,,113.0,,8597.0,,138.0,,115.0,,64.0,,03090,30
3003330,"Belgrade High School District, Montana",20757.0,,656.0,,20269.0,,672.0,,488.0,,194.0,,03330,30
3003450,"Belt High School District, Montana",2236.0,,295.0,,2171.0,,280.0,,65.0,,57.0,,03450,30
3003750,"Big Sandy High School District, Montana",2532.0,,136.0,,2503.0,,134.0,,29.0,,19.0,,03750,30
3003840,"Bigfork High School District, Montana",7617.0,,524.0,,7386.0,,484.0,,231.0,,136.0,,03840,30
3003900,"Billings High School District, Montana",128803.0,,700.0,,126514.0,,743.0,,2289.0,,320.0,,03900,30
3004500,"Box Elder High School District, Montana",338.0,,102.0,,338.0,,102.0,,0.0,,10.0,,04500,30
3004590,"Bozeman High School District, Montana",57488.0,,720.0,,55589.0,,728.0,,1899.0,,277.0,,04590,30
3004860,"Powder River County High School District, Montana",1654.0,,105.0,,1649.0,,106.0,,5.0,,9.0,,04860,30
3004920,"Broadview High School District, Montana",978.0,,233.0,,976.0,,234.0,,2.0,,3.0,,04920,30
3005040,"Brockton High School District, Montana",686.0,,181.0,,686.0,,181.0,,0.0,,10.0,,05040,30
3300003,"John Stark Regional School District, New Hampshire",13618.0,,25.0,,13465.0,,91.0,,153.0,,86.0,,00003,33
3300017,"Exeter Regional Cooperative School District, New Hampshire",32302.0,,240.0,,30901.0,,418.0,,1401.0,,286.0,,00017,33
3300049,"Prospect Mountain High School Joint Maintenance Agreement District, New Hampshire",9826.0,,28.0,,9530.0,,183.0,,296.0,,181.0,,00049,33
3302670,"Dresden School District, New Hampshire",11260.0,,22.0,,9880.0,,237.0,,1380.0,,234.0,,02670,33
3303850,"Hollis-Brookline Cooperative School District, New Hampshire",12658.0,,28.0,,12137.0,,158.0,,521.0,,149.0,,03850,33
3305830,"Profile School District, New Hampshire",4614.0,,246.0,,4425.0,,236.0,,189.0,,70.0,,05830,33
3306260,"Souhegan Cooperative School District, New Hampshire",13602.0,,148.0,,13019.0,,214.0,,583.0,,145.0,,06260,33
3307230,"Winnacunnet Cooperative School District, New Hampshire",30502.0,,139.0,,29487.0,,264.0,,1015.0,,223.0,,07230,33
3399965,"Pemi-Baker Regional School District, New Hampshire",18692.0,,437.0,,18124.0,,465.0,,568.0,,203.0,,99965,33
3399999,"Remainder of New Hampshire, New Hampshire",1170400.0,,536.0,,1106881.0,,1696.0,,63519.0,,1734.0,,99999,33
3401770,"Black Horse Pike Regional School District, New Jersey",84570.0,,50.0,,77721.0,,679.0,,6849.0,,674.0,,01770,34
3402800,"Carlstadt-East Rutherford School District, New Jersey",15070.0,,44.0,,9774.0,,575.0,,5296.0,,576.0,,02800,34
3402880,"Sterling High School School District, New Jersey",16585.0,,34.0,,15178.0,,333.0,,1407.0,,333.0,,02880,34
3402910,"Central Regional School District, New Jersey",49139.0,,343.0,,45657.0,,730.0,,3482.0,,612.0,,02910,34
3403210,"Clearview Regional School District, New Jersey",27518.0,,32.0,,26305.0,,370.0,,1213.0,,373.0,,03210,34
3403620,"Cumberland Regional School District, New Jersey",24762.0,,124.0,,23412.0,,315.0,,1350.0,,297.0,,03620,34
3403750,"Delaware Valley Regional School District, New Jersey",16643.0,,232.0,,15919.0,,279.0,,724.0,,189.0,,03750,34
3404380,"Eastern Camden County Regional School District, New Jersey",39065.0,,125.0,,33081.0,,552.0,,5984.0,,546.0,,04380,34
3405610,"Freehold Regional School District, New Jersey",190822.0,,148.0,,162364.0,,1296.0,,28458.0,,1302.0,,05610,34
3405820,"Gateway Regional School District, New Jersey",12531.0,,114.0,,11970.0,,224.0,,561.0,,174.0,,05820,34
3406060,"Greater Egg Harbor Regional School District, New Jersey",73923.0,,50.0,,63988.0,,946.0,,9935.0,,948.0,,06060,34
3406660,"Hanover Park Regional School District, New Jersey",36681.0,,52.0,,30226.0,,549.0,,6455.0,,552.0,,06660,34
3407050,"Henry Hudson Regional School District, New Jersey",9394.0,,43.0,,8641.0,,253.0,,753.0,,246.0,,07050,34
3407140,"High Point Regional School District, New Jersey",22345.0,,203.0,,21312.0,,276.0,,1033.0,,211.0,,07140,34
3407590,"Hunterdon Central Regional School District, New Jersey",51352.0,,98.0,,46056.0,,590.0,,5296.0,,606.0,,07590,34
3407980,"Kingsway Regional School District, New Jersey",25476.0,,36.0,,23835.0,,316.0,,1641.0,,305.0,,07980,34
3408060,"Kittatinny Regional School District, New Jersey",14616.0,,199.0,,13870.0,,328.0,,746.0,,235.0,,08060,34
3408190,"Lakeland Regional School District, New Jersey",23296.0,,49.0,,20853.0,,486.0,,2443.0,,484.0,,08190,34
3408490,"Lenape Regional School District, New Jersey",140024.0,,207.0,,129742.0,,869.0,,10282.0,,820.0,,08490,34
3408500,"Lenape Valley Regional School District, New Jersey",15192.0,,53.0,,13888.0,,293.0,,1304.0,,287.0,,08500,34
3409090,"Lower Cape May Regional School District, New Jersey",27251.0,,146.0,,26179.0,,331.0,,1072.0,,311.0,,09090,34
3409360,"Mainland Regional School District, New Jersey",26588.0,,36.0,,23800.0,,568.0,,2788.0,,566.0,,09360,34
3409550,"North Warren Regional School District, New Jersey",12885.0,,161.0,,12119.0,,249.0,,766.0,,213.0,,09550,34
3410440,"Monmouth Regional School District, New Jersey",31454.0,,175.0,,27302.0,,598.0,,4152.0,,572.0,,10440,34
3410740,"Morris Hills Regional School District, New Jersey",53830.0,,53.0,,44927.0,,829.0,,8903.0,,834.0,,10740,34
3411610,"North Hunterdon-Voorhees Regional School District, New Jersey",51145.0,,246.0,,47144.0,,496.0,,4001.0,,442.0,,11610,34
3411700,"Northern Burlington Regional School District, New Jersey",29454.0,,255.0,,26745.0,,417.0,,2709.0,,316.0,,11700,34
3411730,"Northern Highlands Regional School District, New Jersey",14735.0,,49.0,,12450.0,,411.0,,2285.0,,415.0,,11730,34
3411760,"Northern Valley Regional School District, New Jersey",37586.0,,51.0,,27341.0,,716.0,,10245.0,,725.0,,11760,34
3412260,"River Dell Regional School District, New Jersey",19337.0,,42.0,,14998.0,,394.0,,4339.0,,402.0,,12260,34
3412510,"Pascack Valley Regional School District, New Jersey",33505.0,,38.0,,28853.0,,537.0,,4652.0,,539.0,,12510,34
3412570,"Passaic Valley Regional School District, New Jersey",37020.0,,35.0,,29136.0,,897.0,,7884.0,,898.0,,12570,34
3412600,"Passaic County Manchester Regional School District, New Jersey",22595.0,,39.0,,17494.0,,591.0,,5101.0,,593.0,,12600,34
3413000,"Pinelands Regional School District, New Jersey",26547.0,,252.0,,25344.0,,377.0,,1203.0,,264.0,,13000,34
3413560,"Ramapo-Indian Hill Regional School District, New Jersey",40073.0,,67.0,,35156.0,,476.0,,4917.0,,483.0,,13560,34
3413620,"Rancocas Valley Regional School District, New Jersey",42868.0,,66.0,,39081.0,,652.0,,3787.0,,644.0,,13620,34
3413750,"Red Bank Regional School District, New Jersey",21986.0,,35.0,,18432.0,,597.0,,3554.0,,603.0,,13750,34
3414400,"Rumson-Fair Haven Regional School District, New Jersey",13200.0,,16.0,,12605.0,,179.0,,595.0,,178.0,,14400,34
3414940,"Shore Regional School District, New Jersey",18732.0,,180.0,,17011.0,,418.0,,1721.0,,387.0,,14940,34
3415300,"South Hunterdon Regional School District, New Jersey",8119.0,,116.0,,7289.0,,322.0,,830.0,,299.0,,15300,34
3415450,"Delsea Regional High School School District, New Jersey",21002.0,,31.0,,20280.0,,254.0,,722.0,,251.0,,15450,34
3415480,"Southern Regional School District, New Jersey",34153.0,,333.0,,32228.0,,540.0,,1925.0,,421.0,,15480,34
3416870,"Wallkill Valley Regional School District, New Jersey",18709.0,,189.0,,17417.0,,308.0,,1292.0,,228.0,,16870,34
3416970,"Warren Hills Regional School District, New Jersey",23990.0,,34.0,,21181.0,,457.0,,2809.0,,453.0,,16970,34
3417220,"Watchung Hills Regional School District, New Jersey",29928.0,,52.0,,24116.0,,676.0,,5812.0,,675.0,,17220,34
3417460,"West Essex Regional School District, New Jersey",21667.0,,54.0,,19578.0,,350.0,,2089.0,,345.0,,17460,34
3417550,"West Morris Regional School District, New Jersey",38841.0,,113.0,,35471.0,,473.0,,3370.0,,480.0,,17550,34
3499999,"Remainder of New Jersey, New Jersey",7147684.0,,625.0,,5503343.0,,10066.0,,1644341.0,,10076.0,,99999,34
3619020,"Bellmore-Merrick Central High School District, New York",69437.0,,970.0,,63045.0,,1130.0,,6392.0,,738.0,,19020,36
3626520,"Sewanhaka Central High School District, New York",121791.0,,1915.0,,87026.0,,1959.0,,34765.0,,1553.0,,26520,36
3629520,"Valley Stream Central High School District, New York",59901.0,,1700.0,,41774.0,,1754.0,,18127.0,,1393.0,,29520,36
3699999,"Remainder of New York, New York",19146996.0,,2177.0,,14938260.0,,14788.0,,4208736.0,,14853.0,,99999,36
4040001,"Secondary Coverage Area in White Oak Public Schools (9-12), Oklahoma",853.0,,158.0,,841.0,,155.0,,12.0,,15.0,,40001,40
4040002,"Secondary Coverage Area in Braman Public Schools (9-12), Oklahoma",554.0,,91.0,,550.0,,91.0,,4.0,,4.0,,40002,40
4099999,"Remainder of Oklahoma, Oklahoma",3747598.0,,196.0,,3543259.0,,3323.0,,204339.0,,3345.0,,99999,40
4103630,"Harney County Union High School District 1J, Oregon",1795.0,,222.0,,1752.0,,217.0,,43.0,,32.0,,03630,41
4199999,"Remainder of Oregon, Oregon",3834833.0,,222.0,,3458868.0,,4909.0,,375965.0,,4878.0,,99999,41
4400420,"Foster-Glocester Regional School District, Rhode Island",14383.0,,28.0,,14050.0,,123.0,,333.0,,119.0,,00420,44
4499999,"Remainder of Rhode Island, Rhode Island",1038088.0,,28.0,,902065.0,,2692.0,,136023.0,,2698.0,,99999,44
4545013,"Beaufort County School District within Beaufort Marine Corps Air Station, South Carolina",1448.0,,291.0,,1389.0,,295.0,,59.0,,48.0,,45013,45
4545079,"Richland County School District 2 within Fort Jackson, South Carolina",13363.0,,830.0,,12573.0,,796.0,,790.0,,201.0,,45079,45
4599999,"Remainder of South Carolina, South Carolina",4615540.0,,819.0,,4394283.0,,3719.0,,221257.0,,3699.0,,99999,45
4747001,"Anderson County School District in Clinton, Tennessee",9827.0,,27.0,,9704.0,,119.0,,123.0,,115.0,,47001,47
4747029,"Cocke County School District in Newport, Tennessee",6968.0,,22.0,,6749.0,,199.0,,219.0,,198.0,,47029,47
4747031,"Coffee County School District in Manchester, Tennessee",9956.0,,146.0,,9426.0,,237.0,,530.0,,203.0,,47031,47
4747033,"Crockett County School District in Alamo, Tennessee",4300.0,,414.0,,4221.0,,416.0,,79.0,,43.0,,47033,47
4747034,"Crockett County School District in Bells, Tennessee",3727.0,,334.0,,3312.0,,298.0,,415.0,,189.0,,47034,47
4747073,"Hawkins County School District in Rogersville, Tennessee",4414.0,,18.0,,4368.0,,40.0,,46.0,,39.0,,47073,47
4747077,"Henderson County School District in Lexington, Tennessee",7703.0,,21.0,,7609.0,,87.0,,94.0,,84.0,,47077,47
4747079,"Henry County School District in Paris, Tennessee",11397.0,,271.0,,11185.0,,273.0,,212.0,,107.0,,47079,47
4747103,"Lincoln County School District in Fayetteville, Tennessee",6887.0,,22.0,,6724.0,,107.0,,163.0,,104.0,,47103,47
4747107,"McMinn County School District in Athens, Tennessee",13492.0,,25.0,,12868.0,,248.0,,624.0,,243.0,,47107,47
4747108,"McMinn County School District in Etowah, Tennessee",3507.0,,16.0,,3501.0,,20.0,,6.0,,13.0,,47108,47
4747123,"Monroe County School District in Sweetwater, Tennessee",12141.0,,828.0,,11569.0,,762.0,,572.0,,262.0,,47123,47
4747143,"Rhea County School District in Dayton, Tennessee",7217.0,,23.0,,7115.0,,107.0,,102.0,,101.0,,47143,47
4747149,"Rutherford County School District in Murfreesboro, Tennessee",109164.0,,202.0,,101996.0,,921.0,,7168.0,,884.0,,47149,47
4747187,"Williamson County School District in Franklin, Tennessee",36588.0,,1036.0,,33030.0,,1043.0,,3558.0,,583.0,,47187,47
4747189,"Wilson County School District in Lebanon, Tennessee",30046.0,,616.0,,28167.0,,644.0,,1879.0,,384.0,,47189,47
4799999,"Remainder of Tennessee, Tennessee",6075892.0,,1351.0,,5802636.0,,4276.0,,273256.0,,4029.0,,99999,47
4848021,"Elgin/Giddings Independent School Districts (9-12) in McDade, Texas",1815.0,,401.0,,1463.0,,328.0,,352.0,,212.0,,48021,48
4848143,"Stephenville Independent School Distict (9-12) in Bluff Dale, Texas",1051.0,,239.0,,1048.0,,238.0,,3.0,,4.0,,48143,48
4848285,"Hallettsville Independent School District (9-12) in Vysehrad, Texas",830.0,,188.0,,822.0,,188.0,,8.0,,11.0,,48285,48
4848309,"West/Connally Independent School Districts (9-12) in Gholson, Texas",1289.0,,202.0,,1230.0,,187.0,,59.0,,51.0,,48309,48
4848355,"Tuloso-Midway Independent School District (9-12) in London, Texas",1410.0,,243.0,,1286.0,,215.0,,124.0,,71.0,,48355,48
4848449,"Mount Pleasant Independent School District (9-12) in Winfield, Texas",1043.0,,225.0,,751.0,,171.0,,292.0,,111.0,,48449,48
4848489,"Raymondville/Lyford Independent School Districts (11-12) in Lasara, Texas",1183.0,,260.0,,969.0,,215.0,,214.0,,90.0,,48489,48
4899999,"Remainder of Texas, Texas",25200276.0,,810.0,,21102314.0,,17020.0,,4097962.0,,17169.0,,99999,48
5000002,"Spaulding Union High School District 41, Vermont",16954.0,,28.0,,16551.0,,144.0,,403.0,,136.0,,00002,50
5000006,"Essex Community Education Center, Vermont",19678.0,,21.0,,18082.0,,404.0,,1596.0,,404.0,,00006,50
5002085,"Bellows Free Academy Union High School District 48, Vermont",12989.0,,19.0,,12526.0,,134.0,,463.0,,132.0,,02085,50
5002400,"Randolph Union High School District 2, Vermont",7153.0,,115.0,,7025.0,,129.0,,128.0,,78.0,,02400,50
5002520,"Brattleboro Union High School District 6, Vermont",14120.0,,226.0,,13327.0,,275.0,,793.0,,170.0,,02520,50
5003030,"Champlain Valley Union High School District 15, Vermont",24151.0,,38.0,,22723.0,,325.0,,1428.0,,318.0,,03030,50
5003430,"Danby School District, Vermont",1506.0,,150.0,,1463.0,,147.0,,43.0,,25.0,,03430,50
5003900,"Fair Haven Union High School District 16, Vermont",9860.0,,174.0,,9712.0,,191.0,,148.0,,57.0,,03900,50
5004580,"Harwood Union High School District 19, Vermont",5958.0,,265.0,,5763.0,,262.0,,195.0,,58.0,,04580,50
5004740,"Hubbardton School District, Vermont",536.0,,87.0,,510.0,,86.0,,26.0,,16.0,,04740,50
5005050,"Lake Region Union High School District 24, Vermont",7208.0,,237.0,,7019.0,,239.0,,189.0,,43.0,,05050,50
5005060,"Lamoille Union High School District 18, Vermont",12463.0,,125.0,,12075.0,,173.0,,388.0,,108.0,,05060,50
5005070,"Landgrove School District, Vermont",186.0,,72.0,,171.0,,68.0,,15.0,,21.0,,05070,50
5005120,"Leland and Gray Union High School District 34, Vermont",4790.0,,282.0,,4687.0,,281.0,,103.0,,28.0,,05120,50
5005190,"Londonderry School District, Vermont",1598.0,,216.0,,1529.0,,206.0,,69.0,,45.0,,05190,50
5005520,"Middlebury Union High School District 3, Vermont",14608.0,,302.0,,13916.0,,332.0,,692.0,,138.0,,05520,50
5005620,"Missisquoi Valley Union High School District 7, Vermont",11201.0,,176.0,,10850.0,,226.0,,351.0,,148.0,,05620,50
5005810,"Mount Anthony Union High School District 14, Vermont",13890.0,,226.0,,13591.0,,257.0,,299.0,,121.0,,05810,50
5005840,"Mount Mansfield Union School District 17, Vermont",15149.0,,189.0,,14602.0,,217.0,,547.0,,124.0,,05840,50
5005860,"Mount Tabor School District, Vermont",188.0,,46.0,,180.0,,43.0,,8.0,,10.0,,05860,50
5006300,"Otter Valley Union High School District 8, Vermont",9197.0,,227.0,,9013.0,,225.0,,184.0,,70.0,,06300,50
5006360,"Pawlet School District, Vermont",1581.0,,163.0,,1571.0,,163.0,,10.0,,8.0,,06360,50
5006420,"Peru School District, Vermont",356.0,,82.0,,323.0,,77.0,,33.0,,18.0,,06420,50
5007020,"Rupert School District, Vermont",729.0,,108.0,,718.0,,107.0,,11.0,,8.0,,07020,50
5007710,"Stannard School District, Vermont",282.0,,76.0,,268.0,,74.0,,14.0,,21.0,,07710,50
5008235,"Mount Abraham Union High School District 28, Vermont",10612.0,,233.0,,10261.0,,254.0,,351.0,,110.0,,08235,50
5008237,"Union High School District 32, Vermont",9886.0,,205.0,,9613.0,,219.0,,273.0,,88.0,,08237,50
5008241,"Black River Union School District 39, Vermont",3166.0,,277.0,,3090.0,,278.0,,76.0,,39.0,,08241,50
5008243,"Hazen Union High School District 26, Vermont",4747.0,,196.0,,4642.0,,197.0,,105.0,,43.0,,08243,50
5008244,"Mill River Union School District 40, Vermont",5863.0,,271.0,,5728.0,,270.0,,135.0,,45.0,,08244,50
5008246,"Bellows Falls Union High School District 27, Vermont",9329.0,,152.0,,9081.0,,179.0,,248.0,,89.0,,08246,50
5008247,"Oxbow Union High School District 30, Vermont",4618.0,,194.0,,4555.0,,192.0,,63.0,,32.0,,08247,50
5008248,"Green Mountain Union High School District 35, Vermont",5040.0,,175.0,,4861.0,,195.0,,179.0,,76.0,,08248,50
5008280,"Vergennes Union High School District 5, Vermont",7935.0,,210.0,,7618.0,,226.0,,317.0,,86.0,,08280,50
5009020,"Weston School District, Vermont",589.0,,108.0,,568.0,,106.0,,21.0,,16.0,,09020,50
5009510,"Woodstock Union High School District 4, Vermont",7151.0,,297.0,,6924.0,,299.0,,227.0,,77.0,,09510,50
5009570,"North Country Union High School District 22 (7-12), Vermont",11406.0,,215.0,,10817.0,,231.0,,589.0,,176.0,,09570,50
5009600,"North Country Union High School District 22 (9-12), Vermont",6390.0,,287.0,,6055.0,,285.0,,335.0,,77.0,,09600,50
5050001,"Harwood Union High School District 19 (9-12), Vermont",6492.0,,136.0,,6296.0,,171.0,,196.0,,92.0,,50001,50
5050002,"Mount Anthony Union High School District 14 (7-12), Vermont",9281.0,,251.0,,9008.0,,265.0,,273.0,,128.0,,50002,50
5050003,"Brattleboro Union High School District 6 (9-12), Vermont",6644.0,,301.0,,6488.0,,304.0,,156.0,,64.0,,50003,50
5099999,"Remainder of Vermont, Vermont",310018.0,,855.0,,296413.0,,1031.0,,13605.0,,761.0,,99999,50
5505490,"Nicolet Union High School District, Wisconsin",25475.0,,57.0,,23052.0,,349.0,,2423.0,,351.0,,05490,55
5506120,"Hartford Union High School District, Wisconsin",31949.0,,555.0,,31042.0,,570.0,,907.0,,211.0,,06120,55
5506180,"Arrowhead Union High School District, Wisconsin",34358.0,,722.0,,33170.0,,746.0,,1188.0,,254.0,,06180,55
5507650,"Lake Geneva-Genoa City Union High School District, Wisconsin",24508.0,,629.0,,22516.0,,702.0,,1992.0,,348.0,,07650,55
5509630,"Lakeland Union High School District, Wisconsin",18116.0,,326.0,,17666.0,,364.0,,450.0,,140.0,,09630,55
5513290,"Westosha Central High School District, Wisconsin",19427.0,,490.0,,18807.0,,596.0,,620.0,,232.0,,13290,55
5515150,"Union Grove Union High School District, Wisconsin",13252.0,,341.0,,12982.0,,337.0,,270.0,,97.0,,15150,55
5515480,"Big Foot Union High School District, Wisconsin",9072.0,,423.0,,8378.0,,479.0,,694.0,,244.0,,15480,55
5515600,"Waterford Union High School District, Wisconsin",18214.0,,425.0,,17953.0,,432.0,,261.0,,91.0,,15600,55
5516770,"Wilmot Union High School District, Wisconsin",18948.0,,457.0,,18332.0,,440.0,,616.0,,230.0,,16770,55
5599999,"Remainder of Wisconsin, Wisconsin",5473900.0,,1163.0,,5218901.0,,3217.0,,254999.0,,3339.0,,99999,55
