geoid,name,universe,universe_annotation,universe_moe,universe_moe_annotation,in_labor_force,in_labor_force_annotation,in_labor_force_moe,in_labor_force_moe_annotation,civilian,civilian_annotation,civilian_moe,civilian_moe_annotation,civilian_employed,civilian_employed_annotation,civilian_employed_moe,civilian_employed_moe_annotation,civilian_unemployed,civilian_unemployed_annotation,civilian_unemployed_moe,civilian_unemployed_moe_annotation,armed_forces,armed_forces_annotation,armed_forces_moe,armed_forces_moe_annotation,not_in_labor_force,not_in_labor_force_annotation,not_in_labor_force_moe,not_in_labor_force_moe_annotation,combined new england city and town area
710,"Augusta-Waterville, ME Combined NECTA",104397.0,,522.0,,66429.0,,914.0,,66249.0,,918.0,,60728.0,,990.0,,5521.0,,542.0,,180.0,,95.0,,37968.0,,884.0,,710
715,"Boston-Worcester-Manchester, MA-NH-CT-ME Combined NECTA",4642748.0,,1802.0,,3226630.0,,5364.0,,3221556.0,,5424.0,,2963645.0,,6305.0,,257911.0,,3725.0,,5074.0,,595.0,,1416118.0,,5826.0,,715
720,"Bridgeport-New Haven-Stamford, CT Combined NECTA",1502972.0,,1046.0,,1024772.0,,3892.0,,1024097.0,,3894.0,,926944.0,,4217.0,,97153.0,,2270.0,,675.0,,213.0,,478200.0,,3930.0,,720
725,"Claremont-Lebanon, NH-VT Combined NECTA",78498.0,,625.0,,51904.0,,864.0,,51902.0,,864.0,,49220.0,,884.0,,2682.0,,372.0,,2.0,,4.0,,26594.0,,931.0,,725
735,"Hartford-West Hartford-Torrington, CT Combined NECTA",929197.0,,1053.0,,637378.0,,2897.0,,636323.0,,2892.0,,579607.0,,3223.0,,56716.0,,1534.0,,1055.0,,317.0,,291819.0,,2926.0,,735
740,"Laconia-Franklin, NH Combined NECTA",46690.0,,396.0,,30036.0,,758.0,,30007.0,,758.0,,27935.0,,756.0,,2072.0,,311.0,,29.0,,32.0,,16654.0,,700.0,,740
770,"Pittsfield-North Adams, MA-VT Combined NECTA",87009.0,,414.0,,54395.0,,910.0,,54327.0,,921.0,,49060.0,,992.0,,5267.0,,459.0,,68.0,,51.0,,32614.0,,925.0,,770
775,"Portland-South Portland-Sanford, ME Combined NECTA",310362.0,,755.0,,215047.0,,1707.0,,214611.0,,1710.0,,201135.0,,1656.0,,13476.0,,797.0,,436.0,,101.0,,95315.0,,1651.0,,775
780,"Providence-New Bedford-Fall River, RI-MA Combined NECTA",1201140.0,,1210.0,,798480.0,,3317.0,,794878.0,,3294.0,,716954.0,,3779.0,,77924.0,,2097.0,,3602.0,,415.0,,402660.0,,3056.0,,780
790,"Springfield-Amherst Center-Greenfield, MA-CT Combined NECTA",630011.0,,828.0,,401286.0,,2598.0,,400590.0,,2578.0,,363265.0,,2817.0,,37325.0,,1240.0,,696.0,,168.0,,228725.0,,2504.0,,790
