B05002_001E,B05002_001EA,B05002_001M,B05002_001MA,B05002_002E,B05002_002EA,B05002_002M,B05002_002MA,B05002_013E,B05002_013EA,B05002_013M,B05002_013MA,NAME,combined statistical area
1172491.0,,-555555555.0,*****,1097561.0,,1918.0,,74930.0,,1918.0,,"Albany-Schenectady, NY CSA",104
1165348.0,,-555555555.0,*****,1054869.0,,3523.0,,110479.0,,3523.0,,"Albuquerque-Santa Fe-Las Vegas, NM CSA",106
282277.0,,102.0,,256541.0,,1073.0,,25736.0,,1061.0,,"Amarillo-Borger, TX CSA",108
400939.0,,-555555555.0,*****,386570.0,,679.0,,14369.0,,679.0,,"Appleton-Oshkosh-Neenah, WI CSA",118
474786.0,,-555555555.0,*****,449653.0,,1174.0,,25133.0,,1174.0,,"Asheville-Brevard, NC CSA",120
6258653.0,,-555555555.0,*****,5443205.0,,7505.0,,815448.0,,7505.0,,"Atlanta--Athens-Clarke County--Sandy Springs, GA CSA",122
192147.0,,-555555555.0,*****,184672.0,,1007.0,,7475.0,,1007.0,,"Bend-Redmond-Prineville, OR CSA",140
1355504.0,,-555555555.0,*****,1306435.0,,1401.0,,49069.0,,1401.0,,"Birmingham-Hoover-Talladega, AL CSA",142
210026.0,,-555555555.0,*****,197491.0,,821.0,,12535.0,,821.0,,"Bloomington-Bedford, IN CSA",144
226854.0,,-555555555.0,*****,214352.0,,875.0,,12502.0,,875.0,,"Bloomington-Pontiac, IL CSA",145
264190.0,,-555555555.0,*****,258797.0,,413.0,,5393.0,,413.0,,"Bloomsburg-Berwick-Sunbury, PA CSA",146
743030.0,,-555555555.0,*****,692487.0,,2239.0,,50543.0,,2239.0,,"Boise City-Mountain Home-Ontario, ID-OR CSA",147
8096628.0,,-555555555.0,*****,6889420.0,,7344.0,,1207208.0,,7344.0,,"Boston-Worcester-Providence, MA-RI-NH-CT CSA",148
219671.0,,-555555555.0,*****,207181.0,,1043.0,,12490.0,,1043.0,,"Bowling Green-Glasgow, KY CSA",150
440729.0,,-555555555.0,*****,336536.0,,2355.0,,104193.0,,2355.0,,"Brownsville-Harlingen-Raymondville, TX CSA",154
1214009.0,,-555555555.0,*****,1142539.0,,1825.0,,71470.0,,1825.0,,"Buffalo-Cheektowaga, NY CSA",160
1029206.0,,-555555555.0,*****,839791.0,,3576.0,,189415.0,,3576.0,,"Cape Coral-Fort Myers-Naples, FL CSA",162
136416.0,,-555555555.0,*****,133940.0,,251.0,,2476.0,,251.0,,"Cape Girardeau-Sikeston, MO-IL CSA",164
428398.0,,-555555555.0,*****,404760.0,,1082.0,,23638.0,,1082.0,,"Cedar Rapids-Iowa City, IA CSA",168
697405.0,,-555555555.0,*****,689540.0,,579.0,,7865.0,,579.0,,"Charleston-Huntington-Ashland, WV-OH-KY CSA",170
2538875.0,,-555555555.0,*****,2304682.0,,3664.0,,234193.0,,3664.0,,"Charlotte-Concord, NC-SC CSA",172
944765.0,,-555555555.0,*****,893559.0,,1939.0,,51206.0,,1939.0,,"Chattanooga-Cleveland-Dalton, TN-GA-AL CSA",174
9902385.0,,-555555555.0,*****,8205796.0,,9917.0,,1696589.0,,9917.0,,"Chicago-Naperville, IL-IN-WI CSA",176
2205493.0,,-555555555.0,*****,2112247.0,,2727.0,,93246.0,,2727.0,,"Cincinnati-Wilmington-Maysville, OH-KY-IN CSA",178
3493934.0,,-555555555.0,*****,3330833.0,,2889.0,,163101.0,,2889.0,,"Cleveland-Akron-Canton, OH CSA",184
61039.0,,-555555555.0,*****,60237.0,,202.0,,802.0,,202.0,,"Cleveland-Indianola, MS CSA",185
70162.0,,-555555555.0,*****,63759.0,,662.0,,6403.0,,662.0,,"Clovis-Portales, NM CSA",188
223722.0,,-555555555.0,*****,212334.0,,769.0,,11388.0,,769.0,,"Columbia-Moberly-Mexico, MO CSA",190
928040.0,,-555555555.0,*****,885547.0,,1681.0,,42493.0,,1681.0,,"Columbia-Orangeburg-Newberry, SC CSA",192
500424.0,,-555555555.0,*****,477658.0,,1091.0,,22766.0,,1091.0,,"Columbus-Auburn-Opelika, GA-AL CSA",194
2398271.0,,-555555555.0,*****,2248646.0,,3568.0,,149625.0,,3568.0,,"Columbus-Marion-Zanesville, OH CSA",198
79932.0,,-555555555.0,*****,78197.0,,365.0,,1735.0,,365.0,,"Columbus-West Point, MS CSA",200
521023.0,,225.0,,481708.0,,2031.0,,39315.0,,2059.0,,"Corpus Christi-Kingsville-Alice, TX CSA",204
7389674.0,,-555555555.0,*****,6122527.0,,9488.0,,1267147.0,,9488.0,,"Dallas-Fort Worth, TX-OK CSA",206
474225.0,,-555555555.0,*****,450895.0,,1183.0,,23330.0,,1183.0,,"Davenport-Moline, IA-IL CSA",209
1077434.0,,-555555555.0,*****,1040527.0,,1402.0,,36907.0,,1402.0,,"Dayton-Springfield-Sidney, OH CSA",212
3344082.0,,-555555555.0,*****,2949229.0,,5893.0,,394853.0,,5893.0,,"Denver-Aurora, CO CSA",216
88536.0,,-555555555.0,*****,85459.0,,350.0,,3077.0,,350.0,,"DeRidder-Fort Polk South, LA CSA",217
769715.0,,-555555555.0,*****,713467.0,,1962.0,,56248.0,,1962.0,,"Des Moines-Ames-West Des Moines, IA CSA",218
5316521.0,,-555555555.0,*****,4859633.0,,5317.0,,456888.0,,5317.0,,"Detroit-Warren-Ann Arbor, MI CSA",220
91873.0,,-555555555.0,*****,89273.0,,332.0,,2600.0,,332.0,,"Dixon-Sterling, IL CSA",221
248441.0,,-555555555.0,*****,242023.0,,416.0,,6418.0,,416.0,,"Dothan-Enterprise-Ozark, AL CSA",222
209610.0,,-555555555.0,*****,204435.0,,375.0,,5175.0,,375.0,,"Eau Claire-Menomonie, WI CSA",232
127932.0,,-555555555.0,*****,107373.0,,979.0,,20559.0,,979.0,,"Edwards-Glenwood Springs, CO CSA",233
185893.0,,-555555555.0,*****,181139.0,,327.0,,4754.0,,327.0,,"Elmira-Corning, NY CSA",236
1050898.0,,-555555555.0,*****,802567.0,,3694.0,,248331.0,,3694.0,,"El Paso-Las Cruces, TX-NM CSA",238
366160.0,,-555555555.0,*****,352503.0,,721.0,,13657.0,,721.0,,"Erie-Meadville, PA CSA",240
251062.0,,-555555555.0,*****,237775.0,,894.0,,13287.0,,894.0,,"Fargo-Wahpeton, ND-MN CSA",244
547981.0,,-555555555.0,*****,518385.0,,988.0,,29596.0,,988.0,,"Fayetteville-Lumberton-Laurinburg, NC CSA",246
131383.0,,-555555555.0,*****,128191.0,,446.0,,3192.0,,446.0,,"Findlay-Tiffin, OH CSA",248
622619.0,,-555555555.0,*****,594285.0,,1179.0,,28334.0,,1179.0,,"Fort Wayne-Huntington-Auburn, IN CSA",258
1116526.0,,-555555555.0,*****,877793.0,,3482.0,,238733.0,,3482.0,,"Fresno-Madera, CA CSA",260
341812.0,,-555555555.0,*****,312810.0,,1392.0,,29002.0,,1392.0,,"Gainesville-Lake City, FL CSA",264
1421372.0,,-555555555.0,*****,1346902.0,,2017.0,,74470.0,,2017.0,,"Grand Rapids-Wyoming-Muskegon, MI CSA",266
360396.0,,-555555555.0,*****,344374.0,,876.0,,16022.0,,875.0,,"Green Bay-Shawano, WI CSA",267
1630029.0,,-555555555.0,*****,1505968.0,,2177.0,,124061.0,,2177.0,,"Greensboro--Winston-Salem--High Point, NC CSA",268
1410702.0,,-555555555.0,*****,1335378.0,,2024.0,,75324.0,,2024.0,,"Greenville-Spartanburg-Anderson, SC CSA",273
222663.0,,-555555555.0,*****,212597.0,,885.0,,10066.0,,885.0,,"Greenville-Washington, NC CSA",274
1240760.0,,-555555555.0,*****,1181173.0,,1901.0,,59587.0,,1901.0,,"Harrisburg-York-Lebanon, PA CSA",276
250336.0,,-555555555.0,*****,234320.0,,885.0,,16016.0,,885.0,,"Harrisonburg-Staunton-Waynesboro, VA CSA",277
1483859.0,,-555555555.0,*****,1303873.0,,3823.0,,179986.0,,3823.0,,"Hartford-West Hartford, CT CSA",278
408390.0,,-555555555.0,*****,387933.0,,917.0,,20457.0,,917.0,,"Hickory-Lenoir, NC CSA",280
130559.0,,-555555555.0,*****,126785.0,,473.0,,3774.0,,473.0,,"Hot Springs-Malvern, AR CSA",284
6679518.0,,-555555555.0,*****,5177693.0,,9553.0,,1501825.0,,9553.0,,"Houston-The Woodlands, TX CSA",288
758689.0,,-555555555.0,*****,717973.0,,1271.0,,40716.0,,1271.0,,"Huntsville-Decatur-Albertville, AL CSA",290
234948.0,,-555555555.0,*****,222166.0,,670.0,,12782.0,,670.0,,"Idaho Falls-Rexburg-Blackfoot, ID CSA",292
2350495.0,,-555555555.0,*****,2210151.0,,3073.0,,140344.0,,3073.0,,"Indianapolis-Carmel-Muncie, IN CSA",294
152981.0,,-555555555.0,*****,138602.0,,903.0,,14379.0,,903.0,,"Ithaca-Cortland, NY CSA",296
148170.0,,-555555555.0,*****,144249.0,,434.0,,3921.0,,434.0,,"Jackson-Brownsville, TN CSA",297
669829.0,,-555555555.0,*****,655020.0,,952.0,,14809.0,,952.0,,"Jackson-Vicksburg-Brookhaven, MS CSA",298
1548493.0,,-555555555.0,*****,1423773.0,,3234.0,,124720.0,,3234.0,,"Jacksonville-St. Marys-Palatka, FL-GA CSA",300
508187.0,,-555555555.0,*****,498323.0,,623.0,,9864.0,,623.0,,"Johnson City-Kingsport-Bristol, TN-VA CSA",304
213963.0,,-555555555.0,*****,211682.0,,270.0,,2281.0,,270.0,,"Johnstown-Somerset, PA CSA",306
170760.0,,-555555555.0,*****,166289.0,,438.0,,4471.0,,438.0,,"Jonesboro-Paragould, AR CSA",308
208139.0,,-555555555.0,*****,200462.0,,448.0,,7677.0,,448.0,,"Joplin-Miami, MO-OK CSA",309
529435.0,,-555555555.0,*****,507417.0,,1079.0,,22018.0,,1079.0,,"Kalamazoo-Battle Creek-Portage, MI CSA",310
2410209.0,,-555555555.0,*****,2264719.0,,2614.0,,145490.0,,2614.0,,"Kansas City-Overland Park-Kansas City, MO-KS CSA",312
1102958.0,,-555555555.0,*****,1059070.0,,1823.0,,43888.0,,1823.0,,"Knoxville-Morristown-Sevierville, TN CSA",314
118821.0,,-555555555.0,*****,116727.0,,293.0,,2094.0,,293.0,,"Kokomo-Peru, IN CSA",316
620795.0,,-555555555.0,*****,601459.0,,1173.0,,19336.0,,1173.0,,"Lafayette-Opelousas-Morgan City, LA CSA",318
244805.0,,-555555555.0,*****,221625.0,,816.0,,23180.0,,816.0,,"Lafayette-West Lafayette-Frankfort, IN CSA",320
235371.0,,-555555555.0,*****,230100.0,,496.0,,5271.0,,496.0,,"Lake Charles-Jennings, LA CSA",324
539148.0,,-555555555.0,*****,507577.0,,1085.0,,31571.0,,1085.0,,"Lansing-East Lansing-Owosso, MI CSA",330
2316980.0,,-555555555.0,*****,1843903.0,,4430.0,,473077.0,,4430.0,,"Las Vegas-Henderson, NV-AZ CSA",332
717108.0,,-555555555.0,*****,678074.0,,1344.0,,39034.0,,1344.0,,"Lexington-Fayette--Richmond--Frankfort, KY CSA",336
219922.0,,-555555555.0,*****,217564.0,,297.0,,2358.0,,297.0,,"Lima-Van Wert-Celina, OH CSA",338
340598.0,,-555555555.0,*****,317327.0,,1039.0,,23271.0,,1039.0,,"Lincoln-Beatrice, NE CSA",339
900935.0,,-555555555.0,*****,868585.0,,1365.0,,32350.0,,1365.0,,"Little Rock-North Little Rock, AR CSA",340
283206.0,,-555555555.0,*****,263036.0,,845.0,,20170.0,,845.0,,"Longview-Marshall, TX CSA",346
18463122.0,,-555555555.0,*****,12887490.0,,18583.0,,5575632.0,,18583.0,,"Los Angeles-Long Beach, CA CSA",348
1497358.0,,-555555555.0,*****,1426267.0,,2258.0,,71091.0,,2258.0,,"Louisville/Jefferson County--Elizabethtown--Madison, KY-IN CSA",350
329769.0,,-555555555.0,*****,310862.0,,1288.0,,18907.0,,1288.0,,"Lubbock-Levelland, TX CSA",352
418289.0,,-555555555.0,*****,401713.0,,1005.0,,16576.0,,1005.0,,"Macon-Bibb County--Warner Robins, GA CSA",356
858572.0,,-555555555.0,*****,804381.0,,1541.0,,54191.0,,1541.0,,"Madison-Janesville-Beloit, WI CSA",357
134764.0,,-555555555.0,*****,124866.0,,702.0,,9898.0,,702.0,,"Manhattan-Junction City, KS CSA",358
124077.0,,-555555555.0,*****,119480.0,,431.0,,4597.0,,431.0,,"Mankato-New Ulm-North Mankato, MN CSA",359
217716.0,,-555555555.0,*****,214331.0,,440.0,,3385.0,,440.0,,"Mansfield-Ashland-Bucyrus, OH CSA",360
71247.0,,-555555555.0,*****,70088.0,,223.0,,1159.0,,223.0,,"Martin-Union City, TN-KY CSA",362
230250.0,,-555555555.0,*****,227597.0,,384.0,,2653.0,,384.0,,"Mayaguez-San German, PR CSA",364
891342.0,,-555555555.0,*****,640002.0,,4133.0,,251340.0,,4133.0,,"McAllen-Edinburg, TX CSA",365
294979.0,,-555555555.0,*****,279398.0,,865.0,,15581.0,,865.0,,"Medford-Grants Pass, OR CSA",366
1368362.0,,-555555555.0,*****,1300209.0,,2034.0,,68153.0,,2034.0,,"Memphis-Forrest City, TN-MS-AR CSA",368
6558445.0,,-555555555.0,*****,4141618.0,,10546.0,,2416827.0,,10546.0,,"Miami-Fort Lauderdale-Port St. Lucie, FL CSA",370
314445.0,,-555555555.0,*****,276015.0,,1888.0,,38430.0,,1888.0,,"Midland-Odessa, TX CSA",372
2042566.0,,-555555555.0,*****,1910070.0,,2325.0,,132496.0,,2325.0,,"Milwaukee-Racine-Waukesha, WI CSA",376
3829046.0,,-555555555.0,*****,3462778.0,,4156.0,,366268.0,,4156.0,,"Minneapolis-St. Paul, MN-WI CSA",378
613801.0,,-555555555.0,*****,594414.0,,1138.0,,19387.0,,1138.0,,"Mobile-Daphne-Fairhope, AL CSA",380
795562.0,,-555555555.0,*****,620171.0,,3283.0,,175391.0,,3283.0,,"Modesto-Merced, CA CSA",382
253077.0,,-555555555.0,*****,248032.0,,553.0,,5045.0,,553.0,,"Monroe-Ruston-Bastrop, LA CSA",384
193336.0,,-555555555.0,*****,186781.0,,766.0,,6555.0,,766.0,,"Morgantown-Fairmont, WV CSA",390
111630.0,,-555555555.0,*****,89271.0,,943.0,,22359.0,,943.0,,"Moses Lake-Othello, WA CSA",393
112250.0,,-555555555.0,*****,109362.0,,330.0,,2888.0,,330.0,,"Mount Pleasant-Alma, MI CSA",394
480389.0,,-555555555.0,*****,454992.0,,1003.0,,25397.0,,1003.0,,"Myrtle Beach-Conway, SC-NC CSA",396
1914642.0,,-555555555.0,*****,1773799.0,,2425.0,,140843.0,,2425.0,,"Nashville-Davidson--Murfreesboro, TN CSA",400
195693.0,,-555555555.0,*****,187339.0,,606.0,,8354.0,,606.0,,"New Bern-Morehead City, NC CSA",404
1478896.0,,-555555555.0,*****,1382400.0,,2128.0,,96496.0,,2128.0,,"New Orleans-Metairie-Hammond, LA-MS CSA",406
23568545.0,,-555555555.0,*****,17317885.0,,21606.0,,6250660.0,,21606.0,,"New York-Newark, NY-NJ-CT-PA CSA",408
956198.0,,-555555555.0,*****,840904.0,,2578.0,,115294.0,,2578.0,,"North Port-Sarasota, FL CSA",412
1408626.0,,-555555555.0,*****,1299659.0,,2058.0,,108967.0,,2058.0,,"Oklahoma City-Shawnee, OK CSA",416
941513.0,,-555555555.0,*****,875894.0,,1475.0,,65619.0,,1475.0,,"Omaha-Council Bluffs-Fremont, NE-IA CSA",420
3055820.0,,-555555555.0,*****,2607082.0,,6486.0,,448738.0,,6486.0,,"Orlando-Deltona-Daytona Beach, FL CSA",422
55521.0,,-555555555.0,*****,54324.0,,200.0,,1197.0,,200.0,,"Oskaloosa-Pella, IA CSA",423
135123.0,,-555555555.0,*****,132138.0,,338.0,,2985.0,,338.0,,"Paducah-Mayfield, KY-IL CSA",424
153242.0,,-555555555.0,*****,151503.0,,258.0,,1739.0,,258.0,,"Parkersburg-Marietta-Vienna, WV-OH CSA",425
511352.0,,-555555555.0,*****,489044.0,,1103.0,,22308.0,,1103.0,,"Pensacola-Ferry Pass, FL-AL CSA",426
415288.0,,-555555555.0,*****,401248.0,,775.0,,14040.0,,775.0,,"Peoria-Canton, IL CSA",427
7158466.0,,-555555555.0,*****,6430330.0,,6249.0,,728136.0,,6249.0,,"Philadelphia-Reading-Camden, PA-NJ-DE-MD CSA",428
2652049.0,,-555555555.0,*****,2560753.0,,1955.0,,91296.0,,1955.0,,"Pittsburgh-New Castle-Weirton, PA-OH-WV CSA",430
405583.0,,-555555555.0,*****,402639.0,,383.0,,2944.0,,383.0,,"Ponce-Coamo-Santa Isabel, PR CSA",434
631250.0,,-555555555.0,*****,602849.0,,1333.0,,28401.0,,1333.0,,"Portland-Lewiston-South Portland, ME CSA",438
3066487.0,,-555555555.0,*****,2706044.0,,5262.0,,360443.0,,5262.0,,"Portland-Vancouver-Salem, OR-WA CSA",440
208993.0,,-555555555.0,*****,201537.0,,569.0,,7456.0,,569.0,,"Pueblo-Ca?on City, CO CSA",444
86087.0,,-555555555.0,*****,79375.0,,503.0,,6712.0,,503.0,,"Pullman-Moscow, WA-ID CSA",446
116178.0,,-555555555.0,*****,114570.0,,199.0,,1608.0,,199.0,,"Quincy-Hannibal, IL-MO CSA",448
2075128.0,,-555555555.0,*****,1845446.0,,3277.0,,229682.0,,3277.0,,"Raleigh-Durham-Chapel Hill, NC CSA",450
167444.0,,-555555555.0,*****,163784.0,,401.0,,3660.0,,401.0,,"Rapid City-Spearfish, SD CSA",452
242243.0,,-555555555.0,*****,228386.0,,955.0,,13857.0,,955.0,,"Redding-Red Bluff, CA CSA",454
597590.0,,-555555555.0,*****,518840.0,,1831.0,,78750.0,,1831.0,,"Reno-Carson City-Fernley, NV CSA",456
91031.0,,-555555555.0,*****,89368.0,,252.0,,1663.0,,252.0,,"Richmond-Connersville, IN CSA",458
251917.0,,-555555555.0,*****,231914.0,,1044.0,,20003.0,,1044.0,,"Rochester-Austin, MN CSA",462
1176315.0,,-555555555.0,*****,1100134.0,,2154.0,,76181.0,,2154.0,,"Rochester-Batavia-Seneca Falls, NY CSA",464
440869.0,,-555555555.0,*****,408200.0,,1081.0,,32669.0,,1081.0,,"Rockford-Freeport-Rochelle, IL CSA",466
304148.0,,-555555555.0,*****,292036.0,,689.0,,12112.0,,689.0,,"Rocky Mount-Wilson-Roanoke Rapids, NC CSA",468
121245.0,,-555555555.0,*****,113958.0,,558.0,,7287.0,,558.0,,"Rome-Summerville, GA CSA",470
2510484.0,,-555555555.0,*****,2067985.0,,5068.0,,442499.0,,5068.0,,"Sacramento-Roseville, CA CSA",472
384867.0,,-555555555.0,*****,375729.0,,600.0,,9138.0,,600.0,,"Saginaw-Midland-Bay City, MI CSA",474
2908182.0,,-555555555.0,*****,2781568.0,,2733.0,,126614.0,,2733.0,,"St. Louis-St. Charles-Farmington, MO-IL CSA",476
2428885.0,,-555555555.0,*****,2209965.0,,3684.0,,218920.0,,3684.0,,"Salt Lake City-Provo-Orem, UT CSA",482
8574623.0,,-555555555.0,*****,6044252.0,,11398.0,,2530371.0,,11398.0,,"San Jose-San Francisco-Oakland, CA CSA",488
2531216.0,,-555555555.0,*****,2444518.0,,2550.0,,86698.0,,2550.0,,"San Juan-Carolina, PR CSA",490
526902.0,,-555555555.0,*****,498894.0,,1187.0,,28008.0,,1187.0,,"Savannah-Hinesville-Statesboro, GA CSA",496
4532266.0,,-555555555.0,*****,3829891.0,,6708.0,,702375.0,,6708.0,,"Seattle-Tacoma, WA CSA",500
182775.0,,-555555555.0,*****,167361.0,,819.0,,15414.0,,819.0,,"Sioux City-Vermillion, IA-SD-NE CSA",512
723098.0,,-555555555.0,*****,677118.0,,1662.0,,45980.0,,1662.0,,"South Bend-Elkhart-Mishawaka, IN-MI CSA",515
690320.0,,-555555555.0,*****,658687.0,,1426.0,,31633.0,,1426.0,,"Spokane-Spokane Valley-Coeur d'Alene, WA-ID CSA",518
537248.0,,-555555555.0,*****,523527.0,,817.0,,13721.0,,817.0,,"Springfield-Branson, MO CSA",520
700023.0,,-555555555.0,*****,641732.0,,2084.0,,58291.0,,2084.0,,"Springfield-Greenfield Town, MA CSA",521
314893.0,,-555555555.0,*****,307157.0,,567.0,,7736.0,,567.0,,"Springfield-Jacksonville-Lincoln, IL CSA",522
240348.0,,-555555555.0,*****,225033.0,,804.0,,15315.0,,804.0,,"State College-DuBois, PA CSA",524
37014.0,,-555555555.0,*****,34628.0,,488.0,,2386.0,,488.0,,"Steamboat Springs-Craig, CO CSA",525
739435.0,,-555555555.0,*****,699009.0,,1287.0,,40426.0,,1287.0,,"Syracuse-Auburn, NY CSA",532
403574.0,,-555555555.0,*****,379560.0,,1286.0,,24014.0,,1286.0,,"Tallahassee-Bainbridge, FL-GA CSA",533
647665.0,,-555555555.0,*****,627338.0,,1113.0,,20327.0,,1113.0,,"Toledo-Port Clinton, OH CSA",534
1049885.0,,-555555555.0,*****,905225.0,,2450.0,,144660.0,,2450.0,,"Tucson-Nogales, AZ CSA",536
1140701.0,,-555555555.0,*****,1074920.0,,1241.0,,65781.0,,1241.0,,"Tulsa-Muskogee-Bartlesville, OK CSA",538
271002.0,,-555555555.0,*****,248884.0,,1295.0,,22118.0,,1295.0,,"Tyler-Jacksonville, TX CSA",540
120257.0,,-555555555.0,*****,112159.0,,808.0,,8098.0,,808.0,,"Victoria-Port Lavaca, TX CSA",544
1817350.0,,-555555555.0,*****,1703731.0,,2282.0,,113619.0,,2282.0,,"Virginia Beach-Norfolk, VA-NC CSA",545
606030.0,,-555555555.0,*****,475951.0,,2522.0,,130079.0,,2522.0,,"Visalia-Porterville-Hanford, CA CSA",546
9518995.0,,-555555555.0,*****,7869589.0,,9721.0,,1649406.0,,9721.0,,"Washington-Baltimore-Arlington, DC-MD-VA-WV-PA CSA",548
307710.0,,-555555555.0,*****,298114.0,,671.0,,9596.0,,671.0,,"Wausau-Stevens Point-Wisconsin Rapids, WI CSA",554
676482.0,,-555555555.0,*****,628198.0,,1287.0,,48284.0,,1287.0,,"Wichita-Arkansas City-Winfield, KS CSA",556
155849.0,,-555555555.0,*****,153459.0,,300.0,,2390.0,,300.0,,"Williamsport-Lock Haven, PA CSA",558
657751.0,,-555555555.0,*****,645447.0,,773.0,,12304.0,,773.0,,"Youngstown-Warren, OH-PA CSA",566
