B05002_001E,B05002_001EA,B05002_001M,B05002_001MA,B05002_002E,B05002_002EA,B05002_002M,B05002_002MA,B05002_013E,B05002_013EA,B05002_013M,B05002_013MA,NAME,combined new england city and town area
123756.0,,437.0,,120762.0,,585.0,,2994.0,,432.0,,"Augusta-Waterville, ME Combined NECTA",710
7785743.0,,567.0,,6593975.0,,7341.0,,1191768.0,,7306.0,,"Boston-Worcester-Providence, MA-RI-NH-CT-ME Combined NECTA",715
1930697.0,,150.0,,1618145.0,,4728.0,,312552.0,,4693.0,,"Bridgeport-New Haven-Stamford, CT Combined NECTA",720
98650.0,,558.0,,93483.0,,806.0,,5167.0,,513.0,,"Claremont-Lebanon, NH-VT Combined NECTA",725
108887.0,,363.0,,103057.0,,594.0,,5830.0,,487.0,,"Pittsfield-North Adams, MA-VT Combined NECTA",770
556068.0,,633.0,,529227.0,,1624.0,,26841.0,,1363.0,,"Portland-Lewiston-South Portland, ME Combined NECTA",775
1965768.0,,479.0,,1744515.0,,4410.0,,221253.0,,4411.0,,"Springfield-Hartford-West Hartford, MA-CT Combined NECTA",790
