B15002_001E,B15002_001EA,B15002_001M,B15002_001MA,B15002_002E,B15002_002EA,B15002_002M,B15002_002MA,B15002_003E,B15002_003EA,B15002_003M,B15002_003MA,B15002_004E,B15002_004EA,B15002_004M,B15002_004MA,B15002_005E,B15002_005EA,B15002_005M,B15002_005MA,B15002_006E,B15002_006EA,B15002_006M,B15002_006MA,B15002_007E,B15002_007EA,B15002_007M,B15002_007MA,B15002_008E,B15002_008EA,B15002_008M,B15002_008MA,B15002_009E,B15002_009EA,B15002_009M,B15002_009MA,B15002_010E,B15002_010EA,B15002_010M,B15002_010MA,B15002_011E,B15002_011EA,B15002_011M,B15002_011MA,B15002_012E,B15002_012EA,B15002_012M,B15002_012MA,B15002_013E,B15002_013EA,B15002_013M,B15002_013MA,B15002_014E,B15002_014EA,B15002_014M,B15002_014MA,B15002_015E,B15002_015EA,B15002_015M,B15002_015MA,B15002_016E,B15002_016EA,B15002_016M,B15002_016MA,B15002_017E,B15002_017EA,B15002_017M,B15002_017MA,B15002_018E,B15002_018EA,B15002_018M,B15002_018MA,B15002_019E,B15002_019EA,B15002_019M,B15002_019MA,B15002_020E,B15002_020EA,B15002_020M,B15002_020MA,B15002_021E,B15002_021EA,B15002_021M,B15002_021MA,B15002_022E,B15002_022EA,B15002_022M,B15002_022MA,B15002_023E,B15002_023EA,B15002_023M,B15002_023MA,B15002_024E,B15002_024EA,B15002_024M,B15002_024MA,B15002_025E,B15002_025EA,B15002_025M,B15002_025MA,B15002_026E,B15002_026EA,B15002_026M,B15002_026MA,B15002_027E,B15002_027EA,B15002_027M,B15002_027MA,B15002_028E,B15002_028EA,B15002_028M,B15002_028MA,B15002_029E,B15002_029EA,B15002_029M,B15002_029MA,B15002_030E,B15002_030EA,B15002_030M,B15002_030MA,B15002_031E,B15002_031EA,B15002_031M,B15002_031MA,B15002_032E,B15002_032EA,B15002_032M,B15002_032MA,B15002_033E,B15002_033EA,B15002_033M,B15002_033MA,B15002_034E,B15002_034EA,B15002_034M,B15002_034MA,B15002_035E,B15002_035EA,B15002_035M,B15002_035MA,NAME,combined new england city and town area
88130.0,,450.0,,42355.0,,344.0,,345.0,,117.0,,48.0,,33.0,,226.0,,91.0,,879.0,,181.0,,613.0,,139.0,,745.0,,147.0,,897.0,,218.0,,567.0,,114.0,,15480.0,,697.0,,2877.0,,317.0,,5642.0,,441.0,,3990.0,,400.0,,6285.0,,427.0,,2360.0,,265.0,,672.0,,119.0,,729.0,,156.0,,45775.0,,251.0,,301.0,,119.0,,86.0,,46.0,,141.0,,60.0,,765.0,,133.0,,537.0,,145.0,,729.0,,178.0,,483.0,,164.0,,372.0,,103.0,,15614.0,,636.0,,3447.0,,345.0,,6452.0,,499.0,,5251.0,,446.0,,6861.0,,491.0,,3753.0,,336.0,,513.0,,128.0,,470.0,,144.0,,"Augusta-Waterville, ME Combined NECTA",710
5394693.0,,1287.0,,2571894.0,,1070.0,,33420.0,,1487.0,,20887.0,,1160.0,,23857.0,,1218.0,,40506.0,,1305.0,,30645.0,,1240.0,,39349.0,,1483.0,,38581.0,,1406.0,,39077.0,,1322.0,,678435.0,,6150.0,,124925.0,,2416.0,,289437.0,,4027.0,,169945.0,,2615.0,,600343.0,,4983.0,,288450.0,,3521.0,,79262.0,,1836.0,,74775.0,,1945.0,,2822799.0,,1003.0,,38224.0,,1164.0,,23405.0,,1120.0,,25980.0,,1146.0,,42307.0,,1547.0,,30128.0,,1481.0,,36386.0,,1139.0,,36342.0,,1423.0,,35772.0,,1399.0,,685091.0,,5375.0,,145321.0,,2370.0,,323996.0,,4095.0,,256355.0,,3180.0,,648470.0,,4926.0,,373722.0,,3961.0,,68227.0,,1933.0,,53073.0,,1522.0,,"Boston-Worcester-Providence, MA-RI-NH-CT-ME Combined NECTA",715
1322206.0,,720.0,,625684.0,,581.0,,6464.0,,531.0,,4844.0,,669.0,,8802.0,,851.0,,9720.0,,714.0,,7460.0,,663.0,,8865.0,,730.0,,9433.0,,721.0,,9513.0,,652.0,,169799.0,,2304.0,,28273.0,,1200.0,,71810.0,,1938.0,,34848.0,,1179.0,,141718.0,,2079.0,,74874.0,,1655.0,,24892.0,,891.0,,14369.0,,622.0,,696522.0,,583.0,,6896.0,,624.0,,4964.0,,551.0,,8522.0,,820.0,,10094.0,,858.0,,7727.0,,591.0,,9532.0,,668.0,,10343.0,,703.0,,9139.0,,617.0,,176948.0,,2275.0,,34638.0,,1264.0,,83116.0,,1963.0,,54248.0,,1429.0,,154436.0,,2244.0,,96727.0,,1775.0,,19291.0,,986.0,,9901.0,,712.0,,"Bridgeport-New Haven-Stamford, CT Combined NECTA",720
69357.0,,715.0,,33086.0,,559.0,,145.0,,69.0,,54.0,,43.0,,66.0,,50.0,,522.0,,180.0,,369.0,,99.0,,621.0,,196.0,,728.0,,155.0,,433.0,,111.0,,10525.0,,477.0,,1153.0,,200.0,,3654.0,,333.0,,2092.0,,279.0,,6209.0,,456.0,,3449.0,,355.0,,1366.0,,205.0,,1700.0,,233.0,,36271.0,,520.0,,122.0,,69.0,,16.0,,14.0,,49.0,,46.0,,350.0,,89.0,,231.0,,83.0,,458.0,,144.0,,551.0,,158.0,,316.0,,123.0,,9071.0,,477.0,,1890.0,,244.0,,3974.0,,365.0,,3180.0,,327.0,,8512.0,,490.0,,5119.0,,350.0,,1220.0,,242.0,,1212.0,,201.0,,"Claremont-Lebanon, NH-VT Combined NECTA",725
78001.0,,504.0,,36783.0,,302.0,,350.0,,93.0,,91.0,,63.0,,198.0,,126.0,,556.0,,133.0,,471.0,,157.0,,838.0,,169.0,,664.0,,150.0,,673.0,,201.0,,12246.0,,554.0,,2357.0,,289.0,,3932.0,,354.0,,3276.0,,366.0,,6479.0,,445.0,,2856.0,,317.0,,1088.0,,175.0,,708.0,,131.0,,41218.0,,379.0,,327.0,,128.0,,121.0,,71.0,,165.0,,68.0,,621.0,,165.0,,485.0,,157.0,,663.0,,176.0,,766.0,,153.0,,542.0,,153.0,,12235.0,,587.0,,3248.0,,334.0,,5056.0,,432.0,,4217.0,,342.0,,7509.0,,466.0,,4214.0,,371.0,,627.0,,145.0,,422.0,,79.0,,"Pittsfield-North Adams, MA-VT Combined NECTA",770
394845.0,,921.0,,189039.0,,719.0,,908.0,,166.0,,335.0,,121.0,,557.0,,140.0,,3092.0,,347.0,,1904.0,,278.0,,2719.0,,309.0,,2609.0,,389.0,,2338.0,,349.0,,58003.0,,1221.0,,11363.0,,689.0,,25401.0,,1010.0,,16918.0,,739.0,,40294.0,,1047.0,,13520.0,,685.0,,5856.0,,511.0,,3222.0,,321.0,,205806.0,,613.0,,1116.0,,175.0,,470.0,,153.0,,899.0,,211.0,,3055.0,,391.0,,2002.0,,320.0,,2091.0,,275.0,,1929.0,,300.0,,1592.0,,216.0,,57179.0,,1361.0,,11985.0,,707.0,,26412.0,,982.0,,21229.0,,939.0,,49167.0,,966.0,,20821.0,,931.0,,3668.0,,380.0,,2191.0,,290.0,,"Portland-Lewiston-South Portland, ME Combined NECTA",775
1328995.0,,1012.0,,630691.0,,818.0,,6884.0,,548.0,,4012.0,,477.0,,5947.0,,617.0,,10063.0,,638.0,,8308.0,,598.0,,12658.0,,644.0,,11720.0,,649.0,,10822.0,,683.0,,187557.0,,2814.0,,34382.0,,1254.0,,78064.0,,1829.0,,46288.0,,1428.0,,122988.0,,1806.0,,60859.0,,1474.0,,17867.0,,765.0,,12272.0,,669.0,,698304.0,,881.0,,7548.0,,573.0,,5210.0,,527.0,,6065.0,,542.0,,11325.0,,689.0,,9614.0,,707.0,,11029.0,,921.0,,10778.0,,668.0,,9175.0,,631.0,,185883.0,,2424.0,,40722.0,,1277.0,,85282.0,,2005.0,,69912.0,,1700.0,,137196.0,,2255.0,,85920.0,,2127.0,,13912.0,,701.0,,8733.0,,573.0,,"Springfield-Hartford-West Hartford, MA-CT Combined NECTA",790
