B23025_001E,B23025_001EA,B23025_001M,B23025_001MA,B23025_002E,B23025_002EA,B23025_002M,B23025_002MA,B23025_003E,B23025_003EA,B23025_003M,B23025_003MA,B23025_004E,B23025_004EA,B23025_004M,B23025_004MA,B23025_005E,B23025_005EA,B23025_005M,B23025_005MA,B23025_006E,B23025_006EA,B23025_006M,B23025_006MA,B23025_007E,B23025_007EA,B23025_007M,B23025_007MA,NAME,combined statistical area
963997.0,,644.0,,618739.0,,2820.0,,616567.0,,2910.0,,576630.0,,3080.0,,39937.0,,1327.0,,2172.0,,337.0,,345258.0,,2787.0,,"Albany-Schenectady, NY CSA",104
930358.0,,733.0,,561705.0,,3160.0,,558791.0,,3177.0,,515721.0,,3248.0,,43070.0,,1568.0,,2914.0,,357.0,,368653.0,,3123.0,,"Albuquerque-Santa Fe-Las Vegas, NM CSA",106
216638.0,,336.0,,140139.0,,1227.0,,139929.0,,1225.0,,134344.0,,1328.0,,5585.0,,617.0,,210.0,,94.0,,76499.0,,1228.0,,"Amarillo-Borger, TX CSA",108
319415.0,,365.0,,220225.0,,1253.0,,220126.0,,1248.0,,211642.0,,1235.0,,8484.0,,646.0,,99.0,,61.0,,99190.0,,1197.0,,"Appleton-Oshkosh-Neenah, WI CSA",118
394433.0,,533.0,,228525.0,,2031.0,,228294.0,,2041.0,,214986.0,,2036.0,,13308.0,,802.0,,231.0,,166.0,,165908.0,,2111.0,,"Asheville-Brevard, NC CSA",120
4854013.0,,1714.0,,3220087.0,,6509.0,,3215213.0,,6438.0,,2954337.0,,7027.0,,260876.0,,4046.0,,4874.0,,653.0,,1633926.0,,6663.0,,"Atlanta--Athens-Clarke County--Sandy Springs, GA CSA",122
155779.0,,399.0,,94207.0,,1447.0,,94174.0,,1452.0,,87120.0,,1501.0,,7054.0,,783.0,,33.0,,49.0,,61572.0,,1322.0,,"Bend-Redmond-Prineville, OR CSA",140
1078418.0,,870.0,,641803.0,,3109.0,,641060.0,,3118.0,,591873.0,,3344.0,,49187.0,,1625.0,,743.0,,174.0,,436615.0,,3249.0,,"Birmingham-Hoover-Talladega, AL CSA",142
176625.0,,232.0,,108090.0,,1691.0,,108011.0,,1702.0,,101059.0,,1630.0,,6952.0,,590.0,,79.0,,67.0,,68535.0,,1725.0,,"Bloomington-Bedford, IN CSA",144
182808.0,,248.0,,122161.0,,1293.0,,122032.0,,1298.0,,115879.0,,1247.0,,6153.0,,511.0,,129.0,,77.0,,60647.0,,1299.0,,"Bloomington-Pontiac, IL CSA",145
219162.0,,267.0,,125012.0,,1472.0,,124919.0,,1476.0,,117905.0,,1429.0,,7014.0,,476.0,,93.0,,51.0,,94150.0,,1500.0,,"Bloomsburg-Berwick-Sunbury, PA CSA",146
568405.0,,801.0,,362948.0,,2511.0,,359904.0,,2539.0,,336531.0,,2417.0,,23373.0,,1403.0,,3044.0,,418.0,,205457.0,,2506.0,,"Boise City-Mountain Home-Ontario, ID-OR CSA",147
6630812.0,,1563.0,,4500566.0,,7253.0,,4491668.0,,7262.0,,4196177.0,,8410.0,,295491.0,,3956.0,,8898.0,,625.0,,2130246.0,,7260.0,,"Boston-Worcester-Providence, MA-RI-NH-CT CSA",148
175416.0,,316.0,,106444.0,,1323.0,,106330.0,,1322.0,,98814.0,,1414.0,,7516.0,,583.0,,114.0,,82.0,,68972.0,,1415.0,,"Bowling Green-Glasgow, KY CSA",150
317729.0,,549.0,,172379.0,,2166.0,,172179.0,,2156.0,,155699.0,,2149.0,,16480.0,,1009.0,,200.0,,94.0,,145350.0,,2278.0,,"Brownsville-Harlingen-Raymondville, TX CSA",154
992438.0,,653.0,,619084.0,,3056.0,,618406.0,,3057.0,,578949.0,,3099.0,,39457.0,,1113.0,,678.0,,155.0,,373354.0,,3091.0,,"Buffalo-Cheektowaga, NY CSA",160
860290.0,,693.0,,454968.0,,3238.0,,454748.0,,3226.0,,419440.0,,3148.0,,35308.0,,1615.0,,220.0,,103.0,,405322.0,,3186.0,,"Cape Coral-Fort Myers-Naples, FL CSA",162
109065.0,,299.0,,66034.0,,966.0,,65901.0,,955.0,,61854.0,,1006.0,,4047.0,,441.0,,133.0,,120.0,,43031.0,,1004.0,,"Cape Girardeau-Sikeston, MO-IL CSA",164
341810.0,,396.0,,239550.0,,1673.0,,239421.0,,1679.0,,230172.0,,1869.0,,9249.0,,775.0,,129.0,,79.0,,102260.0,,1720.0,,"Cedar Rapids-Iowa City, IA CSA",168
565935.0,,579.0,,299303.0,,2493.0,,298957.0,,2480.0,,276870.0,,2663.0,,22087.0,,955.0,,346.0,,122.0,,266632.0,,2628.0,,"Charleston-Huntington-Ashland, WV-OH-KY CSA",170
1986958.0,,951.0,,1324870.0,,4547.0,,1323428.0,,4565.0,,1211803.0,,4915.0,,111625.0,,2659.0,,1442.0,,272.0,,662088.0,,4529.0,,"Charlotte-Concord, NC-SC CSA",172
756751.0,,649.0,,453950.0,,2895.0,,453166.0,,2933.0,,417632.0,,3105.0,,35534.0,,1472.0,,784.0,,230.0,,302801.0,,2849.0,,"Chattanooga-Cleveland-Dalton, TN-GA-AL CSA",174
7821968.0,,1940.0,,5231441.0,,7817.0,,5218528.0,,7763.0,,4776398.0,,8285.0,,442130.0,,4147.0,,12913.0,,914.0,,2590527.0,,8132.0,,"Chicago-Naperville, IL-IN-WI CSA",176
1733225.0,,1029.0,,1139067.0,,3559.0,,1138216.0,,3571.0,,1063142.0,,4198.0,,75074.0,,2328.0,,851.0,,283.0,,594158.0,,3762.0,,"Cincinnati-Wilmington-Maysville, OH-KY-IN CSA",178
2823804.0,,1066.0,,1796152.0,,4822.0,,1795267.0,,4834.0,,1653719.0,,5348.0,,141548.0,,2926.0,,885.0,,175.0,,1027652.0,,4992.0,,"Cleveland-Akron-Canton, OH CSA",184
47750.0,,156.0,,24224.0,,607.0,,24217.0,,606.0,,20169.0,,666.0,,4048.0,,392.0,,7.0,,9.0,,23526.0,,624.0,,"Cleveland-Indianola, MS CSA",185
53569.0,,178.0,,33289.0,,705.0,,30944.0,,719.0,,27993.0,,797.0,,2951.0,,407.0,,2345.0,,342.0,,20280.0,,693.0,,"Clovis-Portales, NM CSA",188
181685.0,,343.0,,118148.0,,1338.0,,117941.0,,1335.0,,111842.0,,1340.0,,6099.0,,598.0,,207.0,,113.0,,63537.0,,1367.0,,"Columbia-Moberly-Mexico, MO CSA",190
743302.0,,674.0,,473549.0,,2597.0,,461135.0,,2754.0,,422948.0,,2870.0,,38187.0,,1645.0,,12414.0,,843.0,,269753.0,,2488.0,,"Columbia-Orangeburg-Newberry, SC CSA",192
396225.0,,565.0,,243670.0,,2346.0,,228060.0,,2502.0,,208691.0,,2456.0,,19369.0,,1126.0,,15610.0,,965.0,,152555.0,,2478.0,,"Columbus-Auburn-Opelika, GA-AL CSA",194
1888636.0,,1119.0,,1245626.0,,4069.0,,1244481.0,,4096.0,,1167083.0,,4682.0,,77398.0,,2423.0,,1145.0,,220.0,,643010.0,,4046.0,,"Columbus-Marion-Zanesville, OH CSA",198
62739.0,,210.0,,37478.0,,885.0,,36406.0,,927.0,,32023.0,,913.0,,4383.0,,475.0,,1072.0,,247.0,,25261.0,,931.0,,"Columbus-West Point, MS CSA",200
404042.0,,500.0,,252565.0,,2119.0,,250532.0,,2131.0,,234546.0,,2081.0,,15986.0,,1035.0,,2033.0,,376.0,,151477.0,,2086.0,,"Corpus Christi-Kingsville-Alice, TX CSA",204
5635808.0,,1793.0,,3835362.0,,6842.0,,3831215.0,,6927.0,,3600173.0,,8076.0,,231042.0,,3431.0,,4147.0,,513.0,,1800446.0,,6883.0,,"Dallas-Fort Worth, TX-OK CSA",206
375572.0,,460.0,,241053.0,,1642.0,,240629.0,,1642.0,,226739.0,,1723.0,,13890.0,,624.0,,424.0,,123.0,,134519.0,,1693.0,,"Davenport-Moline, IA-IL CSA",209
862065.0,,684.0,,538219.0,,2494.0,,533830.0,,2646.0,,491873.0,,2779.0,,41957.0,,1345.0,,4389.0,,406.0,,323846.0,,2579.0,,"Dayton-Springfield-Sidney, OH CSA",212
2634794.0,,1131.0,,1854636.0,,3749.0,,1851288.0,,3691.0,,1750476.0,,4298.0,,100812.0,,1941.0,,3348.0,,387.0,,780158.0,,3888.0,,"Denver-Aurora, CO CSA",216
67911.0,,131.0,,40033.0,,750.0,,34775.0,,819.0,,32101.0,,793.0,,2674.0,,304.0,,5258.0,,431.0,,27878.0,,767.0,,"DeRidder-Fort Polk South, LA CSA",217
602347.0,,655.0,,429028.0,,2057.0,,428326.0,,2021.0,,407727.0,,2048.0,,20599.0,,1158.0,,702.0,,210.0,,173319.0,,2155.0,,"Des Moines-Ames-West Des Moines, IA CSA",218
4255862.0,,1265.0,,2637416.0,,6504.0,,2635930.0,,6513.0,,2395882.0,,6531.0,,240048.0,,3450.0,,1486.0,,253.0,,1618446.0,,6541.0,,"Detroit-Warren-Ann Arbor, MI CSA",220
74186.0,,157.0,,44983.0,,645.0,,44919.0,,646.0,,41939.0,,660.0,,2980.0,,331.0,,64.0,,41.0,,29203.0,,638.0,,"Dixon-Sterling, IL CSA",221
197260.0,,292.0,,113939.0,,1094.0,,110067.0,,1158.0,,100918.0,,1103.0,,9149.0,,482.0,,3872.0,,421.0,,83321.0,,1092.0,,"Dothan-Enterprise-Ozark, AL CSA",222
170379.0,,236.0,,114899.0,,1001.0,,114795.0,,994.0,,109298.0,,1093.0,,5497.0,,552.0,,104.0,,64.0,,55480.0,,930.0,,"Eau Claire-Menomonie, WI CSA",232
101266.0,,288.0,,77077.0,,787.0,,77006.0,,795.0,,73376.0,,841.0,,3630.0,,472.0,,71.0,,67.0,,24189.0,,826.0,,"Edwards-Glenwood Springs, CO CSA",233
149541.0,,237.0,,87145.0,,1007.0,,87072.0,,1012.0,,81285.0,,1039.0,,5787.0,,488.0,,73.0,,46.0,,62396.0,,1027.0,,"Elmira-Corning, NY CSA",236
791887.0,,782.0,,483545.0,,2861.0,,463798.0,,3055.0,,424669.0,,3314.0,,39129.0,,1480.0,,19747.0,,1053.0,,308342.0,,2907.0,,"El Paso-Las Cruces, TX-NM CSA",238
295297.0,,306.0,,178627.0,,1617.0,,178484.0,,1618.0,,165981.0,,1702.0,,12503.0,,693.0,,143.0,,70.0,,116670.0,,1684.0,,"Erie-Meadville, PA CSA",240
200250.0,,441.0,,147216.0,,1307.0,,146852.0,,1334.0,,142524.0,,1392.0,,4328.0,,447.0,,364.0,,152.0,,53034.0,,1225.0,,"Fargo-Wahpeton, ND-MN CSA",244
420865.0,,404.0,,251729.0,,1702.0,,223456.0,,1986.0,,197983.0,,1971.0,,25473.0,,1169.0,,28273.0,,1136.0,,169136.0,,1751.0,,"Fayetteville-Lumberton-Laurinburg, NC CSA",246
105284.0,,231.0,,67454.0,,821.0,,67403.0,,822.0,,63344.0,,909.0,,4059.0,,482.0,,51.0,,58.0,,37830.0,,834.0,,"Findlay-Tiffin, OH CSA",248
480485.0,,561.0,,316390.0,,1786.0,,316083.0,,1811.0,,295673.0,,1865.0,,20410.0,,1026.0,,307.0,,132.0,,164095.0,,1814.0,,"Fort Wayne-Huntington-Auburn, IN CSA",258
829780.0,,701.0,,492112.0,,2779.0,,491459.0,,2814.0,,435109.0,,3059.0,,56350.0,,1919.0,,653.0,,192.0,,337668.0,,2957.0,,"Fresno-Madera, CA CSA",260
284602.0,,398.0,,162129.0,,1860.0,,161977.0,,1854.0,,149069.0,,1871.0,,12908.0,,966.0,,152.0,,84.0,,122473.0,,1895.0,,"Gainesville-Lake City, FL CSA",264
1113604.0,,631.0,,723430.0,,2875.0,,722977.0,,2915.0,,674347.0,,3140.0,,48630.0,,1519.0,,453.0,,150.0,,390174.0,,2958.0,,"Grand Rapids-Wyoming-Muskegon, MI CSA",266
284837.0,,329.0,,193497.0,,1143.0,,193435.0,,1141.0,,183335.0,,1248.0,,10100.0,,703.0,,62.0,,48.0,,91340.0,,1167.0,,"Green Bay-Shawano, WI CSA",267
1301473.0,,971.0,,800223.0,,3465.0,,799211.0,,3509.0,,736167.0,,3558.0,,63044.0,,2032.0,,1012.0,,234.0,,501250.0,,3584.0,,"Greensboro--Winston-Salem--High Point, NC CSA",268
1124216.0,,850.0,,674509.0,,3616.0,,673757.0,,3640.0,,622101.0,,3897.0,,51656.0,,1709.0,,752.0,,173.0,,449707.0,,3838.0,,"Greenville-Spartanburg-Anderson, SC CSA",273
179441.0,,326.0,,113393.0,,1330.0,,113094.0,,1317.0,,100426.0,,1670.0,,12668.0,,1064.0,,299.0,,170.0,,66048.0,,1370.0,,"Greenville-Washington, NC CSA",274
999696.0,,616.0,,654244.0,,2855.0,,652937.0,,2826.0,,614256.0,,2992.0,,38681.0,,1373.0,,1307.0,,220.0,,345452.0,,2906.0,,"Harrisburg-York-Lebanon, PA CSA",276
205814.0,,315.0,,125787.0,,1528.0,,125494.0,,1559.0,,118936.0,,1512.0,,6558.0,,563.0,,293.0,,126.0,,80027.0,,1433.0,,"Harrisonburg-Staunton-Waynesboro, VA CSA",277
1213067.0,,777.0,,814796.0,,3052.0,,807370.0,,3044.0,,746125.0,,3140.0,,61245.0,,1660.0,,7426.0,,427.0,,398271.0,,2853.0,,"Hartford-West Hartford, CT CSA",278
330972.0,,490.0,,193435.0,,1776.0,,193298.0,,1788.0,,175446.0,,1829.0,,17852.0,,1110.0,,137.0,,74.0,,137537.0,,1781.0,,"Hickory-Lenoir, NC CSA",280
106397.0,,323.0,,58451.0,,1157.0,,58451.0,,1157.0,,53456.0,,1183.0,,4995.0,,523.0,,0.0,,27.0,,47946.0,,1158.0,,"Hot Springs-Malvern, AR CSA",284
5077171.0,,2099.0,,3378973.0,,8508.0,,3376413.0,,8515.0,,3152923.0,,8820.0,,223490.0,,4031.0,,2560.0,,538.0,,1698198.0,,8564.0,,"Houston-The Woodlands, TX CSA",288
603599.0,,633.0,,364096.0,,2491.0,,362919.0,,2522.0,,335390.0,,2447.0,,27529.0,,1380.0,,1177.0,,249.0,,239503.0,,2636.0,,"Huntsville-Decatur-Albertville, AL CSA",290
169843.0,,292.0,,107516.0,,1161.0,,107386.0,,1163.0,,100998.0,,1158.0,,6388.0,,625.0,,130.0,,69.0,,62327.0,,1170.0,,"Idaho Falls-Rexburg-Blackfoot, ID CSA",292
1831846.0,,1233.0,,1218282.0,,4415.0,,1216869.0,,4465.0,,1132179.0,,4612.0,,84690.0,,2242.0,,1413.0,,288.0,,613564.0,,4558.0,,"Indianapolis-Carmel-Muncie, IN CSA",294
130543.0,,229.0,,78115.0,,1132.0,,78076.0,,1129.0,,73937.0,,1138.0,,4139.0,,380.0,,39.0,,35.0,,52428.0,,1142.0,,"Ithaca-Cortland, NY CSA",296
117870.0,,216.0,,68814.0,,1148.0,,68776.0,,1149.0,,63522.0,,1075.0,,5254.0,,507.0,,38.0,,28.0,,49056.0,,1170.0,,"Jackson-Brownsville, TN CSA",297
522006.0,,691.0,,316367.0,,2623.0,,315776.0,,2626.0,,288791.0,,2653.0,,26985.0,,1344.0,,591.0,,195.0,,205639.0,,2699.0,,"Jackson-Vicksburg-Brookhaven, MS CSA",298
1233519.0,,954.0,,777892.0,,4076.0,,759837.0,,4467.0,,696543.0,,4316.0,,63294.0,,2177.0,,18055.0,,1507.0,,455627.0,,4186.0,,"Jacksonville-St. Marys-Palatka, FL-GA CSA",300
419445.0,,469.0,,233699.0,,1749.0,,233506.0,,1774.0,,216584.0,,1822.0,,16922.0,,939.0,,193.0,,108.0,,185746.0,,1713.0,,"Johnson City-Kingsport-Bristol, TN-VA CSA",304
178152.0,,190.0,,98164.0,,833.0,,98050.0,,841.0,,90488.0,,878.0,,7562.0,,425.0,,114.0,,72.0,,79988.0,,833.0,,"Johnstown-Somerset, PA CSA",306
133361.0,,321.0,,80058.0,,1051.0,,80000.0,,1054.0,,74520.0,,1173.0,,5480.0,,596.0,,58.0,,51.0,,53303.0,,1067.0,,"Jonesboro-Paragould, AR CSA",308
162148.0,,283.0,,101566.0,,1047.0,,101475.0,,1052.0,,95118.0,,1125.0,,6357.0,,547.0,,91.0,,60.0,,60582.0,,1038.0,,"Joplin-Miami, MO-OK CSA",309
421709.0,,391.0,,264251.0,,1796.0,,263937.0,,1796.0,,244035.0,,1943.0,,19902.0,,900.0,,314.0,,137.0,,157458.0,,1860.0,,"Kalamazoo-Battle Creek-Portage, MI CSA",310
1886606.0,,857.0,,1276091.0,,3607.0,,1269701.0,,3639.0,,1197134.0,,4074.0,,72567.0,,1887.0,,6390.0,,530.0,,610515.0,,3649.0,,"Kansas City-Overland Park-Kansas City, MO-KS CSA",312
897515.0,,762.0,,531538.0,,2709.0,,530995.0,,2746.0,,493687.0,,2857.0,,37308.0,,1324.0,,543.0,,178.0,,365977.0,,2788.0,,"Knoxville-Morristown-Sevierville, TN CSA",314
95246.0,,212.0,,55567.0,,693.0,,55458.0,,698.0,,51024.0,,709.0,,4434.0,,386.0,,109.0,,61.0,,39679.0,,745.0,,"Kokomo-Peru, IN CSA",316
481056.0,,584.0,,297393.0,,2338.0,,297065.0,,2328.0,,275687.0,,2383.0,,21378.0,,1161.0,,328.0,,130.0,,183663.0,,2300.0,,"Lafayette-Opelousas-Morgan City, LA CSA",318
197095.0,,279.0,,125440.0,,1466.0,,125303.0,,1471.0,,117586.0,,1529.0,,7717.0,,675.0,,137.0,,76.0,,71655.0,,1435.0,,"Lafayette-West Lafayette-Frankfort, IN CSA",320
183483.0,,329.0,,112638.0,,1260.0,,112457.0,,1251.0,,104102.0,,1491.0,,8355.0,,775.0,,181.0,,114.0,,70845.0,,1295.0,,"Lake Charles-Jennings, LA CSA",324
438842.0,,322.0,,276552.0,,1678.0,,276313.0,,1671.0,,254397.0,,1815.0,,21916.0,,938.0,,239.0,,91.0,,162290.0,,1646.0,,"Lansing-East Lansing-Owosso, MI CSA",330
1837330.0,,1047.0,,1152349.0,,4262.0,,1145816.0,,4180.0,,1033277.0,,4610.0,,112539.0,,2362.0,,6533.0,,622.0,,684981.0,,4313.0,,"Las Vegas-Henderson, NV-AZ CSA",332
574827.0,,543.0,,371763.0,,2055.0,,371230.0,,2060.0,,345461.0,,2346.0,,25769.0,,1185.0,,533.0,,182.0,,203064.0,,2035.0,,"Lexington-Fayette--Richmond--Frankfort, KY CSA",336
173517.0,,245.0,,112156.0,,916.0,,112124.0,,916.0,,105362.0,,948.0,,6762.0,,581.0,,32.0,,28.0,,61361.0,,899.0,,"Lima-Van Wert-Celina, OH CSA",338
270185.0,,315.0,,192250.0,,1252.0,,191764.0,,1243.0,,183546.0,,1231.0,,8218.0,,564.0,,486.0,,144.0,,77935.0,,1196.0,,"Lincoln-Beatrice, NE CSA",339
710077.0,,690.0,,434726.0,,2600.0,,431007.0,,2599.0,,403532.0,,2827.0,,27475.0,,1288.0,,3719.0,,405.0,,275351.0,,2716.0,,"Little Rock-North Little Rock, AR CSA",340
220101.0,,306.0,,128624.0,,1411.0,,128543.0,,1403.0,,119996.0,,1455.0,,8547.0,,671.0,,81.0,,63.0,,91477.0,,1459.0,,"Longview-Marshall, TX CSA",346
14577202.0,,2255.0,,9292335.0,,12397.0,,9268741.0,,12407.0,,8438987.0,,12024.0,,829754.0,,7615.0,,23594.0,,1157.0,,5284867.0,,12403.0,,"Los Angeles-Long Beach, CA CSA",348
1188756.0,,872.0,,771116.0,,2942.0,,765479.0,,2910.0,,712144.0,,3484.0,,53335.0,,1724.0,,5637.0,,438.0,,417640.0,,2934.0,,"Louisville/Jefferson County--Elizabethtown--Madison, KY-IN CSA",350
257740.0,,358.0,,167430.0,,1751.0,,167149.0,,1745.0,,157716.0,,1740.0,,9433.0,,754.0,,281.0,,117.0,,90310.0,,1817.0,,"Lubbock-Levelland, TX CSA",352
327427.0,,681.0,,191672.0,,2139.0,,189294.0,,2185.0,,170882.0,,2269.0,,18412.0,,1164.0,,2378.0,,414.0,,135755.0,,2131.0,,"Macon-Bibb County--Warner Robins, GA CSA",356
690310.0,,463.0,,488116.0,,2074.0,,487769.0,,2054.0,,464081.0,,2170.0,,23688.0,,1197.0,,347.0,,89.0,,202194.0,,2101.0,,"Madison-Janesville-Beloit, WI CSA",357
106110.0,,255.0,,73775.0,,920.0,,62389.0,,1105.0,,58482.0,,1099.0,,3907.0,,374.0,,11386.0,,674.0,,32335.0,,930.0,,"Manhattan-Junction City, KS CSA",358
101065.0,,150.0,,71606.0,,707.0,,71566.0,,714.0,,68651.0,,665.0,,2915.0,,336.0,,40.0,,27.0,,29459.0,,676.0,,"Mankato-New Ulm-North Mankato, MN CSA",359
174950.0,,296.0,,100537.0,,1243.0,,100305.0,,1248.0,,92794.0,,1373.0,,7511.0,,714.0,,232.0,,123.0,,74413.0,,1279.0,,"Mansfield-Ashland-Bucyrus, OH CSA",360
58135.0,,154.0,,32257.0,,592.0,,32231.0,,594.0,,28884.0,,686.0,,3347.0,,395.0,,26.0,,17.0,,25878.0,,624.0,,"Martin-Union City, TN-KY CSA",362
190088.0,,351.0,,70656.0,,1552.0,,70620.0,,1547.0,,57875.0,,1699.0,,12745.0,,794.0,,36.0,,44.0,,119432.0,,1613.0,,"Mayaguez-San German, PR CSA",364
623278.0,,793.0,,358241.0,,3200.0,,358040.0,,3217.0,,324439.0,,3090.0,,33601.0,,1740.0,,201.0,,136.0,,265037.0,,3383.0,,"McAllen-Edinburg, TX CSA",365
241932.0,,359.0,,132033.0,,1614.0,,131984.0,,1624.0,,119661.0,,1651.0,,12323.0,,851.0,,49.0,,46.0,,109899.0,,1636.0,,"Medford-Grants Pass, OR CSA",366
1059960.0,,859.0,,681146.0,,3776.0,,679291.0,,3750.0,,618155.0,,3737.0,,61136.0,,2011.0,,1855.0,,336.0,,378814.0,,4046.0,,"Memphis-Forrest City, TN-MS-AR CSA",368
5368674.0,,1705.0,,3317864.0,,7593.0,,3314656.0,,7608.0,,3028931.0,,7846.0,,285725.0,,4272.0,,3208.0,,387.0,,2050810.0,,7794.0,,"Miami-Fort Lauderdale-Port St. Lucie, FL CSA",370
232017.0,,434.0,,160875.0,,1445.0,,160725.0,,1452.0,,152764.0,,1410.0,,7961.0,,717.0,,150.0,,86.0,,71142.0,,1497.0,,"Midland-Odessa, TX CSA",372
1618445.0,,751.0,,1081742.0,,3767.0,,1081274.0,,3744.0,,1013205.0,,3902.0,,68069.0,,1668.0,,468.0,,137.0,,536703.0,,3788.0,,"Milwaukee-Racine-Waukesha, WI CSA",376
3010273.0,,1158.0,,2166725.0,,4174.0,,2165218.0,,4201.0,,2059161.0,,4609.0,,106057.0,,2123.0,,1507.0,,259.0,,843548.0,,4201.0,,"Minneapolis-St. Paul, MN-WI CSA",378
486429.0,,618.0,,282749.0,,2693.0,,281731.0,,2718.0,,259486.0,,2743.0,,22245.0,,1218.0,,1018.0,,277.0,,203680.0,,2680.0,,"Mobile-Daphne-Fairhope, AL CSA",380
595636.0,,789.0,,362073.0,,2160.0,,361746.0,,2197.0,,309690.0,,2541.0,,52056.0,,1736.0,,327.0,,168.0,,233563.0,,2445.0,,"Modesto-Merced, CA CSA",382
198339.0,,311.0,,112607.0,,1651.0,,112515.0,,1647.0,,103172.0,,1786.0,,9343.0,,795.0,,92.0,,67.0,,85732.0,,1592.0,,"Monroe-Ruston-Bastrop, LA CSA",384
162510.0,,233.0,,94059.0,,1247.0,,94017.0,,1245.0,,88098.0,,1286.0,,5919.0,,612.0,,42.0,,27.0,,68451.0,,1241.0,,"Morgantown-Fairmont, WV CSA",390
80724.0,,292.0,,50391.0,,890.0,,50302.0,,915.0,,45991.0,,977.0,,4311.0,,632.0,,89.0,,109.0,,30333.0,,953.0,,"Moses Lake-Othello, WA CSA",393
93933.0,,119.0,,54507.0,,824.0,,54441.0,,819.0,,49368.0,,777.0,,5073.0,,451.0,,66.0,,94.0,,39426.0,,833.0,,"Mount Pleasant-Alma, MI CSA",394
400002.0,,404.0,,223697.0,,1945.0,,223315.0,,1985.0,,204197.0,,2269.0,,19118.0,,1212.0,,382.0,,177.0,,176305.0,,1993.0,,"Myrtle Beach-Conway, SC-NC CSA",396
1506266.0,,941.0,,1009689.0,,3634.0,,1008258.0,,3632.0,,947961.0,,3988.0,,60297.0,,1967.0,,1431.0,,288.0,,496577.0,,3624.0,,"Nashville-Davidson--Murfreesboro, TN CSA",400
159796.0,,345.0,,95098.0,,1128.0,,87786.0,,1291.0,,79304.0,,1224.0,,8482.0,,687.0,,7312.0,,576.0,,64698.0,,1083.0,,"New Bern-Morehead City, NC CSA",404
1177783.0,,810.0,,732238.0,,3658.0,,729376.0,,3645.0,,668964.0,,3841.0,,60412.0,,1922.0,,2862.0,,342.0,,445545.0,,3782.0,,"New Orleans-Metairie-Hammond, LA-MS CSA",406
18984003.0,,2804.0,,12329438.0,,15231.0,,12318180.0,,15136.0,,11361571.0,,16746.0,,956609.0,,7824.0,,11258.0,,716.0,,6654565.0,,15453.0,,"New York-Newark, NY-NJ-CT-PA CSA",408
817445.0,,624.0,,404033.0,,2921.0,,403771.0,,2932.0,,372346.0,,3052.0,,31425.0,,1509.0,,262.0,,120.0,,413412.0,,2889.0,,"North Port-Sarasota, FL CSA",412
1094058.0,,559.0,,708657.0,,2898.0,,702780.0,,2893.0,,665385.0,,2847.0,,37395.0,,1316.0,,5877.0,,547.0,,385401.0,,2876.0,,"Oklahoma City-Shawnee, OK CSA",416
724360.0,,632.0,,512540.0,,2220.0,,508278.0,,2259.0,,485596.0,,2394.0,,22682.0,,949.0,,4262.0,,347.0,,211820.0,,2347.0,,"Omaha-Council Bluffs-Fremont, NE-IA CSA",420
2487755.0,,1511.0,,1486768.0,,6643.0,,1485176.0,,6608.0,,1365677.0,,6722.0,,119499.0,,3518.0,,1592.0,,354.0,,1000987.0,,7131.0,,"Orlando-Deltona-Daytona Beach, FL CSA",422
43652.0,,156.0,,29607.0,,455.0,,29603.0,,454.0,,28174.0,,477.0,,1429.0,,255.0,,4.0,,5.0,,14045.0,,477.0,,"Oskaloosa-Pella, IA CSA",423
108270.0,,287.0,,61506.0,,1038.0,,61414.0,,1039.0,,57548.0,,1040.0,,3866.0,,509.0,,92.0,,64.0,,46764.0,,973.0,,"Paducah-Mayfield, KY-IL CSA",424
125181.0,,215.0,,70397.0,,982.0,,70307.0,,980.0,,65825.0,,980.0,,4482.0,,484.0,,90.0,,50.0,,54784.0,,976.0,,"Parkersburg-Marietta-Vienna, WV-OH CSA",425
413403.0,,498.0,,245362.0,,2355.0,,231227.0,,2519.0,,211955.0,,2327.0,,19272.0,,1452.0,,14135.0,,879.0,,168041.0,,2363.0,,"Pensacola-Ferry Pass, FL-AL CSA",426
329302.0,,379.0,,207227.0,,1443.0,,206934.0,,1446.0,,192899.0,,1583.0,,14035.0,,728.0,,293.0,,122.0,,122075.0,,1516.0,,"Peoria-Canton, IL CSA",427
5744229.0,,1722.0,,3725506.0,,7413.0,,3715508.0,,7224.0,,3402501.0,,8489.0,,313007.0,,4706.0,,9998.0,,586.0,,2018723.0,,7564.0,,"Philadelphia-Reading-Camden, PA-NJ-DE-MD CSA",428
2201079.0,,833.0,,1364597.0,,3961.0,,1363726.0,,3962.0,,1277901.0,,4086.0,,85825.0,,1869.0,,871.0,,177.0,,836482.0,,4005.0,,"Pittsburgh-New Castle-Weirton, PA-OH-WV CSA",430
324633.0,,349.0,,134249.0,,1699.0,,134091.0,,1701.0,,107829.0,,1704.0,,26262.0,,1188.0,,158.0,,93.0,,190384.0,,1716.0,,"Ponce-Coamo-Santa Isabel, PR CSA",434
519041.0,,498.0,,348849.0,,2248.0,,347879.0,,2270.0,,330564.0,,2334.0,,17315.0,,1008.0,,970.0,,234.0,,170192.0,,2197.0,,"Portland-Lewiston-South Portland, ME CSA",438
2448716.0,,1094.0,,1588675.0,,4457.0,,1587098.0,,4486.0,,1465612.0,,4875.0,,121486.0,,2555.0,,1577.0,,290.0,,860041.0,,4628.0,,"Portland-Vancouver-Salem, OR-WA CSA",440
168605.0,,285.0,,88739.0,,1319.0,,88484.0,,1332.0,,80193.0,,1428.0,,8291.0,,637.0,,255.0,,118.0,,79866.0,,1376.0,,"Pueblo-Ca?on City, CO CSA",444
73425.0,,167.0,,44500.0,,794.0,,44431.0,,795.0,,40707.0,,819.0,,3724.0,,475.0,,69.0,,52.0,,28925.0,,792.0,,"Pullman-Moscow, WA-ID CSA",446
92662.0,,215.0,,58923.0,,698.0,,58892.0,,703.0,,55270.0,,679.0,,3622.0,,410.0,,31.0,,41.0,,33739.0,,674.0,,"Quincy-Hannibal, IL-MO CSA",448
1628057.0,,1057.0,,1089687.0,,4071.0,,1083001.0,,4093.0,,1011221.0,,4529.0,,71780.0,,1990.0,,6686.0,,494.0,,538370.0,,4188.0,,"Raleigh-Durham-Chapel Hill, NC CSA",450
133205.0,,264.0,,89638.0,,1097.0,,87655.0,,1149.0,,84121.0,,1252.0,,3534.0,,450.0,,1983.0,,249.0,,43567.0,,1109.0,,"Rapid City-Spearfish, SD CSA",452
194685.0,,295.0,,104089.0,,1351.0,,104038.0,,1350.0,,93970.0,,1673.0,,10068.0,,897.0,,51.0,,42.0,,90596.0,,1343.0,,"Redding-Red Bluff, CA CSA",454
482111.0,,548.0,,305164.0,,2108.0,,304467.0,,2136.0,,279019.0,,2524.0,,25448.0,,1135.0,,697.0,,166.0,,176947.0,,2149.0,,"Reno-Carson City-Fernley, NV CSA",456
73147.0,,159.0,,41421.0,,688.0,,41395.0,,684.0,,38179.0,,647.0,,3216.0,,361.0,,26.0,,31.0,,31726.0,,680.0,,"Richmond-Connersville, IN CSA",458
196237.0,,252.0,,138082.0,,872.0,,138004.0,,873.0,,132188.0,,850.0,,5816.0,,523.0,,78.0,,69.0,,58155.0,,883.0,,"Rochester-Austin, MN CSA",462
956971.0,,626.0,,608049.0,,2729.0,,607756.0,,2727.0,,566122.0,,2550.0,,41634.0,,1176.0,,293.0,,95.0,,348922.0,,2717.0,,"Rochester-Batavia-Seneca Falls, NY CSA",464
347597.0,,396.0,,224876.0,,1576.0,,224798.0,,1572.0,,203219.0,,1769.0,,21579.0,,998.0,,78.0,,56.0,,122721.0,,1622.0,,"Rockford-Freeport-Rochelle, IL CSA",466
243142.0,,363.0,,139483.0,,1382.0,,139277.0,,1356.0,,125024.0,,1499.0,,14253.0,,898.0,,206.0,,122.0,,103659.0,,1444.0,,"Rocky Mount-Wilson-Roanoke Rapids, NC CSA",468
96141.0,,240.0,,54571.0,,1081.0,,54524.0,,1083.0,,49384.0,,1032.0,,5140.0,,504.0,,47.0,,46.0,,41570.0,,1120.0,,"Rome-Summerville, GA CSA",470
1986382.0,,1033.0,,1216427.0,,4007.0,,1211278.0,,3961.0,,1095434.0,,3954.0,,115844.0,,2425.0,,5149.0,,561.0,,769955.0,,3882.0,,"Sacramento-Roseville, CA CSA",472
311315.0,,376.0,,181817.0,,1333.0,,181752.0,,1338.0,,165896.0,,1440.0,,15856.0,,813.0,,65.0,,41.0,,129498.0,,1323.0,,"Saginaw-Midland-Bay City, MI CSA",474
2323170.0,,1047.0,,1517533.0,,4776.0,,1513346.0,,4797.0,,1405500.0,,5332.0,,107846.0,,2223.0,,4187.0,,556.0,,805637.0,,4863.0,,"St. Louis-St. Charles-Farmington, MO-IL CSA",476
1754659.0,,980.0,,1219484.0,,3655.0,,1215554.0,,3662.0,,1156238.0,,3913.0,,59316.0,,1601.0,,3930.0,,410.0,,535175.0,,3757.0,,"Salt Lake City-Provo-Orem, UT CSA",482
6908149.0,,1416.0,,4567612.0,,7237.0,,4558073.0,,7226.0,,4227617.0,,8338.0,,330456.0,,4700.0,,9539.0,,841.0,,2340537.0,,7333.0,,"San Jose-San Francisco-Oakland, CA CSA",488
2054624.0,,1138.0,,961090.0,,4554.0,,960230.0,,4596.0,,799112.0,,4900.0,,161118.0,,3376.0,,860.0,,208.0,,1093534.0,,4588.0,,"San Juan-Carolina, PR CSA",490
414046.0,,553.0,,266740.0,,1991.0,,255687.0,,2135.0,,231301.0,,2511.0,,24386.0,,1192.0,,11053.0,,731.0,,147306.0,,2145.0,,"Savannah-Hinesville-Statesboro, GA CSA",496
3648715.0,,1266.0,,2423576.0,,5203.0,,2380546.0,,5079.0,,2227037.0,,5379.0,,153509.0,,2615.0,,43030.0,,1140.0,,1225139.0,,5354.0,,"Seattle-Tacoma, WA CSA",500
141462.0,,299.0,,98026.0,,944.0,,97912.0,,938.0,,93146.0,,962.0,,4766.0,,504.0,,114.0,,66.0,,43436.0,,933.0,,"Sioux City-Vermillion, IA-SD-NE CSA",512
564459.0,,567.0,,356751.0,,2274.0,,356538.0,,2295.0,,330132.0,,2378.0,,26406.0,,990.0,,213.0,,100.0,,207708.0,,2353.0,,"South Bend-Elkhart-Mishawaka, IN-MI CSA",515
551312.0,,595.0,,328574.0,,2376.0,,325906.0,,2305.0,,302020.0,,2488.0,,23886.0,,1351.0,,2668.0,,375.0,,222738.0,,2369.0,,"Spokane-Spokane Valley-Coeur d'Alene, WA-ID CSA",518
430548.0,,467.0,,262147.0,,2218.0,,261884.0,,2214.0,,244971.0,,2300.0,,16913.0,,871.0,,263.0,,107.0,,168401.0,,2185.0,,"Springfield-Branson, MO CSA",520
574878.0,,536.0,,365723.0,,2574.0,,365171.0,,2566.0,,335482.0,,2614.0,,29689.0,,1371.0,,552.0,,185.0,,209155.0,,2548.0,,"Springfield-Greenfield Town, MA CSA",521
253652.0,,323.0,,158577.0,,1473.0,,158315.0,,1462.0,,146952.0,,1529.0,,11363.0,,707.0,,262.0,,108.0,,95075.0,,1545.0,,"Springfield-Jacksonville-Lincoln, IL CSA",522
205593.0,,201.0,,116281.0,,1370.0,,116203.0,,1377.0,,109368.0,,1435.0,,6835.0,,598.0,,78.0,,58.0,,89312.0,,1380.0,,"State College-DuBois, PA CSA",524
30091.0,,114.0,,21545.0,,419.0,,21545.0,,419.0,,20632.0,,411.0,,913.0,,209.0,,0.0,,24.0,,8546.0,,436.0,,"Steamboat Springs-Craig, CO CSA",525
599661.0,,541.0,,372173.0,,2261.0,,371576.0,,2287.0,,345531.0,,2395.0,,26045.0,,852.0,,597.0,,167.0,,227488.0,,2320.0,,"Syracuse-Auburn, NY CSA",532
332984.0,,370.0,,205669.0,,2129.0,,205359.0,,2138.0,,186411.0,,2299.0,,18948.0,,1035.0,,310.0,,140.0,,127315.0,,2133.0,,"Tallahassee-Bainbridge, FL-GA CSA",533
518272.0,,445.0,,330975.0,,1985.0,,330585.0,,1991.0,,302935.0,,2122.0,,27650.0,,991.0,,390.0,,158.0,,187297.0,,1971.0,,"Toledo-Port Clinton, OH CSA",534
843937.0,,588.0,,495980.0,,2745.0,,490918.0,,2842.0,,445581.0,,3052.0,,45337.0,,1719.0,,5062.0,,542.0,,347957.0,,2853.0,,"Tucson-Nogales, AZ CSA",536
887522.0,,482.0,,559780.0,,1950.0,,559326.0,,1954.0,,524329.0,,1995.0,,34997.0,,948.0,,454.0,,124.0,,327742.0,,1973.0,,"Tulsa-Muskogee-Bartlesville, OK CSA",538
210371.0,,429.0,,125367.0,,1593.0,,125172.0,,1606.0,,116997.0,,1577.0,,8175.0,,725.0,,195.0,,119.0,,85004.0,,1573.0,,"Tyler-Jacksonville, TX CSA",540
93061.0,,334.0,,59229.0,,1033.0,,59164.0,,1034.0,,55701.0,,1098.0,,3463.0,,449.0,,65.0,,42.0,,33832.0,,1090.0,,"Victoria-Port Lavaca, TX CSA",544
1453906.0,,856.0,,970487.0,,3325.0,,894802.0,,3920.0,,829436.0,,3946.0,,65366.0,,1863.0,,75685.0,,2112.0,,483419.0,,3473.0,,"Virginia Beach-Norfolk, VA-NC CSA",545
440573.0,,540.0,,254853.0,,2414.0,,250339.0,,2554.0,,223195.0,,2822.0,,27144.0,,1214.0,,4514.0,,547.0,,185720.0,,2456.0,,"Visalia-Porterville-Hanford, CA CSA",546
7572101.0,,2090.0,,5295351.0,,7935.0,,5235422.0,,7990.0,,4910947.0,,8351.0,,324475.0,,4619.0,,59929.0,,1844.0,,2276750.0,,8541.0,,"Washington-Baltimore-Arlington, DC-MD-VA-WV-PA CSA",548
248521.0,,259.0,,167012.0,,945.0,,166955.0,,947.0,,158063.0,,1015.0,,8892.0,,577.0,,57.0,,26.0,,81509.0,,970.0,,"Wausau-Stevens Point-Wisconsin Rapids, WI CSA",554
519237.0,,575.0,,341932.0,,1845.0,,339614.0,,1858.0,,319910.0,,2293.0,,19704.0,,1037.0,,2318.0,,355.0,,177305.0,,1881.0,,"Wichita-Arkansas City-Winfield, KS CSA",556
127478.0,,167.0,,77121.0,,849.0,,77086.0,,854.0,,71585.0,,946.0,,5501.0,,492.0,,35.0,,24.0,,50357.0,,847.0,,"Williamsport-Lock Haven, PA CSA",558
538513.0,,477.0,,312521.0,,1661.0,,312294.0,,1675.0,,288108.0,,1748.0,,24186.0,,1032.0,,227.0,,103.0,,225992.0,,1662.0,,"Youngstown-Warren, OH-PA CSA",566
