B15002_001E,B15002_001EA,B15002_001M,B15002_001MA,B15002_002E,B15002_002EA,B15002_002M,B15002_002MA,B15002_003E,B15002_003EA,B15002_003M,B15002_003MA,B15002_004E,B15002_004EA,B15002_004M,B15002_004MA,B15002_005E,B15002_005EA,B15002_005M,B15002_005MA,B15002_006E,B15002_006EA,B15002_006M,B15002_006MA,B15002_007E,B15002_007EA,B15002_007M,B15002_007MA,B15002_008E,B15002_008EA,B15002_008M,B15002_008MA,B15002_009E,B15002_009EA,B15002_009M,B15002_009MA,B15002_010E,B15002_010EA,B15002_010M,B15002_010MA,B15002_011E,B15002_011EA,B15002_011M,B15002_011MA,B15002_012E,B15002_012EA,B15002_012M,B15002_012MA,B15002_013E,B15002_013EA,B15002_013M,B15002_013MA,B15002_014E,B15002_014EA,B15002_014M,B15002_014MA,B15002_015E,B15002_015EA,B15002_015M,B15002_015MA,B15002_016E,B15002_016EA,B15002_016M,B15002_016MA,B15002_017E,B15002_017EA,B15002_017M,B15002_017MA,B15002_018E,B15002_018EA,B15002_018M,B15002_018MA,B15002_019E,B15002_019EA,B15002_019M,B15002_019MA,B15002_020E,B15002_020EA,B15002_020M,B15002_020MA,B15002_021E,B15002_021EA,B15002_021M,B15002_021MA,B15002_022E,B15002_022EA,B15002_022M,B15002_022MA,B15002_023E,B15002_023EA,B15002_023M,B15002_023MA,B15002_024E,B15002_024EA,B15002_024M,B15002_024MA,B15002_025E,B15002_025EA,B15002_025M,B15002_025MA,B15002_026E,B15002_026EA,B15002_026M,B15002_026MA,B15002_027E,B15002_027EA,B15002_027M,B15002_027MA,B15002_028E,B15002_028EA,B15002_028M,B15002_028MA,B15002_029E,B15002_029EA,B15002_029M,B15002_029MA,B15002_030E,B15002_030EA,B15002_030M,B15002_030MA,B15002_031E,B15002_031EA,B15002_031M,B15002_031MA,B15002_032E,B15002_032EA,B15002_032M,B15002_032MA,B15002_033E,B15002_033EA,B15002_033M,B15002_033MA,B15002_034E,B15002_034EA,B15002_034M,B15002_034MA,B15002_035E,B15002_035EA,B15002_035M,B15002_035MA,NAME,new england city and town area
32038.0,,401.0,,15081.0,,277.0,,76.0,,59.0,,16.0,,18.0,,48.0,,45.0,,115.0,,53.0,,172.0,,89.0,,268.0,,102.0,,329.0,,132.0,,235.0,,80.0,,5249.0,,345.0,,797.0,,130.0,,1638.0,,261.0,,1026.0,,188.0,,2889.0,,230.0,,1373.0,,171.0,,606.0,,118.0,,244.0,,48.0,,16957.0,,243.0,,65.0,,46.0,,11.0,,12.0,,28.0,,31.0,,175.0,,67.0,,110.0,,56.0,,131.0,,67.0,,293.0,,120.0,,145.0,,94.0,,4548.0,,387.0,,1080.0,,178.0,,2091.0,,295.0,,1708.0,,258.0,,3598.0,,252.0,,2266.0,,238.0,,436.0,,101.0,,272.0,,93.0,,"Barre, VT Micropolitan NECTA",71050
15280.0,,244.0,,7305.0,,208.0,,54.0,,43.0,,8.0,,13.0,,8.0,,8.0,,43.0,,41.0,,107.0,,68.0,,203.0,,99.0,,170.0,,69.0,,65.0,,39.0,,2664.0,,266.0,,471.0,,132.0,,936.0,,197.0,,415.0,,112.0,,1281.0,,230.0,,569.0,,112.0,,178.0,,60.0,,133.0,,75.0,,7975.0,,162.0,,23.0,,22.0,,0.0,,17.0,,16.0,,24.0,,110.0,,63.0,,22.0,,26.0,,234.0,,148.0,,202.0,,76.0,,88.0,,68.0,,2240.0,,300.0,,349.0,,107.0,,1077.0,,207.0,,736.0,,156.0,,1823.0,,256.0,,773.0,,145.0,,145.0,,69.0,,137.0,,62.0,,"Bennington, VT Micropolitan NECTA",71350
12386.0,,208.0,,6830.0,,178.0,,67.0,,62.0,,1.0,,2.0,,16.0,,21.0,,175.0,,80.0,,137.0,,75.0,,195.0,,76.0,,155.0,,64.0,,130.0,,62.0,,3154.0,,282.0,,550.0,,177.0,,759.0,,143.0,,564.0,,132.0,,683.0,,116.0,,167.0,,57.0,,50.0,,26.0,,27.0,,19.0,,5556.0,,164.0,,38.0,,37.0,,2.0,,4.0,,68.0,,57.0,,104.0,,64.0,,47.0,,30.0,,97.0,,54.0,,113.0,,61.0,,52.0,,28.0,,2040.0,,193.0,,358.0,,107.0,,633.0,,153.0,,814.0,,135.0,,837.0,,137.0,,315.0,,74.0,,28.0,,22.0,,10.0,,8.0,,"Berlin, NH Micropolitan NECTA",71500
3436501.0,,1627.0,,1639702.0,,1430.0,,22667.0,,1290.0,,10964.0,,774.0,,14430.0,,1056.0,,20509.0,,1186.0,,14821.0,,753.0,,17897.0,,986.0,,18898.0,,993.0,,24233.0,,1108.0,,385443.0,,4612.0,,72006.0,,1812.0,,171075.0,,2747.0,,97161.0,,2366.0,,425290.0,,4024.0,,221379.0,,2847.0,,60914.0,,1667.0,,62015.0,,1794.0,,1796799.0,,1365.0,,25855.0,,1049.0,,13490.0,,1019.0,,17238.0,,1070.0,,21963.0,,1040.0,,15053.0,,937.0,,17619.0,,832.0,,17734.0,,1124.0,,22796.0,,1072.0,,386261.0,,3951.0,,81341.0,,1907.0,,184158.0,,3054.0,,149012.0,,2780.0,,458548.0,,3932.0,,286696.0,,3288.0,,55059.0,,1558.0,,43976.0,,1348.0,,"Boston-Cambridge-Nashua, MA-NH Metropolitan NECTA",71650
632415.0,,1465.0,,298577.0,,1248.0,,3281.0,,436.0,,1993.0,,383.0,,5114.0,,593.0,,3914.0,,470.0,,2952.0,,373.0,,3480.0,,466.0,,4014.0,,388.0,,4258.0,,489.0,,67292.0,,1653.0,,11226.0,,677.0,,31734.0,,1215.0,,16665.0,,851.0,,77707.0,,1565.0,,44577.0,,1299.0,,14652.0,,651.0,,5718.0,,463.0,,333838.0,,1273.0,,3416.0,,361.0,,2301.0,,347.0,,4678.0,,485.0,,4900.0,,478.0,,3742.0,,441.0,,3889.0,,467.0,,4339.0,,406.0,,3552.0,,380.0,,72741.0,,1573.0,,15627.0,,775.0,,36227.0,,1433.0,,24155.0,,930.0,,86480.0,,1520.0,,52761.0,,1292.0,,10205.0,,587.0,,4825.0,,405.0,,"Bridgeport-Stamford-Norwalk, CT Metropolitan NECTA",71950
15100.0,,346.0,,7033.0,,341.0,,84.0,,45.0,,0.0,,23.0,,0.0,,23.0,,76.0,,51.0,,106.0,,61.0,,181.0,,88.0,,156.0,,83.0,,108.0,,67.0,,3182.0,,300.0,,522.0,,110.0,,976.0,,154.0,,359.0,,102.0,,906.0,,192.0,,224.0,,81.0,,73.0,,39.0,,80.0,,51.0,,8067.0,,271.0,,107.0,,73.0,,0.0,,23.0,,16.0,,22.0,,53.0,,48.0,,136.0,,85.0,,215.0,,106.0,,102.0,,61.0,,156.0,,82.0,,2678.0,,255.0,,583.0,,136.0,,1075.0,,210.0,,1163.0,,160.0,,1110.0,,194.0,,553.0,,124.0,,48.0,,36.0,,72.0,,37.0,,"Athol, MA Micropolitan NECTA",70450
56783.0,,545.0,,27420.0,,371.0,,254.0,,106.0,,16.0,,18.0,,89.0,,61.0,,777.0,,190.0,,354.0,,110.0,,410.0,,107.0,,548.0,,195.0,,240.0,,86.0,,9576.0,,512.0,,1534.0,,231.0,,3617.0,,347.0,,2617.0,,322.0,,4499.0,,370.0,,1919.0,,245.0,,468.0,,105.0,,502.0,,130.0,,29363.0,,380.0,,231.0,,109.0,,42.0,,30.0,,108.0,,60.0,,581.0,,164.0,,290.0,,114.0,,349.0,,123.0,,270.0,,89.0,,239.0,,82.0,,8549.0,,402.0,,2276.0,,289.0,,4490.0,,348.0,,3212.0,,299.0,,5502.0,,418.0,,2537.0,,256.0,,372.0,,101.0,,315.0,,110.0,,"Augusta, ME Micropolitan NECTA",70600
92777.0,,445.0,,44861.0,,425.0,,229.0,,88.0,,81.0,,68.0,,107.0,,69.0,,1018.0,,202.0,,585.0,,137.0,,705.0,,176.0,,810.0,,189.0,,661.0,,145.0,,14532.0,,649.0,,2623.0,,289.0,,6471.0,,528.0,,4189.0,,416.0,,7838.0,,493.0,,2972.0,,321.0,,1030.0,,199.0,,1010.0,,191.0,,47916.0,,365.0,,314.0,,153.0,,13.0,,12.0,,72.0,,74.0,,475.0,,122.0,,422.0,,153.0,,682.0,,173.0,,581.0,,135.0,,362.0,,100.0,,14260.0,,641.0,,3071.0,,307.0,,6861.0,,553.0,,5714.0,,429.0,,9644.0,,575.0,,4060.0,,403.0,,716.0,,147.0,,669.0,,127.0,,"Bangor, ME Metropolitan NECTA",70750
181941.0,,579.0,,84024.0,,509.0,,611.0,,143.0,,141.0,,84.0,,72.0,,56.0,,700.0,,206.0,,438.0,,158.0,,904.0,,248.0,,737.0,,219.0,,1042.0,,191.0,,23808.0,,838.0,,4885.0,,438.0,,10583.0,,629.0,,6209.0,,525.0,,19180.0,,812.0,,9675.0,,462.0,,2786.0,,358.0,,2253.0,,277.0,,97917.0,,507.0,,329.0,,139.0,,203.0,,112.0,,248.0,,104.0,,550.0,,165.0,,480.0,,162.0,,619.0,,174.0,,715.0,,208.0,,1051.0,,211.0,,22738.0,,1067.0,,6169.0,,551.0,,13209.0,,780.0,,10745.0,,609.0,,23894.0,,944.0,,13515.0,,588.0,,2000.0,,270.0,,1452.0,,216.0,,"Barnstable Town, MA Metropolitan NECTA",70900
46778.0,,457.0,,22300.0,,335.0,,119.0,,69.0,,4.0,,7.0,,15.0,,20.0,,290.0,,130.0,,237.0,,107.0,,248.0,,124.0,,414.0,,135.0,,348.0,,136.0,,6152.0,,463.0,,1514.0,,224.0,,2849.0,,324.0,,1720.0,,283.0,,4813.0,,365.0,,2160.0,,265.0,,783.0,,188.0,,634.0,,131.0,,24478.0,,383.0,,79.0,,57.0,,42.0,,43.0,,34.0,,38.0,,175.0,,98.0,,126.0,,68.0,,198.0,,93.0,,255.0,,138.0,,149.0,,59.0,,6749.0,,412.0,,1380.0,,252.0,,3083.0,,354.0,,2072.0,,246.0,,5576.0,,367.0,,3495.0,,311.0,,473.0,,119.0,,592.0,,153.0,,"Brunswick, ME Micropolitan NECTA",72250
61753.0,,535.0,,29948.0,,423.0,,129.0,,49.0,,30.0,,32.0,,82.0,,49.0,,513.0,,155.0,,211.0,,89.0,,413.0,,126.0,,610.0,,156.0,,381.0,,111.0,,8856.0,,462.0,,1333.0,,169.0,,3717.0,,342.0,,3061.0,,285.0,,5695.0,,424.0,,3206.0,,300.0,,1196.0,,235.0,,515.0,,138.0,,31805.0,,383.0,,322.0,,123.0,,32.0,,33.0,,47.0,,43.0,,340.0,,163.0,,191.0,,93.0,,158.0,,67.0,,329.0,,122.0,,234.0,,75.0,,7872.0,,536.0,,1773.0,,244.0,,4541.0,,435.0,,4099.0,,399.0,,7004.0,,417.0,,3819.0,,329.0,,771.0,,132.0,,273.0,,92.0,,"Concord, NH Micropolitan NECTA",72700
142146.0,,474.0,,68655.0,,325.0,,520.0,,155.0,,114.0,,72.0,,144.0,,74.0,,787.0,,165.0,,359.0,,159.0,,1163.0,,267.0,,676.0,,193.0,,799.0,,174.0,,16382.0,,796.0,,3288.0,,329.0,,7601.0,,523.0,,5679.0,,448.0,,18939.0,,702.0,,7516.0,,548.0,,2694.0,,336.0,,1994.0,,239.0,,73491.0,,308.0,,530.0,,142.0,,110.0,,60.0,,73.0,,46.0,,859.0,,209.0,,528.0,,190.0,,702.0,,201.0,,850.0,,194.0,,398.0,,105.0,,15154.0,,714.0,,4124.0,,350.0,,8480.0,,593.0,,7207.0,,483.0,,20410.0,,733.0,,10619.0,,532.0,,2015.0,,258.0,,1432.0,,193.0,,"Burlington-South Burlington, VT Metropolitan NECTA",72400
59767.0,,716.0,,28600.0,,497.0,,90.0,,36.0,,4.0,,4.0,,86.0,,57.0,,387.0,,158.0,,314.0,,102.0,,489.0,,147.0,,484.0,,121.0,,450.0,,130.0,,7788.0,,447.0,,957.0,,172.0,,2677.0,,314.0,,1843.0,,258.0,,5939.0,,448.0,,3924.0,,381.0,,1391.0,,214.0,,1777.0,,240.0,,31167.0,,523.0,,136.0,,82.0,,47.0,,54.0,,30.0,,23.0,,206.0,,78.0,,253.0,,101.0,,252.0,,76.0,,398.0,,132.0,,217.0,,76.0,,6553.0,,390.0,,1487.0,,232.0,,3546.0,,396.0,,2653.0,,242.0,,7619.0,,446.0,,5366.0,,465.0,,1069.0,,212.0,,1335.0,,222.0,,"Lebanon, NH-VT Micropolitan NECTA",74350
10680.0,,317.0,,5110.0,,209.0,,28.0,,25.0,,5.0,,10.0,,49.0,,52.0,,68.0,,33.0,,47.0,,41.0,,226.0,,139.0,,109.0,,58.0,,79.0,,46.0,,2321.0,,214.0,,287.0,,111.0,,646.0,,186.0,,326.0,,117.0,,734.0,,192.0,,127.0,,59.0,,24.0,,22.0,,34.0,,35.0,,5570.0,,256.0,,36.0,,29.0,,0.0,,18.0,,4.0,,11.0,,172.0,,82.0,,110.0,,55.0,,156.0,,126.0,,161.0,,97.0,,103.0,,50.0,,2177.0,,298.0,,540.0,,149.0,,475.0,,118.0,,520.0,,154.0,,733.0,,163.0,,335.0,,121.0,,30.0,,30.0,,18.0,,22.0,,"Claremont, NH Micropolitan NECTA",72500
135238.0,,1072.0,,66508.0,,1051.0,,901.0,,241.0,,627.0,,212.0,,1918.0,,474.0,,1019.0,,268.0,,754.0,,310.0,,806.0,,218.0,,737.0,,183.0,,1031.0,,201.0,,16702.0,,844.0,,3887.0,,402.0,,7515.0,,566.0,,4073.0,,412.0,,16713.0,,814.0,,6816.0,,513.0,,1648.0,,256.0,,1361.0,,236.0,,68730.0,,931.0,,723.0,,180.0,,489.0,,196.0,,1065.0,,290.0,,867.0,,284.0,,424.0,,157.0,,682.0,,197.0,,432.0,,163.0,,1013.0,,228.0,,16863.0,,906.0,,3989.0,,418.0,,7290.0,,543.0,,5325.0,,403.0,,16706.0,,718.0,,10323.0,,581.0,,1689.0,,265.0,,850.0,,194.0,,"Danbury, CT Metropolitan NECTA",72850
103383.0,,1117.0,,50189.0,,968.0,,801.0,,204.0,,186.0,,90.0,,435.0,,150.0,,778.0,,212.0,,744.0,,193.0,,1519.0,,335.0,,1330.0,,300.0,,913.0,,191.0,,17202.0,,882.0,,3439.0,,366.0,,5949.0,,468.0,,4384.0,,493.0,,8619.0,,654.0,,2928.0,,382.0,,523.0,,133.0,,439.0,,125.0,,53194.0,,855.0,,584.0,,136.0,,149.0,,85.0,,572.0,,198.0,,838.0,,200.0,,817.0,,258.0,,992.0,,222.0,,1021.0,,255.0,,1052.0,,217.0,,15087.0,,821.0,,3632.0,,415.0,,7234.0,,628.0,,6786.0,,521.0,,9070.0,,598.0,,4614.0,,457.0,,453.0,,125.0,,293.0,,119.0,,"Leominster-Gardner, MA Metropolitan NECTA",74500
75241.0,,378.0,,36347.0,,301.0,,220.0,,94.0,,73.0,,53.0,,176.0,,96.0,,971.0,,192.0,,477.0,,139.0,,751.0,,192.0,,625.0,,160.0,,501.0,,137.0,,14441.0,,644.0,,2990.0,,318.0,,4412.0,,478.0,,3803.0,,461.0,,4386.0,,404.0,,1434.0,,218.0,,712.0,,166.0,,375.0,,118.0,,38894.0,,258.0,,210.0,,68.0,,113.0,,79.0,,165.0,,72.0,,1080.0,,223.0,,674.0,,176.0,,667.0,,173.0,,347.0,,112.0,,392.0,,108.0,,13278.0,,576.0,,2764.0,,306.0,,5390.0,,532.0,,4567.0,,459.0,,6262.0,,480.0,,2316.0,,243.0,,350.0,,163.0,,319.0,,129.0,,"Lewiston-Auburn, ME Metropolitan NECTA",74650
140966.0,,1042.0,,70119.0,,812.0,,674.0,,143.0,,298.0,,153.0,,359.0,,134.0,,1285.0,,208.0,,1059.0,,201.0,,1198.0,,234.0,,1174.0,,223.0,,1099.0,,226.0,,19778.0,,829.0,,4344.0,,461.0,,8534.0,,602.0,,6417.0,,524.0,,16376.0,,783.0,,5149.0,,490.0,,1583.0,,268.0,,792.0,,169.0,,70847.0,,836.0,,649.0,,158.0,,280.0,,125.0,,292.0,,139.0,,1292.0,,256.0,,823.0,,194.0,,955.0,,233.0,,871.0,,190.0,,881.0,,183.0,,19395.0,,911.0,,4193.0,,380.0,,9154.0,,632.0,,7915.0,,482.0,,14744.0,,748.0,,7870.0,,464.0,,983.0,,185.0,,550.0,,133.0,,"Manchester, NH Metropolitan NECTA",74950
111645.0,,1028.0,,52112.0,,812.0,,1456.0,,209.0,,1846.0,,278.0,,1086.0,,231.0,,1694.0,,257.0,,1134.0,,212.0,,1518.0,,278.0,,1170.0,,216.0,,1158.0,,207.0,,18392.0,,789.0,,2530.0,,290.0,,5797.0,,530.0,,3270.0,,433.0,,7001.0,,555.0,,2555.0,,308.0,,959.0,,249.0,,546.0,,135.0,,59533.0,,767.0,,1972.0,,290.0,,1710.0,,258.0,,1065.0,,198.0,,2069.0,,303.0,,1153.0,,210.0,,1180.0,,201.0,,1194.0,,236.0,,746.0,,149.0,,17800.0,,766.0,,3197.0,,324.0,,6988.0,,425.0,,5909.0,,551.0,,9043.0,,684.0,,4380.0,,382.0,,529.0,,141.0,,598.0,,152.0,,"New Bedford, MA Metropolitan NECTA",75550
417574.0,,1553.0,,196093.0,,1450.0,,1691.0,,272.0,,784.0,,219.0,,1683.0,,355.0,,2205.0,,313.0,,2129.0,,309.0,,3113.0,,371.0,,3059.0,,409.0,,3037.0,,321.0,,61885.0,,1713.0,,9240.0,,630.0,,21789.0,,990.0,,11004.0,,729.0,,40761.0,,1270.0,,19645.0,,876.0,,7660.0,,554.0,,6408.0,,509.0,,221481.0,,1226.0,,1947.0,,274.0,,883.0,,210.0,,2059.0,,398.0,,2721.0,,386.0,,2046.0,,338.0,,3280.0,,432.0,,3096.0,,437.0,,2648.0,,341.0,,62295.0,,1354.0,,9911.0,,678.0,,25085.0,,1053.0,,18737.0,,1054.0,,44700.0,,1322.0,,29964.0,,1216.0,,7333.0,,541.0,,4776.0,,425.0,,"New Haven, CT Metropolitan NECTA",75700
98239.0,,437.0,,47941.0,,423.0,,322.0,,122.0,,95.0,,92.0,,58.0,,47.0,,729.0,,202.0,,506.0,,180.0,,906.0,,312.0,,716.0,,183.0,,879.0,,224.0,,13683.0,,815.0,,3666.0,,444.0,,5822.0,,541.0,,4426.0,,441.0,,10495.0,,663.0,,4032.0,,351.0,,740.0,,212.0,,866.0,,206.0,,50298.0,,323.0,,387.0,,131.0,,17.0,,26.0,,112.0,,93.0,,487.0,,171.0,,692.0,,205.0,,871.0,,236.0,,588.0,,217.0,,559.0,,159.0,,13655.0,,706.0,,3018.0,,381.0,,6345.0,,514.0,,5488.0,,523.0,,11264.0,,695.0,,5598.0,,442.0,,509.0,,160.0,,708.0,,166.0,,"Dover-Durham, NH-ME Metropolitan NECTA",73050
28132.0,,325.0,,13351.0,,259.0,,111.0,,67.0,,19.0,,22.0,,80.0,,49.0,,132.0,,64.0,,187.0,,71.0,,272.0,,109.0,,146.0,,59.0,,168.0,,64.0,,4555.0,,259.0,,781.0,,158.0,,1440.0,,227.0,,1644.0,,230.0,,2188.0,,223.0,,1221.0,,180.0,,210.0,,74.0,,197.0,,74.0,,14781.0,,259.0,,113.0,,65.0,,28.0,,27.0,,20.0,,29.0,,148.0,,74.0,,149.0,,77.0,,186.0,,71.0,,196.0,,76.0,,112.0,,54.0,,4036.0,,304.0,,1123.0,,165.0,,1636.0,,202.0,,1862.0,,232.0,,2949.0,,284.0,,1913.0,,218.0,,159.0,,54.0,,151.0,,53.0,,"Greenfield Town, MA Micropolitan NECTA",73300
781956.0,,1263.0,,370698.0,,1071.0,,4336.0,,456.0,,1924.0,,318.0,,3494.0,,514.0,,5723.0,,651.0,,4081.0,,556.0,,6129.0,,590.0,,5248.0,,458.0,,6131.0,,450.0,,104138.0,,2267.0,,18981.0,,1000.0,,43250.0,,1518.0,,25289.0,,1265.0,,81824.0,,1781.0,,40667.0,,1058.0,,12337.0,,738.0,,7146.0,,566.0,,411258.0,,943.0,,4460.0,,430.0,,2954.0,,389.0,,3301.0,,443.0,,5587.0,,556.0,,4681.0,,521.0,,6112.0,,495.0,,5632.0,,503.0,,4876.0,,452.0,,105186.0,,1997.0,,22935.0,,1019.0,,47516.0,,1387.0,,39674.0,,1092.0,,88597.0,,1507.0,,55285.0,,1465.0,,9127.0,,623.0,,5335.0,,437.0,,"Hartford-West Hartford-East Hartford, CT Metropolitan NECTA",73450
34696.0,,468.0,,16726.0,,333.0,,101.0,,65.0,,34.0,,54.0,,58.0,,45.0,,280.0,,126.0,,174.0,,75.0,,255.0,,85.0,,338.0,,137.0,,176.0,,88.0,,5447.0,,421.0,,1089.0,,164.0,,2076.0,,300.0,,1504.0,,257.0,,2939.0,,282.0,,1469.0,,236.0,,371.0,,95.0,,415.0,,137.0,,17970.0,,321.0,,59.0,,42.0,,35.0,,52.0,,16.0,,22.0,,156.0,,95.0,,90.0,,58.0,,249.0,,118.0,,301.0,,112.0,,157.0,,71.0,,5030.0,,389.0,,980.0,,186.0,,2121.0,,296.0,,2047.0,,290.0,,3976.0,,343.0,,2144.0,,235.0,,397.0,,129.0,,212.0,,85.0,,"Keene, NH Micropolitan NECTA",73750
17449.0,,370.0,,8222.0,,246.0,,24.0,,23.0,,13.0,,20.0,,68.0,,54.0,,86.0,,62.0,,52.0,,46.0,,174.0,,99.0,,139.0,,88.0,,221.0,,83.0,,2318.0,,293.0,,538.0,,159.0,,1204.0,,210.0,,882.0,,200.0,,1230.0,,197.0,,718.0,,159.0,,445.0,,137.0,,110.0,,91.0,,9227.0,,275.0,,38.0,,51.0,,0.0,,21.0,,0.0,,21.0,,138.0,,88.0,,40.0,,33.0,,171.0,,103.0,,125.0,,77.0,,128.0,,73.0,,2618.0,,331.0,,736.0,,181.0,,1077.0,,226.0,,1045.0,,200.0,,2026.0,,280.0,,877.0,,207.0,,158.0,,70.0,,50.0,,42.0,,"Laconia, NH Micropolitan NECTA",73900
15361.0,,436.0,,7293.0,,310.0,,41.0,,27.0,,64.0,,90.0,,109.0,,95.0,,126.0,,73.0,,130.0,,88.0,,169.0,,76.0,,248.0,,142.0,,161.0,,72.0,,2327.0,,234.0,,397.0,,110.0,,716.0,,149.0,,491.0,,107.0,,1123.0,,206.0,,621.0,,128.0,,245.0,,90.0,,325.0,,77.0,,8068.0,,323.0,,36.0,,24.0,,37.0,,46.0,,33.0,,33.0,,136.0,,75.0,,115.0,,74.0,,166.0,,84.0,,242.0,,128.0,,105.0,,57.0,,2326.0,,287.0,,423.0,,95.0,,835.0,,169.0,,543.0,,128.0,,1575.0,,186.0,,1116.0,,162.0,,169.0,,58.0,,211.0,,65.0,,"North Adams, MA-VT Micropolitan NECTA",76150
197816.0,,651.0,,95659.0,,498.0,,753.0,,204.0,,266.0,,116.0,,644.0,,171.0,,789.0,,182.0,,1027.0,,232.0,,1558.0,,304.0,,2273.0,,336.0,,1574.0,,297.0,,29126.0,,1018.0,,6270.0,,486.0,,13330.0,,780.0,,7522.0,,631.0,,16789.0,,724.0,,9403.0,,573.0,,2334.0,,288.0,,2001.0,,229.0,,102157.0,,452.0,,1182.0,,220.0,,315.0,,103.0,,337.0,,147.0,,1255.0,,232.0,,945.0,,249.0,,1286.0,,233.0,,1321.0,,226.0,,1227.0,,244.0,,30255.0,,990.0,,6999.0,,543.0,,13363.0,,803.0,,9783.0,,542.0,,18918.0,,693.0,,12061.0,,617.0,,1748.0,,277.0,,1162.0,,184.0,,"Norwich-New London-Westerly, CT-RI Metropolitan NECTA",76450
62701.0,,508.0,,29650.0,,395.0,,267.0,,120.0,,43.0,,49.0,,122.0,,86.0,,316.0,,108.0,,315.0,,110.0,,578.0,,151.0,,469.0,,106.0,,632.0,,191.0,,9735.0,,542.0,,1906.0,,250.0,,3475.0,,384.0,,3032.0,,364.0,,5496.0,,450.0,,2024.0,,292.0,,832.0,,173.0,,408.0,,120.0,,33051.0,,368.0,,309.0,,123.0,,78.0,,59.0,,140.0,,76.0,,281.0,,108.0,,347.0,,135.0,,409.0,,132.0,,435.0,,117.0,,560.0,,156.0,,9223.0,,593.0,,2595.0,,285.0,,4214.0,,444.0,,3759.0,,334.0,,6237.0,,454.0,,3485.0,,378.0,,503.0,,144.0,,476.0,,171.0,,"Pittsfield, MA Metropolitan NECTA",76600
262559.0,,838.0,,125157.0,,557.0,,579.0,,148.0,,297.0,,131.0,,313.0,,156.0,,1412.0,,279.0,,856.0,,208.0,,1439.0,,250.0,,1262.0,,331.0,,1459.0,,284.0,,32881.0,,1292.0,,6694.0,,510.0,,16735.0,,898.0,,11176.0,,660.0,,32048.0,,1148.0,,11247.0,,735.0,,4692.0,,434.0,,2067.0,,270.0,,137402.0,,727.0,,636.0,,195.0,,297.0,,120.0,,561.0,,165.0,,1319.0,,253.0,,894.0,,213.0,,1196.0,,238.0,,1006.0,,241.0,,768.0,,193.0,,31932.0,,1034.0,,7221.0,,533.0,,16627.0,,864.0,,13545.0,,798.0,,38861.0,,1106.0,,17440.0,,773.0,,3291.0,,399.0,,1808.0,,281.0,,"Portland-South Portland, ME Metropolitan NECTA",76750
95389.0,,757.0,,46071.0,,645.0,,206.0,,90.0,,0.0,,27.0,,70.0,,46.0,,350.0,,153.0,,363.0,,132.0,,347.0,,130.0,,305.0,,80.0,,514.0,,150.0,,9668.0,,663.0,,2310.0,,294.0,,5511.0,,500.0,,3514.0,,418.0,,13792.0,,735.0,,6434.0,,467.0,,1474.0,,236.0,,1213.0,,224.0,,49318.0,,660.0,,159.0,,79.0,,37.0,,35.0,,66.0,,41.0,,346.0,,158.0,,197.0,,95.0,,277.0,,87.0,,292.0,,137.0,,223.0,,79.0,,9144.0,,653.0,,2430.0,,285.0,,6269.0,,527.0,,5194.0,,424.0,,14547.0,,794.0,,8223.0,,565.0,,1197.0,,215.0,,717.0,,166.0,,"Portsmouth, NH-ME Metropolitan NECTA",76900
493254.0,,875.0,,235228.0,,763.0,,3044.0,,380.0,,1576.0,,273.0,,1884.0,,342.0,,4285.0,,437.0,,3962.0,,490.0,,5188.0,,533.0,,5275.0,,612.0,,4993.0,,424.0,,72242.0,,1663.0,,14040.0,,699.0,,28451.0,,1235.0,,19765.0,,897.0,,41139.0,,1195.0,,19728.0,,817.0,,4913.0,,438.0,,4743.0,,369.0,,258026.0,,741.0,,3307.0,,459.0,,1839.0,,288.0,,2353.0,,371.0,,3874.0,,394.0,,3972.0,,499.0,,3989.0,,412.0,,4623.0,,444.0,,3860.0,,399.0,,68080.0,,1371.0,,15867.0,,777.0,,30417.0,,1198.0,,27202.0,,1022.0,,48475.0,,1291.0,,31704.0,,1091.0,,4038.0,,438.0,,4426.0,,379.0,,"Springfield, MA-CT Metropolitan NECTA",78100
34670.0,,511.0,,16996.0,,418.0,,198.0,,108.0,,12.0,,14.0,,107.0,,73.0,,307.0,,118.0,,257.0,,119.0,,391.0,,115.0,,327.0,,124.0,,399.0,,129.0,,6961.0,,495.0,,1022.0,,186.0,,1995.0,,309.0,,1330.0,,230.0,,2220.0,,322.0,,1204.0,,232.0,,136.0,,63.0,,130.0,,83.0,,17674.0,,422.0,,80.0,,41.0,,69.0,,68.0,,165.0,,89.0,,349.0,,160.0,,311.0,,134.0,,201.0,,76.0,,371.0,,153.0,,426.0,,138.0,,5867.0,,437.0,,1072.0,,196.0,,2270.0,,299.0,,2163.0,,321.0,,2570.0,,347.0,,1464.0,,233.0,,214.0,,78.0,,82.0,,69.0,,"Torrington, CT Micropolitan NECTA",78400
12683.0,,210.0,,6067.0,,172.0,,0.0,,19.0,,0.0,,19.0,,7.0,,12.0,,16.0,,29.0,,114.0,,66.0,,67.0,,64.0,,17.0,,22.0,,41.0,,42.0,,1728.0,,354.0,,332.0,,157.0,,881.0,,255.0,,342.0,,162.0,,1177.0,,240.0,,715.0,,205.0,,539.0,,183.0,,91.0,,54.0,,6616.0,,141.0,,17.0,,24.0,,39.0,,60.0,,21.0,,42.0,,127.0,,145.0,,20.0,,33.0,,15.0,,17.0,,61.0,,82.0,,6.0,,10.0,,1357.0,,357.0,,203.0,,115.0,,1189.0,,271.0,,494.0,,202.0,,1993.0,,353.0,,767.0,,209.0,,204.0,,97.0,,103.0,,83.0,,"Vineyard Haven, MA Micropolitan NECTA",78500
146711.0,,1355.0,,69642.0,,1139.0,,771.0,,210.0,,582.0,,202.0,,656.0,,213.0,,1630.0,,263.0,,1358.0,,332.0,,1646.0,,289.0,,1291.0,,251.0,,1577.0,,300.0,,25337.0,,1004.0,,3921.0,,435.0,,8671.0,,641.0,,4696.0,,537.0,,10477.0,,746.0,,5012.0,,515.0,,1366.0,,240.0,,651.0,,174.0,,77069.0,,1015.0,,1020.0,,235.0,,810.0,,230.0,,963.0,,214.0,,1726.0,,285.0,,1489.0,,333.0,,1534.0,,335.0,,1245.0,,228.0,,1326.0,,255.0,,23786.0,,924.0,,4987.0,,497.0,,10408.0,,685.0,,7821.0,,585.0,,10789.0,,676.0,,7635.0,,650.0,,1047.0,,208.0,,483.0,,182.0,,"Waterbury, CT Metropolitan NECTA",78700
32534.0,,631.0,,15393.0,,470.0,,72.0,,42.0,,13.0,,13.0,,131.0,,85.0,,273.0,,122.0,,109.0,,69.0,,262.0,,132.0,,414.0,,170.0,,187.0,,93.0,,5471.0,,484.0,,1170.0,,195.0,,2315.0,,316.0,,1450.0,,233.0,,2110.0,,251.0,,726.0,,191.0,,212.0,,69.0,,478.0,,138.0,,17141.0,,427.0,,81.0,,43.0,,7.0,,11.0,,36.0,,31.0,,203.0,,95.0,,248.0,,122.0,,346.0,,149.0,,194.0,,123.0,,146.0,,70.0,,6031.0,,506.0,,1324.0,,263.0,,2257.0,,348.0,,2295.0,,252.0,,2503.0,,303.0,,1179.0,,244.0,,137.0,,82.0,,154.0,,81.0,,"Waterville, ME Micropolitan NECTA",78850
909575.0,,1519.0,,433029.0,,1102.0,,6932.0,,509.0,,5648.0,,678.0,,4350.0,,507.0,,8404.0,,731.0,,7133.0,,618.0,,8436.0,,713.0,,8149.0,,715.0,,7554.0,,558.0,,129246.0,,2581.0,,24363.0,,1156.0,,51545.0,,1616.0,,33449.0,,1290.0,,84547.0,,1872.0,,34917.0,,1370.0,,10221.0,,594.0,,8135.0,,729.0,,476546.0,,932.0,,7490.0,,561.0,,6304.0,,693.0,,4442.0,,447.0,,8243.0,,685.0,,7804.0,,694.0,,8770.0,,715.0,,8274.0,,630.0,,6749.0,,621.0,,130176.0,,2297.0,,29033.0,,1238.0,,60488.0,,1782.0,,44563.0,,1286.0,,91861.0,,1573.0,,48136.0,,1298.0,,7687.0,,491.0,,6526.0,,594.0,,"Providence-Warwick, RI-MA Metropolitan NECTA",77200
29819.0,,330.0,,14332.0,,206.0,,181.0,,103.0,,0.0,,20.0,,0.0,,20.0,,241.0,,82.0,,195.0,,105.0,,180.0,,67.0,,328.0,,118.0,,100.0,,42.0,,5786.0,,336.0,,664.0,,135.0,,1763.0,,216.0,,988.0,,144.0,,2508.0,,241.0,,868.0,,137.0,,390.0,,88.0,,140.0,,50.0,,15487.0,,241.0,,68.0,,37.0,,14.0,,15.0,,12.0,,18.0,,182.0,,72.0,,70.0,,40.0,,246.0,,92.0,,142.0,,64.0,,117.0,,49.0,,4597.0,,318.0,,881.0,,150.0,,2336.0,,259.0,,1522.0,,201.0,,3328.0,,253.0,,1690.0,,198.0,,191.0,,61.0,,91.0,,42.0,,"Rutland, VT Micropolitan NECTA",77650
16575.0,,448.0,,7761.0,,341.0,,40.0,,30.0,,22.0,,28.0,,72.0,,59.0,,166.0,,62.0,,90.0,,55.0,,168.0,,66.0,,147.0,,82.0,,120.0,,84.0,,3073.0,,287.0,,537.0,,130.0,,1147.0,,246.0,,700.0,,141.0,,1073.0,,172.0,,333.0,,106.0,,38.0,,29.0,,35.0,,29.0,,8814.0,,294.0,,40.0,,34.0,,0.0,,18.0,,17.0,,25.0,,165.0,,98.0,,118.0,,66.0,,91.0,,41.0,,113.0,,52.0,,33.0,,23.0,,3363.0,,301.0,,623.0,,146.0,,1396.0,,221.0,,1157.0,,215.0,,1232.0,,232.0,,420.0,,120.0,,27.0,,25.0,,19.0,,19.0,,"Sanford, ME Micropolitan NECTA",77950
454138.0,,1233.0,,219847.0,,1096.0,,2019.0,,348.0,,941.0,,259.0,,1542.0,,320.0,,2896.0,,375.0,,3107.0,,345.0,,4609.0,,543.0,,3799.0,,550.0,,3955.0,,450.0,,66361.0,,1657.0,,11668.0,,723.0,,25184.0,,1142.0,,16959.0,,1071.0,,47180.0,,1450.0,,20763.0,,964.0,,4473.0,,448.0,,4391.0,,364.0,,234291.0,,1082.0,,2447.0,,319.0,,931.0,,251.0,,1290.0,,233.0,,2944.0,,388.0,,2250.0,,378.0,,3766.0,,360.0,,3464.0,,422.0,,3030.0,,339.0,,62101.0,,1707.0,,13667.0,,742.0,,28560.0,,956.0,,23162.0,,1037.0,,51642.0,,1460.0,,27346.0,,972.0,,4466.0,,423.0,,3225.0,,310.0,,"Worcester, MA-CT Metropolitan NECTA",79600
