B15002_001E,B15002_001EA,B15002_001M,B15002_001MA,B15002_002E,B15002_002EA,B15002_002M,B15002_002MA,B15002_003E,B15002_003EA,B15002_003M,B15002_003MA,B15002_004E,B15002_004EA,B15002_004M,B15002_004MA,B15002_005E,B15002_005EA,B15002_005M,B15002_005MA,B15002_006E,B15002_006EA,B15002_006M,B15002_006MA,B15002_007E,B15002_007EA,B15002_007M,B15002_007MA,B15002_008E,B15002_008EA,B15002_008M,B15002_008MA,B15002_009E,B15002_009EA,B15002_009M,B15002_009MA,B15002_010E,B15002_010EA,B15002_010M,B15002_010MA,B15002_011E,B15002_011EA,B15002_011M,B15002_011MA,B15002_012E,B15002_012EA,B15002_012M,B15002_012MA,B15002_013E,B15002_013EA,B15002_013M,B15002_013MA,B15002_014E,B15002_014EA,B15002_014M,B15002_014MA,B15002_015E,B15002_015EA,B15002_015M,B15002_015MA,B15002_016E,B15002_016EA,B15002_016M,B15002_016MA,B15002_017E,B15002_017EA,B15002_017M,B15002_017MA,B15002_018E,B15002_018EA,B15002_018M,B15002_018MA,B15002_019E,B15002_019EA,B15002_019M,B15002_019MA,B15002_020E,B15002_020EA,B15002_020M,B15002_020MA,B15002_021E,B15002_021EA,B15002_021M,B15002_021MA,B15002_022E,B15002_022EA,B15002_022M,B15002_022MA,B15002_023E,B15002_023EA,B15002_023M,B15002_023MA,B15002_024E,B15002_024EA,B15002_024M,B15002_024MA,B15002_025E,B15002_025EA,B15002_025M,B15002_025MA,B15002_026E,B15002_026EA,B15002_026M,B15002_026MA,B15002_027E,B15002_027EA,B15002_027M,B15002_027MA,B15002_028E,B15002_028EA,B15002_028M,B15002_028MA,B15002_029E,B15002_029EA,B15002_029M,B15002_029MA,B15002_030E,B15002_030EA,B15002_030M,B15002_030MA,B15002_031E,B15002_031EA,B15002_031M,B15002_031MA,B15002_032E,B15002_032EA,B15002_032M,B15002_032MA,B15002_033E,B15002_033EA,B15002_033M,B15002_033MA,B15002_034E,B15002_034EA,B15002_034M,B15002_034MA,B15002_035E,B15002_035EA,B15002_035M,B15002_035MA,NAME,state
3731762.0,,817.0,,1834785.0,,718.0,,19713.0,,964.0,,4936.0,,464.0,,8290.0,,605.0,,19593.0,,920.0,,14117.0,,792.0,,19900.0,,795.0,,24687.0,,850.0,,26443.0,,946.0,,481311.0,,4159.0,,116458.0,,2029.0,,272008.0,,2705.0,,195607.0,,2560.0,,415467.0,,3571.0,,138532.0,,2296.0,,46935.0,,1462.0,,30788.0,,1079.0,,1896977.0,,673.0,,24560.0,,1005.0,,5421.0,,554.0,,7939.0,,582.0,,18790.0,,906.0,,10312.0,,707.0,,16512.0,,707.0,,20788.0,,962.0,,20400.0,,830.0,,448747.0,,3628.0,,134078.0,,1997.0,,269553.0,,3279.0,,228817.0,,2559.0,,455896.0,,3864.0,,176871.0,,2176.0,,34778.0,,1144.0,,23515.0,,779.0,,Minnesota,27
1967314.0,,1317.0,,929549.0,,1110.0,,13702.0,,804.0,,6167.0,,626.0,,11268.0,,825.0,,26062.0,,1099.0,,23840.0,,1188.0,,31968.0,,1224.0,,35163.0,,1594.0,,21001.0,,1079.0,,299661.0,,3862.0,,54569.0,,1749.0,,151235.0,,2954.0,,71672.0,,2254.0,,115843.0,,2604.0,,41613.0,,1513.0,,15311.0,,918.0,,10474.0,,670.0,,1037765.0,,816.0,,12069.0,,820.0,,4219.0,,505.0,,8326.0,,618.0,,24002.0,,1238.0,,19281.0,,1131.0,,27794.0,,1404.0,,33347.0,,1358.0,,18136.0,,822.0,,296903.0,,3393.0,,62349.0,,1951.0,,172741.0,,3127.0,,112662.0,,2187.0,,150431.0,,2717.0,,74442.0,,1889.0,,12425.0,,883.0,,8638.0,,709.0,,Mississippi,28
4124838.0,,1462.0,,1981851.0,,1212.0,,17177.0,,862.0,,4476.0,,406.0,,9059.0,,709.0,,36444.0,,1048.0,,27207.0,,1135.0,,44065.0,,1616.0,,48145.0,,1666.0,,31883.0,,1084.0,,639855.0,,5010.0,,139517.0,,2526.0,,296656.0,,3839.0,,138040.0,,2208.0,,342926.0,,4244.0,,134759.0,,2450.0,,42449.0,,1309.0,,29193.0,,1033.0,,2142987.0,,929.0,,16357.0,,775.0,,4162.0,,412.0,,8545.0,,718.0,,38149.0,,1217.0,,26089.0,,1316.0,,43725.0,,1496.0,,46996.0,,1703.0,,28050.0,,1036.0,,626575.0,,4734.0,,158793.0,,2607.0,,328079.0,,4044.0,,185711.0,,2760.0,,386617.0,,4503.0,,194423.0,,2769.0,,29970.0,,1122.0,,20746.0,,902.0,,Missouri,29
714267.0,,774.0,,354594.0,,681.0,,1771.0,,247.0,,261.0,,101.0,,588.0,,178.0,,5259.0,,442.0,,3004.0,,362.0,,4735.0,,489.0,,5961.0,,555.0,,4434.0,,384.0,,109539.0,,1713.0,,23146.0,,858.0,,59956.0,,1461.0,,28862.0,,1221.0,,70657.0,,1548.0,,22783.0,,823.0,,8024.0,,648.0,,5614.0,,487.0,,359673.0,,574.0,,1380.0,,234.0,,411.0,,126.0,,433.0,,131.0,,4217.0,,462.0,,2416.0,,276.0,,4461.0,,400.0,,5721.0,,497.0,,3556.0,,341.0,,99357.0,,2021.0,,24935.0,,907.0,,61759.0,,1709.0,,35235.0,,1238.0,,77967.0,,1869.0,,29228.0,,1017.0,,5142.0,,472.0,,3455.0,,352.0,,Montana,30
1242463.0,,734.0,,610199.0,,581.0,,7521.0,,591.0,,3364.0,,377.0,,6727.0,,620.0,,8327.0,,600.0,,6897.0,,549.0,,8031.0,,500.0,,9516.0,,614.0,,8804.0,,493.0,,167228.0,,2090.0,,42718.0,,1030.0,,93069.0,,1501.0,,63545.0,,1226.0,,121367.0,,1712.0,,40219.0,,1103.0,,13420.0,,588.0,,9446.0,,529.0,,632264.0,,585.0,,7327.0,,505.0,,3106.0,,423.0,,5365.0,,456.0,,7491.0,,570.0,,5498.0,,427.0,,6902.0,,508.0,,8726.0,,581.0,,7137.0,,555.0,,159321.0,,1881.0,,50341.0,,1174.0,,99788.0,,1751.0,,66498.0,,1347.0,,136924.0,,2169.0,,52504.0,,1449.0,,8529.0,,483.0,,6807.0,,464.0,,Nebraska,31
2001450.0,,398.0,,995964.0,,390.0,,15769.0,,761.0,,7377.0,,646.0,,21985.0,,1139.0,,11517.0,,906.0,,16934.0,,1091.0,,15749.0,,951.0,,21968.0,,1058.0,,27151.0,,1100.0,,285883.0,,3404.0,,72102.0,,1914.0,,184212.0,,3193.0,,75824.0,,1744.0,,155917.0,,2787.0,,52654.0,,1722.0,,19773.0,,818.0,,11149.0,,629.0,,1005486.0,,254.0,,16486.0,,1004.0,,7879.0,,710.0,,20452.0,,1008.0,,12438.0,,864.0,,16043.0,,926.0,,15825.0,,885.0,,20999.0,,1140.0,,25591.0,,975.0,,277346.0,,3657.0,,77828.0,,2028.0,,180869.0,,3242.0,,87875.0,,1775.0,,161593.0,,2911.0,,64089.0,,1530.0,,12903.0,,731.0,,7270.0,,500.0,,Nevada,32
952115.0,,482.0,,465035.0,,467.0,,2924.0,,357.0,,812.0,,231.0,,1504.0,,282.0,,6182.0,,526.0,,4872.0,,483.0,,7157.0,,710.0,,7418.0,,593.0,,6796.0,,488.0,,134138.0,,1712.0,,27418.0,,1057.0,,57450.0,,1564.0,,41841.0,,1177.0,,102788.0,,1645.0,,44620.0,,1318.0,,10788.0,,722.0,,8327.0,,543.0,,487080.0,,408.0,,2644.0,,308.0,,794.0,,225.0,,1110.0,,259.0,,5206.0,,493.0,,4106.0,,509.0,,5727.0,,602.0,,5538.0,,452.0,,4817.0,,448.0,,128867.0,,2402.0,,30682.0,,1172.0,,62141.0,,1633.0,,54546.0,,1276.0,,110489.0,,2139.0,,56606.0,,1471.0,,8244.0,,630.0,,5563.0,,482.0,,New Hampshire,33
6129542.0,,409.0,,2929444.0,,431.0,,39118.0,,1321.0,,20076.0,,1258.0,,43925.0,,2064.0,,43200.0,,1621.0,,33456.0,,1451.0,,40268.0,,1445.0,,44392.0,,1634.0,,52029.0,,1692.0,,810524.0,,7286.0,,145914.0,,3274.0,,348356.0,,3690.0,,167056.0,,2894.0,,685451.0,,4931.0,,306380.0,,3704.0,,92246.0,,1717.0,,57053.0,,1533.0,,3200098.0,,370.0,,42961.0,,1595.0,,23023.0,,1144.0,,42583.0,,1610.0,,48331.0,,1758.0,,31085.0,,1213.0,,40300.0,,1260.0,,45117.0,,1505.0,,51249.0,,1530.0,,873044.0,,6828.0,,163756.0,,2789.0,,361710.0,,4024.0,,234013.0,,3098.0,,772459.0,,5149.0,,364894.0,,3985.0,,66096.0,,1425.0,,39477.0,,1168.0,,New Jersey,34
1394280.0,,951.0,,677705.0,,658.0,,8502.0,,667.0,,6914.0,,633.0,,15211.0,,1008.0,,13289.0,,968.0,,13812.0,,1107.0,,16867.0,,854.0,,19181.0,,828.0,,12156.0,,970.0,,188967.0,,2933.0,,40019.0,,1550.0,,116013.0,,2481.0,,50539.0,,1592.0,,98747.0,,2305.0,,48384.0,,1508.0,,13333.0,,794.0,,15771.0,,690.0,,716575.0,,693.0,,8881.0,,595.0,,6196.0,,651.0,,14987.0,,974.0,,12743.0,,818.0,,13551.0,,976.0,,15542.0,,914.0,,17706.0,,992.0,,10020.0,,667.0,,179520.0,,2878.0,,45975.0,,1768.0,,125368.0,,2745.0,,64125.0,,1987.0,,114382.0,,2182.0,,67618.0,,1598.0,,10256.0,,566.0,,9705.0,,590.0,,New Mexico,35
13606342.0,,993.0,,6461827.0,,834.0,,122294.0,,2680.0,,49619.0,,1768.0,,108433.0,,2787.0,,118683.0,,2617.0,,101789.0,,2841.0,,116176.0,,2666.0,,124330.0,,2233.0,,150772.0,,2967.0,,1744513.0,,10286.0,,306674.0,,4050.0,,743036.0,,6647.0,,512350.0,,4409.0,,1318657.0,,8358.0,,611819.0,,6463.0,,217634.0,,2790.0,,115048.0,,2427.0,,7144515.0,,763.0,,142429.0,,2723.0,,66680.0,,2220.0,,121386.0,,2647.0,,127653.0,,2961.0,,100721.0,,2382.0,,110204.0,,2118.0,,127553.0,,2504.0,,151127.0,,2465.0,,1811738.0,,9897.0,,327522.0,,4229.0,,760607.0,,5898.0,,671915.0,,5210.0,,1429920.0,,7884.0,,929860.0,,7662.0,,173121.0,,2855.0,,92079.0,,2160.0,,New York,36
6881774.0,,1458.0,,3266356.0,,1139.0,,42288.0,,1513.0,,20565.0,,1034.0,,43513.0,,1715.0,,67860.0,,1933.0,,74845.0,,2289.0,,87473.0,,2644.0,,80642.0,,2357.0,,49153.0,,1508.0,,892999.0,,7068.0,,197859.0,,3658.0,,486161.0,,5676.0,,262827.0,,3633.0,,613679.0,,4986.0,,226373.0,,3453.0,,66725.0,,1780.0,,53394.0,,1479.0,,3615418.0,,1147.0,,39735.0,,1379.0,,16703.0,,975.0,,33380.0,,1340.0,,58872.0,,1846.0,,60660.0,,1773.0,,75481.0,,2022.0,,74384.0,,2152.0,,44312.0,,1414.0,,887254.0,,6030.0,,236766.0,,4144.0,,559005.0,,5666.0,,389831.0,,3990.0,,732167.0,,6699.0,,317207.0,,4567.0,,50132.0,,1614.0,,39529.0,,1361.0,,North Carolina,37
490233.0,,659.0,,249769.0,,553.0,,1315.0,,192.0,,380.0,,128.0,,674.0,,194.0,,5907.0,,448.0,,2131.0,,311.0,,3180.0,,337.0,,3314.0,,370.0,,3448.0,,329.0,,71272.0,,1284.0,,16023.0,,787.0,,41627.0,,1205.0,,33835.0,,1057.0,,48285.0,,1339.0,,11068.0,,643.0,,4417.0,,524.0,,2893.0,,328.0,,240464.0,,461.0,,1704.0,,320.0,,273.0,,111.0,,488.0,,133.0,,4962.0,,410.0,,1523.0,,276.0,,2555.0,,320.0,,2887.0,,318.0,,2053.0,,266.0,,59992.0,,1309.0,,14808.0,,667.0,,38109.0,,1075.0,,33377.0,,987.0,,57267.0,,1301.0,,15834.0,,662.0,,2545.0,,327.0,,2087.0,,284.0,,North Dakota,38
7937085.0,,1257.0,,3811775.0,,1022.0,,32861.0,,1133.0,,8767.0,,668.0,,13312.0,,836.0,,57346.0,,1537.0,,46849.0,,1587.0,,78123.0,,2108.0,,93939.0,,2404.0,,66995.0,,1827.0,,1308026.0,,7524.0,,257069.0,,3469.0,,525883.0,,5365.0,,271521.0,,3773.0,,657957.0,,5327.0,,260917.0,,3568.0,,79921.0,,1583.0,,52289.0,,1519.0,,4125310.0,,1053.0,,35687.0,,1241.0,,8326.0,,704.0,,11947.0,,791.0,,55074.0,,1453.0,,44745.0,,1837.0,,76460.0,,2167.0,,96013.0,,2303.0,,59716.0,,1645.0,,1331452.0,,7136.0,,286538.0,,3798.0,,554757.0,,5583.0,,410109.0,,4411.0,,712853.0,,5391.0,,352195.0,,4493.0,,53165.0,,1556.0,,36273.0,,1155.0,,Ohio,39
2574001.0,,765.0,,1251167.0,,689.0,,12965.0,,789.0,,6517.0,,551.0,,15620.0,,721.0,,21780.0,,910.0,,22474.0,,838.0,,27484.0,,959.0,,34776.0,,1073.0,,21944.0,,877.0,,407702.0,,2945.0,,88238.0,,1721.0,,199860.0,,2023.0,,85592.0,,1717.0,,200746.0,,2413.0,,67628.0,,1473.0,,22543.0,,760.0,,15298.0,,681.0,,1322834.0,,586.0,,12069.0,,596.0,,4787.0,,429.0,,12377.0,,764.0,,19638.0,,822.0,,20316.0,,847.0,,27774.0,,841.0,,33759.0,,1078.0,,19508.0,,831.0,,398705.0,,3501.0,,103495.0,,1738.0,,215240.0,,2735.0,,113311.0,,1846.0,,228083.0,,2687.0,,90279.0,,1500.0,,13742.0,,670.0,,9751.0,,567.0,,Oklahoma,40
2850693.0,,744.0,,1392637.0,,648.0,,15217.0,,970.0,,7945.0,,663.0,,14584.0,,1109.0,,15682.0,,1107.0,,17446.0,,1066.0,,20549.0,,1275.0,,25253.0,,1127.0,,27867.0,,1110.0,,332253.0,,4150.0,,106569.0,,1952.0,,242839.0,,3091.0,,114850.0,,2164.0,,279024.0,,3232.0,,110208.0,,2169.0,,34879.0,,1272.0,,27472.0,,1056.0,,1458056.0,,551.0,,15604.0,,870.0,,7049.0,,703.0,,14379.0,,968.0,,14996.0,,902.0,,14031.0,,979.0,,19114.0,,1063.0,,22957.0,,1249.0,,21509.0,,893.0,,324112.0,,3153.0,,125960.0,,2494.0,,257109.0,,3468.0,,135002.0,,2200.0,,304120.0,,3350.0,,137282.0,,2187.0,,27133.0,,1107.0,,17699.0,,755.0,,Oregon,41
8921363.0,,1002.0,,4286812.0,,694.0,,43413.0,,1525.0,,12996.0,,971.0,,21191.0,,1196.0,,65885.0,,1787.0,,55701.0,,1711.0,,84219.0,,1977.0,,90277.0,,1957.0,,68716.0,,1787.0,,1535372.0,,7218.0,,229850.0,,3394.0,,454213.0,,4609.0,,317217.0,,3677.0,,801007.0,,5083.0,,326758.0,,3512.0,,104845.0,,1989.0,,75152.0,,1666.0,,4634551.0,,729.0,,45578.0,,1355.0,,13710.0,,894.0,,20794.0,,1163.0,,67597.0,,1462.0,,49704.0,,1694.0,,81576.0,,2143.0,,90488.0,,2035.0,,62173.0,,1628.0,,1598283.0,,7618.0,,257557.0,,3121.0,,485163.0,,4465.0,,424373.0,,4189.0,,860698.0,,5975.0,,447785.0,,4505.0,,73056.0,,1618.0,,56016.0,,1483.0,,Pennsylvania,42
733188.0,,356.0,,349067.0,,267.0,,5134.0,,541.0,,4013.0,,551.0,,3608.0,,443.0,,6030.0,,606.0,,5600.0,,537.0,,6536.0,,602.0,,6639.0,,631.0,,6206.0,,487.0,,102210.0,,2178.0,,19515.0,,941.0,,41531.0,,1493.0,,26199.0,,1147.0,,69994.0,,1847.0,,29504.0,,1211.0,,9027.0,,555.0,,7321.0,,648.0,,384121.0,,347.0,,5546.0,,500.0,,4382.0,,546.0,,3504.0,,391.0,,5939.0,,501.0,,6018.0,,523.0,,6499.0,,568.0,,6827.0,,583.0,,5513.0,,560.0,,104797.0,,1973.0,,22699.0,,1098.0,,49342.0,,1790.0,,34937.0,,1073.0,,75601.0,,1497.0,,40326.0,,1202.0,,6624.0,,453.0,,5567.0,,529.0,,Rhode Island,44
3385002.0,,783.0,,1601994.0,,735.0,,19604.0,,977.0,,8208.0,,791.0,,15648.0,,954.0,,31489.0,,1540.0,,31522.0,,1589.0,,44984.0,,1854.0,,44283.0,,1757.0,,33346.0,,1606.0,,489909.0,,4570.0,,91878.0,,2340.0,,229642.0,,2836.0,,131600.0,,2474.0,,280867.0,,3591.0,,98049.0,,2239.0,,29500.0,,1164.0,,21465.0,,998.0,,1783008.0,,638.0,,17495.0,,918.0,,6540.0,,625.0,,13146.0,,924.0,,29508.0,,1467.0,,27759.0,,1273.0,,42437.0,,1486.0,,42721.0,,1508.0,,27080.0,,1290.0,,508550.0,,4201.0,,110285.0,,2800.0,,266699.0,,4042.0,,192846.0,,3069.0,,308098.0,,3952.0,,152764.0,,2871.0,,21551.0,,948.0,,15529.0,,903.0,,South Carolina,45
567083.0,,678.0,,282763.0,,589.0,,1966.0,,264.0,,620.0,,224.0,,858.0,,186.0,,6174.0,,474.0,,3029.0,,335.0,,4004.0,,392.0,,5234.0,,410.0,,3590.0,,354.0,,92207.0,,1713.0,,17501.0,,940.0,,40993.0,,1162.0,,30256.0,,1012.0,,52210.0,,1298.0,,14938.0,,891.0,,5515.0,,484.0,,3668.0,,360.0,,284320.0,,623.0,,1868.0,,265.0,,662.0,,219.0,,612.0,,171.0,,5132.0,,474.0,,2339.0,,237.0,,3930.0,,370.0,,3859.0,,337.0,,3067.0,,324.0,,81055.0,,1528.0,,18531.0,,688.0,,43300.0,,1278.0,,34819.0,,1216.0,,60216.0,,1392.0,,19228.0,,870.0,,3298.0,,446.0,,2404.0,,276.0,,South Dakota,46
4530706.0,,1480.0,,2163250.0,,1123.0,,25182.0,,1377.0,,11958.0,,817.0,,21376.0,,1036.0,,55420.0,,1804.0,,38571.0,,1524.0,,54343.0,,1620.0,,58469.0,,1855.0,,38173.0,,1428.0,,726615.0,,5411.0,,130962.0,,2881.0,,304618.0,,3820.0,,132192.0,,2474.0,,360217.0,,3921.0,,129818.0,,2044.0,,43656.0,,1483.0,,31680.0,,1188.0,,2367456.0,,1158.0,,24221.0,,1051.0,,9299.0,,712.0,,17698.0,,1032.0,,54446.0,,1559.0,,35900.0,,1445.0,,52216.0,,1769.0,,58081.0,,1830.0,,34917.0,,1291.0,,741233.0,,5830.0,,156422.0,,2856.0,,350607.0,,4648.0,,191736.0,,2679.0,,402082.0,,4391.0,,182043.0,,3024.0,,33202.0,,1212.0,,23353.0,,908.0,,Tennessee,47
17815359.0,,2079.0,,8695321.0,,1676.0,,172782.0,,3644.0,,123060.0,,2968.0,,271602.0,,5901.0,,183587.0,,3780.0,,234734.0,,4322.0,,172653.0,,3363.0,,201437.0,,3865.0,,159024.0,,3423.0,,2225747.0,,11732.0,,510658.0,,7573.0,,1344827.0,,10795.0,,573038.0,,6446.0,,1618253.0,,10619.0,,615148.0,,6604.0,,168546.0,,2923.0,,120225.0,,2667.0,,9120038.0,,1517.0,,181376.0,,3993.0,,125898.0,,3659.0,,265379.0,,4641.0,,182427.0,,4102.0,,220667.0,,4471.0,,168537.0,,3891.0,,185025.0,,3389.0,,145244.0,,3131.0,,2223134.0,,11603.0,,595959.0,,8496.0,,1441083.0,,11452.0,,688012.0,,7197.0,,1791583.0,,10392.0,,705871.0,,7544.0,,118774.0,,2143.0,,81069.0,,2420.0,,Texas,48
1782065.0,,579.0,,885463.0,,455.0,,7353.0,,691.0,,3413.0,,561.0,,8124.0,,713.0,,5761.0,,629.0,,8739.0,,739.0,,9698.0,,578.0,,15174.0,,824.0,,16404.0,,925.0,,196116.0,,2650.0,,64401.0,,1716.0,,159647.0,,2932.0,,75781.0,,1792.0,,192222.0,,2340.0,,82269.0,,1830.0,,22336.0,,904.0,,18025.0,,719.0,,896602.0,,474.0,,7474.0,,556.0,,3736.0,,539.0,,7794.0,,665.0,,5879.0,,521.0,,7614.0,,801.0,,8785.0,,644.0,,13472.0,,748.0,,13940.0,,824.0,,211208.0,,2779.0,,76742.0,,2052.0,,164165.0,,2349.0,,97985.0,,2132.0,,199015.0,,2689.0,,61876.0,,1739.0,,9742.0,,729.0,,7175.0,,533.0,,Utah,49
439695.0,,382.0,,212433.0,,339.0,,1590.0,,246.0,,207.0,,80.0,,467.0,,114.0,,3366.0,,282.0,,2320.0,,303.0,,4181.0,,428.0,,3936.0,,407.0,,2936.0,,291.0,,69052.0,,1176.0,,10585.0,,544.0,,24590.0,,857.0,,15506.0,,731.0,,43827.0,,1032.0,,18861.0,,780.0,,6253.0,,432.0,,4756.0,,321.0,,227262.0,,337.0,,1093.0,,183.0,,263.0,,82.0,,294.0,,99.0,,2907.0,,311.0,,1673.0,,261.0,,2702.0,,316.0,,2867.0,,302.0,,1905.0,,336.0,,59120.0,,1136.0,,12960.0,,565.0,,29062.0,,913.0,,22007.0,,852.0,,53207.0,,1059.0,,28623.0,,825.0,,5034.0,,365.0,,3545.0,,287.0,,Vermont,50
5730352.0,,1776.0,,2763479.0,,1461.0,,33910.0,,1386.0,,14352.0,,937.0,,30741.0,,1826.0,,50478.0,,1794.0,,40550.0,,1674.0,,52619.0,,1983.0,,53992.0,,1660.0,,41479.0,,1498.0,,692391.0,,6315.0,,157735.0,,2599.0,,363122.0,,4366.0,,181337.0,,2725.0,,579370.0,,5020.0,,326438.0,,4050.0,,82800.0,,1943.0,,62165.0,,1639.0,,2966873.0,,1167.0,,35908.0,,1365.0,,12952.0,,992.0,,25577.0,,1192.0,,44457.0,,1509.0,,34084.0,,1468.0,,48828.0,,1821.0,,51597.0,,1760.0,,41296.0,,1272.0,,688689.0,,5313.0,,188699.0,,2869.0,,403063.0,,4726.0,,255633.0,,2924.0,,665119.0,,5191.0,,366160.0,,4369.0,,61350.0,,1659.0,,43461.0,,1375.0,,Virginia,51
1292084.0,,831.0,,628372.0,,733.0,,5513.0,,463.0,,1928.0,,334.0,,5218.0,,514.0,,18982.0,,999.0,,15724.0,,1068.0,,18791.0,,1090.0,,17651.0,,758.0,,8387.0,,540.0,,265640.0,,3209.0,,34356.0,,1206.0,,78671.0,,1997.0,,33651.0,,1165.0,,76729.0,,1867.0,,30381.0,,1100.0,,9963.0,,618.0,,6787.0,,504.0,,663712.0,,754.0,,4639.0,,370.0,,1261.0,,221.0,,3475.0,,391.0,,16433.0,,881.0,,12957.0,,855.0,,18652.0,,978.0,,17301.0,,794.0,,7318.0,,543.0,,257896.0,,2786.0,,42761.0,,1244.0,,84805.0,,1748.0,,58324.0,,1409.0,,81303.0,,1802.0,,45346.0,,1289.0,,6250.0,,471.0,,4991.0,,456.0,,West Virginia,54
5001943.0,,907.0,,2466820.0,,789.0,,27697.0,,1404.0,,13499.0,,907.0,,26252.0,,1218.0,,24845.0,,1260.0,,26020.0,,1337.0,,28369.0,,1317.0,,38464.0,,1451.0,,44418.0,,1500.0,,565419.0,,5122.0,,175931.0,,2870.0,,393387.0,,3962.0,,227527.0,,3112.0,,542960.0,,4386.0,,223409.0,,3356.0,,61929.0,,1736.0,,46694.0,,1479.0,,2535123.0,,582.0,,30251.0,,1190.0,,14835.0,,811.0,,24891.0,,1206.0,,24860.0,,1311.0,,22320.0,,1076.0,,28507.0,,1203.0,,32048.0,,1363.0,,37445.0,,1151.0,,543597.0,,5247.0,,199857.0,,2709.0,,414321.0,,4892.0,,273922.0,,3036.0,,561661.0,,4886.0,,248001.0,,2981.0,,47324.0,,1356.0,,31283.0,,1310.0,,Washington,53
3930889.0,,816.0,,1928549.0,,666.0,,17577.0,,767.0,,4743.0,,389.0,,9402.0,,614.0,,24348.0,,891.0,,17416.0,,840.0,,27586.0,,799.0,,35349.0,,1064.0,,36179.0,,1136.0,,622412.0,,4261.0,,127130.0,,2265.0,,269902.0,,2589.0,,193853.0,,2686.0,,353677.0,,3760.0,,122416.0,,2073.0,,39890.0,,1255.0,,26669.0,,874.0,,2002340.0,,609.0,,17153.0,,945.0,,4791.0,,457.0,,7430.0,,603.0,,22983.0,,891.0,,13967.0,,713.0,,22678.0,,892.0,,29992.0,,1097.0,,25580.0,,1004.0,,594158.0,,3803.0,,137410.0,,1957.0,,279986.0,,2960.0,,228374.0,,2409.0,,408533.0,,3771.0,,163435.0,,2652.0,,26468.0,,970.0,,19402.0,,895.0,,Wisconsin,55
389291.0,,628.0,,196657.0,,578.0,,885.0,,257.0,,485.0,,157.0,,777.0,,225.0,,1862.0,,329.0,,1663.0,,292.0,,2306.0,,317.0,,3388.0,,426.0,,3157.0,,420.0,,61752.0,,1461.0,,15349.0,,855.0,,34893.0,,1137.0,,19197.0,,874.0,,32680.0,,1147.0,,11926.0,,678.0,,3326.0,,323.0,,3011.0,,366.0,,192634.0,,576.0,,634.0,,149.0,,386.0,,140.0,,758.0,,237.0,,1615.0,,343.0,,1736.0,,265.0,,2547.0,,317.0,,2993.0,,363.0,,2452.0,,325.0,,50147.0,,1414.0,,16749.0,,792.0,,35245.0,,1222.0,,23638.0,,997.0,,35017.0,,1188.0,,15052.0,,773.0,,2163.0,,294.0,,1502.0,,310.0,,Wyoming,56
2364398.0,,-555555555.0,*****,1092022.0,,-555555555.0,*****,29760.0,,1375.0,,49572.0,,1472.0,,50201.0,,1630.0,,53465.0,,1785.0,,49173.0,,1574.0,,20495.0,,1156.0,,27472.0,,1067.0,,12127.0,,815.0,,336833.0,,3898.0,,17471.0,,1014.0,,122131.0,,2568.0,,96810.0,,2680.0,,158788.0,,2974.0,,41503.0,,1485.0,,14257.0,,873.0,,11964.0,,883.0,,1272376.0,,-555555555.0,*****,31364.0,,1499.0,,58331.0,,1690.0,,51566.0,,1547.0,,50520.0,,1555.0,,43127.0,,1413.0,,17692.0,,994.0,,23446.0,,1175.0,,9918.0,,671.0,,322837.0,,3555.0,,18871.0,,1017.0,,133647.0,,2515.0,,138241.0,,2748.0,,269522.0,,3684.0,,75512.0,,2293.0,,14650.0,,951.0,,13132.0,,912.0,,Puerto Rico,72
3299958.0,,1188.0,,1560458.0,,948.0,,21041.0,,1240.0,,6987.0,,607.0,,15038.0,,918.0,,33660.0,,1332.0,,34614.0,,1504.0,,47304.0,,1668.0,,48652.0,,1604.0,,32818.0,,1153.0,,502042.0,,4482.0,,89615.0,,2265.0,,239354.0,,3610.0,,108232.0,,2412.0,,241117.0,,3111.0,,89386.0,,2013.0,,29811.0,,1224.0,,20787.0,,954.0,,1739500.0,,796.0,,20199.0,,995.0,,6499.0,,530.0,,13249.0,,811.0,,32719.0,,1235.0,,34047.0,,1593.0,,45952.0,,1649.0,,49106.0,,1637.0,,28158.0,,1289.0,,518130.0,,3958.0,,109919.0,,2147.0,,274767.0,,3592.0,,165261.0,,2969.0,,274326.0,,3676.0,,132456.0,,2392.0,,20618.0,,826.0,,14094.0,,792.0,,Alabama,01
477727.0,,371.0,,247481.0,,439.0,,1545.0,,247.0,,842.0,,163.0,,843.0,,176.0,,2405.0,,270.0,,1784.0,,194.0,,3522.0,,380.0,,4334.0,,392.0,,2786.0,,315.0,,77182.0,,1618.0,,18294.0,,775.0,,49063.0,,1356.0,,19784.0,,854.0,,40508.0,,1179.0,,16169.0,,808.0,,5249.0,,554.0,,3171.0,,365.0,,230246.0,,407.0,,1934.0,,333.0,,1101.0,,203.0,,1237.0,,258.0,,2338.0,,264.0,,1449.0,,203.0,,2809.0,,366.0,,3056.0,,331.0,,2775.0,,305.0,,56669.0,,1416.0,,17422.0,,877.0,,44640.0,,1198.0,,20268.0,,887.0,,47545.0,,1327.0,,20625.0,,954.0,,4257.0,,444.0,,2121.0,,287.0,,Alaska,02
4633932.0,,583.0,,2268227.0,,519.0,,33591.0,,1259.0,,18385.0,,1060.0,,37516.0,,1486.0,,43153.0,,1872.0,,39457.0,,1509.0,,41642.0,,1415.0,,49364.0,,1776.0,,49637.0,,1658.0,,554494.0,,5124.0,,162279.0,,3219.0,,397187.0,,4285.0,,181885.0,,2673.0,,406768.0,,3547.0,,168237.0,,3095.0,,50482.0,,1188.0,,34150.0,,1251.0,,2365705.0,,345.0,,36146.0,,1024.0,,16307.0,,897.0,,40368.0,,1276.0,,40817.0,,1320.0,,36743.0,,1396.0,,36851.0,,1569.0,,45986.0,,1901.0,,47039.0,,1518.0,,558057.0,,4879.0,,189757.0,,2964.0,,422938.0,,4359.0,,216262.0,,3037.0,,428352.0,,3678.0,,194374.0,,3059.0,,32541.0,,1204.0,,23167.0,,1169.0,,Arizona,04
1999307.0,,967.0,,961036.0,,884.0,,11379.0,,726.0,,6195.0,,634.0,,12765.0,,937.0,,22116.0,,1007.0,,19626.0,,1051.0,,22908.0,,988.0,,29897.0,,1270.0,,18003.0,,820.0,,345933.0,,2957.0,,62569.0,,1801.0,,148168.0,,2588.0,,53373.0,,1570.0,,134039.0,,2578.0,,45455.0,,1601.0,,16978.0,,904.0,,11632.0,,707.0,,1038271.0,,852.0,,11548.0,,745.0,,5205.0,,586.0,,10164.0,,721.0,,21012.0,,956.0,,18091.0,,954.0,,24111.0,,1071.0,,28093.0,,1146.0,,14916.0,,727.0,,335290.0,,3470.0,,73491.0,,1667.0,,167136.0,,2956.0,,85697.0,,2243.0,,154681.0,,2869.0,,69900.0,,2026.0,,10601.0,,750.0,,8335.0,,729.0,,Arkansas,05
26218885.0,,1095.0,,12830465.0,,969.0,,321501.0,,5055.0,,195174.0,,3451.0,,441879.0,,6441.0,,213335.0,,3746.0,,247719.0,,4009.0,,179712.0,,3260.0,,255170.0,,4132.0,,366331.0,,4730.0,,2720940.0,,13603.0,,703446.0,,7911.0,,2008049.0,,12944.0,,916000.0,,6345.0,,2618216.0,,12101.0,,1050769.0,,8603.0,,339507.0,,4358.0,,252717.0,,3490.0,,13388420.0,,739.0,,380271.0,,5145.0,,223024.0,,3876.0,,474708.0,,6701.0,,221297.0,,3913.0,,244931.0,,4160.0,,169786.0,,3384.0,,226424.0,,3625.0,,314303.0,,4066.0,,2670180.0,,13008.0,,794706.0,,9827.0,,2075949.0,,11684.0,,1135313.0,,7893.0,,2827565.0,,11304.0,,1171867.0,,10017.0,,288385.0,,3646.0,,169711.0,,2786.0,,California,06
3748592.0,,950.0,,1862539.0,,916.0,,17825.0,,885.0,,8608.0,,813.0,,22446.0,,1151.0,,20530.0,,1194.0,,20488.0,,1171.0,,22516.0,,1082.0,,28485.0,,1243.0,,28120.0,,1215.0,,414394.0,,4272.0,,111214.0,,2380.0,,286870.0,,3491.0,,145701.0,,2720.0,,460431.0,,3841.0,,188972.0,,2663.0,,49707.0,,1502.0,,36232.0,,1056.0,,1886053.0,,742.0,,18058.0,,1097.0,,7509.0,,729.0,,20325.0,,1138.0,,18304.0,,1192.0,,18617.0,,1153.0,,21507.0,,1221.0,,24539.0,,1134.0,,24841.0,,1029.0,,389037.0,,4051.0,,121590.0,,2292.0,,283663.0,,3563.0,,168513.0,,2785.0,,484039.0,,4173.0,,220814.0,,2808.0,,37786.0,,1111.0,,26911.0,,1025.0,,Colorado,08
2478708.0,,350.0,,1181842.0,,331.0,,12573.0,,855.0,,6255.0,,639.0,,13847.0,,1031.0,,16816.0,,933.0,,13803.0,,905.0,,18377.0,,866.0,,18322.0,,870.0,,19176.0,,835.0,,335298.0,,4281.0,,58921.0,,1524.0,,136983.0,,2447.0,,76041.0,,1765.0,,257473.0,,3161.0,,132107.0,,2287.0,,41784.0,,1125.0,,24066.0,,1013.0,,1296866.0,,315.0,,13086.0,,737.0,,7874.0,,624.0,,12677.0,,918.0,,17940.0,,1027.0,,14154.0,,925.0,,17679.0,,933.0,,17389.0,,793.0,,15858.0,,761.0,,335221.0,,3421.0,,70701.0,,1788.0,,149662.0,,2685.0,,114828.0,,2133.0,,281451.0,,2657.0,,177644.0,,2378.0,,32596.0,,1182.0,,18106.0,,889.0,,Connecticut,09
659979.0,,249.0,,312877.0,,206.0,,3519.0,,559.0,,1274.0,,269.0,,2581.0,,406.0,,4397.0,,487.0,,4112.0,,502.0,,7070.0,,557.0,,7420.0,,552.0,,5910.0,,481.0,,101781.0,,1813.0,,17901.0,,880.0,,40628.0,,1546.0,,20180.0,,992.0,,57107.0,,1279.0,,25214.0,,990.0,,6821.0,,534.0,,6962.0,,509.0,,347102.0,,88.0,,3348.0,,381.0,,1210.0,,226.0,,2542.0,,381.0,,4003.0,,431.0,,4085.0,,531.0,,5465.0,,510.0,,6281.0,,641.0,,4265.0,,476.0,,106776.0,,1778.0,,21933.0,,1173.0,,44724.0,,1263.0,,31342.0,,1252.0,,63687.0,,1434.0,,37061.0,,1262.0,,5578.0,,502.0,,4802.0,,479.0,,Delaware,10
486981.0,,106.0,,228780.0,,69.0,,2647.0,,462.0,,1644.0,,374.0,,2412.0,,428.0,,2889.0,,426.0,,2625.0,,395.0,,3000.0,,406.0,,4226.0,,502.0,,2803.0,,377.0,,38688.0,,1209.0,,7070.0,,655.0,,20827.0,,1176.0,,5907.0,,594.0,,57921.0,,1434.0,,44080.0,,1318.0,,20965.0,,1010.0,,11076.0,,802.0,,258201.0,,101.0,,2752.0,,426.0,,1486.0,,321.0,,2342.0,,356.0,,2814.0,,442.0,,2906.0,,414.0,,3759.0,,412.0,,4686.0,,476.0,,2814.0,,374.0,,44884.0,,1423.0,,9844.0,,747.0,,24877.0,,1012.0,,8730.0,,626.0,,60896.0,,1407.0,,56491.0,,1451.0,,19255.0,,805.0,,9665.0,,658.0,,District of Columbia,11
14686727.0,,1719.0,,7047844.0,,1496.0,,105519.0,,2854.0,,51161.0,,2525.0,,95439.0,,3099.0,,106106.0,,3087.0,,114751.0,,3381.0,,132414.0,,2872.0,,138718.0,,3032.0,,161224.0,,3513.0,,2051248.0,,13745.0,,431162.0,,6747.0,,971947.0,,7366.0,,615653.0,,6029.0,,1297053.0,,9901.0,,492972.0,,5727.0,,184894.0,,3242.0,,97583.0,,2281.0,,7638883.0,,1099.0,,112429.0,,2946.0,,52884.0,,1839.0,,99460.0,,2842.0,,100826.0,,2904.0,,96320.0,,3171.0,,118881.0,,3234.0,,130940.0,,3006.0,,152417.0,,3670.0,,2180430.0,,14236.0,,509860.0,,6414.0,,1050504.0,,8232.0,,822977.0,,8362.0,,1424582.0,,9985.0,,588872.0,,6677.0,,125376.0,,2854.0,,72125.0,,2193.0,,Florida,12
6786547.0,,2032.0,,3221634.0,,1761.0,,46729.0,,1766.0,,20457.0,,1307.0,,46395.0,,2313.0,,56706.0,,1913.0,,64690.0,,1895.0,,87414.0,,2376.0,,88346.0,,2679.0,,61496.0,,2058.0,,939926.0,,7857.0,,173332.0,,3775.0,,465923.0,,5221.0,,210885.0,,4016.0,,602438.0,,5886.0,,237612.0,,3767.0,,72593.0,,2021.0,,46692.0,,1738.0,,3564913.0,,1436.0,,44502.0,,1744.0,,17667.0,,1119.0,,36716.0,,1704.0,,55584.0,,1845.0,,57200.0,,1963.0,,77735.0,,2289.0,,84122.0,,2478.0,,58155.0,,1644.0,,950206.0,,7896.0,,205911.0,,3854.0,,549075.0,,6717.0,,307259.0,,4148.0,,680509.0,,5851.0,,327254.0,,4944.0,,70194.0,,1993.0,,42824.0,,1556.0,,Georgia,13
1089266.0,,826.0,,538502.0,,764.0,,5727.0,,556.0,,2587.0,,385.0,,5579.0,,635.0,,6302.0,,582.0,,5817.0,,607.0,,8069.0,,710.0,,10464.0,,809.0,,10239.0,,792.0,,153773.0,,2564.0,,42462.0,,1574.0,,92596.0,,2231.0,,47558.0,,1399.0,,95480.0,,1829.0,,32573.0,,1441.0,,10319.0,,773.0,,8957.0,,661.0,,550764.0,,563.0,,4943.0,,496.0,,3002.0,,480.0,,5053.0,,535.0,,4980.0,,521.0,,5605.0,,626.0,,7416.0,,679.0,,9087.0,,612.0,,7821.0,,525.0,,148087.0,,2759.0,,51446.0,,1733.0,,100609.0,,2388.0,,56775.0,,1842.0,,103168.0,,2316.0,,33127.0,,1310.0,,5456.0,,463.0,,4189.0,,499.0,,Idaho,16
988367.0,,124.0,,486667.0,,114.0,,4890.0,,502.0,,2484.0,,358.0,,3744.0,,459.0,,3864.0,,484.0,,3891.0,,556.0,,6645.0,,707.0,,5782.0,,529.0,,6454.0,,511.0,,141059.0,,2156.0,,28371.0,,1252.0,,77606.0,,1556.0,,50494.0,,1402.0,,99227.0,,1890.0,,31350.0,,938.0,,12792.0,,617.0,,8014.0,,574.0,,501700.0,,119.0,,6063.0,,553.0,,3577.0,,371.0,,7056.0,,576.0,,5720.0,,511.0,,4257.0,,431.0,,5230.0,,498.0,,5068.0,,486.0,,5971.0,,457.0,,132574.0,,2261.0,,27371.0,,971.0,,74508.0,,1958.0,,54692.0,,1323.0,,112826.0,,2410.0,,40771.0,,1268.0,,9876.0,,640.0,,6140.0,,439.0,,Hawaii,15
8682343.0,,1159.0,,4185261.0,,1038.0,,54802.0,,1616.0,,24144.0,,1073.0,,65095.0,,1794.0,,68676.0,,2055.0,,50483.0,,1518.0,,67092.0,,1764.0,,79339.0,,2343.0,,82413.0,,2174.0,,1124386.0,,8169.0,,265083.0,,3988.0,,597640.0,,5201.0,,302837.0,,3656.0,,862436.0,,6469.0,,365892.0,,4565.0,,111066.0,,2155.0,,63877.0,,1553.0,,4497082.0,,834.0,,55251.0,,1610.0,,26674.0,,1206.0,,65428.0,,1848.0,,72426.0,,1951.0,,45805.0,,1435.0,,63515.0,,1699.0,,74527.0,,1668.0,,68917.0,,1797.0,,1143149.0,,7245.0,,303774.0,,4101.0,,633311.0,,5174.0,,389785.0,,3777.0,,939397.0,,6933.0,,481806.0,,5290.0,,83076.0,,1924.0,,50241.0,,1600.0,,Illinois,17
4399815.0,,1215.0,,2124952.0,,1087.0,,20935.0,,996.0,,7562.0,,722.0,,16438.0,,1164.0,,41203.0,,1358.0,,34636.0,,1336.0,,48293.0,,1516.0,,50041.0,,1746.0,,38483.0,,1182.0,,738316.0,,5236.0,,139459.0,,2599.0,,287439.0,,3463.0,,162834.0,,2607.0,,344828.0,,3687.0,,128611.0,,2401.0,,38016.0,,1468.0,,27858.0,,1009.0,,2274863.0,,935.0,,19807.0,,907.0,,6835.0,,643.0,,12214.0,,843.0,,39646.0,,1285.0,,32639.0,,1470.0,,49221.0,,1578.0,,51479.0,,1647.0,,33192.0,,1206.0,,737615.0,,5335.0,,153552.0,,2622.0,,318392.0,,3619.0,,219676.0,,3021.0,,382280.0,,4132.0,,175876.0,,2774.0,,24876.0,,977.0,,17563.0,,930.0,,Indiana,18
2081373.0,,894.0,,1016490.0,,831.0,,8261.0,,532.0,,2881.0,,435.0,,6108.0,,526.0,,16825.0,,841.0,,10407.0,,674.0,,14108.0,,773.0,,17287.0,,802.0,,13369.0,,583.0,,334058.0,,3129.0,,71761.0,,1514.0,,140737.0,,2318.0,,104726.0,,1751.0,,183432.0,,2784.0,,57718.0,,1717.0,,20554.0,,934.0,,14258.0,,710.0,,1064883.0,,708.0,,8060.0,,639.0,,3177.0,,424.0,,5244.0,,552.0,,14926.0,,680.0,,8431.0,,566.0,,11570.0,,674.0,,15673.0,,819.0,,10382.0,,655.0,,314079.0,,2556.0,,81035.0,,1881.0,,147554.0,,2112.0,,133697.0,,1862.0,,212388.0,,2599.0,,75033.0,,1560.0,,13416.0,,756.0,,10218.0,,654.0,,Iowa,19
1894675.0,,984.0,,926507.0,,739.0,,9168.0,,743.0,,4282.0,,477.0,,8963.0,,722.0,,13446.0,,815.0,,11077.0,,752.0,,13252.0,,805.0,,17915.0,,968.0,,14158.0,,743.0,,252660.0,,2865.0,,70280.0,,1478.0,,143667.0,,2044.0,,69668.0,,1775.0,,189077.0,,2523.0,,73610.0,,1643.0,,21565.0,,969.0,,13719.0,,738.0,,968168.0,,742.0,,7802.0,,600.0,,3653.0,,465.0,,7339.0,,507.0,,14559.0,,858.0,,9994.0,,725.0,,12774.0,,775.0,,15380.0,,944.0,,11957.0,,599.0,,240159.0,,2787.0,,82023.0,,1709.0,,146075.0,,2418.0,,91348.0,,1999.0,,205385.0,,2916.0,,95132.0,,1896.0,,14526.0,,635.0,,10062.0,,585.0,,Kansas,20
3004004.0,,1403.0,,1448467.0,,1141.0,,17404.0,,922.0,,7528.0,,544.0,,13641.0,,828.0,,52990.0,,1404.0,,33621.0,,1463.0,,39686.0,,1481.0,,37638.0,,1388.0,,22660.0,,917.0,,506601.0,,3906.0,,93564.0,,1834.0,,201565.0,,3650.0,,94256.0,,2020.0,,200044.0,,2939.0,,81336.0,,1643.0,,28973.0,,1001.0,,16960.0,,791.0,,1555537.0,,1095.0,,15367.0,,873.0,,5517.0,,516.0,,10502.0,,780.0,,52049.0,,1525.0,,30194.0,,1195.0,,37250.0,,1356.0,,34188.0,,1444.0,,19338.0,,842.0,,485190.0,,4195.0,,106171.0,,2224.0,,226935.0,,3716.0,,150546.0,,2860.0,,215893.0,,3073.0,,129827.0,,2460.0,,24172.0,,994.0,,12398.0,,660.0,,Kentucky,21
3107941.0,,1238.0,,1486848.0,,1017.0,,18585.0,,980.0,,8390.0,,583.0,,18508.0,,1025.0,,42242.0,,1794.0,,35623.0,,1589.0,,50143.0,,1864.0,,53023.0,,1961.0,,28658.0,,1382.0,,523298.0,,5112.0,,78073.0,,1963.0,,227020.0,,3046.0,,74581.0,,2316.0,,216065.0,,4281.0,,65688.0,,1771.0,,29752.0,,1206.0,,17199.0,,934.0,,1621093.0,,811.0,,18240.0,,1003.0,,7133.0,,637.0,,13340.0,,891.0,,31780.0,,1559.0,,28916.0,,1239.0,,42875.0,,1658.0,,49775.0,,1519.0,,24729.0,,975.0,,532470.0,,4181.0,,91370.0,,2349.0,,259709.0,,4010.0,,111867.0,,2567.0,,267105.0,,4073.0,,108170.0,,2750.0,,21680.0,,1064.0,,11934.0,,620.0,,Louisiana,22
967897.0,,417.0,,465058.0,,414.0,,2538.0,,306.0,,779.0,,178.0,,1342.0,,286.0,,9521.0,,634.0,,5379.0,,399.0,,7815.0,,606.0,,7861.0,,646.0,,6167.0,,483.0,,156150.0,,1671.0,,28419.0,,908.0,,61995.0,,1423.0,,42239.0,,1383.0,,85636.0,,1726.0,,31026.0,,1113.0,,10775.0,,656.0,,7416.0,,531.0,,502839.0,,349.0,,2871.0,,373.0,,724.0,,163.0,,1350.0,,273.0,,7306.0,,466.0,,4623.0,,448.0,,6520.0,,492.0,,5702.0,,575.0,,3928.0,,391.0,,151863.0,,2080.0,,30985.0,,960.0,,68210.0,,1599.0,,54331.0,,1316.0,,104536.0,,1622.0,,46988.0,,1310.0,,7506.0,,588.0,,5396.0,,456.0,,Maine,23
4114858.0,,587.0,,1947070.0,,463.0,,24077.0,,1109.0,,13175.0,,928.0,,21247.0,,1179.0,,25297.0,,1216.0,,27239.0,,1193.0,,33663.0,,1353.0,,33824.0,,1462.0,,33708.0,,1255.0,,503427.0,,4339.0,,109828.0,,2303.0,,250245.0,,3389.0,,110671.0,,2191.0,,407095.0,,3871.0,,224182.0,,3025.0,,68073.0,,1707.0,,61319.0,,1793.0,,2167788.0,,508.0,,25140.0,,1115.0,,11463.0,,893.0,,19594.0,,1140.0,,24130.0,,1303.0,,22069.0,,1273.0,,29882.0,,1251.0,,33025.0,,1316.0,,32224.0,,1195.0,,518420.0,,4277.0,,134635.0,,2466.0,,284463.0,,3809.0,,162847.0,,2848.0,,470546.0,,3681.0,,298480.0,,3232.0,,56488.0,,1522.0,,44382.0,,1315.0,,Maryland,24
4748795.0,,565.0,,2259214.0,,463.0,,31770.0,,1523.0,,17255.0,,969.0,,20048.0,,1204.0,,31620.0,,1417.0,,24455.0,,1005.0,,32627.0,,1279.0,,31027.0,,1407.0,,36079.0,,1348.0,,581539.0,,6057.0,,106201.0,,2285.0,,242725.0,,3319.0,,145179.0,,2559.0,,536702.0,,4592.0,,271928.0,,3351.0,,75604.0,,1825.0,,74455.0,,1982.0,,2489581.0,,414.0,,36383.0,,1276.0,,20146.0,,1128.0,,23497.0,,1230.0,,33486.0,,1377.0,,24760.0,,1181.0,,29388.0,,977.0,,29094.0,,1218.0,,32725.0,,1295.0,,569307.0,,5113.0,,122276.0,,2189.0,,269582.0,,3991.0,,219924.0,,3218.0,,592175.0,,5503.0,,365700.0,,3980.0,,66299.0,,1661.0,,54839.0,,1605.0,,Massachusetts,25
6772215.0,,832.0,,3270094.0,,765.0,,36122.0,,1249.0,,8294.0,,597.0,,17364.0,,817.0,,39399.0,,1510.0,,36618.0,,1326.0,,64015.0,,1706.0,,73380.0,,1777.0,,57713.0,,1454.0,,977626.0,,5458.0,,246419.0,,3169.0,,521706.0,,4038.0,,263822.0,,2821.0,,562474.0,,4321.0,,247291.0,,2772.0,,70901.0,,1351.0,,46950.0,,1242.0,,3502121.0,,624.0,,35912.0,,1079.0,,9372.0,,632.0,,16407.0,,923.0,,37340.0,,1375.0,,34136.0,,1342.0,,58926.0,,1752.0,,67609.0,,1890.0,,48929.0,,1421.0,,989183.0,,5133.0,,268847.0,,3805.0,,553093.0,,4793.0,,372931.0,,3357.0,,617203.0,,4337.0,,312351.0,,3934.0,,47662.0,,1334.0,,32220.0,,1021.0,,Michigan,26
