geoid,name,universe,universe_annotation,universe_moe,universe_moe_annotation,in_labor_force,in_labor_force_annotation,in_labor_force_moe,in_labor_force_moe_annotation,civilian,civilian_annotation,civilian_moe,civilian_moe_annotation,civilian_employed,civilian_employed_annotation,civilian_employed_moe,civilian_employed_moe_annotation,civilian_unemployed,civilian_unemployed_annotation,civilian_unemployed_moe,civilian_unemployed_moe_annotation,armed_forces,armed_forces_annotation,armed_forces_moe,armed_forces_moe_annotation,not_in_labor_force,not_in_labor_force_annotation,not_in_labor_force_moe,not_in_labor_force_moe_annotation,alaska native regional corporation,state
0201570,"Aleut Alaska Native Regional Corporation, Alaska",7839.0,,92.0,,6596.0,,193.0,,6502.0,,193.0,,6366.0,,203.0,,136.0,,30.0,,94.0,,59.0,,1243.0,,132.0,,01570,02
0209040,"Bristol Bay Alaska Native Regional Corporation, Alaska",5230.0,,220.0,,3396.0,,183.0,,3383.0,,182.0,,3003.0,,167.0,,380.0,,49.0,,13.0,,7.0,,1834.0,,113.0,,09040,02
0200590,"Ahtna Alaska Native Regional Corporation, Alaska",1518.0,,197.0,,849.0,,158.0,,849.0,,158.0,,734.0,,138.0,,115.0,,51.0,,0.0,,9.0,,669.0,,112.0,,00590,02
0209800,"Calista Alaska Native Regional Corporation, Alaska",17433.0,,90.0,,10525.0,,212.0,,10514.0,,211.0,,8200.0,,225.0,,2314.0,,166.0,,11.0,,15.0,,6908.0,,199.0,,09800,02
0220010,"Doyon Alaska Native Regional Corporation, Alaska",89208.0,,528.0,,64817.0,,1195.0,,58122.0,,1261.0,,53123.0,,1175.0,,4999.0,,520.0,,6695.0,,517.0,,24391.0,,1096.0,,20010,02
0206370,"Bering Straits Alaska Native Regional Corporation, Alaska",6852.0,,48.0,,4410.0,,98.0,,4363.0,,93.0,,3639.0,,111.0,,724.0,,70.0,,47.0,,20.0,,2442.0,,104.0,,06370,02
0252120,"NANA Alaska Native Regional Corporation, Alaska",5300.0,,38.0,,3323.0,,99.0,,3323.0,,99.0,,2654.0,,102.0,,669.0,,62.0,,0.0,,12.0,,1977.0,,92.0,,52120,02
0267940,"Sealaska Alaska Native Regional Corporation, Alaska",58133.0,,237.0,,40910.0,,507.0,,40432.0,,502.0,,38028.0,,544.0,,2404.0,,244.0,,478.0,,124.0,,17223.0,,552.0,,67940,02
0217140,"Cook Inlet Alaska Native Regional Corporation, Alaska",350487.0,,536.0,,243812.0,,1627.0,,234918.0,,1669.0,,218628.0,,1649.0,,16290.0,,879.0,,8894.0,,551.0,,106675.0,,1625.0,,17140,02
0241640,"Koniag Alaska Native Regional Corporation, Alaska",10482.0,,98.0,,7939.0,,299.0,,7406.0,,309.0,,7010.0,,322.0,,396.0,,142.0,,533.0,,122.0,,2543.0,,307.0,,41640,02
0214410,"Chugach Alaska Native Regional Corporation, Alaska",10207.0,,476.0,,7286.0,,472.0,,7085.0,,488.0,,6661.0,,496.0,,424.0,,168.0,,201.0,,105.0,,2921.0,,317.0,,14410,02
0203950,"Arctic Slope Alaska Native Regional Corporation, Alaska",7551.0,,73.0,,6040.0,,148.0,,5977.0,,157.0,,5412.0,,192.0,,565.0,,114.0,,63.0,,94.0,,1511.0,,146.0,,03950,02
