geoid,name,universe,universe_annotation,universe_moe,universe_moe_annotation,native,native_annotation,native_moe,native_moe_annotation,foreign_born,foreign_born_annotation,foreign_born_moe,foreign_born_moe_annotation,region
1,Northeast Region,56275471.0,,-555555555.0,*****,47055958.0,,30183.0,,9219513.0,,30185.0,,1
2,Midwest Region,67850273.0,,-555555555.0,*****,63041609.0,,22499.0,,4808664.0,,22528.0,,2
3,South Region,121057103.0,,-555555555.0,*****,106870844.0,,48295.0,,14186259.0,,48303.0,,3
4,West Region,75821560.0,,-555555555.0,*****,61007869.0,,47423.0,,14813691.0,,47425.0,,4
