geoid,name,universe,universe_annotation,universe_moe,universe_moe_annotation,native,native_annotation,native_moe,native_moe_annotation,foreign_born,foreign_born_annotation,foreign_born_moe,foreign_born_moe_annotation,division
1,New England Division,14726577.0,,-555555555.0,*****,12818607.0,,12773.0,,1907970.0,,12773.0,,1
2,Middle Atlantic Division,41548894.0,,-555555555.0,*****,34237351.0,,25385.0,,7311543.0,,25386.0,,2
3,East North Central Division,46767485.0,,-555555555.0,*****,43196045.0,,18010.0,,3571440.0,,18020.0,,3
4,West North Central Division,21082788.0,,-555555555.0,*****,19845564.0,,9018.0,,1237224.0,,9031.0,,4
5,South Atlantic Division,63241087.0,,-555555555.0,*****,54966019.0,,31845.0,,8275068.0,,31848.0,,5
7,West South Central Division,38957268.0,,-555555555.0,*****,33770553.0,,21873.0,,5186715.0,,21875.0,,7
8,Mountain Division,23483396.0,,-555555555.0,*****,20885863.0,,15408.0,,2597533.0,,15408.0,,8
9,Pacific Division,52338164.0,,-555555555.0,*****,40122006.0,,39032.0,,12216158.0,,39034.0,,9
6,East South Central Division,18858748.0,,-555555555.0,*****,18134272.0,,7119.0,,724476.0,,7120.0,,6
